<?xml version="1.0" encoding="UTF-8"?>
<svg xmlns="http://www.w3.org/2000/svg" xmlns:xlink="http://www.w3.org/1999/xlink" width="503pt" height="503pt" viewBox="0 0 503 503" version="1.1">
<defs>
<g>
<symbol overflow="visible" id="glyph0-0">
<path style="stroke:none;" d="M 0.671875 0 L 0.671875 -13.328125 L 5.984375 -13.328125 L 5.984375 0 Z M 1.328125 -0.671875 L 5.3125 -0.671875 L 5.3125 -12.671875 L 1.328125 -12.671875 Z M 1.328125 -0.671875 "/>
</symbol>
<symbol overflow="visible" id="glyph0-1">
<path style="stroke:none;" d="M 12.28125 -9.625 C 12.28125 -9.019531 12.179688 -8.457031 11.984375 -7.9375 C 11.785156 -7.425781 11.488281 -6.976562 11.09375 -6.59375 C 10.707031 -6.21875 10.21875 -5.914062 9.625 -5.6875 C 9.03125 -5.46875 8.335938 -5.359375 7.546875 -5.359375 L 3.5 -5.359375 L 3.5 0 L 1.640625 0 L 1.640625 -13.765625 L 7.4375 -13.765625 C 8.25 -13.765625 8.957031 -13.664062 9.5625 -13.46875 C 10.164062 -13.269531 10.671875 -12.988281 11.078125 -12.625 C 11.484375 -12.257812 11.785156 -11.820312 11.984375 -11.3125 C 12.179688 -10.800781 12.28125 -10.238281 12.28125 -9.625 Z M 10.40625 -9.59375 C 10.40625 -10.46875 10.140625 -11.128906 9.609375 -11.578125 C 9.078125 -12.035156 8.273438 -12.265625 7.203125 -12.265625 L 3.5 -12.265625 L 3.5 -6.84375 L 7.28125 -6.84375 C 8.351562 -6.84375 9.140625 -7.078125 9.640625 -7.546875 C 10.148438 -8.023438 10.40625 -8.707031 10.40625 -9.59375 Z M 10.40625 -9.59375 "/>
</symbol>
<symbol overflow="visible" id="glyph0-2">
<path style="stroke:none;" d="M 13.484375 -7.015625 C 13.484375 -5.867188 13.3125 -4.859375 12.96875 -3.984375 C 12.625 -3.109375 12.148438 -2.375 11.546875 -1.78125 C 10.953125 -1.195312 10.242188 -0.753906 9.421875 -0.453125 C 8.609375 -0.148438 7.726562 0 6.78125 0 L 1.640625 0 L 1.640625 -13.765625 L 6.1875 -13.765625 C 7.25 -13.765625 8.226562 -13.628906 9.125 -13.359375 C 10.019531 -13.097656 10.789062 -12.691406 11.4375 -12.140625 C 12.082031 -11.585938 12.582031 -10.890625 12.9375 -10.046875 C 13.300781 -9.203125 13.484375 -8.191406 13.484375 -7.015625 Z M 11.609375 -7.015625 C 11.609375 -7.953125 11.472656 -8.75 11.203125 -9.40625 C 10.941406 -10.070312 10.566406 -10.613281 10.078125 -11.03125 C 9.597656 -11.457031 9.023438 -11.769531 8.359375 -11.96875 C 7.691406 -12.164062 6.957031 -12.265625 6.15625 -12.265625 L 3.5 -12.265625 L 3.5 -1.5 L 6.578125 -1.5 C 7.296875 -1.5 7.960938 -1.613281 8.578125 -1.84375 C 9.191406 -2.082031 9.722656 -2.429688 10.171875 -2.890625 C 10.617188 -3.347656 10.96875 -3.921875 11.21875 -4.609375 C 11.476562 -5.304688 11.609375 -6.109375 11.609375 -7.015625 Z M 11.609375 -7.015625 "/>
</symbol>
<symbol overflow="visible" id="glyph0-3">
<path style="stroke:none;" d="M 3.5 -12.234375 L 3.5 -7.125 L 11.1875 -7.125 L 11.1875 -5.578125 L 3.5 -5.578125 L 3.5 0 L 1.640625 0 L 1.640625 -13.765625 L 11.421875 -13.765625 L 11.421875 -12.234375 Z M 3.5 -12.234375 "/>
</symbol>
<symbol overflow="visible" id="glyph0-4">
<path style="stroke:none;" d="M 1.828125 -8.546875 L 1.828125 -10.5625 L 3.734375 -10.5625 L 3.734375 -8.546875 Z M 1.828125 0 L 1.828125 -2.015625 L 3.734375 -2.015625 L 3.734375 0 Z M 1.828125 0 "/>
</symbol>
<symbol overflow="visible" id="glyph0-5">
<path style="stroke:none;" d=""/>
</symbol>
<symbol overflow="visible" id="glyph0-6">
<path style="stroke:none;" d="M 1.84375 0 L 1.84375 -13.765625 L 3.71875 -13.765625 L 3.71875 0 Z M 1.84375 0 "/>
</symbol>
<symbol overflow="visible" id="glyph0-7">
<path style="stroke:none;" d="M 8.0625 0 L 8.0625 -6.703125 C 8.0625 -7.210938 8.019531 -7.640625 7.9375 -7.984375 C 7.863281 -8.328125 7.742188 -8.601562 7.578125 -8.8125 C 7.410156 -9.03125 7.1875 -9.179688 6.90625 -9.265625 C 6.632812 -9.359375 6.289062 -9.40625 5.875 -9.40625 C 5.457031 -9.40625 5.082031 -9.332031 4.75 -9.1875 C 4.414062 -9.039062 4.128906 -8.828125 3.890625 -8.546875 C 3.648438 -8.273438 3.460938 -7.9375 3.328125 -7.53125 C 3.203125 -7.125 3.140625 -6.65625 3.140625 -6.125 L 3.140625 0 L 1.390625 0 L 1.390625 -8.3125 C 1.390625 -8.53125 1.382812 -8.757812 1.375 -9 C 1.375 -9.25 1.367188 -9.484375 1.359375 -9.703125 C 1.359375 -9.921875 1.351562 -10.109375 1.34375 -10.265625 C 1.34375 -10.421875 1.335938 -10.519531 1.328125 -10.5625 L 2.984375 -10.5625 C 2.992188 -10.53125 3 -10.441406 3 -10.296875 C 3.007812 -10.160156 3.019531 -10 3.03125 -9.8125 C 3.039062 -9.625 3.046875 -9.429688 3.046875 -9.234375 C 3.054688 -9.046875 3.0625 -8.890625 3.0625 -8.765625 L 3.09375 -8.765625 C 3.257812 -9.066406 3.441406 -9.34375 3.640625 -9.59375 C 3.847656 -9.84375 4.082031 -10.050781 4.34375 -10.21875 C 4.613281 -10.394531 4.921875 -10.53125 5.265625 -10.625 C 5.617188 -10.71875 6.019531 -10.765625 6.46875 -10.765625 C 7.0625 -10.765625 7.566406 -10.691406 7.984375 -10.546875 C 8.410156 -10.398438 8.757812 -10.175781 9.03125 -9.875 C 9.300781 -9.582031 9.5 -9.195312 9.625 -8.71875 C 9.757812 -8.25 9.828125 -7.691406 9.828125 -7.046875 L 9.828125 0 Z M 8.0625 0 "/>
</symbol>
<symbol overflow="visible" id="glyph0-8">
<path style="stroke:none;" d="M 5.984375 0 L 3.90625 0 L 0.0625 -10.5625 L 1.9375 -10.5625 L 4.265625 -3.6875 C 4.316406 -3.550781 4.367188 -3.378906 4.421875 -3.171875 C 4.484375 -2.960938 4.546875 -2.75 4.609375 -2.53125 C 4.679688 -2.3125 4.742188 -2.097656 4.796875 -1.890625 C 4.859375 -1.679688 4.90625 -1.507812 4.9375 -1.375 C 4.976562 -1.507812 5.03125 -1.679688 5.09375 -1.890625 C 5.15625 -2.097656 5.21875 -2.304688 5.28125 -2.515625 C 5.34375 -2.734375 5.410156 -2.941406 5.484375 -3.140625 C 5.554688 -3.347656 5.617188 -3.523438 5.671875 -3.671875 L 8.0625 -10.5625 L 9.9375 -10.5625 Z M 5.984375 0 "/>
</symbol>
<symbol overflow="visible" id="glyph0-9">
<path style="stroke:none;" d="M 2.703125 -4.90625 C 2.703125 -4.351562 2.753906 -3.84375 2.859375 -3.375 C 2.972656 -2.914062 3.148438 -2.519531 3.390625 -2.1875 C 3.628906 -1.851562 3.929688 -1.59375 4.296875 -1.40625 C 4.671875 -1.21875 5.117188 -1.125 5.640625 -1.125 C 6.398438 -1.125 7.007812 -1.273438 7.46875 -1.578125 C 7.9375 -1.890625 8.25 -2.28125 8.40625 -2.75 L 9.953125 -2.3125 C 9.835938 -2.007812 9.679688 -1.710938 9.484375 -1.421875 C 9.285156 -1.128906 9.019531 -0.863281 8.6875 -0.625 C 8.351562 -0.382812 7.9375 -0.1875 7.4375 -0.03125 C 6.945312 0.125 6.347656 0.203125 5.640625 0.203125 C 4.078125 0.203125 2.882812 -0.257812 2.0625 -1.1875 C 1.25 -2.125 0.84375 -3.515625 0.84375 -5.359375 C 0.84375 -6.347656 0.96875 -7.179688 1.21875 -7.859375 C 1.46875 -8.546875 1.804688 -9.101562 2.234375 -9.53125 C 2.660156 -9.96875 3.160156 -10.28125 3.734375 -10.46875 C 4.304688 -10.664062 4.921875 -10.765625 5.578125 -10.765625 C 6.460938 -10.765625 7.203125 -10.617188 7.796875 -10.328125 C 8.390625 -10.046875 8.867188 -9.648438 9.234375 -9.140625 C 9.597656 -8.640625 9.851562 -8.046875 10 -7.359375 C 10.15625 -6.679688 10.234375 -5.941406 10.234375 -5.140625 L 10.234375 -4.90625 Z M 8.421875 -6.265625 C 8.316406 -7.378906 8.03125 -8.191406 7.5625 -8.703125 C 7.09375 -9.210938 6.421875 -9.46875 5.546875 -9.46875 C 5.253906 -9.46875 4.945312 -9.421875 4.625 -9.328125 C 4.300781 -9.234375 4.003906 -9.0625 3.734375 -8.8125 C 3.460938 -8.570312 3.226562 -8.242188 3.03125 -7.828125 C 2.84375 -7.421875 2.738281 -6.898438 2.71875 -6.265625 Z M 8.421875 -6.265625 "/>
</symbol>
<symbol overflow="visible" id="glyph0-10">
<path style="stroke:none;" d="M 1.390625 0 L 1.390625 -8.109375 C 1.390625 -8.328125 1.382812 -8.550781 1.375 -8.78125 C 1.375 -9.007812 1.367188 -9.234375 1.359375 -9.453125 C 1.359375 -9.671875 1.351562 -9.875 1.34375 -10.0625 C 1.34375 -10.25 1.335938 -10.414062 1.328125 -10.5625 L 2.984375 -10.5625 C 2.992188 -10.414062 3.003906 -10.242188 3.015625 -10.046875 C 3.023438 -9.859375 3.035156 -9.660156 3.046875 -9.453125 C 3.054688 -9.253906 3.0625 -9.0625 3.0625 -8.875 C 3.0625 -8.695312 3.0625 -8.539062 3.0625 -8.40625 L 3.109375 -8.40625 C 3.234375 -8.8125 3.363281 -9.160156 3.5 -9.453125 C 3.644531 -9.753906 3.8125 -10 4 -10.1875 C 4.1875 -10.382812 4.410156 -10.53125 4.671875 -10.625 C 4.929688 -10.71875 5.242188 -10.765625 5.609375 -10.765625 C 5.753906 -10.765625 5.890625 -10.75 6.015625 -10.71875 C 6.148438 -10.695312 6.253906 -10.679688 6.328125 -10.671875 L 6.328125 -9.046875 C 6.210938 -9.085938 6.078125 -9.113281 5.921875 -9.125 C 5.765625 -9.144531 5.585938 -9.15625 5.390625 -9.15625 C 4.984375 -9.15625 4.640625 -9.0625 4.359375 -8.875 C 4.078125 -8.695312 3.847656 -8.445312 3.671875 -8.125 C 3.492188 -7.800781 3.359375 -7.414062 3.265625 -6.96875 C 3.179688 -6.519531 3.140625 -6.035156 3.140625 -5.515625 L 3.140625 0 Z M 1.390625 0 "/>
</symbol>
<symbol overflow="visible" id="glyph0-11">
<path style="stroke:none;" d="M 9.28125 -2.921875 C 9.28125 -2.421875 9.179688 -1.976562 8.984375 -1.59375 C 8.796875 -1.207031 8.519531 -0.878906 8.15625 -0.609375 C 7.789062 -0.347656 7.34375 -0.144531 6.8125 0 C 6.28125 0.132812 5.671875 0.203125 4.984375 0.203125 C 4.378906 0.203125 3.828125 0.148438 3.328125 0.046875 C 2.835938 -0.046875 2.40625 -0.195312 2.03125 -0.40625 C 1.664062 -0.613281 1.359375 -0.882812 1.109375 -1.21875 C 0.859375 -1.5625 0.675781 -1.984375 0.5625 -2.484375 L 2.109375 -2.78125 C 2.253906 -2.21875 2.5625 -1.800781 3.03125 -1.53125 C 3.5 -1.269531 4.148438 -1.140625 4.984375 -1.140625 C 5.367188 -1.140625 5.71875 -1.164062 6.03125 -1.21875 C 6.34375 -1.269531 6.613281 -1.359375 6.84375 -1.484375 C 7.070312 -1.617188 7.25 -1.789062 7.375 -2 C 7.5 -2.207031 7.5625 -2.46875 7.5625 -2.78125 C 7.5625 -3.101562 7.488281 -3.363281 7.34375 -3.5625 C 7.195312 -3.769531 6.988281 -3.941406 6.71875 -4.078125 C 6.445312 -4.210938 6.117188 -4.332031 5.734375 -4.4375 C 5.359375 -4.539062 4.945312 -4.65625 4.5 -4.78125 C 4.070312 -4.882812 3.648438 -5.003906 3.234375 -5.140625 C 2.816406 -5.285156 2.441406 -5.46875 2.109375 -5.6875 C 1.773438 -5.914062 1.503906 -6.191406 1.296875 -6.515625 C 1.085938 -6.847656 0.984375 -7.269531 0.984375 -7.78125 C 0.984375 -8.738281 1.320312 -9.46875 2 -9.96875 C 2.6875 -10.476562 3.691406 -10.734375 5.015625 -10.734375 C 6.179688 -10.734375 7.101562 -10.523438 7.78125 -10.109375 C 8.46875 -9.703125 8.90625 -9.046875 9.09375 -8.140625 L 7.515625 -7.953125 C 7.453125 -8.222656 7.34375 -8.453125 7.1875 -8.640625 C 7.03125 -8.828125 6.84375 -8.976562 6.625 -9.09375 C 6.40625 -9.207031 6.15625 -9.285156 5.875 -9.328125 C 5.59375 -9.378906 5.304688 -9.40625 5.015625 -9.40625 C 4.210938 -9.40625 3.625 -9.285156 3.25 -9.046875 C 2.875 -8.804688 2.6875 -8.441406 2.6875 -7.953125 C 2.6875 -7.660156 2.753906 -7.421875 2.890625 -7.234375 C 3.035156 -7.054688 3.234375 -6.898438 3.484375 -6.765625 C 3.734375 -6.640625 4.03125 -6.53125 4.375 -6.4375 C 4.726562 -6.34375 5.117188 -6.242188 5.546875 -6.140625 C 5.828125 -6.066406 6.113281 -5.988281 6.40625 -5.90625 C 6.695312 -5.832031 6.976562 -5.738281 7.25 -5.625 C 7.53125 -5.507812 7.789062 -5.375 8.03125 -5.21875 C 8.28125 -5.0625 8.492188 -4.875 8.671875 -4.65625 C 8.859375 -4.445312 9.003906 -4.195312 9.109375 -3.90625 C 9.222656 -3.625 9.28125 -3.296875 9.28125 -2.921875 Z M 9.28125 -2.921875 "/>
</symbol>
<symbol overflow="visible" id="glyph0-12">
<path style="stroke:none;" d="M 1 -6.9375 C 1 -8.019531 1.144531 -8.992188 1.4375 -9.859375 C 1.726562 -10.722656 2.160156 -11.457031 2.734375 -12.0625 C 3.316406 -12.675781 4.03125 -13.144531 4.875 -13.46875 C 5.726562 -13.800781 6.722656 -13.96875 7.859375 -13.96875 C 8.703125 -13.96875 9.441406 -13.890625 10.078125 -13.734375 C 10.710938 -13.585938 11.265625 -13.375 11.734375 -13.09375 C 12.203125 -12.8125 12.597656 -12.46875 12.921875 -12.0625 C 13.253906 -11.664062 13.535156 -11.21875 13.765625 -10.71875 L 11.984375 -10.203125 C 11.816406 -10.535156 11.613281 -10.835938 11.375 -11.109375 C 11.132812 -11.390625 10.84375 -11.628906 10.5 -11.828125 C 10.164062 -12.023438 9.773438 -12.175781 9.328125 -12.28125 C 8.878906 -12.382812 8.367188 -12.4375 7.796875 -12.4375 C 6.960938 -12.4375 6.238281 -12.304688 5.625 -12.046875 C 5.007812 -11.785156 4.5 -11.414062 4.09375 -10.9375 C 3.695312 -10.457031 3.398438 -9.878906 3.203125 -9.203125 C 3.003906 -8.523438 2.90625 -7.769531 2.90625 -6.9375 C 2.90625 -6.113281 3.007812 -5.359375 3.21875 -4.671875 C 3.4375 -3.984375 3.753906 -3.390625 4.171875 -2.890625 C 4.597656 -2.398438 5.125 -2.015625 5.75 -1.734375 C 6.382812 -1.453125 7.113281 -1.3125 7.9375 -1.3125 C 8.476562 -1.3125 8.976562 -1.359375 9.4375 -1.453125 C 9.894531 -1.546875 10.304688 -1.664062 10.671875 -1.8125 C 11.035156 -1.957031 11.359375 -2.117188 11.640625 -2.296875 C 11.921875 -2.472656 12.15625 -2.65625 12.34375 -2.84375 L 12.34375 -5.328125 L 8.234375 -5.328125 L 8.234375 -6.890625 L 14.0625 -6.890625 L 14.0625 -2.140625 C 13.757812 -1.828125 13.398438 -1.53125 12.984375 -1.25 C 12.566406 -0.96875 12.101562 -0.71875 11.59375 -0.5 C 11.082031 -0.28125 10.519531 -0.109375 9.90625 0.015625 C 9.289062 0.140625 8.632812 0.203125 7.9375 0.203125 C 6.78125 0.203125 5.769531 0.0234375 4.90625 -0.328125 C 4.039062 -0.691406 3.316406 -1.191406 2.734375 -1.828125 C 2.160156 -2.460938 1.726562 -3.210938 1.4375 -4.078125 C 1.144531 -4.953125 1 -5.90625 1 -6.9375 Z M 1 -6.9375 "/>
</symbol>
<symbol overflow="visible" id="glyph0-13">
<path style="stroke:none;" d="M 4.046875 0.203125 C 2.984375 0.203125 2.179688 -0.078125 1.640625 -0.640625 C 1.109375 -1.203125 0.84375 -1.972656 0.84375 -2.953125 C 0.84375 -3.648438 0.972656 -4.21875 1.234375 -4.65625 C 1.503906 -5.101562 1.851562 -5.453125 2.28125 -5.703125 C 2.707031 -5.960938 3.191406 -6.140625 3.734375 -6.234375 C 4.285156 -6.335938 4.84375 -6.394531 5.40625 -6.40625 L 7.78125 -6.453125 L 7.78125 -7.015625 C 7.78125 -7.453125 7.734375 -7.820312 7.640625 -8.125 C 7.554688 -8.4375 7.414062 -8.6875 7.21875 -8.875 C 7.03125 -9.0625 6.796875 -9.195312 6.515625 -9.28125 C 6.234375 -9.375 5.898438 -9.421875 5.515625 -9.421875 C 5.179688 -9.421875 4.875 -9.394531 4.59375 -9.34375 C 4.320312 -9.300781 4.082031 -9.210938 3.875 -9.078125 C 3.675781 -8.953125 3.515625 -8.78125 3.390625 -8.5625 C 3.273438 -8.351562 3.195312 -8.082031 3.15625 -7.75 L 1.3125 -7.90625 C 1.382812 -8.320312 1.507812 -8.703125 1.6875 -9.046875 C 1.875 -9.398438 2.132812 -9.703125 2.46875 -9.953125 C 2.800781 -10.210938 3.21875 -10.410156 3.71875 -10.546875 C 4.226562 -10.691406 4.84375 -10.765625 5.5625 -10.765625 C 6.882812 -10.765625 7.878906 -10.457031 8.546875 -9.84375 C 9.222656 -9.238281 9.5625 -8.359375 9.5625 -7.203125 L 9.5625 -2.65625 C 9.5625 -2.132812 9.628906 -1.738281 9.765625 -1.46875 C 9.898438 -1.207031 10.160156 -1.078125 10.546875 -1.078125 C 10.640625 -1.078125 10.734375 -1.082031 10.828125 -1.09375 C 10.929688 -1.113281 11.03125 -1.132812 11.125 -1.15625 L 11.125 -0.0625 C 10.90625 -0.0078125 10.6875 0.0234375 10.46875 0.046875 C 10.25 0.078125 10.015625 0.09375 9.765625 0.09375 C 9.429688 0.09375 9.144531 0.0507812 8.90625 -0.03125 C 8.675781 -0.125 8.484375 -0.257812 8.328125 -0.4375 C 8.179688 -0.613281 8.066406 -0.832031 7.984375 -1.09375 C 7.910156 -1.363281 7.863281 -1.671875 7.84375 -2.015625 L 7.78125 -2.015625 C 7.59375 -1.679688 7.382812 -1.375 7.15625 -1.09375 C 6.9375 -0.820312 6.675781 -0.59375 6.375 -0.40625 C 6.070312 -0.21875 5.726562 -0.0703125 5.34375 0.03125 C 4.96875 0.144531 4.535156 0.203125 4.046875 0.203125 Z M 4.4375 -1.125 C 5 -1.125 5.488281 -1.222656 5.90625 -1.421875 C 6.332031 -1.628906 6.679688 -1.894531 6.953125 -2.21875 C 7.234375 -2.539062 7.441406 -2.890625 7.578125 -3.265625 C 7.710938 -3.640625 7.78125 -4 7.78125 -4.34375 L 7.78125 -5.21875 L 5.859375 -5.171875 C 5.429688 -5.171875 5.019531 -5.140625 4.625 -5.078125 C 4.238281 -5.023438 3.898438 -4.914062 3.609375 -4.75 C 3.316406 -4.59375 3.082031 -4.367188 2.90625 -4.078125 C 2.738281 -3.785156 2.65625 -3.398438 2.65625 -2.921875 C 2.65625 -2.347656 2.804688 -1.90625 3.109375 -1.59375 C 3.421875 -1.28125 3.863281 -1.125 4.4375 -1.125 Z M 4.4375 -1.125 "/>
</symbol>
<symbol overflow="visible" id="glyph0-14">
<path style="stroke:none;" d="M 7.5 0 L 7.5 -6.703125 C 7.5 -7.210938 7.46875 -7.640625 7.40625 -7.984375 C 7.34375 -8.328125 7.234375 -8.601562 7.078125 -8.8125 C 6.921875 -9.03125 6.71875 -9.179688 6.46875 -9.265625 C 6.226562 -9.359375 5.925781 -9.40625 5.5625 -9.40625 C 5.195312 -9.40625 4.863281 -9.332031 4.5625 -9.1875 C 4.257812 -9.039062 4.003906 -8.828125 3.796875 -8.546875 C 3.585938 -8.273438 3.425781 -7.9375 3.3125 -7.53125 C 3.195312 -7.125 3.140625 -6.65625 3.140625 -6.125 L 3.140625 0 L 1.390625 0 L 1.390625 -8.3125 C 1.390625 -8.53125 1.382812 -8.757812 1.375 -9 C 1.375 -9.25 1.367188 -9.484375 1.359375 -9.703125 C 1.359375 -9.921875 1.351562 -10.109375 1.34375 -10.265625 C 1.34375 -10.421875 1.335938 -10.519531 1.328125 -10.5625 L 2.984375 -10.5625 C 2.992188 -10.53125 3 -10.441406 3 -10.296875 C 3.007812 -10.160156 3.019531 -10 3.03125 -9.8125 C 3.039062 -9.625 3.046875 -9.429688 3.046875 -9.234375 C 3.054688 -9.046875 3.0625 -8.890625 3.0625 -8.765625 L 3.09375 -8.765625 C 3.25 -9.066406 3.414062 -9.34375 3.59375 -9.59375 C 3.78125 -9.84375 3.992188 -10.050781 4.234375 -10.21875 C 4.484375 -10.394531 4.765625 -10.53125 5.078125 -10.625 C 5.398438 -10.71875 5.769531 -10.765625 6.1875 -10.765625 C 6.988281 -10.765625 7.617188 -10.601562 8.078125 -10.28125 C 8.546875 -9.96875 8.867188 -9.460938 9.046875 -8.765625 L 9.078125 -8.765625 C 9.234375 -9.066406 9.410156 -9.34375 9.609375 -9.59375 C 9.804688 -9.84375 10.035156 -10.050781 10.296875 -10.21875 C 10.554688 -10.394531 10.847656 -10.53125 11.171875 -10.625 C 11.492188 -10.71875 11.863281 -10.765625 12.28125 -10.765625 C 12.820312 -10.765625 13.285156 -10.691406 13.671875 -10.546875 C 14.054688 -10.398438 14.367188 -10.175781 14.609375 -9.875 C 14.859375 -9.582031 15.039062 -9.195312 15.15625 -8.71875 C 15.28125 -8.25 15.34375 -7.691406 15.34375 -7.046875 L 15.34375 0 L 13.609375 0 L 13.609375 -6.703125 C 13.609375 -7.210938 13.570312 -7.640625 13.5 -7.984375 C 13.4375 -8.328125 13.328125 -8.601562 13.171875 -8.8125 C 13.023438 -9.03125 12.828125 -9.179688 12.578125 -9.265625 C 12.328125 -9.359375 12.023438 -9.40625 11.671875 -9.40625 C 11.296875 -9.40625 10.957031 -9.332031 10.65625 -9.1875 C 10.363281 -9.050781 10.109375 -8.847656 9.890625 -8.578125 C 9.679688 -8.304688 9.519531 -7.960938 9.40625 -7.546875 C 9.289062 -7.140625 9.234375 -6.664062 9.234375 -6.125 L 9.234375 0 Z M 7.5 0 "/>
</symbol>
<symbol overflow="visible" id="glyph0-15">
<path style="stroke:none;" d="M 11.375 0 L 7.796875 -5.71875 L 3.5 -5.71875 L 3.5 0 L 1.640625 0 L 1.640625 -13.765625 L 8.109375 -13.765625 C 8.890625 -13.765625 9.582031 -13.671875 10.1875 -13.484375 C 10.789062 -13.304688 11.296875 -13.046875 11.703125 -12.703125 C 12.117188 -12.367188 12.429688 -11.957031 12.640625 -11.46875 C 12.859375 -10.988281 12.96875 -10.441406 12.96875 -9.828125 C 12.96875 -9.390625 12.90625 -8.957031 12.78125 -8.53125 C 12.65625 -8.113281 12.453125 -7.726562 12.171875 -7.375 C 11.898438 -7.019531 11.550781 -6.710938 11.125 -6.453125 C 10.707031 -6.203125 10.203125 -6.023438 9.609375 -5.921875 L 13.515625 0 Z M 11.09375 -9.8125 C 11.09375 -10.226562 11.019531 -10.585938 10.875 -10.890625 C 10.738281 -11.191406 10.53125 -11.445312 10.25 -11.65625 C 9.976562 -11.863281 9.644531 -12.015625 9.25 -12.109375 C 8.863281 -12.210938 8.425781 -12.265625 7.9375 -12.265625 L 3.5 -12.265625 L 3.5 -7.1875 L 8.015625 -7.1875 C 8.546875 -7.1875 9.003906 -7.253906 9.390625 -7.390625 C 9.785156 -7.523438 10.109375 -7.707031 10.359375 -7.9375 C 10.609375 -8.175781 10.789062 -8.453125 10.90625 -8.765625 C 11.03125 -9.085938 11.09375 -9.4375 11.09375 -9.8125 Z M 11.09375 -9.8125 "/>
</symbol>
<symbol overflow="visible" id="glyph0-16">
<path style="stroke:none;" d="M 5.359375 4.15625 C 4.742188 4.15625 4.203125 4.09375 3.734375 3.96875 C 3.265625 3.84375 2.863281 3.664062 2.53125 3.4375 C 2.207031 3.207031 1.941406 2.929688 1.734375 2.609375 C 1.523438 2.285156 1.375 1.929688 1.28125 1.546875 L 3.046875 1.296875 C 3.160156 1.773438 3.414062 2.144531 3.8125 2.40625 C 4.21875 2.675781 4.75 2.8125 5.40625 2.8125 C 5.800781 2.8125 6.160156 2.753906 6.484375 2.640625 C 6.804688 2.535156 7.082031 2.359375 7.3125 2.109375 C 7.539062 1.867188 7.71875 1.550781 7.84375 1.15625 C 7.96875 0.769531 8.03125 0.296875 8.03125 -0.265625 L 8.03125 -1.96875 L 8.015625 -1.96875 C 7.878906 -1.695312 7.710938 -1.4375 7.515625 -1.1875 C 7.328125 -0.945312 7.09375 -0.734375 6.8125 -0.546875 C 6.539062 -0.359375 6.222656 -0.207031 5.859375 -0.09375 C 5.492188 0.0195312 5.078125 0.078125 4.609375 0.078125 C 3.941406 0.078125 3.367188 -0.03125 2.890625 -0.25 C 2.410156 -0.476562 2.019531 -0.816406 1.71875 -1.265625 C 1.414062 -1.710938 1.191406 -2.269531 1.046875 -2.9375 C 0.910156 -3.613281 0.84375 -4.390625 0.84375 -5.265625 C 0.84375 -6.109375 0.910156 -6.867188 1.046875 -7.546875 C 1.191406 -8.222656 1.421875 -8.796875 1.734375 -9.265625 C 2.046875 -9.742188 2.453125 -10.109375 2.953125 -10.359375 C 3.460938 -10.609375 4.082031 -10.734375 4.8125 -10.734375 C 5.550781 -10.734375 6.195312 -10.5625 6.75 -10.21875 C 7.300781 -9.875 7.726562 -9.390625 8.03125 -8.765625 L 8.046875 -8.765625 C 8.046875 -8.921875 8.050781 -9.097656 8.0625 -9.296875 C 8.070312 -9.503906 8.082031 -9.695312 8.09375 -9.875 C 8.101562 -10.050781 8.113281 -10.203125 8.125 -10.328125 C 8.132812 -10.460938 8.148438 -10.539062 8.171875 -10.5625 L 9.828125 -10.5625 C 9.828125 -10.507812 9.820312 -10.410156 9.8125 -10.265625 C 9.8125 -10.128906 9.804688 -9.960938 9.796875 -9.765625 C 9.785156 -9.566406 9.78125 -9.347656 9.78125 -9.109375 C 9.78125 -8.878906 9.78125 -8.632812 9.78125 -8.375 L 9.78125 -0.296875 C 9.78125 1.179688 9.414062 2.289062 8.6875 3.03125 C 7.957031 3.78125 6.847656 4.15625 5.359375 4.15625 Z M 8.03125 -5.28125 C 8.03125 -6.019531 7.945312 -6.648438 7.78125 -7.171875 C 7.625 -7.691406 7.414062 -8.117188 7.15625 -8.453125 C 6.894531 -8.785156 6.597656 -9.03125 6.265625 -9.1875 C 5.929688 -9.34375 5.585938 -9.421875 5.234375 -9.421875 C 4.785156 -9.421875 4.398438 -9.34375 4.078125 -9.1875 C 3.753906 -9.03125 3.484375 -8.785156 3.265625 -8.453125 C 3.054688 -8.117188 2.898438 -7.6875 2.796875 -7.15625 C 2.703125 -6.632812 2.65625 -6.007812 2.65625 -5.28125 C 2.65625 -4.519531 2.703125 -3.878906 2.796875 -3.359375 C 2.898438 -2.847656 3.054688 -2.429688 3.265625 -2.109375 C 3.472656 -1.785156 3.738281 -1.554688 4.0625 -1.421875 C 4.382812 -1.285156 4.765625 -1.21875 5.203125 -1.21875 C 5.554688 -1.21875 5.898438 -1.289062 6.234375 -1.4375 C 6.566406 -1.59375 6.867188 -1.832031 7.140625 -2.15625 C 7.410156 -2.476562 7.625 -2.894531 7.78125 -3.40625 C 7.945312 -3.925781 8.03125 -4.550781 8.03125 -5.28125 Z M 8.03125 -5.28125 "/>
</symbol>
<symbol overflow="visible" id="glyph0-17">
<path style="stroke:none;" d="M 10.28125 -5.328125 C 10.28125 -4.523438 10.210938 -3.785156 10.078125 -3.109375 C 9.953125 -2.429688 9.738281 -1.847656 9.4375 -1.359375 C 9.132812 -0.878906 8.734375 -0.5 8.234375 -0.21875 C 7.734375 0.0625 7.117188 0.203125 6.390625 0.203125 C 5.640625 0.203125 4.976562 0.0546875 4.40625 -0.234375 C 3.84375 -0.523438 3.410156 -0.992188 3.109375 -1.640625 L 3.0625 -1.640625 C 3.070312 -1.628906 3.078125 -1.570312 3.078125 -1.46875 C 3.085938 -1.363281 3.09375 -1.234375 3.09375 -1.078125 C 3.09375 -0.921875 3.09375 -0.742188 3.09375 -0.546875 C 3.101562 -0.359375 3.109375 -0.171875 3.109375 0.015625 L 3.109375 4.15625 L 1.34375 4.15625 L 1.34375 -8.40625 C 1.34375 -8.664062 1.34375 -8.910156 1.34375 -9.140625 C 1.34375 -9.378906 1.335938 -9.59375 1.328125 -9.78125 C 1.316406 -9.96875 1.304688 -10.128906 1.296875 -10.265625 C 1.296875 -10.410156 1.296875 -10.507812 1.296875 -10.5625 L 2.984375 -10.5625 C 2.992188 -10.539062 3.003906 -10.472656 3.015625 -10.359375 C 3.023438 -10.242188 3.035156 -10.101562 3.046875 -9.9375 C 3.054688 -9.769531 3.066406 -9.59375 3.078125 -9.40625 C 3.085938 -9.21875 3.09375 -9.039062 3.09375 -8.875 L 3.125 -8.875 C 3.289062 -9.207031 3.476562 -9.492188 3.6875 -9.734375 C 3.894531 -9.972656 4.128906 -10.164062 4.390625 -10.3125 C 4.660156 -10.46875 4.957031 -10.578125 5.28125 -10.640625 C 5.613281 -10.710938 5.984375 -10.75 6.390625 -10.75 C 7.117188 -10.75 7.734375 -10.617188 8.234375 -10.359375 C 8.734375 -10.097656 9.132812 -9.734375 9.4375 -9.265625 C 9.738281 -8.796875 9.953125 -8.222656 10.078125 -7.546875 C 10.210938 -6.878906 10.28125 -6.140625 10.28125 -5.328125 Z M 8.4375 -5.296875 C 8.4375 -5.941406 8.394531 -6.519531 8.3125 -7.03125 C 8.238281 -7.539062 8.101562 -7.96875 7.90625 -8.3125 C 7.71875 -8.664062 7.460938 -8.929688 7.140625 -9.109375 C 6.828125 -9.296875 6.429688 -9.390625 5.953125 -9.390625 C 5.554688 -9.390625 5.1875 -9.332031 4.84375 -9.21875 C 4.5 -9.113281 4.195312 -8.90625 3.9375 -8.59375 C 3.6875 -8.28125 3.484375 -7.847656 3.328125 -7.296875 C 3.179688 -6.742188 3.109375 -6.03125 3.109375 -5.15625 C 3.109375 -4.40625 3.171875 -3.769531 3.296875 -3.25 C 3.421875 -2.738281 3.597656 -2.320312 3.828125 -2 C 4.066406 -1.6875 4.363281 -1.457031 4.71875 -1.3125 C 5.070312 -1.175781 5.472656 -1.109375 5.921875 -1.109375 C 6.410156 -1.109375 6.816406 -1.203125 7.140625 -1.390625 C 7.460938 -1.578125 7.71875 -1.847656 7.90625 -2.203125 C 8.101562 -2.566406 8.238281 -3.003906 8.3125 -3.515625 C 8.394531 -4.035156 8.4375 -4.628906 8.4375 -5.296875 Z M 8.4375 -5.296875 "/>
</symbol>
<symbol overflow="visible" id="glyph0-18">
<path style="stroke:none;" d="M 10.125 -12.328125 C 9.425781 -11.273438 8.785156 -10.257812 8.203125 -9.28125 C 7.628906 -8.3125 7.132812 -7.332031 6.71875 -6.34375 C 6.300781 -5.363281 5.976562 -4.351562 5.75 -3.3125 C 5.519531 -2.28125 5.40625 -1.175781 5.40625 0 L 3.5625 0 C 3.5625 -1.101562 3.691406 -2.179688 3.953125 -3.234375 C 4.210938 -4.296875 4.5625 -5.332031 5 -6.34375 C 5.445312 -7.363281 5.960938 -8.363281 6.546875 -9.34375 C 7.140625 -10.332031 7.765625 -11.304688 8.421875 -12.265625 L 1.03125 -12.265625 L 1.03125 -13.765625 L 10.125 -13.765625 Z M 10.125 -12.328125 "/>
</symbol>
<symbol overflow="visible" id="glyph0-19">
<path style="stroke:none;" d="M 1.640625 0 L 1.640625 -13.765625 L 3.5 -13.765625 L 3.5 -1.53125 L 10.453125 -1.53125 L 10.453125 0 Z M 1.640625 0 "/>
</symbol>
<symbol overflow="visible" id="glyph0-20">
<path style="stroke:none;" d="M 10.28125 -5.296875 C 10.28125 -3.441406 9.875 -2.0625 9.0625 -1.15625 C 8.25 -0.25 7.066406 0.203125 5.515625 0.203125 C 4.785156 0.203125 4.128906 0.09375 3.546875 -0.125 C 2.960938 -0.351562 2.46875 -0.695312 2.0625 -1.15625 C 1.664062 -1.613281 1.363281 -2.179688 1.15625 -2.859375 C 0.945312 -3.546875 0.84375 -4.359375 0.84375 -5.296875 C 0.84375 -8.941406 2.421875 -10.765625 5.578125 -10.765625 C 6.398438 -10.765625 7.109375 -10.648438 7.703125 -10.421875 C 8.296875 -10.191406 8.78125 -9.847656 9.15625 -9.390625 C 9.539062 -8.941406 9.820312 -8.375 10 -7.6875 C 10.1875 -7 10.28125 -6.203125 10.28125 -5.296875 Z M 8.4375 -5.296875 C 8.4375 -6.117188 8.375 -6.796875 8.25 -7.328125 C 8.125 -7.859375 7.9375 -8.28125 7.6875 -8.59375 C 7.445312 -8.914062 7.148438 -9.140625 6.796875 -9.265625 C 6.441406 -9.398438 6.046875 -9.46875 5.609375 -9.46875 C 5.160156 -9.46875 4.753906 -9.398438 4.390625 -9.265625 C 4.023438 -9.128906 3.71875 -8.898438 3.46875 -8.578125 C 3.21875 -8.253906 3.023438 -7.828125 2.890625 -7.296875 C 2.753906 -6.765625 2.6875 -6.097656 2.6875 -5.296875 C 2.6875 -4.472656 2.753906 -3.789062 2.890625 -3.25 C 3.035156 -2.71875 3.234375 -2.289062 3.484375 -1.96875 C 3.742188 -1.65625 4.039062 -1.429688 4.375 -1.296875 C 4.71875 -1.171875 5.09375 -1.109375 5.5 -1.109375 C 5.945312 -1.109375 6.351562 -1.171875 6.71875 -1.296875 C 7.082031 -1.421875 7.390625 -1.640625 7.640625 -1.953125 C 7.898438 -2.273438 8.097656 -2.707031 8.234375 -3.25 C 8.367188 -3.789062 8.4375 -4.472656 8.4375 -5.296875 Z M 8.4375 -5.296875 "/>
</symbol>
<symbol overflow="visible" id="glyph0-21">
<path style="stroke:none;" d="M 0.890625 -4.53125 L 0.890625 -6.09375 L 5.765625 -6.09375 L 5.765625 -4.53125 Z M 0.890625 -4.53125 "/>
</symbol>
<symbol overflow="visible" id="glyph0-22">
<path style="stroke:none;" d="M 1.53125 0 L 1.53125 -1.5 L 5.03125 -1.5 L 5.03125 -12.078125 L 1.921875 -9.859375 L 1.921875 -11.53125 L 5.171875 -13.765625 L 6.796875 -13.765625 L 6.796875 -1.5 L 10.140625 -1.5 L 10.140625 0 Z M 1.53125 0 "/>
</symbol>
<symbol overflow="visible" id="glyph0-23">
<path style="stroke:none;" d="M 10.25 -3.84375 C 10.25 -3.25 10.15625 -2.707031 9.96875 -2.21875 C 9.789062 -1.726562 9.507812 -1.300781 9.125 -0.9375 C 8.75 -0.582031 8.265625 -0.300781 7.671875 -0.09375 C 7.078125 0.101562 6.375 0.203125 5.5625 0.203125 C 4.757812 0.203125 4.0625 0.101562 3.46875 -0.09375 C 2.882812 -0.300781 2.394531 -0.582031 2 -0.9375 C 1.613281 -1.289062 1.328125 -1.710938 1.140625 -2.203125 C 0.960938 -2.703125 0.875 -3.238281 0.875 -3.8125 C 0.875 -4.320312 0.945312 -4.769531 1.09375 -5.15625 C 1.25 -5.550781 1.453125 -5.890625 1.703125 -6.171875 C 1.960938 -6.453125 2.257812 -6.675781 2.59375 -6.84375 C 2.925781 -7.019531 3.265625 -7.140625 3.609375 -7.203125 L 3.609375 -7.234375 C 3.222656 -7.328125 2.878906 -7.472656 2.578125 -7.671875 C 2.273438 -7.878906 2.019531 -8.125 1.8125 -8.40625 C 1.613281 -8.6875 1.457031 -9 1.34375 -9.34375 C 1.238281 -9.6875 1.1875 -10.050781 1.1875 -10.4375 C 1.1875 -10.914062 1.28125 -11.367188 1.46875 -11.796875 C 1.65625 -12.222656 1.929688 -12.597656 2.296875 -12.921875 C 2.660156 -13.242188 3.113281 -13.5 3.65625 -13.6875 C 4.195312 -13.875 4.820312 -13.96875 5.53125 -13.96875 C 6.28125 -13.96875 6.925781 -13.875 7.46875 -13.6875 C 8.019531 -13.5 8.476562 -13.242188 8.84375 -12.921875 C 9.207031 -12.597656 9.472656 -12.21875 9.640625 -11.78125 C 9.816406 -11.351562 9.90625 -10.898438 9.90625 -10.421875 C 9.90625 -10.046875 9.851562 -9.679688 9.75 -9.328125 C 9.644531 -8.984375 9.488281 -8.671875 9.28125 -8.390625 C 9.070312 -8.109375 8.816406 -7.867188 8.515625 -7.671875 C 8.210938 -7.472656 7.863281 -7.332031 7.46875 -7.25 L 7.46875 -7.21875 C 7.863281 -7.15625 8.226562 -7.035156 8.5625 -6.859375 C 8.90625 -6.691406 9.203125 -6.460938 9.453125 -6.171875 C 9.703125 -5.890625 9.894531 -5.550781 10.03125 -5.15625 C 10.175781 -4.769531 10.25 -4.332031 10.25 -3.84375 Z M 8.09375 -10.328125 C 8.09375 -10.671875 8.046875 -10.984375 7.953125 -11.265625 C 7.867188 -11.554688 7.722656 -11.800781 7.515625 -12 C 7.316406 -12.207031 7.050781 -12.367188 6.71875 -12.484375 C 6.394531 -12.597656 6 -12.65625 5.53125 -12.65625 C 5.0625 -12.65625 4.664062 -12.597656 4.34375 -12.484375 C 4.03125 -12.367188 3.769531 -12.207031 3.5625 -12 C 3.363281 -11.800781 3.21875 -11.554688 3.125 -11.265625 C 3.03125 -10.984375 2.984375 -10.671875 2.984375 -10.328125 C 2.984375 -10.046875 3.019531 -9.757812 3.09375 -9.46875 C 3.164062 -9.1875 3.296875 -8.925781 3.484375 -8.6875 C 3.671875 -8.457031 3.929688 -8.269531 4.265625 -8.125 C 4.597656 -7.976562 5.023438 -7.90625 5.546875 -7.90625 C 6.097656 -7.90625 6.539062 -7.976562 6.875 -8.125 C 7.21875 -8.269531 7.476562 -8.457031 7.65625 -8.6875 C 7.832031 -8.925781 7.945312 -9.1875 8 -9.46875 C 8.0625 -9.757812 8.09375 -10.046875 8.09375 -10.328125 Z M 8.421875 -4 C 8.421875 -4.332031 8.375 -4.65625 8.28125 -4.96875 C 8.195312 -5.28125 8.039062 -5.550781 7.8125 -5.78125 C 7.59375 -6.019531 7.296875 -6.210938 6.921875 -6.359375 C 6.554688 -6.503906 6.09375 -6.578125 5.53125 -6.578125 C 5.007812 -6.578125 4.566406 -6.503906 4.203125 -6.359375 C 3.847656 -6.210938 3.554688 -6.019531 3.328125 -5.78125 C 3.109375 -5.539062 2.945312 -5.257812 2.84375 -4.9375 C 2.738281 -4.625 2.6875 -4.300781 2.6875 -3.96875 C 2.6875 -3.539062 2.738281 -3.148438 2.84375 -2.796875 C 2.945312 -2.453125 3.113281 -2.15625 3.34375 -1.90625 C 3.570312 -1.65625 3.867188 -1.460938 4.234375 -1.328125 C 4.609375 -1.191406 5.0625 -1.125 5.59375 -1.125 C 6.125 -1.125 6.570312 -1.191406 6.9375 -1.328125 C 7.300781 -1.460938 7.59375 -1.65625 7.8125 -1.90625 C 8.03125 -2.15625 8.1875 -2.457031 8.28125 -2.8125 C 8.375 -3.164062 8.421875 -3.5625 8.421875 -4 Z M 8.421875 -4 "/>
</symbol>
<symbol overflow="visible" id="glyph0-24">
<path style="stroke:none;" d="M 10.25 -4.5 C 10.25 -3.8125 10.148438 -3.175781 9.953125 -2.59375 C 9.765625 -2.019531 9.484375 -1.523438 9.109375 -1.109375 C 8.734375 -0.703125 8.269531 -0.378906 7.71875 -0.140625 C 7.164062 0.0859375 6.523438 0.203125 5.796875 0.203125 C 4.992188 0.203125 4.289062 0.0507812 3.6875 -0.25 C 3.09375 -0.5625 2.597656 -1.003906 2.203125 -1.578125 C 1.804688 -2.160156 1.507812 -2.867188 1.3125 -3.703125 C 1.113281 -4.546875 1.015625 -5.5 1.015625 -6.5625 C 1.015625 -7.789062 1.125 -8.863281 1.34375 -9.78125 C 1.570312 -10.707031 1.894531 -11.476562 2.3125 -12.09375 C 2.738281 -12.71875 3.253906 -13.1875 3.859375 -13.5 C 4.472656 -13.8125 5.164062 -13.96875 5.9375 -13.96875 C 6.40625 -13.96875 6.84375 -13.914062 7.25 -13.8125 C 7.664062 -13.71875 8.039062 -13.5625 8.375 -13.34375 C 8.707031 -13.125 9 -12.832031 9.25 -12.46875 C 9.507812 -12.113281 9.710938 -11.675781 9.859375 -11.15625 L 8.1875 -10.859375 C 8 -11.453125 7.703125 -11.878906 7.296875 -12.140625 C 6.898438 -12.410156 6.441406 -12.546875 5.921875 -12.546875 C 5.441406 -12.546875 5.003906 -12.429688 4.609375 -12.203125 C 4.222656 -11.972656 3.890625 -11.628906 3.609375 -11.171875 C 3.335938 -10.722656 3.128906 -10.15625 2.984375 -9.46875 C 2.835938 -8.789062 2.765625 -7.992188 2.765625 -7.078125 C 3.085938 -7.671875 3.535156 -8.117188 4.109375 -8.421875 C 4.691406 -8.734375 5.359375 -8.890625 6.109375 -8.890625 C 6.734375 -8.890625 7.296875 -8.789062 7.796875 -8.59375 C 8.304688 -8.394531 8.742188 -8.101562 9.109375 -7.71875 C 9.472656 -7.34375 9.753906 -6.878906 9.953125 -6.328125 C 10.148438 -5.785156 10.25 -5.175781 10.25 -4.5 Z M 8.453125 -4.421875 C 8.453125 -4.898438 8.394531 -5.332031 8.28125 -5.71875 C 8.164062 -6.101562 7.988281 -6.425781 7.75 -6.6875 C 7.519531 -6.957031 7.234375 -7.164062 6.890625 -7.3125 C 6.546875 -7.46875 6.144531 -7.546875 5.6875 -7.546875 C 5.363281 -7.546875 5.039062 -7.492188 4.71875 -7.390625 C 4.394531 -7.296875 4.097656 -7.144531 3.828125 -6.9375 C 3.566406 -6.726562 3.351562 -6.453125 3.1875 -6.109375 C 3.019531 -5.765625 2.9375 -5.34375 2.9375 -4.84375 C 2.9375 -4.332031 3 -3.859375 3.125 -3.421875 C 3.257812 -2.984375 3.445312 -2.597656 3.6875 -2.265625 C 3.9375 -1.941406 4.234375 -1.6875 4.578125 -1.5 C 4.921875 -1.3125 5.3125 -1.21875 5.75 -1.21875 C 6.164062 -1.21875 6.539062 -1.289062 6.875 -1.4375 C 7.21875 -1.582031 7.503906 -1.789062 7.734375 -2.0625 C 7.972656 -2.34375 8.148438 -2.679688 8.265625 -3.078125 C 8.390625 -3.484375 8.453125 -3.929688 8.453125 -4.421875 Z M 8.453125 -4.421875 "/>
</symbol>
<symbol overflow="visible" id="glyph0-25">
<path style="stroke:none;" d="M 1.828125 0 L 1.828125 -2.140625 L 3.734375 -2.140625 L 3.734375 0 Z M 1.828125 0 "/>
</symbol>
<symbol overflow="visible" id="glyph0-26">
<path style="stroke:none;" d="M 1 0 L 1 -1.234375 C 1.332031 -2.003906 1.738281 -2.675781 2.21875 -3.25 C 2.695312 -3.832031 3.195312 -4.359375 3.71875 -4.828125 C 4.25 -5.304688 4.773438 -5.75 5.296875 -6.15625 C 5.816406 -6.5625 6.285156 -6.960938 6.703125 -7.359375 C 7.117188 -7.765625 7.453125 -8.1875 7.703125 -8.625 C 7.960938 -9.070312 8.09375 -9.578125 8.09375 -10.140625 C 8.09375 -10.523438 8.035156 -10.863281 7.921875 -11.15625 C 7.804688 -11.457031 7.632812 -11.707031 7.40625 -11.90625 C 7.1875 -12.113281 6.921875 -12.265625 6.609375 -12.359375 C 6.304688 -12.460938 5.96875 -12.515625 5.59375 -12.515625 C 5.238281 -12.515625 4.90625 -12.46875 4.59375 -12.375 C 4.28125 -12.28125 4.003906 -12.132812 3.765625 -11.9375 C 3.523438 -11.738281 3.328125 -11.492188 3.171875 -11.203125 C 3.023438 -10.910156 2.925781 -10.578125 2.875 -10.203125 L 1.078125 -10.359375 C 1.140625 -10.859375 1.273438 -11.320312 1.484375 -11.75 C 1.703125 -12.1875 2 -12.570312 2.375 -12.90625 C 2.757812 -13.238281 3.21875 -13.5 3.75 -13.6875 C 4.28125 -13.875 4.894531 -13.96875 5.59375 -13.96875 C 6.269531 -13.96875 6.875 -13.882812 7.40625 -13.71875 C 7.945312 -13.5625 8.398438 -13.320312 8.765625 -13 C 9.128906 -12.675781 9.410156 -12.28125 9.609375 -11.8125 C 9.804688 -11.34375 9.90625 -10.804688 9.90625 -10.203125 C 9.90625 -9.734375 9.820312 -9.289062 9.65625 -8.875 C 9.488281 -8.457031 9.265625 -8.0625 8.984375 -7.6875 C 8.710938 -7.3125 8.394531 -6.945312 8.03125 -6.59375 C 7.664062 -6.238281 7.285156 -5.894531 6.890625 -5.5625 C 6.492188 -5.226562 6.09375 -4.894531 5.6875 -4.5625 C 5.28125 -4.238281 4.898438 -3.910156 4.546875 -3.578125 C 4.191406 -3.242188 3.875 -2.90625 3.59375 -2.5625 C 3.3125 -2.21875 3.09375 -1.863281 2.9375 -1.5 L 10.125 -1.5 L 10.125 0 Z M 1 0 "/>
</symbol>
<symbol overflow="visible" id="glyph0-27">
<path style="stroke:none;" d="M 10.28125 -4.484375 C 10.28125 -3.796875 10.175781 -3.164062 9.96875 -2.59375 C 9.757812 -2.019531 9.445312 -1.523438 9.03125 -1.109375 C 8.625 -0.691406 8.117188 -0.367188 7.515625 -0.140625 C 6.910156 0.0859375 6.207031 0.203125 5.40625 0.203125 C 4.675781 0.203125 4.039062 0.117188 3.5 -0.046875 C 2.96875 -0.222656 2.515625 -0.457031 2.140625 -0.75 C 1.773438 -1.050781 1.484375 -1.398438 1.265625 -1.796875 C 1.046875 -2.191406 0.890625 -2.617188 0.796875 -3.078125 L 2.578125 -3.28125 C 2.648438 -3.019531 2.75 -2.765625 2.875 -2.515625 C 3.007812 -2.273438 3.1875 -2.054688 3.40625 -1.859375 C 3.632812 -1.671875 3.910156 -1.519531 4.234375 -1.40625 C 4.566406 -1.289062 4.96875 -1.234375 5.4375 -1.234375 C 5.894531 -1.234375 6.304688 -1.300781 6.671875 -1.4375 C 7.046875 -1.582031 7.363281 -1.789062 7.625 -2.0625 C 7.894531 -2.34375 8.097656 -2.679688 8.234375 -3.078125 C 8.378906 -3.472656 8.453125 -3.925781 8.453125 -4.4375 C 8.453125 -4.863281 8.382812 -5.253906 8.25 -5.609375 C 8.113281 -5.960938 7.914062 -6.269531 7.65625 -6.53125 C 7.40625 -6.789062 7.097656 -6.988281 6.734375 -7.125 C 6.367188 -7.269531 5.953125 -7.34375 5.484375 -7.34375 C 5.191406 -7.34375 4.921875 -7.316406 4.671875 -7.265625 C 4.421875 -7.210938 4.1875 -7.140625 3.96875 -7.046875 C 3.757812 -6.960938 3.566406 -6.859375 3.390625 -6.734375 C 3.222656 -6.609375 3.066406 -6.484375 2.921875 -6.359375 L 1.203125 -6.359375 L 1.65625 -13.765625 L 9.484375 -13.765625 L 9.484375 -12.265625 L 3.265625 -12.265625 L 3 -7.90625 C 3.3125 -8.144531 3.703125 -8.347656 4.171875 -8.515625 C 4.640625 -8.691406 5.195312 -8.78125 5.84375 -8.78125 C 6.519531 -8.78125 7.128906 -8.675781 7.671875 -8.46875 C 8.222656 -8.257812 8.691406 -7.960938 9.078125 -7.578125 C 9.460938 -7.203125 9.757812 -6.75 9.96875 -6.21875 C 10.175781 -5.695312 10.28125 -5.117188 10.28125 -4.484375 Z M 10.28125 -4.484375 "/>
</symbol>
<symbol overflow="visible" id="glyph0-28">
<path style="stroke:none;" d="M 10.34375 -6.890625 C 10.34375 -5.566406 10.21875 -4.453125 9.96875 -3.546875 C 9.71875 -2.648438 9.375 -1.921875 8.9375 -1.359375 C 8.507812 -0.804688 8 -0.40625 7.40625 -0.15625 C 6.820312 0.0820312 6.195312 0.203125 5.53125 0.203125 C 4.863281 0.203125 4.238281 0.0820312 3.65625 -0.15625 C 3.082031 -0.40625 2.582031 -0.804688 2.15625 -1.359375 C 1.726562 -1.910156 1.390625 -2.632812 1.140625 -3.53125 C 0.898438 -4.4375 0.78125 -5.554688 0.78125 -6.890625 C 0.78125 -8.273438 0.898438 -9.421875 1.140625 -10.328125 C 1.390625 -11.234375 1.726562 -11.957031 2.15625 -12.5 C 2.582031 -13.039062 3.085938 -13.421875 3.671875 -13.640625 C 4.265625 -13.859375 4.90625 -13.96875 5.59375 -13.96875 C 6.25 -13.96875 6.863281 -13.859375 7.4375 -13.640625 C 8.019531 -13.421875 8.523438 -13.039062 8.953125 -12.5 C 9.378906 -11.957031 9.71875 -11.234375 9.96875 -10.328125 C 10.21875 -9.421875 10.34375 -8.273438 10.34375 -6.890625 Z M 8.5625 -6.890625 C 8.5625 -7.984375 8.492188 -8.890625 8.359375 -9.609375 C 8.234375 -10.335938 8.039062 -10.914062 7.78125 -11.34375 C 7.53125 -11.78125 7.21875 -12.085938 6.84375 -12.265625 C 6.476562 -12.453125 6.0625 -12.546875 5.59375 -12.546875 C 5.101562 -12.546875 4.664062 -12.453125 4.28125 -12.265625 C 3.90625 -12.085938 3.585938 -11.78125 3.328125 -11.34375 C 3.078125 -10.90625 2.882812 -10.320312 2.75 -9.59375 C 2.625 -8.875 2.5625 -7.972656 2.5625 -6.890625 C 2.5625 -5.828125 2.625 -4.9375 2.75 -4.21875 C 2.882812 -3.5 3.082031 -2.914062 3.34375 -2.46875 C 3.601562 -2.03125 3.914062 -1.710938 4.28125 -1.515625 C 4.65625 -1.328125 5.082031 -1.234375 5.5625 -1.234375 C 6.019531 -1.234375 6.429688 -1.328125 6.796875 -1.515625 C 7.171875 -1.710938 7.488281 -2.03125 7.75 -2.46875 C 8.007812 -2.914062 8.207031 -3.5 8.34375 -4.21875 C 8.488281 -4.9375 8.5625 -5.828125 8.5625 -6.890625 Z M 8.5625 -6.890625 "/>
</symbol>
<symbol overflow="visible" id="glyph0-29">
<path style="stroke:none;" d="M 1.234375 -5.203125 C 1.234375 -6.097656 1.300781 -6.957031 1.4375 -7.78125 C 1.582031 -8.613281 1.800781 -9.410156 2.09375 -10.171875 C 2.382812 -10.929688 2.753906 -11.671875 3.203125 -12.390625 C 3.660156 -13.109375 4.207031 -13.8125 4.84375 -14.5 L 6.546875 -14.5 C 5.929688 -13.8125 5.398438 -13.109375 4.953125 -12.390625 C 4.503906 -11.671875 4.132812 -10.925781 3.84375 -10.15625 C 3.5625 -9.394531 3.351562 -8.597656 3.21875 -7.765625 C 3.082031 -6.941406 3.015625 -6.078125 3.015625 -5.171875 C 3.015625 -4.265625 3.082031 -3.398438 3.21875 -2.578125 C 3.351562 -1.753906 3.5625 -0.957031 3.84375 -0.1875 C 4.132812 0.582031 4.503906 1.320312 4.953125 2.03125 C 5.398438 2.75 5.929688 3.453125 6.546875 4.140625 L 4.84375 4.140625 C 4.207031 3.453125 3.660156 2.75 3.203125 2.03125 C 2.753906 1.320312 2.382812 0.585938 2.09375 -0.171875 C 1.800781 -0.929688 1.582031 -1.722656 1.4375 -2.546875 C 1.300781 -3.378906 1.234375 -4.25 1.234375 -5.15625 Z M 1.234375 -5.203125 "/>
</symbol>
<symbol overflow="visible" id="glyph0-30">
<path style="stroke:none;" d="M 8.609375 -3.109375 L 8.609375 0 L 6.9375 0 L 6.9375 -3.109375 L 0.453125 -3.109375 L 0.453125 -4.484375 L 6.765625 -13.765625 L 8.609375 -13.765625 L 8.609375 -4.5 L 10.53125 -4.5 L 10.53125 -3.109375 Z M 6.9375 -11.78125 C 6.925781 -11.75 6.894531 -11.6875 6.84375 -11.59375 C 6.789062 -11.5 6.734375 -11.390625 6.671875 -11.265625 C 6.609375 -11.148438 6.539062 -11.03125 6.46875 -10.90625 C 6.40625 -10.789062 6.347656 -10.691406 6.296875 -10.609375 L 2.765625 -5.421875 C 2.734375 -5.367188 2.6875 -5.300781 2.625 -5.21875 C 2.5625 -5.132812 2.492188 -5.046875 2.421875 -4.953125 C 2.359375 -4.867188 2.296875 -4.785156 2.234375 -4.703125 C 2.171875 -4.617188 2.117188 -4.550781 2.078125 -4.5 L 6.9375 -4.5 Z M 6.9375 -11.78125 "/>
</symbol>
<symbol overflow="visible" id="glyph0-31">
<path style="stroke:none;" d="M 10.171875 -7.15625 C 10.171875 -5.9375 10.054688 -4.863281 9.828125 -3.9375 C 9.597656 -3.019531 9.265625 -2.253906 8.828125 -1.640625 C 8.398438 -1.023438 7.878906 -0.5625 7.265625 -0.25 C 6.648438 0.0507812 5.960938 0.203125 5.203125 0.203125 C 4.671875 0.203125 4.191406 0.144531 3.765625 0.03125 C 3.347656 -0.0703125 2.972656 -0.238281 2.640625 -0.46875 C 2.304688 -0.695312 2.019531 -0.992188 1.78125 -1.359375 C 1.550781 -1.722656 1.363281 -2.160156 1.21875 -2.671875 L 2.90625 -2.9375 C 3.082031 -2.34375 3.363281 -1.90625 3.75 -1.625 C 4.144531 -1.351562 4.632812 -1.21875 5.21875 -1.21875 C 5.695312 -1.21875 6.132812 -1.328125 6.53125 -1.546875 C 6.925781 -1.773438 7.257812 -2.113281 7.53125 -2.5625 C 7.8125 -3.019531 8.03125 -3.585938 8.1875 -4.265625 C 8.34375 -4.941406 8.425781 -5.734375 8.4375 -6.640625 C 8.300781 -6.335938 8.113281 -6.0625 7.875 -5.8125 C 7.632812 -5.570312 7.363281 -5.367188 7.0625 -5.203125 C 6.757812 -5.046875 6.429688 -4.921875 6.078125 -4.828125 C 5.734375 -4.742188 5.378906 -4.703125 5.015625 -4.703125 C 4.390625 -4.703125 3.820312 -4.8125 3.3125 -5.03125 C 2.8125 -5.257812 2.382812 -5.570312 2.03125 -5.96875 C 1.6875 -6.375 1.414062 -6.863281 1.21875 -7.4375 C 1.03125 -8.007812 0.9375 -8.644531 0.9375 -9.34375 C 0.9375 -10.050781 1.035156 -10.691406 1.234375 -11.265625 C 1.441406 -11.835938 1.738281 -12.320312 2.125 -12.71875 C 2.519531 -13.125 3.003906 -13.429688 3.578125 -13.640625 C 4.148438 -13.859375 4.796875 -13.96875 5.515625 -13.96875 C 7.046875 -13.96875 8.203125 -13.398438 8.984375 -12.265625 C 9.773438 -11.128906 10.171875 -9.425781 10.171875 -7.15625 Z M 8.265625 -8.859375 C 8.265625 -9.367188 8.203125 -9.847656 8.078125 -10.296875 C 7.960938 -10.742188 7.785156 -11.132812 7.546875 -11.46875 C 7.304688 -11.800781 7.007812 -12.0625 6.65625 -12.25 C 6.3125 -12.445312 5.910156 -12.546875 5.453125 -12.546875 C 5.035156 -12.546875 4.65625 -12.46875 4.3125 -12.3125 C 3.976562 -12.164062 3.691406 -11.953125 3.453125 -11.671875 C 3.222656 -11.398438 3.039062 -11.0625 2.90625 -10.65625 C 2.78125 -10.257812 2.71875 -9.820312 2.71875 -9.34375 C 2.71875 -8.875 2.773438 -8.441406 2.890625 -8.046875 C 3.003906 -7.648438 3.175781 -7.304688 3.40625 -7.015625 C 3.632812 -6.722656 3.914062 -6.492188 4.25 -6.328125 C 4.59375 -6.160156 4.988281 -6.078125 5.4375 -6.078125 C 5.757812 -6.078125 6.085938 -6.132812 6.421875 -6.25 C 6.765625 -6.363281 7.070312 -6.53125 7.34375 -6.75 C 7.613281 -6.976562 7.832031 -7.265625 8 -7.609375 C 8.175781 -7.960938 8.265625 -8.378906 8.265625 -8.859375 Z M 8.265625 -8.859375 "/>
</symbol>
<symbol overflow="visible" id="glyph0-32">
<path style="stroke:none;" d="M 3.765625 -2.140625 L 3.765625 -0.5 C 3.765625 -0.15625 3.75 0.15625 3.71875 0.4375 C 3.6875 0.726562 3.640625 0.992188 3.578125 1.234375 C 3.515625 1.484375 3.429688 1.710938 3.328125 1.921875 C 3.234375 2.140625 3.125 2.351562 3 2.5625 L 1.796875 2.5625 C 2.085938 2.132812 2.3125 1.707031 2.46875 1.28125 C 2.632812 0.851562 2.71875 0.425781 2.71875 0 L 1.859375 0 L 1.859375 -2.140625 Z M 3.765625 -2.140625 "/>
</symbol>
<symbol overflow="visible" id="glyph0-33">
<path style="stroke:none;" d="M 5.421875 -5.15625 C 5.421875 -4.25 5.351562 -3.378906 5.21875 -2.546875 C 5.082031 -1.722656 4.863281 -0.929688 4.5625 -0.171875 C 4.269531 0.585938 3.894531 1.320312 3.4375 2.03125 C 2.988281 2.75 2.445312 3.453125 1.8125 4.140625 L 0.125 4.140625 C 0.726562 3.453125 1.253906 2.75 1.703125 2.03125 C 2.148438 1.320312 2.515625 0.582031 2.796875 -0.1875 C 3.085938 -0.957031 3.300781 -1.753906 3.4375 -2.578125 C 3.582031 -3.398438 3.65625 -4.265625 3.65625 -5.171875 C 3.65625 -6.078125 3.582031 -6.941406 3.4375 -7.765625 C 3.300781 -8.597656 3.085938 -9.394531 2.796875 -10.15625 C 2.515625 -10.925781 2.148438 -11.671875 1.703125 -12.390625 C 1.253906 -13.109375 0.726562 -13.8125 0.125 -14.5 L 1.8125 -14.5 C 2.445312 -13.8125 2.988281 -13.109375 3.4375 -12.390625 C 3.894531 -11.671875 4.269531 -10.929688 4.5625 -10.171875 C 4.863281 -9.410156 5.082031 -8.613281 5.21875 -7.78125 C 5.351562 -6.957031 5.421875 -6.097656 5.421875 -5.203125 Z M 5.421875 -5.15625 "/>
</symbol>
<symbol overflow="visible" id="glyph0-34">
<path style="stroke:none;" d="M 10.25 -3.796875 C 10.25 -3.171875 10.144531 -2.609375 9.9375 -2.109375 C 9.726562 -1.617188 9.425781 -1.203125 9.03125 -0.859375 C 8.644531 -0.515625 8.160156 -0.25 7.578125 -0.0625 C 6.992188 0.113281 6.328125 0.203125 5.578125 0.203125 C 4.722656 0.203125 4.003906 0.0976562 3.421875 -0.109375 C 2.835938 -0.328125 2.359375 -0.609375 1.984375 -0.953125 C 1.609375 -1.304688 1.320312 -1.707031 1.125 -2.15625 C 0.9375 -2.601562 0.816406 -3.0625 0.765625 -3.53125 L 2.578125 -3.703125 C 2.628906 -3.335938 2.722656 -3.003906 2.859375 -2.703125 C 3.003906 -2.398438 3.195312 -2.140625 3.4375 -1.921875 C 3.675781 -1.710938 3.972656 -1.550781 4.328125 -1.4375 C 4.679688 -1.320312 5.097656 -1.265625 5.578125 -1.265625 C 6.460938 -1.265625 7.15625 -1.476562 7.65625 -1.90625 C 8.164062 -2.34375 8.421875 -2.992188 8.421875 -3.859375 C 8.421875 -4.367188 8.304688 -4.773438 8.078125 -5.078125 C 7.859375 -5.390625 7.578125 -5.628906 7.234375 -5.796875 C 6.898438 -5.972656 6.535156 -6.085938 6.140625 -6.140625 C 5.753906 -6.203125 5.394531 -6.234375 5.0625 -6.234375 L 4.0625 -6.234375 L 4.0625 -7.765625 L 5.015625 -7.765625 C 5.347656 -7.765625 5.691406 -7.796875 6.046875 -7.859375 C 6.410156 -7.929688 6.738281 -8.054688 7.03125 -8.234375 C 7.332031 -8.410156 7.578125 -8.648438 7.765625 -8.953125 C 7.960938 -9.265625 8.0625 -9.660156 8.0625 -10.140625 C 8.0625 -10.867188 7.84375 -11.445312 7.40625 -11.875 C 6.976562 -12.300781 6.335938 -12.515625 5.484375 -12.515625 C 4.703125 -12.515625 4.070312 -12.316406 3.59375 -11.921875 C 3.113281 -11.523438 2.835938 -10.96875 2.765625 -10.25 L 1 -10.375 C 1.070312 -10.988281 1.238281 -11.519531 1.5 -11.96875 C 1.757812 -12.414062 2.085938 -12.785156 2.484375 -13.078125 C 2.890625 -13.378906 3.347656 -13.601562 3.859375 -13.75 C 4.367188 -13.894531 4.914062 -13.96875 5.5 -13.96875 C 6.269531 -13.96875 6.929688 -13.867188 7.484375 -13.671875 C 8.035156 -13.484375 8.484375 -13.222656 8.828125 -12.890625 C 9.179688 -12.566406 9.441406 -12.179688 9.609375 -11.734375 C 9.773438 -11.296875 9.859375 -10.828125 9.859375 -10.328125 C 9.859375 -9.921875 9.800781 -9.539062 9.6875 -9.1875 C 9.582031 -8.832031 9.410156 -8.515625 9.171875 -8.234375 C 8.941406 -7.960938 8.644531 -7.722656 8.28125 -7.515625 C 7.925781 -7.316406 7.492188 -7.164062 6.984375 -7.0625 L 6.984375 -7.015625 C 7.535156 -6.960938 8.015625 -6.835938 8.421875 -6.640625 C 8.835938 -6.453125 9.175781 -6.210938 9.4375 -5.921875 C 9.707031 -5.640625 9.910156 -5.316406 10.046875 -4.953125 C 10.179688 -4.585938 10.25 -4.203125 10.25 -3.796875 Z M 10.25 -3.796875 "/>
</symbol>
<symbol overflow="visible" id="glyph1-0">
<path style="stroke:none;" d=""/>
</symbol>
<symbol overflow="visible" id="glyph1-1">
<path style="stroke:none;" d="M 7.46875 3.859375 C 6.625 3.28125 6.21875 2.90625 5.71875 2.265625 C 4.375 0.46875 3.609375 -2.640625 3.609375 -6.328125 C 3.609375 -9.6875 4.25 -12.671875 5.40625 -14.46875 C 5.953125 -15.3125 6.421875 -15.78125 7.46875 -16.5 L 7.140625 -16.921875 C 6 -16.328125 5.5 -15.984375 4.859375 -15.375 C 2.609375 -13.3125 1.3125 -9.953125 1.3125 -6.328125 C 1.3125 -2.90625 2.4375 0.21875 4.453125 2.3125 C 5.203125 3.140625 5.796875 3.5625 7.140625 4.28125 Z M 7.46875 3.859375 "/>
</symbol>
<symbol overflow="visible" id="glyph1-2">
<path style="stroke:none;" d="M 1.0625 4.28125 C 2.21875 3.65625 2.71875 3.328125 3.359375 2.734375 C 5.578125 0.671875 6.890625 -2.6875 6.890625 -6.328125 C 6.890625 -9.734375 5.75 -12.875 3.765625 -14.984375 C 3.015625 -15.78125 2.421875 -16.234375 1.0625 -16.921875 L 0.75 -16.5 C 1.625 -15.90625 1.984375 -15.5625 2.484375 -14.90625 C 3.828125 -13.125 4.609375 -10 4.609375 -6.328125 C 4.609375 -2.96875 3.953125 0 2.8125 1.796875 C 2.234375 2.65625 1.765625 3.15625 0.75 3.859375 Z M 1.0625 4.28125 "/>
</symbol>
<symbol overflow="visible" id="glyph2-0">
<path style="stroke:none;" d=""/>
</symbol>
<symbol overflow="visible" id="glyph2-1">
<path style="stroke:none;" d=""/>
</symbol>
<symbol overflow="visible" id="glyph2-2">
<path style="stroke:none;" d="M 9.875 -9.953125 L 8.671875 -6.53125 C 8.140625 -8.9375 6.9375 -10.21875 5.125 -10.21875 C 4.203125 -10.21875 3.234375 -9.84375 2.484375 -9.203125 C 1.375 -8.265625 0.8125 -6.828125 0.8125 -4.859375 C 0.8125 -1.6875 2.390625 0.265625 4.984375 0.265625 C 6.734375 0.265625 8.03125 -0.640625 8.84375 -2.40625 C 8.9375 -2.03125 9.078125 -1.671875 9.296875 -1.171875 C 9.828125 -0.0625 10.15625 0.265625 10.796875 0.265625 C 11.453125 0.265625 11.90625 -0.15625 12.171875 -1 C 12.3125 -1.453125 12.375 -1.890625 12.390625 -3.015625 L 11.875 -3.015625 C 11.828125 -1.984375 11.453125 -1.25 10.953125 -1.25 C 10.296875 -1.25 9.640625 -2.3125 9.40625 -3.6875 L 11.65625 -9.953125 Z M 8.09375 -4.796875 L 7.625 -3.5 C 6.9375 -1.46875 6.140625 -0.5 5.140625 -0.5 C 4.515625 -0.5 3.90625 -0.890625 3.578125 -1.46875 C 3.140625 -2.296875 2.90625 -3.546875 2.90625 -4.984375 C 2.90625 -6.421875 3.1875 -7.625 3.703125 -8.5 C 4.0625 -9.078125 4.515625 -9.359375 5.140625 -9.359375 C 6.546875 -9.359375 7.46875 -8.234375 7.875 -5.953125 Z M 8.09375 -4.796875 "/>
</symbol>
<symbol overflow="visible" id="glyph2-3">
<path style="stroke:none;" d="M 1.578125 1.234375 C 1.578125 2.296875 1.421875 3.671875 1.21875 4.421875 L 2.84375 4.421875 C 3.109375 3.96875 3.171875 3.421875 3.171875 1.875 L 3.171875 -0.84375 C 4.21875 -0.046875 5.09375 0.265625 6.25 0.265625 C 8.625 0.265625 10.265625 -1.5 10.265625 -4.0625 C 10.265625 -6.203125 9.203125 -7.6875 7.015625 -8.625 C 8.53125 -9.4375 9.25 -10.359375 9.25 -11.5 C 9.25 -13.265625 7.46875 -14.734375 5.34375 -14.734375 C 3.1875 -14.734375 1.578125 -13.328125 1.578125 -11.4375 Z M 3.171875 -11.640625 C 3.171875 -13.03125 4 -14 5.171875 -14 C 6.4375 -14 7.328125 -12.84375 7.328125 -11.25 C 7.328125 -10.203125 6.765625 -9.0625 6.25 -9.0625 C 6.203125 -9.0625 6.140625 -9.0625 5.8125 -9.140625 C 5.515625 -9.203125 5.359375 -9.21875 5.203125 -9.21875 C 4.71875 -9.21875 4.34375 -8.90625 4.34375 -8.53125 C 4.34375 -8.140625 4.703125 -7.90625 5.21875 -7.90625 C 5.34375 -7.90625 5.4375 -7.921875 5.640625 -7.96875 C 5.875 -8.03125 6.078125 -8.046875 6.234375 -8.046875 C 6.5 -8.046875 6.640625 -8.015625 6.75 -7.890625 C 7.65625 -7.046875 8.1875 -5.53125 8.1875 -3.90625 C 8.1875 -1.90625 7.3125 -0.734375 5.84375 -0.734375 C 4.84375 -0.734375 3.84375 -1.1875 3.171875 -1.96875 Z M 3.171875 -11.640625 "/>
</symbol>
<symbol overflow="visible" id="glyph3-0">
<path style="stroke:none;" d=""/>
</symbol>
<symbol overflow="visible" id="glyph3-1">
<path style="stroke:none;" d="M 9.25 -6.203125 C 9.25 -10.640625 7.71875 -12.90625 4.953125 -12.90625 C 2.203125 -12.90625 0.625 -10.609375 0.625 -6.3125 C 0.625 -2.015625 2.21875 0.265625 4.953125 0.265625 C 7.65625 0.265625 9.25 -2.015625 9.25 -6.203125 Z M 7.359375 -6.359375 C 7.359375 -2.734375 6.671875 -1.1875 4.90625 -1.1875 C 3.234375 -1.1875 2.515625 -2.8125 2.515625 -6.296875 C 2.515625 -9.796875 3.234375 -11.359375 4.953125 -11.359375 C 6.65625 -11.359375 7.359375 -9.78125 7.359375 -6.359375 Z M 7.359375 -6.359375 "/>
</symbol>
<symbol overflow="visible" id="glyph3-2">
<path style="stroke:none;" d="M 3.5625 -0.078125 L 3.5625 -2.015625 L 1.421875 -2.015625 L 1.421875 0 L 3.5625 0 Z M 3.5625 -0.078125 "/>
</symbol>
<symbol overflow="visible" id="glyph3-3">
<path style="stroke:none;" d="M 9.234375 -3.78125 C 9.234375 -5.328125 8.484375 -6.296875 7.140625 -6.75 C 8.140625 -7.140625 8.859375 -8.046875 8.859375 -9.328125 C 8.859375 -11.515625 7.265625 -12.90625 4.84375 -12.90625 C 2.265625 -12.90625 0.75 -11.484375 0.703125 -8.640625 L 2.5625 -8.640625 C 2.59375 -10.609375 3.234375 -11.375 4.859375 -11.375 C 6.265625 -11.375 6.96875 -10.625 6.96875 -9.265625 C 6.96875 -7.90625 6.515625 -7.421875 3.828125 -7.421875 L 3.828125 -5.9375 L 4.84375 -5.9375 C 6.59375 -5.9375 7.34375 -5.1875 7.34375 -3.765625 C 7.34375 -2.15625 6.5 -1.28125 4.84375 -1.28125 C 3.109375 -1.28125 2.390625 -2.0625 2.28125 -4 L 0.4375 -4 C 0.625 -1.078125 2.171875 0.265625 4.78125 0.265625 C 7.421875 0.265625 9.234375 -1.375 9.234375 -3.78125 Z M 9.234375 -3.78125 "/>
</symbol>
<symbol overflow="visible" id="glyph3-4">
<path style="stroke:none;" d="M 9.359375 -4.03125 C 9.359375 -6.40625 7.609375 -8.078125 5.328125 -8.078125 C 4.0625 -8.078125 2.96875 -7.5625 2.28125 -6.625 L 2.515625 -6.59375 C 2.53125 -9.703125 3.421875 -11.359375 5.234375 -11.359375 C 6.359375 -11.359375 6.984375 -10.734375 7.25 -9.4375 L 9.109375 -9.4375 C 8.78125 -11.59375 7.296875 -12.90625 5.34375 -12.90625 C 2.375 -12.90625 0.625 -10.328125 0.625 -5.890625 C 0.625 -1.90625 2.140625 0.265625 5.0625 0.265625 C 7.484375 0.265625 9.359375 -1.53125 9.359375 -4.03125 Z M 7.46875 -3.90625 C 7.46875 -2.296875 6.53125 -1.28125 5.078125 -1.28125 C 3.59375 -1.28125 2.609375 -2.359375 2.609375 -4 C 2.609375 -5.578125 3.5625 -6.53125 5.125 -6.53125 C 6.65625 -6.53125 7.46875 -5.609375 7.46875 -3.90625 Z M 7.46875 -3.90625 "/>
</symbol>
<symbol overflow="visible" id="glyph3-5">
<path style="stroke:none;" d="M 9.28125 -6.75 C 9.28125 -10.75 7.78125 -12.90625 4.859375 -12.90625 C 2.4375 -12.90625 0.546875 -11.109375 0.546875 -8.609375 C 0.546875 -6.234375 2.296875 -4.546875 4.609375 -4.546875 C 5.8125 -4.546875 6.78125 -5 7.609375 -6 L 7.375 -6.109375 C 7.359375 -2.984375 6.5 -1.28125 4.6875 -1.28125 C 3.5625 -1.28125 2.921875 -1.90625 2.640625 -3.203125 L 0.796875 -3.203125 C 1.109375 -1.046875 2.625 0.265625 4.578125 0.265625 C 7.5625 0.265625 9.28125 -2.34375 9.28125 -6.75 Z M 7.296875 -8.640625 C 7.296875 -7.078125 6.34375 -6.109375 4.78125 -6.109375 C 3.265625 -6.109375 2.4375 -7.015625 2.4375 -8.734375 C 2.4375 -10.34375 3.390625 -11.375 4.84375 -11.375 C 6.3125 -11.375 7.296875 -10.296875 7.296875 -8.640625 Z M 7.296875 -8.640625 "/>
</symbol>
<symbol overflow="visible" id="glyph3-6">
<path style="stroke:none;" d="M 9.328125 -9.09375 C 9.328125 -11.25 7.53125 -12.90625 5.109375 -12.90625 C 2.5 -12.90625 0.84375 -11.5625 0.75 -8.328125 L 2.609375 -8.328125 C 2.734375 -10.546875 3.484375 -11.375 5.0625 -11.375 C 6.5 -11.375 7.4375 -10.421875 7.4375 -9.046875 C 7.4375 -8.046875 6.875 -7.21875 5.734375 -6.5625 L 4.09375 -5.640625 C 1.421875 -4.125 0.609375 -2.9375 0.46875 0 L 9.234375 0 L 9.234375 -1.703125 L 2.53125 -1.703125 C 2.6875 -2.6875 3.21875 -3.296875 4.78125 -4.21875 L 6.59375 -5.1875 C 8.375 -6.140625 9.328125 -7.53125 9.328125 -9.09375 Z M 9.328125 -9.09375 "/>
</symbol>
<symbol overflow="visible" id="glyph3-7">
<path style="stroke:none;" d="M 9.484375 -3.125 L 9.484375 -4.625 L 7.59375 -4.625 L 7.59375 -12.90625 L 6.203125 -12.90625 L 0.359375 -4.78125 L 0.359375 -3.0625 L 5.734375 -3.0625 L 5.734375 0 L 7.59375 0 L 7.59375 -3.0625 L 9.484375 -3.0625 Z M 5.890625 -4.625 L 2.0625 -4.625 L 5.96875 -10.078125 L 5.734375 -10.140625 L 5.734375 -4.625 Z M 5.890625 -4.625 "/>
</symbol>
<symbol overflow="visible" id="glyph4-0">
<path style="stroke:none;" d=""/>
</symbol>
<symbol overflow="visible" id="glyph4-1">
<path style="stroke:none;" d="M 13.046875 -4.671875 L 9.703125 -4.671875 C 9.25 -3.28125 8.546875 -2.59375 7.203125 -2.59375 C 5.421875 -2.59375 4.34375 -4.03125 4.34375 -6.65625 C 4.34375 -9.125 5 -10.90625 7.203125 -10.90625 C 8.625 -10.90625 9.296875 -10.21875 9.703125 -8.453125 L 13.046875 -8.453125 C 12.796875 -11.75 10.59375 -13.71875 7.21875 -13.71875 C 3.203125 -13.71875 0.84375 -11.25 0.84375 -6.65625 C 0.84375 -2.203125 3.171875 0.21875 7.171875 0.21875 C 10.453125 0.21875 12.71875 -1.796875 13.046875 -4.671875 Z M 13.046875 -4.671875 "/>
</symbol>
<symbol overflow="visible" id="glyph4-2">
<path style="stroke:none;" d="M 14.21875 -6.65625 C 14.21875 -11.21875 11.75 -13.71875 7.53125 -13.71875 C 3.40625 -13.71875 0.875 -11.171875 0.875 -6.75 C 0.875 -2.296875 3.40625 0.21875 7.546875 0.21875 C 11.65625 0.21875 14.21875 -2.328125 14.21875 -6.65625 Z M 10.71875 -6.703125 C 10.71875 -4.171875 9.421875 -2.59375 7.546875 -2.59375 C 5.65625 -2.59375 4.375 -4.171875 4.375 -6.75 C 4.375 -9.328125 5.65625 -10.90625 7.546875 -10.90625 C 9.46875 -10.90625 10.71875 -9.34375 10.71875 -6.703125 Z M 10.71875 -6.703125 "/>
</symbol>
<symbol overflow="visible" id="glyph4-3">
<path style="stroke:none;" d="M 13.65625 0 L 13.65625 -9.046875 C 13.65625 -12.03125 12 -13.71875 9.125 -13.71875 C 7.296875 -13.71875 6.078125 -13.046875 5.078125 -11.546875 L 5.078125 -13.5 L 1.578125 -13.5 L 1.578125 0 L 5.078125 0 L 5.078125 -8.09375 C 5.078125 -9.703125 6.203125 -10.75 7.90625 -10.75 C 9.40625 -10.75 10.15625 -9.921875 10.15625 -8.328125 L 10.15625 0 Z M 13.65625 0 "/>
</symbol>
<symbol overflow="visible" id="glyph4-4">
<path style="stroke:none;" d="M 13 -4 L 13 -4.171875 C 13 -5.71875 12.125 -6.875 10.34375 -7.40625 L 5.921875 -8.671875 C 4.953125 -8.953125 4.703125 -9.171875 4.703125 -9.71875 C 4.703125 -10.46875 5.5 -10.96875 6.71875 -10.96875 C 8.40625 -10.96875 9.21875 -10.375 9.25 -9.15625 L 12.625 -9.15625 C 12.578125 -12 10.375 -13.71875 6.75 -13.71875 C 3.328125 -13.71875 1.203125 -12 1.203125 -9.21875 C 1.203125 -7.578125 1.65625 -6.671875 4.15625 -5.90625 L 8.328125 -4.59375 C 9.203125 -4.328125 9.5 -4.046875 9.5 -3.671875 C 9.5 -2.84375 8.53125 -2.53125 6.90625 -2.53125 C 5.296875 -2.53125 4.453125 -2.828125 4.15625 -4.28125 L 0.71875 -4.28125 C 0.828125 -1.328125 3 0.21875 7.09375 0.21875 C 10.90625 0.21875 13 -1.28125 13 -4 Z M 13 -4 "/>
</symbol>
<symbol overflow="visible" id="glyph4-5">
<path style="stroke:none;" d="M 13.125 -6.25 C 13.125 -10.90625 10.78125 -13.71875 6.796875 -13.71875 C 2.921875 -13.71875 0.546875 -11.09375 0.546875 -6.578125 C 0.546875 -2.25 2.90625 0.21875 6.71875 0.21875 C 9.75 0.21875 12.203125 -1.15625 12.96875 -3.796875 L 9.53125 -3.796875 C 9.21875 -2.828125 8.125 -2.453125 6.84375 -2.453125 C 5.203125 -2.453125 4.15625 -3.203125 4.046875 -5.828125 L 13.09375 -5.828125 Z M 9.46875 -8.15625 L 4.09375 -8.15625 C 4.328125 -10.03125 5.203125 -11.046875 6.75 -11.046875 C 8.25 -11.046875 9.296875 -10.078125 9.46875 -8.15625 Z M 9.46875 -8.15625 "/>
</symbol>
<symbol overflow="visible" id="glyph4-6">
<path style="stroke:none;" d="M 9.25 -10.15625 L 9.25 -13.703125 C 9.046875 -13.71875 8.921875 -13.71875 8.828125 -13.71875 C 7.21875 -13.71875 5.828125 -12.671875 5.078125 -10.84375 L 5.078125 -13.5 L 1.578125 -13.5 L 1.578125 0 L 5.078125 0 L 5.078125 -7.171875 C 5.078125 -9.21875 6.09375 -10.25 8.15625 -10.25 C 8.53125 -10.25 8.78125 -10.21875 9.25 -10.15625 Z M 9.25 -10.15625 "/>
</symbol>
<symbol overflow="visible" id="glyph4-7">
<path style="stroke:none;" d="M 13.40625 -13.5 L 9.703125 -13.5 L 6.96875 -3.625 L 4.046875 -13.5 L 0.34375 -13.5 L 5.078125 0 L 8.75 0 Z M 13.40625 -13.5 "/>
</symbol>
<symbol overflow="visible" id="glyph4-8">
<path style="stroke:none;" d="M 13.09375 0 L 13.09375 -0.421875 C 12.46875 -1 12.296875 -1.375 12.296875 -2.078125 L 12.296875 -9.578125 C 12.296875 -12.328125 10.421875 -13.71875 6.78125 -13.71875 C 3.125 -13.71875 1.21875 -12.171875 1 -9.046875 L 4.375 -9.046875 C 4.546875 -10.453125 5.125 -10.90625 6.84375 -10.90625 C 8.203125 -10.90625 8.875 -10.453125 8.875 -9.546875 C 8.875 -8.125 7.828125 -8.28125 6.078125 -7.96875 L 4.671875 -7.71875 C 2 -7.25 0.703125 -6.09375 0.703125 -3.65625 C 0.703125 -1.03125 2.546875 0.21875 4.796875 0.21875 C 6.296875 0.21875 7.671875 -0.421875 8.90625 -1.703125 C 8.90625 -1 8.96875 -0.40625 9.296875 0 Z M 8.875 -5.78125 C 8.875 -3.75 7.875 -2.59375 6.09375 -2.59375 C 4.921875 -2.59375 4.203125 -3.046875 4.203125 -4.046875 C 4.203125 -5.078125 4.75 -5.453125 6.203125 -5.71875 L 7.40625 -5.953125 C 8.328125 -6.125 8.46875 -6.171875 8.875 -6.375 Z M 8.875 -5.78125 "/>
</symbol>
<symbol overflow="visible" id="glyph4-9">
<path style="stroke:none;" d="M 7.53125 0 L 7.53125 -2.453125 C 7.171875 -2.40625 6.96875 -2.375 6.71875 -2.375 C 5.796875 -2.375 5.578125 -2.65625 5.578125 -3.84375 L 5.578125 -10.90625 L 7.53125 -10.90625 L 7.53125 -13.21875 L 5.578125 -13.21875 L 5.578125 -16.84375 L 2.078125 -16.84375 L 2.078125 -13.21875 L 0.34375 -13.21875 L 0.34375 -10.90625 L 2.078125 -10.90625 L 2.078125 -2.90625 C 2.078125 -0.78125 3.203125 0.09375 5.5 0.09375 C 6.28125 0.09375 6.90625 0.03125 7.53125 0 Z M 7.53125 0 "/>
</symbol>
<symbol overflow="visible" id="glyph4-10">
<path style="stroke:none;" d="M 5.171875 0 L 5.171875 -13.5 L 1.671875 -13.5 L 1.671875 0 Z M 5.21875 -15.125 L 5.21875 -18.625 L 1.71875 -18.625 L 1.71875 -15.125 Z M 5.21875 -15.125 "/>
</symbol>
<symbol overflow="visible" id="glyph4-11">
<path style="stroke:none;" d="M 6.046875 0 L 6.046875 -3.65625 L 2.296875 -3.65625 L 2.296875 0 Z M 6.046875 -9.34375 L 6.046875 -13 L 2.296875 -13 L 2.296875 -9.34375 Z M 6.046875 -9.34375 "/>
</symbol>
<symbol overflow="visible" id="glyph4-12">
<path style="stroke:none;" d=""/>
</symbol>
<symbol overflow="visible" id="glyph4-13">
<path style="stroke:none;" d="M 9.453125 0 L 9.453125 -17.71875 L 7.125 -17.71875 C 6.578125 -15.625 4.75 -14.546875 1.703125 -14.546875 L 1.703125 -12.21875 L 5.953125 -12.21875 L 5.953125 0 Z M 9.453125 0 "/>
</symbol>
<symbol overflow="visible" id="glyph4-14">
<path style="stroke:none;" d="M 7.28125 -17.84375 L 4.84375 -17.84375 L -0.296875 0.34375 L 2.125 0.34375 Z M 7.28125 -17.84375 "/>
</symbol>
<symbol overflow="visible" id="glyph4-15">
<path style="stroke:none;" d="M 15.59375 0 L 15.59375 -3.125 L 5.71875 -3.125 L 5.71875 -7.84375 L 14.453125 -7.84375 L 14.453125 -10.96875 L 5.71875 -10.96875 L 5.71875 -15.09375 L 15.15625 -15.09375 L 15.15625 -18.21875 L 1.96875 -18.21875 L 1.96875 0 Z M 15.59375 0 "/>
</symbol>
<symbol overflow="visible" id="glyph5-0">
<path style="stroke:none;" d=""/>
</symbol>
<symbol overflow="visible" id="glyph5-1">
<path style="stroke:none;" d="M 0 -13.625 L -18.21875 -13.625 L -18.21875 -10.125 L -11.75 -10.125 C -13.09375 -9.25 -13.71875 -8.078125 -13.71875 -6.40625 C -13.71875 -3.171875 -10.796875 -0.71875 -6.71875 -0.71875 C -2.90625 -0.71875 0.21875 -2.828125 0.21875 -6.40625 C 0.21875 -8.078125 -0.40625 -9.25 -1.546875 -10.125 L 0 -10.125 Z M -6.671875 -10.125 C -4.21875 -10.125 -2.703125 -8.921875 -2.703125 -7.171875 C -2.703125 -5.421875 -4.25 -4.21875 -6.71875 -4.21875 C -9.21875 -4.21875 -10.796875 -5.421875 -10.796875 -7.171875 C -10.796875 -8.953125 -9.25 -10.125 -6.671875 -10.125 Z M -6.671875 -10.125 "/>
</symbol>
<symbol overflow="visible" id="glyph5-2">
<path style="stroke:none;" d="M -6.25 -13.125 C -10.90625 -13.125 -13.71875 -10.78125 -13.71875 -6.796875 C -13.71875 -2.921875 -11.09375 -0.546875 -6.578125 -0.546875 C -2.25 -0.546875 0.21875 -2.90625 0.21875 -6.71875 C 0.21875 -9.75 -1.15625 -12.203125 -3.796875 -12.96875 L -3.796875 -9.53125 C -2.828125 -9.21875 -2.453125 -8.125 -2.453125 -6.84375 C -2.453125 -5.203125 -3.203125 -4.15625 -5.828125 -4.046875 L -5.828125 -13.09375 Z M -8.15625 -9.46875 L -8.15625 -4.09375 C -10.03125 -4.328125 -11.046875 -5.203125 -11.046875 -6.75 C -11.046875 -8.25 -10.078125 -9.296875 -8.15625 -9.46875 Z M -8.15625 -9.46875 "/>
</symbol>
<symbol overflow="visible" id="glyph5-3">
<path style="stroke:none;" d="M 0 -13.65625 L -9.046875 -13.65625 C -12.03125 -13.65625 -13.71875 -12 -13.71875 -9.125 C -13.71875 -7.296875 -13.046875 -6.078125 -11.546875 -5.078125 L -13.5 -5.078125 L -13.5 -1.578125 L 0 -1.578125 L 0 -5.078125 L -8.09375 -5.078125 C -9.703125 -5.078125 -10.75 -6.203125 -10.75 -7.90625 C -10.75 -9.40625 -9.921875 -10.15625 -8.328125 -10.15625 L 0 -10.15625 Z M 0 -13.65625 "/>
</symbol>
<symbol overflow="visible" id="glyph5-4">
<path style="stroke:none;" d="M -4 -13 L -4.171875 -13 C -5.71875 -13 -6.875 -12.125 -7.40625 -10.34375 L -8.671875 -5.921875 C -8.953125 -4.953125 -9.171875 -4.703125 -9.71875 -4.703125 C -10.46875 -4.703125 -10.96875 -5.5 -10.96875 -6.71875 C -10.96875 -8.40625 -10.375 -9.21875 -9.15625 -9.25 L -9.15625 -12.625 C -12 -12.578125 -13.71875 -10.375 -13.71875 -6.75 C -13.71875 -3.328125 -12 -1.203125 -9.21875 -1.203125 C -7.578125 -1.203125 -6.671875 -1.65625 -5.90625 -4.15625 L -4.59375 -8.328125 C -4.328125 -9.203125 -4.046875 -9.5 -3.671875 -9.5 C -2.84375 -9.5 -2.53125 -8.53125 -2.53125 -6.90625 C -2.53125 -5.296875 -2.828125 -4.453125 -4.28125 -4.15625 L -4.28125 -0.71875 C -1.328125 -0.828125 0.21875 -3 0.21875 -7.09375 C 0.21875 -10.90625 -1.28125 -13 -4 -13 Z M -4 -13 "/>
</symbol>
<symbol overflow="visible" id="glyph5-5">
<path style="stroke:none;" d="M 0 -5.171875 L -13.5 -5.171875 L -13.5 -1.671875 L 0 -1.671875 Z M -15.125 -5.21875 L -18.625 -5.21875 L -18.625 -1.71875 L -15.125 -1.71875 Z M -15.125 -5.21875 "/>
</symbol>
<symbol overflow="visible" id="glyph5-6">
<path style="stroke:none;" d="M 0 -7.53125 L -2.453125 -7.53125 C -2.40625 -7.171875 -2.375 -6.96875 -2.375 -6.71875 C -2.375 -5.796875 -2.65625 -5.578125 -3.84375 -5.578125 L -10.90625 -5.578125 L -10.90625 -7.53125 L -13.21875 -7.53125 L -13.21875 -5.578125 L -16.84375 -5.578125 L -16.84375 -2.078125 L -13.21875 -2.078125 L -13.21875 -0.34375 L -10.90625 -0.34375 L -10.90625 -2.078125 L -2.90625 -2.078125 C -0.78125 -2.078125 0.09375 -3.203125 0.09375 -5.5 C 0.09375 -6.28125 0.03125 -6.90625 0 -7.53125 Z M 0 -7.53125 "/>
</symbol>
<symbol overflow="visible" id="glyph5-7">
<path style="stroke:none;" d="M -13.5 -13.453125 L -13.5 -9.84375 L -3.671875 -7.046875 L -13.5 -4.078125 L -13.5 -0.21875 L 0.578125 -5.25 L 0.65625 -5.25 C 1.921875 -5.25 2.90625 -4.296875 2.90625 -3.078125 C 2.90625 -2.796875 2.875 -2.59375 2.75 -2.15625 L 5.375 -2.15625 C 5.453125 -2.671875 5.46875 -2.96875 5.46875 -3.40625 C 5.46875 -5.75 5.046875 -6.96875 2.46875 -7.90625 Z M -13.5 -13.453125 "/>
</symbol>
</g>
<clipPath id="clip1">
  <path d="M 110.007812 65.289062 L 475 65.289062 L 475 417 L 110.007812 417 Z M 110.007812 65.289062 "/>
</clipPath>
<clipPath id="clip2">
  <path d="M 110.007812 400 L 475.652344 400 L 475.652344 402 L 110.007812 402 Z M 110.007812 400 "/>
</clipPath>
<clipPath id="clip3">
  <path d="M 110.007812 313 L 475.652344 313 L 475.652344 315 L 110.007812 315 Z M 110.007812 313 "/>
</clipPath>
<clipPath id="clip4">
  <path d="M 110.007812 225 L 475.652344 225 L 475.652344 227 L 110.007812 227 Z M 110.007812 225 "/>
</clipPath>
<clipPath id="clip5">
  <path d="M 110.007812 138 L 475.652344 138 L 475.652344 140 L 110.007812 140 Z M 110.007812 138 "/>
</clipPath>
<clipPath id="clip6">
  <path d="M 131 65.289062 L 133 65.289062 L 133 417.992188 L 131 417.992188 Z M 131 65.289062 "/>
</clipPath>
<clipPath id="clip7">
  <path d="M 225 65.289062 L 227 65.289062 L 227 417.992188 L 225 417.992188 Z M 225 65.289062 "/>
</clipPath>
<clipPath id="clip8">
  <path d="M 318 65.289062 L 321 65.289062 L 321 417.992188 L 318 417.992188 Z M 318 65.289062 "/>
</clipPath>
<clipPath id="clip9">
  <path d="M 412 65.289062 L 414 65.289062 L 414 417.992188 L 412 417.992188 Z M 412 65.289062 "/>
</clipPath>
</defs>
<g id="surface18159">
<rect x="0" y="0" width="503" height="503" style="fill:rgb(100%,100%,100%);fill-opacity:1;stroke:none;"/>
<rect x="0" y="0" width="503" height="503" style="fill:rgb(100%,100%,100%);fill-opacity:1;stroke:none;"/>
<g clip-path="url(#clip1)" clip-rule="nonzero">
<path style=" stroke:none;fill-rule:nonzero;fill:rgb(100%,100%,100%);fill-opacity:1;" d="M 110.007812 416.992188 L 474.652344 416.992188 L 474.652344 65.289062 L 110.007812 65.289062 Z M 110.007812 416.992188 "/>
</g>
<g clip-path="url(#clip2)" clip-rule="nonzero">
<path style="fill:none;stroke-width:1.066978;stroke-linecap:butt;stroke-linejoin:round;stroke:rgb(94.117647%,94.117647%,94.117647%);stroke-opacity:1;stroke-miterlimit:10;" d="M 110.007812 401.003906 L 474.652344 401.003906 "/>
</g>
<g clip-path="url(#clip3)" clip-rule="nonzero">
<path style="fill:none;stroke-width:1.066978;stroke-linecap:butt;stroke-linejoin:round;stroke:rgb(94.117647%,94.117647%,94.117647%);stroke-opacity:1;stroke-miterlimit:10;" d="M 110.007812 313.542969 L 474.652344 313.542969 "/>
</g>
<g clip-path="url(#clip4)" clip-rule="nonzero">
<path style="fill:none;stroke-width:1.066978;stroke-linecap:butt;stroke-linejoin:round;stroke:rgb(94.117647%,94.117647%,94.117647%);stroke-opacity:1;stroke-miterlimit:10;" d="M 110.007812 226.078125 L 474.652344 226.078125 "/>
</g>
<g clip-path="url(#clip5)" clip-rule="nonzero">
<path style="fill:none;stroke-width:1.066978;stroke-linecap:butt;stroke-linejoin:round;stroke:rgb(94.117647%,94.117647%,94.117647%);stroke-opacity:1;stroke-miterlimit:10;" d="M 110.007812 138.617188 L 474.652344 138.617188 "/>
</g>
<g clip-path="url(#clip6)" clip-rule="nonzero">
<path style="fill:none;stroke-width:1.066978;stroke-linecap:butt;stroke-linejoin:round;stroke:rgb(94.117647%,94.117647%,94.117647%);stroke-opacity:1;stroke-miterlimit:10;" d="M 132.109375 416.992188 L 132.109375 65.289062 "/>
</g>
<g clip-path="url(#clip7)" clip-rule="nonzero">
<path style="fill:none;stroke-width:1.066978;stroke-linecap:butt;stroke-linejoin:round;stroke:rgb(94.117647%,94.117647%,94.117647%);stroke-opacity:1;stroke-miterlimit:10;" d="M 225.820312 416.992188 L 225.820312 65.289062 "/>
</g>
<g clip-path="url(#clip8)" clip-rule="nonzero">
<path style="fill:none;stroke-width:1.066978;stroke-linecap:butt;stroke-linejoin:round;stroke:rgb(94.117647%,94.117647%,94.117647%);stroke-opacity:1;stroke-miterlimit:10;" d="M 319.53125 416.992188 L 319.53125 65.289062 "/>
</g>
<g clip-path="url(#clip9)" clip-rule="nonzero">
<path style="fill:none;stroke-width:1.066978;stroke-linecap:butt;stroke-linejoin:round;stroke:rgb(94.117647%,94.117647%,94.117647%);stroke-opacity:1;stroke-miterlimit:10;" d="M 413.242188 416.992188 L 413.242188 65.289062 "/>
</g>
<path style=" stroke:none;fill-rule:nonzero;fill:rgb(34.901961%,34.901961%,34.901961%);fill-opacity:0.501961;" d="M 126.582031 401.003906 L 137.632812 401.003906 L 137.632812 318.585938 L 126.582031 318.585938 Z M 126.582031 401.003906 "/>
<path style=" stroke:none;fill-rule:nonzero;fill:rgb(34.901961%,34.901961%,34.901961%);fill-opacity:0.501961;" d="M 137.632812 401.003906 L 148.683594 401.003906 L 148.683594 208.699219 L 137.632812 208.699219 Z M 137.632812 401.003906 "/>
<path style=" stroke:none;fill-rule:nonzero;fill:rgb(34.901961%,34.901961%,34.901961%);fill-opacity:0.501961;" d="M 148.683594 401.003906 L 159.734375 401.003906 L 159.734375 291.113281 L 148.683594 291.113281 Z M 148.683594 401.003906 "/>
<path style=" stroke:none;fill-rule:nonzero;fill:rgb(34.901961%,34.901961%,34.901961%);fill-opacity:0.501961;" d="M 159.730469 401.003906 L 170.78125 401.003906 L 170.78125 263.640625 L 159.730469 263.640625 Z M 159.730469 401.003906 "/>
<path style=" stroke:none;fill-rule:nonzero;fill:rgb(34.901961%,34.901961%,34.901961%);fill-opacity:0.501961;" d="M 170.78125 401.003906 L 181.832031 401.003906 L 181.832031 318.585938 L 170.78125 318.585938 Z M 170.78125 401.003906 "/>
<path style=" stroke:none;fill-rule:nonzero;fill:rgb(34.901961%,34.901961%,34.901961%);fill-opacity:0.501961;" d="M 181.832031 401.003906 L 192.882812 401.003906 L 192.882812 373.53125 L 181.832031 373.53125 Z M 181.832031 401.003906 "/>
<path style=" stroke:none;fill-rule:nonzero;fill:rgb(34.901961%,34.901961%,34.901961%);fill-opacity:0.501961;" d="M 192.882812 401.003906 L 203.933594 401.003906 L 203.933594 346.058594 L 192.882812 346.058594 Z M 192.882812 401.003906 "/>
<path style=" stroke:none;fill-rule:nonzero;fill:rgb(34.901961%,34.901961%,34.901961%);fill-opacity:0.501961;" d="M 203.933594 401.003906 L 214.984375 401.003906 L 214.984375 346.058594 L 203.933594 346.058594 Z M 203.933594 401.003906 "/>
<path style=" stroke:none;fill-rule:nonzero;fill:rgb(34.901961%,34.901961%,34.901961%);fill-opacity:0.501961;" d="M 214.980469 401.003906 L 226.03125 401.003906 L 226.03125 346.058594 L 214.980469 346.058594 Z M 214.980469 401.003906 "/>
<path style=" stroke:none;fill-rule:nonzero;fill:rgb(34.901961%,34.901961%,34.901961%);fill-opacity:0.501961;" d="M 237.082031 401.003906 L 248.132812 401.003906 L 248.132812 373.53125 L 237.082031 373.53125 Z M 237.082031 401.003906 "/>
<path style=" stroke:none;fill-rule:nonzero;fill:rgb(34.901961%,34.901961%,34.901961%);fill-opacity:0.501961;" d="M 248.132812 401.003906 L 259.183594 401.003906 L 259.183594 373.53125 L 248.132812 373.53125 Z M 248.132812 401.003906 "/>
<path style=" stroke:none;fill-rule:nonzero;fill:rgb(34.901961%,34.901961%,34.901961%);fill-opacity:0.501961;" d="M 259.179688 401.003906 L 270.230469 401.003906 L 270.230469 373.53125 L 259.179688 373.53125 Z M 259.179688 401.003906 "/>
<path style=" stroke:none;fill-rule:nonzero;fill:rgb(34.901961%,34.901961%,34.901961%);fill-opacity:0.501961;" d="M 292.332031 401.003906 L 303.382812 401.003906 L 303.382812 373.53125 L 292.332031 373.53125 Z M 292.332031 401.003906 "/>
<path style=" stroke:none;fill-rule:nonzero;fill:rgb(34.901961%,34.901961%,34.901961%);fill-opacity:0.501961;" d="M 303.378906 401.003906 L 314.429688 401.003906 L 314.429688 373.53125 L 303.378906 373.53125 Z M 303.378906 401.003906 "/>
<path style=" stroke:none;fill-rule:nonzero;fill:rgb(34.901961%,34.901961%,34.901961%);fill-opacity:0.501961;" d="M 325.480469 401.003906 L 336.53125 401.003906 L 336.53125 318.585938 L 325.480469 318.585938 Z M 325.480469 401.003906 "/>
<path style=" stroke:none;fill-rule:nonzero;fill:rgb(34.901961%,34.901961%,34.901961%);fill-opacity:0.501961;" d="M 336.53125 401.003906 L 347.582031 401.003906 L 347.582031 318.585938 L 336.53125 318.585938 Z M 336.53125 401.003906 "/>
<path style=" stroke:none;fill-rule:nonzero;fill:rgb(34.901961%,34.901961%,34.901961%);fill-opacity:0.501961;" d="M 424.929688 401.003906 L 435.980469 401.003906 L 435.980469 318.585938 L 424.929688 318.585938 Z M 424.929688 401.003906 "/>
<path style=" stroke:none;fill-rule:nonzero;fill:rgb(34.901961%,34.901961%,34.901961%);fill-opacity:0.501961;" d="M 447.027344 401.003906 L 458.078125 401.003906 L 458.078125 346.058594 L 447.027344 346.058594 Z M 447.027344 401.003906 "/>
<path style="fill:none;stroke-width:4.267913;stroke-linecap:butt;stroke-linejoin:round;stroke:rgb(0%,0%,0%);stroke-opacity:1;stroke-dasharray:4.267913,12.80374,17.071654,12.80374;stroke-miterlimit:1;" d="M 135.875 254.261719 L 139.078125 88.398438 L 142.285156 81.277344 L 145.488281 117.335938 L 148.691406 157.6875 L 151.898438 193.183594 L 155.101562 222.589844 L 158.304688 246.597656 L 161.511719 266.222656 L 164.714844 282.367188 L 167.917969 295.765625 L 171.125 306.988281 L 174.328125 316.472656 L 177.535156 324.554688 L 180.738281 331.5 L 183.941406 337.511719 L 187.148438 342.75 L 190.351562 347.339844 L 193.554688 351.390625 L 196.761719 354.980469 L 199.964844 358.179688 L 203.167969 361.039062 L 206.375 363.613281 L 209.578125 365.933594 L 212.78125 368.039062 L 215.988281 369.949219 L 219.191406 371.6875 L 222.394531 373.28125 L 225.601562 374.742188 L 228.804688 376.085938 L 232.007812 377.320312 L 235.214844 378.464844 L 238.417969 379.523438 L 241.621094 380.503906 L 244.828125 381.417969 L 248.03125 382.269531 L 251.234375 383.0625 L 254.441406 383.804688 L 257.644531 384.496094 L 260.847656 385.148438 L 264.054688 385.757812 L 267.257812 386.335938 L 270.460938 386.875 L 273.667969 387.386719 L 276.871094 387.867188 L 280.074219 388.324219 L 283.28125 388.753906 L 286.484375 389.164062 L 289.6875 389.550781 L 292.894531 389.917969 L 296.097656 390.265625 L 299.304688 390.597656 L 302.507812 390.914062 L 305.710938 391.214844 L 308.917969 391.503906 L 312.121094 391.777344 L 315.324219 392.039062 L 318.53125 392.289062 L 321.734375 392.527344 L 324.9375 392.757812 L 328.144531 392.976562 L 331.347656 393.1875 L 334.550781 393.390625 L 337.757812 393.582031 L 340.960938 393.769531 L 344.164062 393.949219 L 347.371094 394.121094 L 350.574219 394.285156 L 353.777344 394.445312 L 356.984375 394.597656 L 360.1875 394.746094 L 363.390625 394.886719 L 366.597656 395.023438 L 369.800781 395.15625 L 373.003906 395.285156 L 376.210938 395.410156 L 382.617188 395.644531 L 385.824219 395.753906 L 389.027344 395.863281 L 392.230469 395.96875 L 395.4375 396.070312 L 398.640625 396.167969 L 401.84375 396.261719 L 405.050781 396.355469 L 408.253906 396.441406 L 411.460938 396.53125 L 417.867188 396.695312 L 421.074219 396.773438 L 424.277344 396.851562 L 427.480469 396.925781 L 430.6875 396.996094 L 433.890625 397.070312 L 437.09375 397.136719 L 440.300781 397.203125 L 443.503906 397.269531 L 446.707031 397.332031 L 449.914062 397.394531 L 456.320312 397.511719 "/>
<g style="fill:rgb(0%,0%,0%);fill-opacity:1;">
  <use xlink:href="#glyph0-1" x="286.652344" y="89.522461"/>
  <use xlink:href="#glyph0-2" x="299.94043" y="89.522461"/>
  <use xlink:href="#glyph0-3" x="314.327148" y="89.522461"/>
  <use xlink:href="#glyph0-4" x="326.496094" y="89.522461"/>
  <use xlink:href="#glyph0-5" x="332.03125" y="89.522461"/>
  <use xlink:href="#glyph0-6" x="337.566406" y="89.522461"/>
  <use xlink:href="#glyph0-7" x="343.101562" y="89.522461"/>
  <use xlink:href="#glyph0-8" x="354.181641" y="89.522461"/>
  <use xlink:href="#glyph0-9" x="364.142578" y="89.522461"/>
  <use xlink:href="#glyph0-10" x="375.222656" y="89.522461"/>
  <use xlink:href="#glyph0-11" x="381.856445" y="89.522461"/>
  <use xlink:href="#glyph0-9" x="391.817383" y="89.522461"/>
  <use xlink:href="#glyph0-12" x="402.897461" y="89.522461"/>
  <use xlink:href="#glyph0-13" x="418.393555" y="89.522461"/>
  <use xlink:href="#glyph0-14" x="429.473633" y="89.522461"/>
  <use xlink:href="#glyph0-14" x="446.068359" y="89.522461"/>
  <use xlink:href="#glyph0-13" x="462.663086" y="89.522461"/>
</g>
<g style="fill:rgb(0%,0%,0%);fill-opacity:1;">
  <use xlink:href="#glyph0-15" x="404.652344" y="113.319336"/>
  <use xlink:href="#glyph0-9" x="419.039062" y="113.319336"/>
  <use xlink:href="#glyph0-16" x="430.119141" y="113.319336"/>
  <use xlink:href="#glyph0-4" x="441.199219" y="113.319336"/>
  <use xlink:href="#glyph0-5" x="446.734375" y="113.319336"/>
  <use xlink:href="#glyph0-17" x="452.269531" y="113.319336"/>
  <use xlink:href="#glyph0-18" x="463.349609" y="113.319336"/>
</g>
<g style="fill:rgb(0%,0%,0%);fill-opacity:1;">
  <use xlink:href="#glyph0-19" x="326.652344" y="147.319336"/>
  <use xlink:href="#glyph0-20" x="337.732422" y="147.319336"/>
  <use xlink:href="#glyph0-16" x="348.8125" y="147.319336"/>
</g>
<g style="fill:rgb(0%,0%,0%);fill-opacity:1;">
  <use xlink:href="#glyph1-1" x="360.652344" y="147.433594"/>
</g>
<g style="fill:rgb(0%,0%,0%);fill-opacity:1;">
  <use xlink:href="#glyph0-19" x="369.652344" y="147.319336"/>
</g>
<g style="fill:rgb(0%,0%,0%);fill-opacity:1;">
  <use xlink:href="#glyph1-2" x="381.652344" y="147.433594"/>
</g>
<g style="fill:rgb(0%,0%,0%);fill-opacity:1;">
  <use xlink:href="#glyph2-1" x="390.652344" y="147.405273"/>
</g>
<g style="fill:rgb(0%,0%,0%);fill-opacity:1;">
  <use xlink:href="#glyph0-4" x="395.652344" y="147.319336"/>
</g>
<g style="fill:rgb(0%,0%,0%);fill-opacity:1;">
  <use xlink:href="#glyph2-1" x="401.652344" y="147.405273"/>
</g>
<g style="fill:rgb(0%,0%,0%);fill-opacity:1;">
  <use xlink:href="#glyph0-21" x="406.652344" y="147.319336"/>
  <use xlink:href="#glyph0-22" x="413.286133" y="147.319336"/>
  <use xlink:href="#glyph0-23" x="424.366211" y="147.319336"/>
  <use xlink:href="#glyph0-24" x="435.446289" y="147.319336"/>
  <use xlink:href="#glyph0-25" x="446.526367" y="147.319336"/>
  <use xlink:href="#glyph0-26" x="452.061523" y="147.319336"/>
  <use xlink:href="#glyph0-27" x="463.141602" y="147.319336"/>
</g>
<g style="fill:rgb(0%,0%,0%);fill-opacity:1;">
  <use xlink:href="#glyph2-2" x="283.652344" y="180.405273"/>
</g>
<g style="fill:rgb(0%,0%,0%);fill-opacity:1;">
  <use xlink:href="#glyph2-1" x="296.652344" y="180.405273"/>
</g>
<g style="fill:rgb(0%,0%,0%);fill-opacity:1;">
  <use xlink:href="#glyph0-4" x="301.652344" y="180.319336"/>
</g>
<g style="fill:rgb(0%,0%,0%);fill-opacity:1;">
  <use xlink:href="#glyph2-1" x="307.652344" y="180.405273"/>
</g>
<g style="fill:rgb(0%,0%,0%);fill-opacity:1;">
  <use xlink:href="#glyph0-28" x="312.652344" y="180.319336"/>
  <use xlink:href="#glyph0-25" x="323.732422" y="180.319336"/>
  <use xlink:href="#glyph0-18" x="329.267578" y="180.319336"/>
  <use xlink:href="#glyph0-22" x="340.347656" y="180.319336"/>
</g>
<g style="fill:rgb(0%,0%,0%);fill-opacity:1;">
  <use xlink:href="#glyph2-1" x="351.652344" y="180.405273"/>
</g>
<g style="fill:rgb(0%,0%,0%);fill-opacity:1;">
  <use xlink:href="#glyph0-29" x="356.652344" y="180.319336"/>
</g>
<g style="fill:rgb(0%,0%,0%);fill-opacity:1;">
  <use xlink:href="#glyph2-1" x="363.652344" y="180.405273"/>
</g>
<g style="fill:rgb(0%,0%,0%);fill-opacity:1;">
  <use xlink:href="#glyph0-28" x="368.652344" y="180.319336"/>
  <use xlink:href="#glyph0-25" x="379.732422" y="180.319336"/>
  <use xlink:href="#glyph0-30" x="385.267578" y="180.319336"/>
  <use xlink:href="#glyph0-31" x="396.347656" y="180.319336"/>
</g>
<g style="fill:rgb(0%,0%,0%);fill-opacity:1;">
  <use xlink:href="#glyph2-1" x="407.652344" y="180.405273"/>
</g>
<g style="fill:rgb(0%,0%,0%);fill-opacity:1;">
  <use xlink:href="#glyph0-32" x="412.652344" y="180.319336"/>
</g>
<g style="fill:rgb(0%,0%,0%);fill-opacity:1;">
  <use xlink:href="#glyph2-1" x="418.652344" y="180.405273"/>
</g>
<g style="fill:rgb(0%,0%,0%);fill-opacity:1;">
  <use xlink:href="#glyph0-22" x="423.652344" y="180.319336"/>
  <use xlink:href="#glyph0-25" x="434.732422" y="180.319336"/>
  <use xlink:href="#glyph0-28" x="440.267578" y="180.319336"/>
  <use xlink:href="#glyph0-28" x="451.347656" y="180.319336"/>
</g>
<g style="fill:rgb(0%,0%,0%);fill-opacity:1;">
  <use xlink:href="#glyph2-1" x="462.652344" y="180.405273"/>
</g>
<g style="fill:rgb(0%,0%,0%);fill-opacity:1;">
  <use xlink:href="#glyph0-33" x="467.652344" y="180.319336"/>
</g>
<g style="fill:rgb(0%,0%,0%);fill-opacity:1;">
  <use xlink:href="#glyph2-3" x="285.652344" y="214.405273"/>
</g>
<g style="fill:rgb(0%,0%,0%);fill-opacity:1;">
  <use xlink:href="#glyph2-1" x="296.652344" y="214.405273"/>
</g>
<g style="fill:rgb(0%,0%,0%);fill-opacity:1;">
  <use xlink:href="#glyph0-4" x="301.652344" y="214.319336"/>
</g>
<g style="fill:rgb(0%,0%,0%);fill-opacity:1;">
  <use xlink:href="#glyph2-1" x="307.652344" y="214.405273"/>
</g>
<g style="fill:rgb(0%,0%,0%);fill-opacity:1;">
  <use xlink:href="#glyph0-34" x="312.652344" y="214.319336"/>
  <use xlink:href="#glyph0-25" x="323.732422" y="214.319336"/>
  <use xlink:href="#glyph0-22" x="329.267578" y="214.319336"/>
  <use xlink:href="#glyph0-18" x="340.347656" y="214.319336"/>
</g>
<g style="fill:rgb(0%,0%,0%);fill-opacity:1;">
  <use xlink:href="#glyph2-1" x="351.652344" y="214.405273"/>
</g>
<g style="fill:rgb(0%,0%,0%);fill-opacity:1;">
  <use xlink:href="#glyph0-29" x="356.652344" y="214.319336"/>
</g>
<g style="fill:rgb(0%,0%,0%);fill-opacity:1;">
  <use xlink:href="#glyph2-1" x="363.652344" y="214.405273"/>
</g>
<g style="fill:rgb(0%,0%,0%);fill-opacity:1;">
  <use xlink:href="#glyph0-22" x="368.652344" y="214.319336"/>
  <use xlink:href="#glyph0-25" x="379.732422" y="214.319336"/>
  <use xlink:href="#glyph0-23" x="385.267578" y="214.319336"/>
  <use xlink:href="#glyph0-34" x="396.347656" y="214.319336"/>
</g>
<g style="fill:rgb(0%,0%,0%);fill-opacity:1;">
  <use xlink:href="#glyph2-1" x="407.652344" y="214.405273"/>
</g>
<g style="fill:rgb(0%,0%,0%);fill-opacity:1;">
  <use xlink:href="#glyph0-32" x="412.652344" y="214.319336"/>
</g>
<g style="fill:rgb(0%,0%,0%);fill-opacity:1;">
  <use xlink:href="#glyph2-1" x="418.652344" y="214.405273"/>
</g>
<g style="fill:rgb(0%,0%,0%);fill-opacity:1;">
  <use xlink:href="#glyph0-30" x="423.652344" y="214.319336"/>
  <use xlink:href="#glyph0-25" x="434.732422" y="214.319336"/>
  <use xlink:href="#glyph0-31" x="440.267578" y="214.319336"/>
  <use xlink:href="#glyph0-18" x="451.347656" y="214.319336"/>
</g>
<g style="fill:rgb(0%,0%,0%);fill-opacity:1;">
  <use xlink:href="#glyph2-1" x="462.652344" y="214.405273"/>
</g>
<g style="fill:rgb(0%,0%,0%);fill-opacity:1;">
  <use xlink:href="#glyph0-33" x="467.652344" y="214.319336"/>
</g>
<path style="fill:none;stroke-width:1.066978;stroke-linecap:butt;stroke-linejoin:round;stroke:rgb(0%,0%,0%);stroke-opacity:1;stroke-miterlimit:10;" d="M 110.007812 416.992188 L 110.007812 65.289062 "/>
<g style="fill:rgb(0%,0%,0%);fill-opacity:1;">
  <use xlink:href="#glyph3-1" x="62.800781" y="407.667969"/>
  <use xlink:href="#glyph3-2" x="72.808594" y="407.667969"/>
  <use xlink:href="#glyph3-1" x="77.8125" y="407.667969"/>
  <use xlink:href="#glyph3-1" x="87.820312" y="407.667969"/>
</g>
<g style="fill:rgb(0%,0%,0%);fill-opacity:1;">
  <use xlink:href="#glyph3-1" x="62.800781" y="320.207031"/>
  <use xlink:href="#glyph3-2" x="72.808594" y="320.207031"/>
  <use xlink:href="#glyph3-1" x="77.8125" y="320.207031"/>
  <use xlink:href="#glyph3-3" x="87.820312" y="320.207031"/>
</g>
<g style="fill:rgb(0%,0%,0%);fill-opacity:1;">
  <use xlink:href="#glyph3-1" x="62.800781" y="232.742188"/>
  <use xlink:href="#glyph3-2" x="72.808594" y="232.742188"/>
  <use xlink:href="#glyph3-1" x="77.8125" y="232.742188"/>
  <use xlink:href="#glyph3-4" x="87.820312" y="232.742188"/>
</g>
<g style="fill:rgb(0%,0%,0%);fill-opacity:1;">
  <use xlink:href="#glyph3-1" x="62.800781" y="145.28125"/>
  <use xlink:href="#glyph3-2" x="72.808594" y="145.28125"/>
  <use xlink:href="#glyph3-1" x="77.8125" y="145.28125"/>
  <use xlink:href="#glyph3-5" x="87.820312" y="145.28125"/>
</g>
<path style="fill:none;stroke-width:1.066978;stroke-linecap:butt;stroke-linejoin:round;stroke:rgb(0%,0%,0%);stroke-opacity:1;stroke-miterlimit:10;" d="M 103.78125 401.003906 L 110.007812 401.003906 "/>
<path style="fill:none;stroke-width:1.066978;stroke-linecap:butt;stroke-linejoin:round;stroke:rgb(0%,0%,0%);stroke-opacity:1;stroke-miterlimit:10;" d="M 103.78125 313.542969 L 110.007812 313.542969 "/>
<path style="fill:none;stroke-width:1.066978;stroke-linecap:butt;stroke-linejoin:round;stroke:rgb(0%,0%,0%);stroke-opacity:1;stroke-miterlimit:10;" d="M 103.78125 226.078125 L 110.007812 226.078125 "/>
<path style="fill:none;stroke-width:1.066978;stroke-linecap:butt;stroke-linejoin:round;stroke:rgb(0%,0%,0%);stroke-opacity:1;stroke-miterlimit:10;" d="M 103.78125 138.617188 L 110.007812 138.617188 "/>
<path style="fill:none;stroke-width:1.066978;stroke-linecap:butt;stroke-linejoin:round;stroke:rgb(0%,0%,0%);stroke-opacity:1;stroke-miterlimit:10;" d="M 110.007812 416.992188 L 474.652344 416.992188 "/>
<path style="fill:none;stroke-width:1.066978;stroke-linecap:butt;stroke-linejoin:round;stroke:rgb(0%,0%,0%);stroke-opacity:1;stroke-miterlimit:10;" d="M 132.109375 423.21875 L 132.109375 416.992188 "/>
<path style="fill:none;stroke-width:1.066978;stroke-linecap:butt;stroke-linejoin:round;stroke:rgb(0%,0%,0%);stroke-opacity:1;stroke-miterlimit:10;" d="M 225.820312 423.21875 L 225.820312 416.992188 "/>
<path style="fill:none;stroke-width:1.066978;stroke-linecap:butt;stroke-linejoin:round;stroke:rgb(0%,0%,0%);stroke-opacity:1;stroke-miterlimit:10;" d="M 319.53125 423.21875 L 319.53125 416.992188 "/>
<path style="fill:none;stroke-width:1.066978;stroke-linecap:butt;stroke-linejoin:round;stroke:rgb(0%,0%,0%);stroke-opacity:1;stroke-miterlimit:10;" d="M 413.242188 423.21875 L 413.242188 416.992188 "/>
<g style="fill:rgb(0%,0%,0%);fill-opacity:1;">
  <use xlink:href="#glyph3-1" x="126.609375" y="441.863281"/>
</g>
<g style="fill:rgb(0%,0%,0%);fill-opacity:1;">
  <use xlink:href="#glyph3-6" x="215.320312" y="441.863281"/>
  <use xlink:href="#glyph3-1" x="225.328125" y="441.863281"/>
</g>
<g style="fill:rgb(0%,0%,0%);fill-opacity:1;">
  <use xlink:href="#glyph3-7" x="309.03125" y="441.863281"/>
  <use xlink:href="#glyph3-1" x="319.039062" y="441.863281"/>
</g>
<g style="fill:rgb(0%,0%,0%);fill-opacity:1;">
  <use xlink:href="#glyph3-4" x="402.742188" y="441.863281"/>
  <use xlink:href="#glyph3-1" x="412.75" y="441.863281"/>
</g>
<g style="fill:rgb(0%,0%,0%);fill-opacity:1;">
  <use xlink:href="#glyph4-1" x="184.332031" y="473.980469"/>
  <use xlink:href="#glyph4-2" x="198.232422" y="473.980469"/>
  <use xlink:href="#glyph4-3" x="213.507812" y="473.980469"/>
  <use xlink:href="#glyph4-4" x="228.783203" y="473.980469"/>
  <use xlink:href="#glyph4-5" x="242.683594" y="473.980469"/>
  <use xlink:href="#glyph4-6" x="256.583984" y="473.980469"/>
  <use xlink:href="#glyph4-7" x="266.808594" y="473.980469"/>
  <use xlink:href="#glyph4-8" x="280.333984" y="473.980469"/>
  <use xlink:href="#glyph4-9" x="294.234375" y="473.980469"/>
  <use xlink:href="#glyph4-10" x="302.55957" y="473.980469"/>
  <use xlink:href="#glyph4-2" x="309.509766" y="473.980469"/>
  <use xlink:href="#glyph4-3" x="324.785156" y="473.980469"/>
  <use xlink:href="#glyph4-11" x="340.060547" y="473.980469"/>
  <use xlink:href="#glyph4-12" x="348.385742" y="473.980469"/>
  <use xlink:href="#glyph4-12" x="355.335938" y="473.980469"/>
  <use xlink:href="#glyph4-13" x="362.286133" y="473.980469"/>
  <use xlink:href="#glyph4-14" x="376.186523" y="473.980469"/>
  <use xlink:href="#glyph4-15" x="383.136719" y="473.980469"/>
</g>
<g style="fill:rgb(0%,0%,0%);fill-opacity:1;">
  <use xlink:href="#glyph5-1" x="43.472656" y="285.140625"/>
  <use xlink:href="#glyph5-2" x="43.472656" y="269.865234"/>
  <use xlink:href="#glyph5-3" x="43.472656" y="255.964844"/>
  <use xlink:href="#glyph5-4" x="43.472656" y="240.689453"/>
  <use xlink:href="#glyph5-5" x="43.472656" y="226.789062"/>
  <use xlink:href="#glyph5-6" x="43.472656" y="219.838867"/>
  <use xlink:href="#glyph5-7" x="43.472656" y="211.513672"/>
</g>
</g>
</svg>
