<?xml version="1.0" encoding="UTF-8"?>
<svg xmlns="http://www.w3.org/2000/svg" xmlns:xlink="http://www.w3.org/1999/xlink" width="503pt" height="503pt" viewBox="0 0 503 503" version="1.1">
<defs>
<g>
<symbol overflow="visible" id="glyph0-0">
<path style="stroke:none;" d="M 0.671875 0 L 0.671875 -13.328125 L 5.984375 -13.328125 L 5.984375 0 Z M 1.328125 -0.671875 L 5.3125 -0.671875 L 5.3125 -12.671875 L 1.328125 -12.671875 Z M 1.328125 -0.671875 "/>
</symbol>
<symbol overflow="visible" id="glyph0-1">
<path style="stroke:none;" d="M 12.28125 -9.625 C 12.28125 -9.019531 12.179688 -8.457031 11.984375 -7.9375 C 11.785156 -7.425781 11.488281 -6.976562 11.09375 -6.59375 C 10.707031 -6.21875 10.21875 -5.914062 9.625 -5.6875 C 9.03125 -5.46875 8.335938 -5.359375 7.546875 -5.359375 L 3.5 -5.359375 L 3.5 0 L 1.640625 0 L 1.640625 -13.765625 L 7.4375 -13.765625 C 8.25 -13.765625 8.957031 -13.664062 9.5625 -13.46875 C 10.164062 -13.269531 10.671875 -12.988281 11.078125 -12.625 C 11.484375 -12.257812 11.785156 -11.820312 11.984375 -11.3125 C 12.179688 -10.800781 12.28125 -10.238281 12.28125 -9.625 Z M 10.40625 -9.59375 C 10.40625 -10.46875 10.140625 -11.128906 9.609375 -11.578125 C 9.078125 -12.035156 8.273438 -12.265625 7.203125 -12.265625 L 3.5 -12.265625 L 3.5 -6.84375 L 7.28125 -6.84375 C 8.351562 -6.84375 9.140625 -7.078125 9.640625 -7.546875 C 10.148438 -8.023438 10.40625 -8.707031 10.40625 -9.59375 Z M 10.40625 -9.59375 "/>
</symbol>
<symbol overflow="visible" id="glyph0-2">
<path style="stroke:none;" d="M 13.484375 -7.015625 C 13.484375 -5.867188 13.3125 -4.859375 12.96875 -3.984375 C 12.625 -3.109375 12.148438 -2.375 11.546875 -1.78125 C 10.953125 -1.195312 10.242188 -0.753906 9.421875 -0.453125 C 8.609375 -0.148438 7.726562 0 6.78125 0 L 1.640625 0 L 1.640625 -13.765625 L 6.1875 -13.765625 C 7.25 -13.765625 8.226562 -13.628906 9.125 -13.359375 C 10.019531 -13.097656 10.789062 -12.691406 11.4375 -12.140625 C 12.082031 -11.585938 12.582031 -10.890625 12.9375 -10.046875 C 13.300781 -9.203125 13.484375 -8.191406 13.484375 -7.015625 Z M 11.609375 -7.015625 C 11.609375 -7.953125 11.472656 -8.75 11.203125 -9.40625 C 10.941406 -10.070312 10.566406 -10.613281 10.078125 -11.03125 C 9.597656 -11.457031 9.023438 -11.769531 8.359375 -11.96875 C 7.691406 -12.164062 6.957031 -12.265625 6.15625 -12.265625 L 3.5 -12.265625 L 3.5 -1.5 L 6.578125 -1.5 C 7.296875 -1.5 7.960938 -1.613281 8.578125 -1.84375 C 9.191406 -2.082031 9.722656 -2.429688 10.171875 -2.890625 C 10.617188 -3.347656 10.96875 -3.921875 11.21875 -4.609375 C 11.476562 -5.304688 11.609375 -6.109375 11.609375 -7.015625 Z M 11.609375 -7.015625 "/>
</symbol>
<symbol overflow="visible" id="glyph0-3">
<path style="stroke:none;" d="M 3.5 -12.234375 L 3.5 -7.125 L 11.1875 -7.125 L 11.1875 -5.578125 L 3.5 -5.578125 L 3.5 0 L 1.640625 0 L 1.640625 -13.765625 L 11.421875 -13.765625 L 11.421875 -12.234375 Z M 3.5 -12.234375 "/>
</symbol>
<symbol overflow="visible" id="glyph0-4">
<path style="stroke:none;" d="M 1.828125 -8.546875 L 1.828125 -10.5625 L 3.734375 -10.5625 L 3.734375 -8.546875 Z M 1.828125 0 L 1.828125 -2.015625 L 3.734375 -2.015625 L 3.734375 0 Z M 1.828125 0 "/>
</symbol>
<symbol overflow="visible" id="glyph0-5">
<path style="stroke:none;" d=""/>
</symbol>
<symbol overflow="visible" id="glyph0-6">
<path style="stroke:none;" d="M 1.640625 0 L 1.640625 -13.765625 L 3.5 -13.765625 L 3.5 -1.53125 L 10.453125 -1.53125 L 10.453125 0 Z M 1.640625 0 "/>
</symbol>
<symbol overflow="visible" id="glyph0-7">
<path style="stroke:none;" d="M 10.28125 -5.296875 C 10.28125 -3.441406 9.875 -2.0625 9.0625 -1.15625 C 8.25 -0.25 7.066406 0.203125 5.515625 0.203125 C 4.785156 0.203125 4.128906 0.09375 3.546875 -0.125 C 2.960938 -0.351562 2.46875 -0.695312 2.0625 -1.15625 C 1.664062 -1.613281 1.363281 -2.179688 1.15625 -2.859375 C 0.945312 -3.546875 0.84375 -4.359375 0.84375 -5.296875 C 0.84375 -8.941406 2.421875 -10.765625 5.578125 -10.765625 C 6.398438 -10.765625 7.109375 -10.648438 7.703125 -10.421875 C 8.296875 -10.191406 8.78125 -9.847656 9.15625 -9.390625 C 9.539062 -8.941406 9.820312 -8.375 10 -7.6875 C 10.1875 -7 10.28125 -6.203125 10.28125 -5.296875 Z M 8.4375 -5.296875 C 8.4375 -6.117188 8.375 -6.796875 8.25 -7.328125 C 8.125 -7.859375 7.9375 -8.28125 7.6875 -8.59375 C 7.445312 -8.914062 7.148438 -9.140625 6.796875 -9.265625 C 6.441406 -9.398438 6.046875 -9.46875 5.609375 -9.46875 C 5.160156 -9.46875 4.753906 -9.398438 4.390625 -9.265625 C 4.023438 -9.128906 3.71875 -8.898438 3.46875 -8.578125 C 3.21875 -8.253906 3.023438 -7.828125 2.890625 -7.296875 C 2.753906 -6.765625 2.6875 -6.097656 2.6875 -5.296875 C 2.6875 -4.472656 2.753906 -3.789062 2.890625 -3.25 C 3.035156 -2.71875 3.234375 -2.289062 3.484375 -1.96875 C 3.742188 -1.65625 4.039062 -1.429688 4.375 -1.296875 C 4.71875 -1.171875 5.09375 -1.109375 5.5 -1.109375 C 5.945312 -1.109375 6.351562 -1.171875 6.71875 -1.296875 C 7.082031 -1.421875 7.390625 -1.640625 7.640625 -1.953125 C 7.898438 -2.273438 8.097656 -2.707031 8.234375 -3.25 C 8.367188 -3.789062 8.4375 -4.472656 8.4375 -5.296875 Z M 8.4375 -5.296875 "/>
</symbol>
<symbol overflow="visible" id="glyph0-8">
<path style="stroke:none;" d="M 5.359375 4.15625 C 4.742188 4.15625 4.203125 4.09375 3.734375 3.96875 C 3.265625 3.84375 2.863281 3.664062 2.53125 3.4375 C 2.207031 3.207031 1.941406 2.929688 1.734375 2.609375 C 1.523438 2.285156 1.375 1.929688 1.28125 1.546875 L 3.046875 1.296875 C 3.160156 1.773438 3.414062 2.144531 3.8125 2.40625 C 4.21875 2.675781 4.75 2.8125 5.40625 2.8125 C 5.800781 2.8125 6.160156 2.753906 6.484375 2.640625 C 6.804688 2.535156 7.082031 2.359375 7.3125 2.109375 C 7.539062 1.867188 7.71875 1.550781 7.84375 1.15625 C 7.96875 0.769531 8.03125 0.296875 8.03125 -0.265625 L 8.03125 -1.96875 L 8.015625 -1.96875 C 7.878906 -1.695312 7.710938 -1.4375 7.515625 -1.1875 C 7.328125 -0.945312 7.09375 -0.734375 6.8125 -0.546875 C 6.539062 -0.359375 6.222656 -0.207031 5.859375 -0.09375 C 5.492188 0.0195312 5.078125 0.078125 4.609375 0.078125 C 3.941406 0.078125 3.367188 -0.03125 2.890625 -0.25 C 2.410156 -0.476562 2.019531 -0.816406 1.71875 -1.265625 C 1.414062 -1.710938 1.191406 -2.269531 1.046875 -2.9375 C 0.910156 -3.613281 0.84375 -4.390625 0.84375 -5.265625 C 0.84375 -6.109375 0.910156 -6.867188 1.046875 -7.546875 C 1.191406 -8.222656 1.421875 -8.796875 1.734375 -9.265625 C 2.046875 -9.742188 2.453125 -10.109375 2.953125 -10.359375 C 3.460938 -10.609375 4.082031 -10.734375 4.8125 -10.734375 C 5.550781 -10.734375 6.195312 -10.5625 6.75 -10.21875 C 7.300781 -9.875 7.726562 -9.390625 8.03125 -8.765625 L 8.046875 -8.765625 C 8.046875 -8.921875 8.050781 -9.097656 8.0625 -9.296875 C 8.070312 -9.503906 8.082031 -9.695312 8.09375 -9.875 C 8.101562 -10.050781 8.113281 -10.203125 8.125 -10.328125 C 8.132812 -10.460938 8.148438 -10.539062 8.171875 -10.5625 L 9.828125 -10.5625 C 9.828125 -10.507812 9.820312 -10.410156 9.8125 -10.265625 C 9.8125 -10.128906 9.804688 -9.960938 9.796875 -9.765625 C 9.785156 -9.566406 9.78125 -9.347656 9.78125 -9.109375 C 9.78125 -8.878906 9.78125 -8.632812 9.78125 -8.375 L 9.78125 -0.296875 C 9.78125 1.179688 9.414062 2.289062 8.6875 3.03125 C 7.957031 3.78125 6.847656 4.15625 5.359375 4.15625 Z M 8.03125 -5.28125 C 8.03125 -6.019531 7.945312 -6.648438 7.78125 -7.171875 C 7.625 -7.691406 7.414062 -8.117188 7.15625 -8.453125 C 6.894531 -8.785156 6.597656 -9.03125 6.265625 -9.1875 C 5.929688 -9.34375 5.585938 -9.421875 5.234375 -9.421875 C 4.785156 -9.421875 4.398438 -9.34375 4.078125 -9.1875 C 3.753906 -9.03125 3.484375 -8.785156 3.265625 -8.453125 C 3.054688 -8.117188 2.898438 -7.6875 2.796875 -7.15625 C 2.703125 -6.632812 2.65625 -6.007812 2.65625 -5.28125 C 2.65625 -4.519531 2.703125 -3.878906 2.796875 -3.359375 C 2.898438 -2.847656 3.054688 -2.429688 3.265625 -2.109375 C 3.472656 -1.785156 3.738281 -1.554688 4.0625 -1.421875 C 4.382812 -1.285156 4.765625 -1.21875 5.203125 -1.21875 C 5.554688 -1.21875 5.898438 -1.289062 6.234375 -1.4375 C 6.566406 -1.59375 6.867188 -1.832031 7.140625 -2.15625 C 7.410156 -2.476562 7.625 -2.894531 7.78125 -3.40625 C 7.945312 -3.925781 8.03125 -4.550781 8.03125 -5.28125 Z M 8.03125 -5.28125 "/>
</symbol>
<symbol overflow="visible" id="glyph0-9">
<path style="stroke:none;" d="M 10.5625 0 L 3.203125 -11.71875 C 3.210938 -11.394531 3.226562 -11.078125 3.25 -10.765625 C 3.257812 -10.503906 3.269531 -10.222656 3.28125 -9.921875 C 3.289062 -9.628906 3.296875 -9.367188 3.296875 -9.140625 L 3.296875 0 L 1.640625 0 L 1.640625 -13.765625 L 3.8125 -13.765625 L 11.25 -1.96875 C 11.226562 -2.28125 11.207031 -2.597656 11.1875 -2.921875 C 11.175781 -3.191406 11.164062 -3.488281 11.15625 -3.8125 C 11.144531 -4.132812 11.140625 -4.441406 11.140625 -4.734375 L 11.140625 -13.765625 L 12.8125 -13.765625 L 12.8125 0 Z M 10.5625 0 "/>
</symbol>
<symbol overflow="visible" id="glyph0-10">
<path style="stroke:none;" d="M 1.390625 0 L 1.390625 -8.109375 C 1.390625 -8.328125 1.382812 -8.550781 1.375 -8.78125 C 1.375 -9.007812 1.367188 -9.234375 1.359375 -9.453125 C 1.359375 -9.671875 1.351562 -9.875 1.34375 -10.0625 C 1.34375 -10.25 1.335938 -10.414062 1.328125 -10.5625 L 2.984375 -10.5625 C 2.992188 -10.414062 3.003906 -10.242188 3.015625 -10.046875 C 3.023438 -9.859375 3.035156 -9.660156 3.046875 -9.453125 C 3.054688 -9.253906 3.0625 -9.0625 3.0625 -8.875 C 3.0625 -8.695312 3.0625 -8.539062 3.0625 -8.40625 L 3.109375 -8.40625 C 3.234375 -8.8125 3.363281 -9.160156 3.5 -9.453125 C 3.644531 -9.753906 3.8125 -10 4 -10.1875 C 4.1875 -10.382812 4.410156 -10.53125 4.671875 -10.625 C 4.929688 -10.71875 5.242188 -10.765625 5.609375 -10.765625 C 5.753906 -10.765625 5.890625 -10.75 6.015625 -10.71875 C 6.148438 -10.695312 6.253906 -10.679688 6.328125 -10.671875 L 6.328125 -9.046875 C 6.210938 -9.085938 6.078125 -9.113281 5.921875 -9.125 C 5.765625 -9.144531 5.585938 -9.15625 5.390625 -9.15625 C 4.984375 -9.15625 4.640625 -9.0625 4.359375 -8.875 C 4.078125 -8.695312 3.847656 -8.445312 3.671875 -8.125 C 3.492188 -7.800781 3.359375 -7.414062 3.265625 -6.96875 C 3.179688 -6.519531 3.140625 -6.035156 3.140625 -5.515625 L 3.140625 0 Z M 1.390625 0 "/>
</symbol>
<symbol overflow="visible" id="glyph0-11">
<path style="stroke:none;" d="M 7.5 0 L 7.5 -6.703125 C 7.5 -7.210938 7.46875 -7.640625 7.40625 -7.984375 C 7.34375 -8.328125 7.234375 -8.601562 7.078125 -8.8125 C 6.921875 -9.03125 6.71875 -9.179688 6.46875 -9.265625 C 6.226562 -9.359375 5.925781 -9.40625 5.5625 -9.40625 C 5.195312 -9.40625 4.863281 -9.332031 4.5625 -9.1875 C 4.257812 -9.039062 4.003906 -8.828125 3.796875 -8.546875 C 3.585938 -8.273438 3.425781 -7.9375 3.3125 -7.53125 C 3.195312 -7.125 3.140625 -6.65625 3.140625 -6.125 L 3.140625 0 L 1.390625 0 L 1.390625 -8.3125 C 1.390625 -8.53125 1.382812 -8.757812 1.375 -9 C 1.375 -9.25 1.367188 -9.484375 1.359375 -9.703125 C 1.359375 -9.921875 1.351562 -10.109375 1.34375 -10.265625 C 1.34375 -10.421875 1.335938 -10.519531 1.328125 -10.5625 L 2.984375 -10.5625 C 2.992188 -10.53125 3 -10.441406 3 -10.296875 C 3.007812 -10.160156 3.019531 -10 3.03125 -9.8125 C 3.039062 -9.625 3.046875 -9.429688 3.046875 -9.234375 C 3.054688 -9.046875 3.0625 -8.890625 3.0625 -8.765625 L 3.09375 -8.765625 C 3.25 -9.066406 3.414062 -9.34375 3.59375 -9.59375 C 3.78125 -9.84375 3.992188 -10.050781 4.234375 -10.21875 C 4.484375 -10.394531 4.765625 -10.53125 5.078125 -10.625 C 5.398438 -10.71875 5.769531 -10.765625 6.1875 -10.765625 C 6.988281 -10.765625 7.617188 -10.601562 8.078125 -10.28125 C 8.546875 -9.96875 8.867188 -9.460938 9.046875 -8.765625 L 9.078125 -8.765625 C 9.234375 -9.066406 9.410156 -9.34375 9.609375 -9.59375 C 9.804688 -9.84375 10.035156 -10.050781 10.296875 -10.21875 C 10.554688 -10.394531 10.847656 -10.53125 11.171875 -10.625 C 11.492188 -10.71875 11.863281 -10.765625 12.28125 -10.765625 C 12.820312 -10.765625 13.285156 -10.691406 13.671875 -10.546875 C 14.054688 -10.398438 14.367188 -10.175781 14.609375 -9.875 C 14.859375 -9.582031 15.039062 -9.195312 15.15625 -8.71875 C 15.28125 -8.25 15.34375 -7.691406 15.34375 -7.046875 L 15.34375 0 L 13.609375 0 L 13.609375 -6.703125 C 13.609375 -7.210938 13.570312 -7.640625 13.5 -7.984375 C 13.4375 -8.328125 13.328125 -8.601562 13.171875 -8.8125 C 13.023438 -9.03125 12.828125 -9.179688 12.578125 -9.265625 C 12.328125 -9.359375 12.023438 -9.40625 11.671875 -9.40625 C 11.296875 -9.40625 10.957031 -9.332031 10.65625 -9.1875 C 10.363281 -9.050781 10.109375 -8.847656 9.890625 -8.578125 C 9.679688 -8.304688 9.519531 -7.960938 9.40625 -7.546875 C 9.289062 -7.140625 9.234375 -6.664062 9.234375 -6.125 L 9.234375 0 Z M 7.5 0 "/>
</symbol>
<symbol overflow="visible" id="glyph0-12">
<path style="stroke:none;" d="M 4.046875 0.203125 C 2.984375 0.203125 2.179688 -0.078125 1.640625 -0.640625 C 1.109375 -1.203125 0.84375 -1.972656 0.84375 -2.953125 C 0.84375 -3.648438 0.972656 -4.21875 1.234375 -4.65625 C 1.503906 -5.101562 1.851562 -5.453125 2.28125 -5.703125 C 2.707031 -5.960938 3.191406 -6.140625 3.734375 -6.234375 C 4.285156 -6.335938 4.84375 -6.394531 5.40625 -6.40625 L 7.78125 -6.453125 L 7.78125 -7.015625 C 7.78125 -7.453125 7.734375 -7.820312 7.640625 -8.125 C 7.554688 -8.4375 7.414062 -8.6875 7.21875 -8.875 C 7.03125 -9.0625 6.796875 -9.195312 6.515625 -9.28125 C 6.234375 -9.375 5.898438 -9.421875 5.515625 -9.421875 C 5.179688 -9.421875 4.875 -9.394531 4.59375 -9.34375 C 4.320312 -9.300781 4.082031 -9.210938 3.875 -9.078125 C 3.675781 -8.953125 3.515625 -8.78125 3.390625 -8.5625 C 3.273438 -8.351562 3.195312 -8.082031 3.15625 -7.75 L 1.3125 -7.90625 C 1.382812 -8.320312 1.507812 -8.703125 1.6875 -9.046875 C 1.875 -9.398438 2.132812 -9.703125 2.46875 -9.953125 C 2.800781 -10.210938 3.21875 -10.410156 3.71875 -10.546875 C 4.226562 -10.691406 4.84375 -10.765625 5.5625 -10.765625 C 6.882812 -10.765625 7.878906 -10.457031 8.546875 -9.84375 C 9.222656 -9.238281 9.5625 -8.359375 9.5625 -7.203125 L 9.5625 -2.65625 C 9.5625 -2.132812 9.628906 -1.738281 9.765625 -1.46875 C 9.898438 -1.207031 10.160156 -1.078125 10.546875 -1.078125 C 10.640625 -1.078125 10.734375 -1.082031 10.828125 -1.09375 C 10.929688 -1.113281 11.03125 -1.132812 11.125 -1.15625 L 11.125 -0.0625 C 10.90625 -0.0078125 10.6875 0.0234375 10.46875 0.046875 C 10.25 0.078125 10.015625 0.09375 9.765625 0.09375 C 9.429688 0.09375 9.144531 0.0507812 8.90625 -0.03125 C 8.675781 -0.125 8.484375 -0.257812 8.328125 -0.4375 C 8.179688 -0.613281 8.066406 -0.832031 7.984375 -1.09375 C 7.910156 -1.363281 7.863281 -1.671875 7.84375 -2.015625 L 7.78125 -2.015625 C 7.59375 -1.679688 7.382812 -1.375 7.15625 -1.09375 C 6.9375 -0.820312 6.675781 -0.59375 6.375 -0.40625 C 6.070312 -0.21875 5.726562 -0.0703125 5.34375 0.03125 C 4.96875 0.144531 4.535156 0.203125 4.046875 0.203125 Z M 4.4375 -1.125 C 5 -1.125 5.488281 -1.222656 5.90625 -1.421875 C 6.332031 -1.628906 6.679688 -1.894531 6.953125 -2.21875 C 7.234375 -2.539062 7.441406 -2.890625 7.578125 -3.265625 C 7.710938 -3.640625 7.78125 -4 7.78125 -4.34375 L 7.78125 -5.21875 L 5.859375 -5.171875 C 5.429688 -5.171875 5.019531 -5.140625 4.625 -5.078125 C 4.238281 -5.023438 3.898438 -4.914062 3.609375 -4.75 C 3.316406 -4.59375 3.082031 -4.367188 2.90625 -4.078125 C 2.738281 -3.785156 2.65625 -3.398438 2.65625 -2.921875 C 2.65625 -2.347656 2.804688 -1.90625 3.109375 -1.59375 C 3.421875 -1.28125 3.863281 -1.125 4.4375 -1.125 Z M 4.4375 -1.125 "/>
</symbol>
<symbol overflow="visible" id="glyph0-13">
<path style="stroke:none;" d="M 1.34375 0 L 1.34375 -14.5 L 3.109375 -14.5 L 3.109375 0 Z M 1.34375 0 "/>
</symbol>
<symbol overflow="visible" id="glyph0-14">
<path style="stroke:none;" d="M 11.375 0 L 7.796875 -5.71875 L 3.5 -5.71875 L 3.5 0 L 1.640625 0 L 1.640625 -13.765625 L 8.109375 -13.765625 C 8.890625 -13.765625 9.582031 -13.671875 10.1875 -13.484375 C 10.789062 -13.304688 11.296875 -13.046875 11.703125 -12.703125 C 12.117188 -12.367188 12.429688 -11.957031 12.640625 -11.46875 C 12.859375 -10.988281 12.96875 -10.441406 12.96875 -9.828125 C 12.96875 -9.390625 12.90625 -8.957031 12.78125 -8.53125 C 12.65625 -8.113281 12.453125 -7.726562 12.171875 -7.375 C 11.898438 -7.019531 11.550781 -6.710938 11.125 -6.453125 C 10.707031 -6.203125 10.203125 -6.023438 9.609375 -5.921875 L 13.515625 0 Z M 11.09375 -9.8125 C 11.09375 -10.226562 11.019531 -10.585938 10.875 -10.890625 C 10.738281 -11.191406 10.53125 -11.445312 10.25 -11.65625 C 9.976562 -11.863281 9.644531 -12.015625 9.25 -12.109375 C 8.863281 -12.210938 8.425781 -12.265625 7.9375 -12.265625 L 3.5 -12.265625 L 3.5 -7.1875 L 8.015625 -7.1875 C 8.546875 -7.1875 9.003906 -7.253906 9.390625 -7.390625 C 9.785156 -7.523438 10.109375 -7.707031 10.359375 -7.9375 C 10.609375 -8.175781 10.789062 -8.453125 10.90625 -8.765625 C 11.03125 -9.085938 11.09375 -9.4375 11.09375 -9.8125 Z M 11.09375 -9.8125 "/>
</symbol>
<symbol overflow="visible" id="glyph0-15">
<path style="stroke:none;" d="M 2.703125 -4.90625 C 2.703125 -4.351562 2.753906 -3.84375 2.859375 -3.375 C 2.972656 -2.914062 3.148438 -2.519531 3.390625 -2.1875 C 3.628906 -1.851562 3.929688 -1.59375 4.296875 -1.40625 C 4.671875 -1.21875 5.117188 -1.125 5.640625 -1.125 C 6.398438 -1.125 7.007812 -1.273438 7.46875 -1.578125 C 7.9375 -1.890625 8.25 -2.28125 8.40625 -2.75 L 9.953125 -2.3125 C 9.835938 -2.007812 9.679688 -1.710938 9.484375 -1.421875 C 9.285156 -1.128906 9.019531 -0.863281 8.6875 -0.625 C 8.351562 -0.382812 7.9375 -0.1875 7.4375 -0.03125 C 6.945312 0.125 6.347656 0.203125 5.640625 0.203125 C 4.078125 0.203125 2.882812 -0.257812 2.0625 -1.1875 C 1.25 -2.125 0.84375 -3.515625 0.84375 -5.359375 C 0.84375 -6.347656 0.96875 -7.179688 1.21875 -7.859375 C 1.46875 -8.546875 1.804688 -9.101562 2.234375 -9.53125 C 2.660156 -9.96875 3.160156 -10.28125 3.734375 -10.46875 C 4.304688 -10.664062 4.921875 -10.765625 5.578125 -10.765625 C 6.460938 -10.765625 7.203125 -10.617188 7.796875 -10.328125 C 8.390625 -10.046875 8.867188 -9.648438 9.234375 -9.140625 C 9.597656 -8.640625 9.851562 -8.046875 10 -7.359375 C 10.15625 -6.679688 10.234375 -5.941406 10.234375 -5.140625 L 10.234375 -4.90625 Z M 8.421875 -6.265625 C 8.316406 -7.378906 8.03125 -8.191406 7.5625 -8.703125 C 7.09375 -9.210938 6.421875 -9.46875 5.546875 -9.46875 C 5.253906 -9.46875 4.945312 -9.421875 4.625 -9.328125 C 4.300781 -9.234375 4.003906 -9.0625 3.734375 -8.8125 C 3.460938 -8.570312 3.226562 -8.242188 3.03125 -7.828125 C 2.84375 -7.421875 2.738281 -6.898438 2.71875 -6.265625 Z M 8.421875 -6.265625 "/>
</symbol>
<symbol overflow="visible" id="glyph0-16">
<path style="stroke:none;" d="M 11.390625 0 L 9.828125 -4.03125 L 3.5625 -4.03125 L 1.96875 0 L 0.046875 0 L 5.65625 -13.765625 L 7.78125 -13.765625 L 13.296875 0 Z M 7.5 -10.015625 C 7.394531 -10.273438 7.296875 -10.539062 7.203125 -10.8125 C 7.109375 -11.082031 7.023438 -11.320312 6.953125 -11.53125 C 6.878906 -11.75 6.816406 -11.929688 6.765625 -12.078125 C 6.722656 -12.234375 6.695312 -12.328125 6.6875 -12.359375 C 6.675781 -12.328125 6.644531 -12.234375 6.59375 -12.078125 C 6.550781 -11.929688 6.492188 -11.742188 6.421875 -11.515625 C 6.347656 -11.296875 6.265625 -11.050781 6.171875 -10.78125 C 6.078125 -10.519531 5.976562 -10.257812 5.875 -10 L 4.125 -5.484375 L 9.265625 -5.484375 Z M 7.5 -10.015625 "/>
</symbol>
<symbol overflow="visible" id="glyph0-17">
<path style="stroke:none;" d="M 0.890625 -4.53125 L 0.890625 -6.09375 L 5.765625 -6.09375 L 5.765625 -4.53125 Z M 0.890625 -4.53125 "/>
</symbol>
<symbol overflow="visible" id="glyph0-18">
<path style="stroke:none;" d="M 1.53125 0 L 1.53125 -1.5 L 5.03125 -1.5 L 5.03125 -12.078125 L 1.921875 -9.859375 L 1.921875 -11.53125 L 5.171875 -13.765625 L 6.796875 -13.765625 L 6.796875 -1.5 L 10.140625 -1.5 L 10.140625 0 Z M 1.53125 0 "/>
</symbol>
<symbol overflow="visible" id="glyph0-19">
<path style="stroke:none;" d="M 8.609375 -3.109375 L 8.609375 0 L 6.9375 0 L 6.9375 -3.109375 L 0.453125 -3.109375 L 0.453125 -4.484375 L 6.765625 -13.765625 L 8.609375 -13.765625 L 8.609375 -4.5 L 10.53125 -4.5 L 10.53125 -3.109375 Z M 6.9375 -11.78125 C 6.925781 -11.75 6.894531 -11.6875 6.84375 -11.59375 C 6.789062 -11.5 6.734375 -11.390625 6.671875 -11.265625 C 6.609375 -11.148438 6.539062 -11.03125 6.46875 -10.90625 C 6.40625 -10.789062 6.347656 -10.691406 6.296875 -10.609375 L 2.765625 -5.421875 C 2.734375 -5.367188 2.6875 -5.300781 2.625 -5.21875 C 2.5625 -5.132812 2.492188 -5.046875 2.421875 -4.953125 C 2.359375 -4.867188 2.296875 -4.785156 2.234375 -4.703125 C 2.171875 -4.617188 2.117188 -4.550781 2.078125 -4.5 L 6.9375 -4.5 Z M 6.9375 -11.78125 "/>
</symbol>
<symbol overflow="visible" id="glyph0-20">
<path style="stroke:none;" d="M 10.25 -4.5 C 10.25 -3.8125 10.148438 -3.175781 9.953125 -2.59375 C 9.765625 -2.019531 9.484375 -1.523438 9.109375 -1.109375 C 8.734375 -0.703125 8.269531 -0.378906 7.71875 -0.140625 C 7.164062 0.0859375 6.523438 0.203125 5.796875 0.203125 C 4.992188 0.203125 4.289062 0.0507812 3.6875 -0.25 C 3.09375 -0.5625 2.597656 -1.003906 2.203125 -1.578125 C 1.804688 -2.160156 1.507812 -2.867188 1.3125 -3.703125 C 1.113281 -4.546875 1.015625 -5.5 1.015625 -6.5625 C 1.015625 -7.789062 1.125 -8.863281 1.34375 -9.78125 C 1.570312 -10.707031 1.894531 -11.476562 2.3125 -12.09375 C 2.738281 -12.71875 3.253906 -13.1875 3.859375 -13.5 C 4.472656 -13.8125 5.164062 -13.96875 5.9375 -13.96875 C 6.40625 -13.96875 6.84375 -13.914062 7.25 -13.8125 C 7.664062 -13.71875 8.039062 -13.5625 8.375 -13.34375 C 8.707031 -13.125 9 -12.832031 9.25 -12.46875 C 9.507812 -12.113281 9.710938 -11.675781 9.859375 -11.15625 L 8.1875 -10.859375 C 8 -11.453125 7.703125 -11.878906 7.296875 -12.140625 C 6.898438 -12.410156 6.441406 -12.546875 5.921875 -12.546875 C 5.441406 -12.546875 5.003906 -12.429688 4.609375 -12.203125 C 4.222656 -11.972656 3.890625 -11.628906 3.609375 -11.171875 C 3.335938 -10.722656 3.128906 -10.15625 2.984375 -9.46875 C 2.835938 -8.789062 2.765625 -7.992188 2.765625 -7.078125 C 3.085938 -7.671875 3.535156 -8.117188 4.109375 -8.421875 C 4.691406 -8.734375 5.359375 -8.890625 6.109375 -8.890625 C 6.734375 -8.890625 7.296875 -8.789062 7.796875 -8.59375 C 8.304688 -8.394531 8.742188 -8.101562 9.109375 -7.71875 C 9.472656 -7.34375 9.753906 -6.878906 9.953125 -6.328125 C 10.148438 -5.785156 10.25 -5.175781 10.25 -4.5 Z M 8.453125 -4.421875 C 8.453125 -4.898438 8.394531 -5.332031 8.28125 -5.71875 C 8.164062 -6.101562 7.988281 -6.425781 7.75 -6.6875 C 7.519531 -6.957031 7.234375 -7.164062 6.890625 -7.3125 C 6.546875 -7.46875 6.144531 -7.546875 5.6875 -7.546875 C 5.363281 -7.546875 5.039062 -7.492188 4.71875 -7.390625 C 4.394531 -7.296875 4.097656 -7.144531 3.828125 -6.9375 C 3.566406 -6.726562 3.351562 -6.453125 3.1875 -6.109375 C 3.019531 -5.765625 2.9375 -5.34375 2.9375 -4.84375 C 2.9375 -4.332031 3 -3.859375 3.125 -3.421875 C 3.257812 -2.984375 3.445312 -2.597656 3.6875 -2.265625 C 3.9375 -1.941406 4.234375 -1.6875 4.578125 -1.5 C 4.921875 -1.3125 5.3125 -1.21875 5.75 -1.21875 C 6.164062 -1.21875 6.539062 -1.289062 6.875 -1.4375 C 7.21875 -1.582031 7.503906 -1.789062 7.734375 -2.0625 C 7.972656 -2.34375 8.148438 -2.679688 8.265625 -3.078125 C 8.390625 -3.484375 8.453125 -3.929688 8.453125 -4.421875 Z M 8.453125 -4.421875 "/>
</symbol>
<symbol overflow="visible" id="glyph0-21">
<path style="stroke:none;" d="M 10.25 -3.796875 C 10.25 -3.171875 10.144531 -2.609375 9.9375 -2.109375 C 9.726562 -1.617188 9.425781 -1.203125 9.03125 -0.859375 C 8.644531 -0.515625 8.160156 -0.25 7.578125 -0.0625 C 6.992188 0.113281 6.328125 0.203125 5.578125 0.203125 C 4.722656 0.203125 4.003906 0.0976562 3.421875 -0.109375 C 2.835938 -0.328125 2.359375 -0.609375 1.984375 -0.953125 C 1.609375 -1.304688 1.320312 -1.707031 1.125 -2.15625 C 0.9375 -2.601562 0.816406 -3.0625 0.765625 -3.53125 L 2.578125 -3.703125 C 2.628906 -3.335938 2.722656 -3.003906 2.859375 -2.703125 C 3.003906 -2.398438 3.195312 -2.140625 3.4375 -1.921875 C 3.675781 -1.710938 3.972656 -1.550781 4.328125 -1.4375 C 4.679688 -1.320312 5.097656 -1.265625 5.578125 -1.265625 C 6.460938 -1.265625 7.15625 -1.476562 7.65625 -1.90625 C 8.164062 -2.34375 8.421875 -2.992188 8.421875 -3.859375 C 8.421875 -4.367188 8.304688 -4.773438 8.078125 -5.078125 C 7.859375 -5.390625 7.578125 -5.628906 7.234375 -5.796875 C 6.898438 -5.972656 6.535156 -6.085938 6.140625 -6.140625 C 5.753906 -6.203125 5.394531 -6.234375 5.0625 -6.234375 L 4.0625 -6.234375 L 4.0625 -7.765625 L 5.015625 -7.765625 C 5.347656 -7.765625 5.691406 -7.796875 6.046875 -7.859375 C 6.410156 -7.929688 6.738281 -8.054688 7.03125 -8.234375 C 7.332031 -8.410156 7.578125 -8.648438 7.765625 -8.953125 C 7.960938 -9.265625 8.0625 -9.660156 8.0625 -10.140625 C 8.0625 -10.867188 7.84375 -11.445312 7.40625 -11.875 C 6.976562 -12.300781 6.335938 -12.515625 5.484375 -12.515625 C 4.703125 -12.515625 4.070312 -12.316406 3.59375 -11.921875 C 3.113281 -11.523438 2.835938 -10.96875 2.765625 -10.25 L 1 -10.375 C 1.070312 -10.988281 1.238281 -11.519531 1.5 -11.96875 C 1.757812 -12.414062 2.085938 -12.785156 2.484375 -13.078125 C 2.890625 -13.378906 3.347656 -13.601562 3.859375 -13.75 C 4.367188 -13.894531 4.914062 -13.96875 5.5 -13.96875 C 6.269531 -13.96875 6.929688 -13.867188 7.484375 -13.671875 C 8.035156 -13.484375 8.484375 -13.222656 8.828125 -12.890625 C 9.179688 -12.566406 9.441406 -12.179688 9.609375 -11.734375 C 9.773438 -11.296875 9.859375 -10.828125 9.859375 -10.328125 C 9.859375 -9.921875 9.800781 -9.539062 9.6875 -9.1875 C 9.582031 -8.832031 9.410156 -8.515625 9.171875 -8.234375 C 8.941406 -7.960938 8.644531 -7.722656 8.28125 -7.515625 C 7.925781 -7.316406 7.492188 -7.164062 6.984375 -7.0625 L 6.984375 -7.015625 C 7.535156 -6.960938 8.015625 -6.835938 8.421875 -6.640625 C 8.835938 -6.453125 9.175781 -6.210938 9.4375 -5.921875 C 9.707031 -5.640625 9.910156 -5.316406 10.046875 -4.953125 C 10.179688 -4.585938 10.25 -4.203125 10.25 -3.796875 Z M 10.25 -3.796875 "/>
</symbol>
<symbol overflow="visible" id="glyph0-22">
<path style="stroke:none;" d="M 1.828125 0 L 1.828125 -2.140625 L 3.734375 -2.140625 L 3.734375 0 Z M 1.828125 0 "/>
</symbol>
<symbol overflow="visible" id="glyph0-23">
<path style="stroke:none;" d="M 10.34375 -6.890625 C 10.34375 -5.566406 10.21875 -4.453125 9.96875 -3.546875 C 9.71875 -2.648438 9.375 -1.921875 8.9375 -1.359375 C 8.507812 -0.804688 8 -0.40625 7.40625 -0.15625 C 6.820312 0.0820312 6.195312 0.203125 5.53125 0.203125 C 4.863281 0.203125 4.238281 0.0820312 3.65625 -0.15625 C 3.082031 -0.40625 2.582031 -0.804688 2.15625 -1.359375 C 1.726562 -1.910156 1.390625 -2.632812 1.140625 -3.53125 C 0.898438 -4.4375 0.78125 -5.554688 0.78125 -6.890625 C 0.78125 -8.273438 0.898438 -9.421875 1.140625 -10.328125 C 1.390625 -11.234375 1.726562 -11.957031 2.15625 -12.5 C 2.582031 -13.039062 3.085938 -13.421875 3.671875 -13.640625 C 4.265625 -13.859375 4.90625 -13.96875 5.59375 -13.96875 C 6.25 -13.96875 6.863281 -13.859375 7.4375 -13.640625 C 8.019531 -13.421875 8.523438 -13.039062 8.953125 -12.5 C 9.378906 -11.957031 9.71875 -11.234375 9.96875 -10.328125 C 10.21875 -9.421875 10.34375 -8.273438 10.34375 -6.890625 Z M 8.5625 -6.890625 C 8.5625 -7.984375 8.492188 -8.890625 8.359375 -9.609375 C 8.234375 -10.335938 8.039062 -10.914062 7.78125 -11.34375 C 7.53125 -11.78125 7.21875 -12.085938 6.84375 -12.265625 C 6.476562 -12.453125 6.0625 -12.546875 5.59375 -12.546875 C 5.101562 -12.546875 4.664062 -12.453125 4.28125 -12.265625 C 3.90625 -12.085938 3.585938 -11.78125 3.328125 -11.34375 C 3.078125 -10.90625 2.882812 -10.320312 2.75 -9.59375 C 2.625 -8.875 2.5625 -7.972656 2.5625 -6.890625 C 2.5625 -5.828125 2.625 -4.9375 2.75 -4.21875 C 2.882812 -3.5 3.082031 -2.914062 3.34375 -2.46875 C 3.601562 -2.03125 3.914062 -1.710938 4.28125 -1.515625 C 4.65625 -1.328125 5.082031 -1.234375 5.5625 -1.234375 C 6.019531 -1.234375 6.429688 -1.328125 6.796875 -1.515625 C 7.171875 -1.710938 7.488281 -2.03125 7.75 -2.46875 C 8.007812 -2.914062 8.207031 -3.5 8.34375 -4.21875 C 8.488281 -4.9375 8.5625 -5.828125 8.5625 -6.890625 Z M 8.5625 -6.890625 "/>
</symbol>
<symbol overflow="visible" id="glyph0-24">
<path style="stroke:none;" d="M 10.125 -12.328125 C 9.425781 -11.273438 8.785156 -10.257812 8.203125 -9.28125 C 7.628906 -8.3125 7.132812 -7.332031 6.71875 -6.34375 C 6.300781 -5.363281 5.976562 -4.351562 5.75 -3.3125 C 5.519531 -2.28125 5.40625 -1.175781 5.40625 0 L 3.5625 0 C 3.5625 -1.101562 3.691406 -2.179688 3.953125 -3.234375 C 4.210938 -4.296875 4.5625 -5.332031 5 -6.34375 C 5.445312 -7.363281 5.960938 -8.363281 6.546875 -9.34375 C 7.140625 -10.332031 7.765625 -11.304688 8.421875 -12.265625 L 1.03125 -12.265625 L 1.03125 -13.765625 L 10.125 -13.765625 Z M 10.125 -12.328125 "/>
</symbol>
<symbol overflow="visible" id="glyph0-25">
<path style="stroke:none;" d="M 1 0 L 1 -1.234375 C 1.332031 -2.003906 1.738281 -2.675781 2.21875 -3.25 C 2.695312 -3.832031 3.195312 -4.359375 3.71875 -4.828125 C 4.25 -5.304688 4.773438 -5.75 5.296875 -6.15625 C 5.816406 -6.5625 6.285156 -6.960938 6.703125 -7.359375 C 7.117188 -7.765625 7.453125 -8.1875 7.703125 -8.625 C 7.960938 -9.070312 8.09375 -9.578125 8.09375 -10.140625 C 8.09375 -10.523438 8.035156 -10.863281 7.921875 -11.15625 C 7.804688 -11.457031 7.632812 -11.707031 7.40625 -11.90625 C 7.1875 -12.113281 6.921875 -12.265625 6.609375 -12.359375 C 6.304688 -12.460938 5.96875 -12.515625 5.59375 -12.515625 C 5.238281 -12.515625 4.90625 -12.46875 4.59375 -12.375 C 4.28125 -12.28125 4.003906 -12.132812 3.765625 -11.9375 C 3.523438 -11.738281 3.328125 -11.492188 3.171875 -11.203125 C 3.023438 -10.910156 2.925781 -10.578125 2.875 -10.203125 L 1.078125 -10.359375 C 1.140625 -10.859375 1.273438 -11.320312 1.484375 -11.75 C 1.703125 -12.1875 2 -12.570312 2.375 -12.90625 C 2.757812 -13.238281 3.21875 -13.5 3.75 -13.6875 C 4.28125 -13.875 4.894531 -13.96875 5.59375 -13.96875 C 6.269531 -13.96875 6.875 -13.882812 7.40625 -13.71875 C 7.945312 -13.5625 8.398438 -13.320312 8.765625 -13 C 9.128906 -12.675781 9.410156 -12.28125 9.609375 -11.8125 C 9.804688 -11.34375 9.90625 -10.804688 9.90625 -10.203125 C 9.90625 -9.734375 9.820312 -9.289062 9.65625 -8.875 C 9.488281 -8.457031 9.265625 -8.0625 8.984375 -7.6875 C 8.710938 -7.3125 8.394531 -6.945312 8.03125 -6.59375 C 7.664062 -6.238281 7.285156 -5.894531 6.890625 -5.5625 C 6.492188 -5.226562 6.09375 -4.894531 5.6875 -4.5625 C 5.28125 -4.238281 4.898438 -3.910156 4.546875 -3.578125 C 4.191406 -3.242188 3.875 -2.90625 3.59375 -2.5625 C 3.3125 -2.21875 3.09375 -1.863281 2.9375 -1.5 L 10.125 -1.5 L 10.125 0 Z M 1 0 "/>
</symbol>
<symbol overflow="visible" id="glyph0-26">
<path style="stroke:none;" d="M 10.171875 -7.15625 C 10.171875 -5.9375 10.054688 -4.863281 9.828125 -3.9375 C 9.597656 -3.019531 9.265625 -2.253906 8.828125 -1.640625 C 8.398438 -1.023438 7.878906 -0.5625 7.265625 -0.25 C 6.648438 0.0507812 5.960938 0.203125 5.203125 0.203125 C 4.671875 0.203125 4.191406 0.144531 3.765625 0.03125 C 3.347656 -0.0703125 2.972656 -0.238281 2.640625 -0.46875 C 2.304688 -0.695312 2.019531 -0.992188 1.78125 -1.359375 C 1.550781 -1.722656 1.363281 -2.160156 1.21875 -2.671875 L 2.90625 -2.9375 C 3.082031 -2.34375 3.363281 -1.90625 3.75 -1.625 C 4.144531 -1.351562 4.632812 -1.21875 5.21875 -1.21875 C 5.695312 -1.21875 6.132812 -1.328125 6.53125 -1.546875 C 6.925781 -1.773438 7.257812 -2.113281 7.53125 -2.5625 C 7.8125 -3.019531 8.03125 -3.585938 8.1875 -4.265625 C 8.34375 -4.941406 8.425781 -5.734375 8.4375 -6.640625 C 8.300781 -6.335938 8.113281 -6.0625 7.875 -5.8125 C 7.632812 -5.570312 7.363281 -5.367188 7.0625 -5.203125 C 6.757812 -5.046875 6.429688 -4.921875 6.078125 -4.828125 C 5.734375 -4.742188 5.378906 -4.703125 5.015625 -4.703125 C 4.390625 -4.703125 3.820312 -4.8125 3.3125 -5.03125 C 2.8125 -5.257812 2.382812 -5.570312 2.03125 -5.96875 C 1.6875 -6.375 1.414062 -6.863281 1.21875 -7.4375 C 1.03125 -8.007812 0.9375 -8.644531 0.9375 -9.34375 C 0.9375 -10.050781 1.035156 -10.691406 1.234375 -11.265625 C 1.441406 -11.835938 1.738281 -12.320312 2.125 -12.71875 C 2.519531 -13.125 3.003906 -13.429688 3.578125 -13.640625 C 4.148438 -13.859375 4.796875 -13.96875 5.515625 -13.96875 C 7.046875 -13.96875 8.203125 -13.398438 8.984375 -12.265625 C 9.773438 -11.128906 10.171875 -9.425781 10.171875 -7.15625 Z M 8.265625 -8.859375 C 8.265625 -9.367188 8.203125 -9.847656 8.078125 -10.296875 C 7.960938 -10.742188 7.785156 -11.132812 7.546875 -11.46875 C 7.304688 -11.800781 7.007812 -12.0625 6.65625 -12.25 C 6.3125 -12.445312 5.910156 -12.546875 5.453125 -12.546875 C 5.035156 -12.546875 4.65625 -12.46875 4.3125 -12.3125 C 3.976562 -12.164062 3.691406 -11.953125 3.453125 -11.671875 C 3.222656 -11.398438 3.039062 -11.0625 2.90625 -10.65625 C 2.78125 -10.257812 2.71875 -9.820312 2.71875 -9.34375 C 2.71875 -8.875 2.773438 -8.441406 2.890625 -8.046875 C 3.003906 -7.648438 3.175781 -7.304688 3.40625 -7.015625 C 3.632812 -6.722656 3.914062 -6.492188 4.25 -6.328125 C 4.59375 -6.160156 4.988281 -6.078125 5.4375 -6.078125 C 5.757812 -6.078125 6.085938 -6.132812 6.421875 -6.25 C 6.765625 -6.363281 7.070312 -6.53125 7.34375 -6.75 C 7.613281 -6.976562 7.832031 -7.265625 8 -7.609375 C 8.175781 -7.960938 8.265625 -8.378906 8.265625 -8.859375 Z M 8.265625 -8.859375 "/>
</symbol>
<symbol overflow="visible" id="glyph0-27">
<path style="stroke:none;" d="M 1.234375 -5.203125 C 1.234375 -6.097656 1.300781 -6.957031 1.4375 -7.78125 C 1.582031 -8.613281 1.800781 -9.410156 2.09375 -10.171875 C 2.382812 -10.929688 2.753906 -11.671875 3.203125 -12.390625 C 3.660156 -13.109375 4.207031 -13.8125 4.84375 -14.5 L 6.546875 -14.5 C 5.929688 -13.8125 5.398438 -13.109375 4.953125 -12.390625 C 4.503906 -11.671875 4.132812 -10.925781 3.84375 -10.15625 C 3.5625 -9.394531 3.351562 -8.597656 3.21875 -7.765625 C 3.082031 -6.941406 3.015625 -6.078125 3.015625 -5.171875 C 3.015625 -4.265625 3.082031 -3.398438 3.21875 -2.578125 C 3.351562 -1.753906 3.5625 -0.957031 3.84375 -0.1875 C 4.132812 0.582031 4.503906 1.320312 4.953125 2.03125 C 5.398438 2.75 5.929688 3.453125 6.546875 4.140625 L 4.84375 4.140625 C 4.207031 3.453125 3.660156 2.75 3.203125 2.03125 C 2.753906 1.320312 2.382812 0.585938 2.09375 -0.171875 C 1.800781 -0.929688 1.582031 -1.722656 1.4375 -2.546875 C 1.300781 -3.378906 1.234375 -4.25 1.234375 -5.15625 Z M 1.234375 -5.203125 "/>
</symbol>
<symbol overflow="visible" id="glyph0-28">
<path style="stroke:none;" d="M 10.28125 -4.484375 C 10.28125 -3.796875 10.175781 -3.164062 9.96875 -2.59375 C 9.757812 -2.019531 9.445312 -1.523438 9.03125 -1.109375 C 8.625 -0.691406 8.117188 -0.367188 7.515625 -0.140625 C 6.910156 0.0859375 6.207031 0.203125 5.40625 0.203125 C 4.675781 0.203125 4.039062 0.117188 3.5 -0.046875 C 2.96875 -0.222656 2.515625 -0.457031 2.140625 -0.75 C 1.773438 -1.050781 1.484375 -1.398438 1.265625 -1.796875 C 1.046875 -2.191406 0.890625 -2.617188 0.796875 -3.078125 L 2.578125 -3.28125 C 2.648438 -3.019531 2.75 -2.765625 2.875 -2.515625 C 3.007812 -2.273438 3.1875 -2.054688 3.40625 -1.859375 C 3.632812 -1.671875 3.910156 -1.519531 4.234375 -1.40625 C 4.566406 -1.289062 4.96875 -1.234375 5.4375 -1.234375 C 5.894531 -1.234375 6.304688 -1.300781 6.671875 -1.4375 C 7.046875 -1.582031 7.363281 -1.789062 7.625 -2.0625 C 7.894531 -2.34375 8.097656 -2.679688 8.234375 -3.078125 C 8.378906 -3.472656 8.453125 -3.925781 8.453125 -4.4375 C 8.453125 -4.863281 8.382812 -5.253906 8.25 -5.609375 C 8.113281 -5.960938 7.914062 -6.269531 7.65625 -6.53125 C 7.40625 -6.789062 7.097656 -6.988281 6.734375 -7.125 C 6.367188 -7.269531 5.953125 -7.34375 5.484375 -7.34375 C 5.191406 -7.34375 4.921875 -7.316406 4.671875 -7.265625 C 4.421875 -7.210938 4.1875 -7.140625 3.96875 -7.046875 C 3.757812 -6.960938 3.566406 -6.859375 3.390625 -6.734375 C 3.222656 -6.609375 3.066406 -6.484375 2.921875 -6.359375 L 1.203125 -6.359375 L 1.65625 -13.765625 L 9.484375 -13.765625 L 9.484375 -12.265625 L 3.265625 -12.265625 L 3 -7.90625 C 3.3125 -8.144531 3.703125 -8.347656 4.171875 -8.515625 C 4.640625 -8.691406 5.195312 -8.78125 5.84375 -8.78125 C 6.519531 -8.78125 7.128906 -8.675781 7.671875 -8.46875 C 8.222656 -8.257812 8.691406 -7.960938 9.078125 -7.578125 C 9.460938 -7.203125 9.757812 -6.75 9.96875 -6.21875 C 10.175781 -5.695312 10.28125 -5.117188 10.28125 -4.484375 Z M 10.28125 -4.484375 "/>
</symbol>
<symbol overflow="visible" id="glyph0-29">
<path style="stroke:none;" d="M 3.765625 -2.140625 L 3.765625 -0.5 C 3.765625 -0.15625 3.75 0.15625 3.71875 0.4375 C 3.6875 0.726562 3.640625 0.992188 3.578125 1.234375 C 3.515625 1.484375 3.429688 1.710938 3.328125 1.921875 C 3.234375 2.140625 3.125 2.351562 3 2.5625 L 1.796875 2.5625 C 2.085938 2.132812 2.3125 1.707031 2.46875 1.28125 C 2.632812 0.851562 2.71875 0.425781 2.71875 0 L 1.859375 0 L 1.859375 -2.140625 Z M 3.765625 -2.140625 "/>
</symbol>
<symbol overflow="visible" id="glyph0-30">
<path style="stroke:none;" d="M 5.421875 -5.15625 C 5.421875 -4.25 5.351562 -3.378906 5.21875 -2.546875 C 5.082031 -1.722656 4.863281 -0.929688 4.5625 -0.171875 C 4.269531 0.585938 3.894531 1.320312 3.4375 2.03125 C 2.988281 2.75 2.445312 3.453125 1.8125 4.140625 L 0.125 4.140625 C 0.726562 3.453125 1.253906 2.75 1.703125 2.03125 C 2.148438 1.320312 2.515625 0.582031 2.796875 -0.1875 C 3.085938 -0.957031 3.300781 -1.753906 3.4375 -2.578125 C 3.582031 -3.398438 3.65625 -4.265625 3.65625 -5.171875 C 3.65625 -6.078125 3.582031 -6.941406 3.4375 -7.765625 C 3.300781 -8.597656 3.085938 -9.394531 2.796875 -10.15625 C 2.515625 -10.925781 2.148438 -11.671875 1.703125 -12.390625 C 1.253906 -13.109375 0.726562 -13.8125 0.125 -14.5 L 1.8125 -14.5 C 2.445312 -13.8125 2.988281 -13.109375 3.4375 -12.390625 C 3.894531 -11.671875 4.269531 -10.929688 4.5625 -10.171875 C 4.863281 -9.410156 5.082031 -8.613281 5.21875 -7.78125 C 5.351562 -6.957031 5.421875 -6.097656 5.421875 -5.203125 Z M 5.421875 -5.15625 "/>
</symbol>
<symbol overflow="visible" id="glyph1-0">
<path style="stroke:none;" d=""/>
</symbol>
<symbol overflow="visible" id="glyph1-1">
<path style="stroke:none;" d="M 7.46875 3.859375 C 6.625 3.28125 6.21875 2.90625 5.71875 2.265625 C 4.375 0.46875 3.609375 -2.640625 3.609375 -6.328125 C 3.609375 -9.6875 4.25 -12.671875 5.40625 -14.46875 C 5.953125 -15.3125 6.421875 -15.78125 7.46875 -16.5 L 7.140625 -16.921875 C 6 -16.328125 5.5 -15.984375 4.859375 -15.375 C 2.609375 -13.3125 1.3125 -9.953125 1.3125 -6.328125 C 1.3125 -2.90625 2.4375 0.21875 4.453125 2.3125 C 5.203125 3.140625 5.796875 3.5625 7.140625 4.28125 Z M 7.46875 3.859375 "/>
</symbol>
<symbol overflow="visible" id="glyph1-2">
<path style="stroke:none;" d="M 1.0625 4.28125 C 2.21875 3.65625 2.71875 3.328125 3.359375 2.734375 C 5.578125 0.671875 6.890625 -2.6875 6.890625 -6.328125 C 6.890625 -9.734375 5.75 -12.875 3.765625 -14.984375 C 3.015625 -15.78125 2.421875 -16.234375 1.0625 -16.921875 L 0.75 -16.5 C 1.625 -15.90625 1.984375 -15.5625 2.484375 -14.90625 C 3.828125 -13.125 4.609375 -10 4.609375 -6.328125 C 4.609375 -2.96875 3.953125 0 2.8125 1.796875 C 2.234375 2.65625 1.765625 3.15625 0.75 3.859375 Z M 1.0625 4.28125 "/>
</symbol>
<symbol overflow="visible" id="glyph2-0">
<path style="stroke:none;" d=""/>
</symbol>
<symbol overflow="visible" id="glyph2-1">
<path style="stroke:none;" d=""/>
</symbol>
<symbol overflow="visible" id="glyph2-2">
<path style="stroke:none;" d="M 8.8125 -9.953125 L 7.03125 -9.953125 L 7.046875 -2.609375 C 6.328125 -1.59375 5.65625 -1.15625 4.828125 -1.15625 C 3.671875 -1.15625 2.984375 -1.96875 2.984375 -3.359375 L 2.984375 -9.953125 L 1.234375 -9.953125 L 1.234375 -0.390625 C 1.234375 0.015625 1.15625 0.515625 1.015625 1.109375 C 0.671875 2.34375 0.65625 2.46875 0.65625 2.921875 C 0.65625 3.765625 1.078125 4.359375 1.65625 4.359375 C 2.234375 4.359375 2.625 3.765625 2.625 2.890625 C 2.625 2.46875 2.5625 2.21875 2.25 1.0625 C 2.046875 0.34375 2.015625 0.140625 2.015625 -0.421875 L 2.015625 -0.65625 C 2.84375 0.046875 3.3125 0.265625 3.984375 0.265625 C 4.984375 0.265625 6 -0.359375 7.046875 -1.59375 C 7.21875 -0.953125 7.3125 -0.71875 7.515625 -0.421875 C 7.8125 0 8.34375 0.265625 8.921875 0.265625 C 10.15625 0.265625 11.015625 -0.625 11.296875 -2.15625 L 10.75 -2.171875 C 10.671875 -1.421875 10.265625 -0.8125 9.796875 -0.8125 C 9.203125 -0.8125 8.8125 -1.53125 8.8125 -2.609375 Z M 8.8125 -9.953125 "/>
</symbol>
<symbol overflow="visible" id="glyph2-3">
<path style="stroke:none;" d="M 11.71875 -8.234375 L 11.71875 -9.953125 L 7.1875 -9.953125 C 5.625 -9.953125 4.546875 -9.78125 3.625 -9.390625 C 1.6875 -8.5 0.59375 -6.953125 0.59375 -5.09375 C 0.59375 -3.8125 1.09375 -2.484375 2.015625 -1.453125 C 3.046875 -0.265625 4.1875 0.265625 5.75 0.265625 C 7.109375 0.265625 8.265625 -0.15625 9.1875 -0.96875 C 10.078125 -1.796875 10.625 -2.921875 10.625 -4 C 10.625 -5.515625 9.46875 -7.015625 7.34375 -8.234375 Z M 6.421875 -8.234375 C 8.125 -6.453125 8.5 -5.703125 8.5 -4.0625 C 8.5 -1.984375 7.515625 -0.59375 6.03125 -0.59375 C 4.203125 -0.59375 2.6875 -2.609375 2.6875 -5.0625 C 2.6875 -6.96875 3.921875 -8.234375 5.796875 -8.234375 Z M 6.421875 -8.234375 "/>
</symbol>
<symbol overflow="visible" id="glyph3-0">
<path style="stroke:none;" d=""/>
</symbol>
<symbol overflow="visible" id="glyph3-1">
<path style="stroke:none;" d="M 9.25 -6.203125 C 9.25 -10.640625 7.71875 -12.90625 4.953125 -12.90625 C 2.203125 -12.90625 0.625 -10.609375 0.625 -6.3125 C 0.625 -2.015625 2.21875 0.265625 4.953125 0.265625 C 7.65625 0.265625 9.25 -2.015625 9.25 -6.203125 Z M 7.359375 -6.359375 C 7.359375 -2.734375 6.671875 -1.1875 4.90625 -1.1875 C 3.234375 -1.1875 2.515625 -2.8125 2.515625 -6.296875 C 2.515625 -9.796875 3.234375 -11.359375 4.953125 -11.359375 C 6.65625 -11.359375 7.359375 -9.78125 7.359375 -6.359375 Z M 7.359375 -6.359375 "/>
</symbol>
<symbol overflow="visible" id="glyph3-2">
<path style="stroke:none;" d="M 3.5625 -0.078125 L 3.5625 -2.015625 L 1.421875 -2.015625 L 1.421875 0 L 3.5625 0 Z M 3.5625 -0.078125 "/>
</symbol>
<symbol overflow="visible" id="glyph3-3">
<path style="stroke:none;" d="M 9.328125 -9.09375 C 9.328125 -11.25 7.53125 -12.90625 5.109375 -12.90625 C 2.5 -12.90625 0.84375 -11.5625 0.75 -8.328125 L 2.609375 -8.328125 C 2.734375 -10.546875 3.484375 -11.375 5.0625 -11.375 C 6.5 -11.375 7.4375 -10.421875 7.4375 -9.046875 C 7.4375 -8.046875 6.875 -7.21875 5.734375 -6.5625 L 4.09375 -5.640625 C 1.421875 -4.125 0.609375 -2.9375 0.46875 0 L 9.234375 0 L 9.234375 -1.703125 L 2.53125 -1.703125 C 2.6875 -2.6875 3.21875 -3.296875 4.78125 -4.21875 L 6.59375 -5.1875 C 8.375 -6.140625 9.328125 -7.53125 9.328125 -9.09375 Z M 9.328125 -9.09375 "/>
</symbol>
<symbol overflow="visible" id="glyph3-4">
<path style="stroke:none;" d="M 9.359375 -4.296875 C 9.359375 -6.828125 7.5625 -8.546875 5.109375 -8.546875 C 4.21875 -8.546875 3.390625 -8.28125 2.921875 -7.9375 L 3.359375 -10.921875 L 8.6875 -10.921875 L 8.6875 -12.640625 L 1.84375 -12.640625 L 0.859375 -5.8125 L 2.5625 -5.8125 C 3.3125 -6.71875 3.828125 -7 4.828125 -7 C 6.53125 -7 7.46875 -5.96875 7.46875 -4.09375 C 7.46875 -2.25 6.546875 -1.28125 4.828125 -1.28125 C 3.4375 -1.28125 2.71875 -1.90625 2.328125 -3.421875 L 0.46875 -3.421875 C 1.015625 -0.8125 2.59375 0.265625 4.859375 0.265625 C 7.4375 0.265625 9.359375 -1.609375 9.359375 -4.296875 Z M 9.359375 -4.296875 "/>
</symbol>
<symbol overflow="visible" id="glyph3-5">
<path style="stroke:none;" d="M 9.484375 -11.234375 L 9.484375 -12.640625 L 0.6875 -12.640625 L 0.6875 -10.921875 L 7.53125 -10.921875 C 5.078125 -7.828125 3.234375 -4.125 2.296875 0 L 4.28125 0 C 5 -4.1875 6.765625 -7.984375 9.484375 -11.21875 Z M 9.484375 -11.234375 "/>
</symbol>
<symbol overflow="visible" id="glyph3-6">
<path style="stroke:none;" d="M 6.375 -0.078125 L 6.375 -12.90625 L 5.0625 -12.90625 C 4.5 -10.921875 4.28125 -10.671875 1.6875 -10.34375 L 1.6875 -9.09375 L 4.515625 -9.09375 L 4.515625 0 L 6.375 0 Z M 6.375 -0.078125 "/>
</symbol>
<symbol overflow="visible" id="glyph3-7">
<path style="stroke:none;" d="M 9.484375 -3.125 L 9.484375 -4.625 L 7.59375 -4.625 L 7.59375 -12.90625 L 6.203125 -12.90625 L 0.359375 -4.78125 L 0.359375 -3.0625 L 5.734375 -3.0625 L 5.734375 0 L 7.59375 0 L 7.59375 -3.0625 L 9.484375 -3.0625 Z M 5.890625 -4.625 L 2.0625 -4.625 L 5.96875 -10.078125 L 5.734375 -10.140625 L 5.734375 -4.625 Z M 5.890625 -4.625 "/>
</symbol>
<symbol overflow="visible" id="glyph3-8">
<path style="stroke:none;" d="M 9.359375 -4.03125 C 9.359375 -6.40625 7.609375 -8.078125 5.328125 -8.078125 C 4.0625 -8.078125 2.96875 -7.5625 2.28125 -6.625 L 2.515625 -6.59375 C 2.53125 -9.703125 3.421875 -11.359375 5.234375 -11.359375 C 6.359375 -11.359375 6.984375 -10.734375 7.25 -9.4375 L 9.109375 -9.4375 C 8.78125 -11.59375 7.296875 -12.90625 5.34375 -12.90625 C 2.375 -12.90625 0.625 -10.328125 0.625 -5.890625 C 0.625 -1.90625 2.140625 0.265625 5.0625 0.265625 C 7.484375 0.265625 9.359375 -1.53125 9.359375 -4.03125 Z M 7.46875 -3.90625 C 7.46875 -2.296875 6.53125 -1.28125 5.078125 -1.28125 C 3.59375 -1.28125 2.609375 -2.359375 2.609375 -4 C 2.609375 -5.578125 3.5625 -6.53125 5.125 -6.53125 C 6.65625 -6.53125 7.46875 -5.609375 7.46875 -3.90625 Z M 7.46875 -3.90625 "/>
</symbol>
<symbol overflow="visible" id="glyph4-0">
<path style="stroke:none;" d=""/>
</symbol>
<symbol overflow="visible" id="glyph4-1">
<path style="stroke:none;" d="M 13.046875 -4.671875 L 9.703125 -4.671875 C 9.25 -3.28125 8.546875 -2.59375 7.203125 -2.59375 C 5.421875 -2.59375 4.34375 -4.03125 4.34375 -6.65625 C 4.34375 -9.125 5 -10.90625 7.203125 -10.90625 C 8.625 -10.90625 9.296875 -10.21875 9.703125 -8.453125 L 13.046875 -8.453125 C 12.796875 -11.75 10.59375 -13.71875 7.21875 -13.71875 C 3.203125 -13.71875 0.84375 -11.25 0.84375 -6.65625 C 0.84375 -2.203125 3.171875 0.21875 7.171875 0.21875 C 10.453125 0.21875 12.71875 -1.796875 13.046875 -4.671875 Z M 13.046875 -4.671875 "/>
</symbol>
<symbol overflow="visible" id="glyph4-2">
<path style="stroke:none;" d="M 14.21875 -6.65625 C 14.21875 -11.21875 11.75 -13.71875 7.53125 -13.71875 C 3.40625 -13.71875 0.875 -11.171875 0.875 -6.75 C 0.875 -2.296875 3.40625 0.21875 7.546875 0.21875 C 11.65625 0.21875 14.21875 -2.328125 14.21875 -6.65625 Z M 10.71875 -6.703125 C 10.71875 -4.171875 9.421875 -2.59375 7.546875 -2.59375 C 5.65625 -2.59375 4.375 -4.171875 4.375 -6.75 C 4.375 -9.328125 5.65625 -10.90625 7.546875 -10.90625 C 9.46875 -10.90625 10.71875 -9.34375 10.71875 -6.703125 Z M 10.71875 -6.703125 "/>
</symbol>
<symbol overflow="visible" id="glyph4-3">
<path style="stroke:none;" d="M 13.65625 0 L 13.65625 -9.046875 C 13.65625 -12.03125 12 -13.71875 9.125 -13.71875 C 7.296875 -13.71875 6.078125 -13.046875 5.078125 -11.546875 L 5.078125 -13.5 L 1.578125 -13.5 L 1.578125 0 L 5.078125 0 L 5.078125 -8.09375 C 5.078125 -9.703125 6.203125 -10.75 7.90625 -10.75 C 9.40625 -10.75 10.15625 -9.921875 10.15625 -8.328125 L 10.15625 0 Z M 13.65625 0 "/>
</symbol>
<symbol overflow="visible" id="glyph4-4">
<path style="stroke:none;" d="M 13 -4 L 13 -4.171875 C 13 -5.71875 12.125 -6.875 10.34375 -7.40625 L 5.921875 -8.671875 C 4.953125 -8.953125 4.703125 -9.171875 4.703125 -9.71875 C 4.703125 -10.46875 5.5 -10.96875 6.71875 -10.96875 C 8.40625 -10.96875 9.21875 -10.375 9.25 -9.15625 L 12.625 -9.15625 C 12.578125 -12 10.375 -13.71875 6.75 -13.71875 C 3.328125 -13.71875 1.203125 -12 1.203125 -9.21875 C 1.203125 -7.578125 1.65625 -6.671875 4.15625 -5.90625 L 8.328125 -4.59375 C 9.203125 -4.328125 9.5 -4.046875 9.5 -3.671875 C 9.5 -2.84375 8.53125 -2.53125 6.90625 -2.53125 C 5.296875 -2.53125 4.453125 -2.828125 4.15625 -4.28125 L 0.71875 -4.28125 C 0.828125 -1.328125 3 0.21875 7.09375 0.21875 C 10.90625 0.21875 13 -1.28125 13 -4 Z M 13 -4 "/>
</symbol>
<symbol overflow="visible" id="glyph4-5">
<path style="stroke:none;" d="M 13.125 -6.25 C 13.125 -10.90625 10.78125 -13.71875 6.796875 -13.71875 C 2.921875 -13.71875 0.546875 -11.09375 0.546875 -6.578125 C 0.546875 -2.25 2.90625 0.21875 6.71875 0.21875 C 9.75 0.21875 12.203125 -1.15625 12.96875 -3.796875 L 9.53125 -3.796875 C 9.21875 -2.828125 8.125 -2.453125 6.84375 -2.453125 C 5.203125 -2.453125 4.15625 -3.203125 4.046875 -5.828125 L 13.09375 -5.828125 Z M 9.46875 -8.15625 L 4.09375 -8.15625 C 4.328125 -10.03125 5.203125 -11.046875 6.75 -11.046875 C 8.25 -11.046875 9.296875 -10.078125 9.46875 -8.15625 Z M 9.46875 -8.15625 "/>
</symbol>
<symbol overflow="visible" id="glyph4-6">
<path style="stroke:none;" d="M 9.25 -10.15625 L 9.25 -13.703125 C 9.046875 -13.71875 8.921875 -13.71875 8.828125 -13.71875 C 7.21875 -13.71875 5.828125 -12.671875 5.078125 -10.84375 L 5.078125 -13.5 L 1.578125 -13.5 L 1.578125 0 L 5.078125 0 L 5.078125 -7.171875 C 5.078125 -9.21875 6.09375 -10.25 8.15625 -10.25 C 8.53125 -10.25 8.78125 -10.21875 9.25 -10.15625 Z M 9.25 -10.15625 "/>
</symbol>
<symbol overflow="visible" id="glyph4-7">
<path style="stroke:none;" d="M 13.40625 -13.5 L 9.703125 -13.5 L 6.96875 -3.625 L 4.046875 -13.5 L 0.34375 -13.5 L 5.078125 0 L 8.75 0 Z M 13.40625 -13.5 "/>
</symbol>
<symbol overflow="visible" id="glyph4-8">
<path style="stroke:none;" d="M 13.09375 0 L 13.09375 -0.421875 C 12.46875 -1 12.296875 -1.375 12.296875 -2.078125 L 12.296875 -9.578125 C 12.296875 -12.328125 10.421875 -13.71875 6.78125 -13.71875 C 3.125 -13.71875 1.21875 -12.171875 1 -9.046875 L 4.375 -9.046875 C 4.546875 -10.453125 5.125 -10.90625 6.84375 -10.90625 C 8.203125 -10.90625 8.875 -10.453125 8.875 -9.546875 C 8.875 -8.125 7.828125 -8.28125 6.078125 -7.96875 L 4.671875 -7.71875 C 2 -7.25 0.703125 -6.09375 0.703125 -3.65625 C 0.703125 -1.03125 2.546875 0.21875 4.796875 0.21875 C 6.296875 0.21875 7.671875 -0.421875 8.90625 -1.703125 C 8.90625 -1 8.96875 -0.40625 9.296875 0 Z M 8.875 -5.78125 C 8.875 -3.75 7.875 -2.59375 6.09375 -2.59375 C 4.921875 -2.59375 4.203125 -3.046875 4.203125 -4.046875 C 4.203125 -5.078125 4.75 -5.453125 6.203125 -5.71875 L 7.40625 -5.953125 C 8.328125 -6.125 8.46875 -6.171875 8.875 -6.375 Z M 8.875 -5.78125 "/>
</symbol>
<symbol overflow="visible" id="glyph4-9">
<path style="stroke:none;" d="M 7.53125 0 L 7.53125 -2.453125 C 7.171875 -2.40625 6.96875 -2.375 6.71875 -2.375 C 5.796875 -2.375 5.578125 -2.65625 5.578125 -3.84375 L 5.578125 -10.90625 L 7.53125 -10.90625 L 7.53125 -13.21875 L 5.578125 -13.21875 L 5.578125 -16.84375 L 2.078125 -16.84375 L 2.078125 -13.21875 L 0.34375 -13.21875 L 0.34375 -10.90625 L 2.078125 -10.90625 L 2.078125 -2.90625 C 2.078125 -0.78125 3.203125 0.09375 5.5 0.09375 C 6.28125 0.09375 6.90625 0.03125 7.53125 0 Z M 7.53125 0 "/>
</symbol>
<symbol overflow="visible" id="glyph4-10">
<path style="stroke:none;" d="M 5.171875 0 L 5.171875 -13.5 L 1.671875 -13.5 L 1.671875 0 Z M 5.21875 -15.125 L 5.21875 -18.625 L 1.71875 -18.625 L 1.71875 -15.125 Z M 5.21875 -15.125 "/>
</symbol>
<symbol overflow="visible" id="glyph4-11">
<path style="stroke:none;" d="M 6.046875 0 L 6.046875 -3.65625 L 2.296875 -3.65625 L 2.296875 0 Z M 6.046875 -9.34375 L 6.046875 -13 L 2.296875 -13 L 2.296875 -9.34375 Z M 6.046875 -9.34375 "/>
</symbol>
<symbol overflow="visible" id="glyph4-12">
<path style="stroke:none;" d=""/>
</symbol>
<symbol overflow="visible" id="glyph4-13">
<path style="stroke:none;" d="M 9.453125 0 L 9.453125 -17.71875 L 7.125 -17.71875 C 6.578125 -15.625 4.75 -14.546875 1.703125 -14.546875 L 1.703125 -12.21875 L 5.953125 -12.21875 L 5.953125 0 Z M 9.453125 0 "/>
</symbol>
<symbol overflow="visible" id="glyph4-14">
<path style="stroke:none;" d="M 7.28125 -17.84375 L 4.84375 -17.84375 L -0.296875 0.34375 L 2.125 0.34375 Z M 7.28125 -17.84375 "/>
</symbol>
<symbol overflow="visible" id="glyph4-15">
<path style="stroke:none;" d="M 15.59375 0 L 15.59375 -3.125 L 5.71875 -3.125 L 5.71875 -7.84375 L 14.453125 -7.84375 L 14.453125 -10.96875 L 5.71875 -10.96875 L 5.71875 -15.09375 L 15.15625 -15.09375 L 15.15625 -18.21875 L 1.96875 -18.21875 L 1.96875 0 Z M 15.59375 0 "/>
</symbol>
<symbol overflow="visible" id="glyph5-0">
<path style="stroke:none;" d=""/>
</symbol>
<symbol overflow="visible" id="glyph5-1">
<path style="stroke:none;" d="M 0 -13.625 L -18.21875 -13.625 L -18.21875 -10.125 L -11.75 -10.125 C -13.09375 -9.25 -13.71875 -8.078125 -13.71875 -6.40625 C -13.71875 -3.171875 -10.796875 -0.71875 -6.71875 -0.71875 C -2.90625 -0.71875 0.21875 -2.828125 0.21875 -6.40625 C 0.21875 -8.078125 -0.40625 -9.25 -1.546875 -10.125 L 0 -10.125 Z M -6.671875 -10.125 C -4.21875 -10.125 -2.703125 -8.921875 -2.703125 -7.171875 C -2.703125 -5.421875 -4.25 -4.21875 -6.71875 -4.21875 C -9.21875 -4.21875 -10.796875 -5.421875 -10.796875 -7.171875 C -10.796875 -8.953125 -9.25 -10.125 -6.671875 -10.125 Z M -6.671875 -10.125 "/>
</symbol>
<symbol overflow="visible" id="glyph5-2">
<path style="stroke:none;" d="M -6.25 -13.125 C -10.90625 -13.125 -13.71875 -10.78125 -13.71875 -6.796875 C -13.71875 -2.921875 -11.09375 -0.546875 -6.578125 -0.546875 C -2.25 -0.546875 0.21875 -2.90625 0.21875 -6.71875 C 0.21875 -9.75 -1.15625 -12.203125 -3.796875 -12.96875 L -3.796875 -9.53125 C -2.828125 -9.21875 -2.453125 -8.125 -2.453125 -6.84375 C -2.453125 -5.203125 -3.203125 -4.15625 -5.828125 -4.046875 L -5.828125 -13.09375 Z M -8.15625 -9.46875 L -8.15625 -4.09375 C -10.03125 -4.328125 -11.046875 -5.203125 -11.046875 -6.75 C -11.046875 -8.25 -10.078125 -9.296875 -8.15625 -9.46875 Z M -8.15625 -9.46875 "/>
</symbol>
<symbol overflow="visible" id="glyph5-3">
<path style="stroke:none;" d="M 0 -13.65625 L -9.046875 -13.65625 C -12.03125 -13.65625 -13.71875 -12 -13.71875 -9.125 C -13.71875 -7.296875 -13.046875 -6.078125 -11.546875 -5.078125 L -13.5 -5.078125 L -13.5 -1.578125 L 0 -1.578125 L 0 -5.078125 L -8.09375 -5.078125 C -9.703125 -5.078125 -10.75 -6.203125 -10.75 -7.90625 C -10.75 -9.40625 -9.921875 -10.15625 -8.328125 -10.15625 L 0 -10.15625 Z M 0 -13.65625 "/>
</symbol>
<symbol overflow="visible" id="glyph5-4">
<path style="stroke:none;" d="M -4 -13 L -4.171875 -13 C -5.71875 -13 -6.875 -12.125 -7.40625 -10.34375 L -8.671875 -5.921875 C -8.953125 -4.953125 -9.171875 -4.703125 -9.71875 -4.703125 C -10.46875 -4.703125 -10.96875 -5.5 -10.96875 -6.71875 C -10.96875 -8.40625 -10.375 -9.21875 -9.15625 -9.25 L -9.15625 -12.625 C -12 -12.578125 -13.71875 -10.375 -13.71875 -6.75 C -13.71875 -3.328125 -12 -1.203125 -9.21875 -1.203125 C -7.578125 -1.203125 -6.671875 -1.65625 -5.90625 -4.15625 L -4.59375 -8.328125 C -4.328125 -9.203125 -4.046875 -9.5 -3.671875 -9.5 C -2.84375 -9.5 -2.53125 -8.53125 -2.53125 -6.90625 C -2.53125 -5.296875 -2.828125 -4.453125 -4.28125 -4.15625 L -4.28125 -0.71875 C -1.328125 -0.828125 0.21875 -3 0.21875 -7.09375 C 0.21875 -10.90625 -1.28125 -13 -4 -13 Z M -4 -13 "/>
</symbol>
<symbol overflow="visible" id="glyph5-5">
<path style="stroke:none;" d="M 0 -5.171875 L -13.5 -5.171875 L -13.5 -1.671875 L 0 -1.671875 Z M -15.125 -5.21875 L -18.625 -5.21875 L -18.625 -1.71875 L -15.125 -1.71875 Z M -15.125 -5.21875 "/>
</symbol>
<symbol overflow="visible" id="glyph5-6">
<path style="stroke:none;" d="M 0 -7.53125 L -2.453125 -7.53125 C -2.40625 -7.171875 -2.375 -6.96875 -2.375 -6.71875 C -2.375 -5.796875 -2.65625 -5.578125 -3.84375 -5.578125 L -10.90625 -5.578125 L -10.90625 -7.53125 L -13.21875 -7.53125 L -13.21875 -5.578125 L -16.84375 -5.578125 L -16.84375 -2.078125 L -13.21875 -2.078125 L -13.21875 -0.34375 L -10.90625 -0.34375 L -10.90625 -2.078125 L -2.90625 -2.078125 C -0.78125 -2.078125 0.09375 -3.203125 0.09375 -5.5 C 0.09375 -6.28125 0.03125 -6.90625 0 -7.53125 Z M 0 -7.53125 "/>
</symbol>
<symbol overflow="visible" id="glyph5-7">
<path style="stroke:none;" d="M -13.5 -13.453125 L -13.5 -9.84375 L -3.671875 -7.046875 L -13.5 -4.078125 L -13.5 -0.21875 L 0.578125 -5.25 L 0.65625 -5.25 C 1.921875 -5.25 2.90625 -4.296875 2.90625 -3.078125 C 2.90625 -2.796875 2.875 -2.59375 2.75 -2.15625 L 5.375 -2.15625 C 5.453125 -2.671875 5.46875 -2.96875 5.46875 -3.40625 C 5.46875 -5.75 5.046875 -6.96875 2.46875 -7.90625 Z M -13.5 -13.453125 "/>
</symbol>
</g>
<clipPath id="clip1">
  <path d="M 120.007812 65.289062 L 475 65.289062 L 475 417 L 120.007812 417 Z M 120.007812 65.289062 "/>
</clipPath>
<clipPath id="clip2">
  <path d="M 120.007812 400 L 475.652344 400 L 475.652344 402 L 120.007812 402 Z M 120.007812 400 "/>
</clipPath>
<clipPath id="clip3">
  <path d="M 120.007812 320 L 475.652344 320 L 475.652344 322 L 120.007812 322 Z M 120.007812 320 "/>
</clipPath>
<clipPath id="clip4">
  <path d="M 120.007812 241 L 475.652344 241 L 475.652344 243 L 120.007812 243 Z M 120.007812 241 "/>
</clipPath>
<clipPath id="clip5">
  <path d="M 120.007812 161 L 475.652344 161 L 475.652344 163 L 120.007812 163 Z M 120.007812 161 "/>
</clipPath>
<clipPath id="clip6">
  <path d="M 120.007812 81 L 475.652344 81 L 475.652344 84 L 120.007812 84 Z M 120.007812 81 "/>
</clipPath>
<clipPath id="clip7">
  <path d="M 140 65.289062 L 143 65.289062 L 143 417.992188 L 140 417.992188 Z M 140 65.289062 "/>
</clipPath>
<clipPath id="clip8">
  <path d="M 231 65.289062 L 233 65.289062 L 233 417.992188 L 231 417.992188 Z M 231 65.289062 "/>
</clipPath>
<clipPath id="clip9">
  <path d="M 322 65.289062 L 324 65.289062 L 324 417.992188 L 322 417.992188 Z M 322 65.289062 "/>
</clipPath>
<clipPath id="clip10">
  <path d="M 413 65.289062 L 415 65.289062 L 415 417.992188 L 413 417.992188 Z M 413 65.289062 "/>
</clipPath>
</defs>
<g id="surface18965">
<rect x="0" y="0" width="503" height="503" style="fill:rgb(100%,100%,100%);fill-opacity:1;stroke:none;"/>
<rect x="0" y="0" width="503" height="503" style="fill:rgb(100%,100%,100%);fill-opacity:1;stroke:none;"/>
<g clip-path="url(#clip1)" clip-rule="nonzero">
<path style=" stroke:none;fill-rule:nonzero;fill:rgb(100%,100%,100%);fill-opacity:1;" d="M 120.007812 416.992188 L 474.652344 416.992188 L 474.652344 65.289062 L 120.007812 65.289062 Z M 120.007812 416.992188 "/>
</g>
<g clip-path="url(#clip2)" clip-rule="nonzero">
<path style="fill:none;stroke-width:1.066978;stroke-linecap:butt;stroke-linejoin:round;stroke:rgb(94.117647%,94.117647%,94.117647%);stroke-opacity:1;stroke-miterlimit:10;" d="M 120.007812 401.003906 L 474.652344 401.003906 "/>
</g>
<g clip-path="url(#clip3)" clip-rule="nonzero">
<path style="fill:none;stroke-width:1.066978;stroke-linecap:butt;stroke-linejoin:round;stroke:rgb(94.117647%,94.117647%,94.117647%);stroke-opacity:1;stroke-miterlimit:10;" d="M 120.007812 321.378906 L 474.652344 321.378906 "/>
</g>
<g clip-path="url(#clip4)" clip-rule="nonzero">
<path style="fill:none;stroke-width:1.066978;stroke-linecap:butt;stroke-linejoin:round;stroke:rgb(94.117647%,94.117647%,94.117647%);stroke-opacity:1;stroke-miterlimit:10;" d="M 120.007812 241.753906 L 474.652344 241.753906 "/>
</g>
<g clip-path="url(#clip5)" clip-rule="nonzero">
<path style="fill:none;stroke-width:1.066978;stroke-linecap:butt;stroke-linejoin:round;stroke:rgb(94.117647%,94.117647%,94.117647%);stroke-opacity:1;stroke-miterlimit:10;" d="M 120.007812 162.128906 L 474.652344 162.128906 "/>
</g>
<g clip-path="url(#clip6)" clip-rule="nonzero">
<path style="fill:none;stroke-width:1.066978;stroke-linecap:butt;stroke-linejoin:round;stroke:rgb(94.117647%,94.117647%,94.117647%);stroke-opacity:1;stroke-miterlimit:10;" d="M 120.007812 82.503906 L 474.652344 82.503906 "/>
</g>
<g clip-path="url(#clip7)" clip-rule="nonzero">
<path style="fill:none;stroke-width:1.066978;stroke-linecap:butt;stroke-linejoin:round;stroke:rgb(94.117647%,94.117647%,94.117647%);stroke-opacity:1;stroke-miterlimit:10;" d="M 141.5 416.992188 L 141.5 65.289062 "/>
</g>
<g clip-path="url(#clip8)" clip-rule="nonzero">
<path style="fill:none;stroke-width:1.066978;stroke-linecap:butt;stroke-linejoin:round;stroke:rgb(94.117647%,94.117647%,94.117647%);stroke-opacity:1;stroke-miterlimit:10;" d="M 232.21875 416.992188 L 232.21875 65.289062 "/>
</g>
<g clip-path="url(#clip9)" clip-rule="nonzero">
<path style="fill:none;stroke-width:1.066978;stroke-linecap:butt;stroke-linejoin:round;stroke:rgb(94.117647%,94.117647%,94.117647%);stroke-opacity:1;stroke-miterlimit:10;" d="M 322.9375 416.992188 L 322.9375 65.289062 "/>
</g>
<g clip-path="url(#clip10)" clip-rule="nonzero">
<path style="fill:none;stroke-width:1.066978;stroke-linecap:butt;stroke-linejoin:round;stroke:rgb(94.117647%,94.117647%,94.117647%);stroke-opacity:1;stroke-miterlimit:10;" d="M 413.65625 416.992188 L 413.65625 65.289062 "/>
</g>
<path style=" stroke:none;fill-rule:nonzero;fill:rgb(34.901961%,34.901961%,34.901961%);fill-opacity:0.501961;" d="M 136.128906 401.003906 L 146.875 401.003906 L 146.875 295.640625 L 136.128906 295.640625 Z M 136.128906 401.003906 "/>
<path style=" stroke:none;fill-rule:nonzero;fill:rgb(34.901961%,34.901961%,34.901961%);fill-opacity:0.501961;" d="M 146.875 401.003906 L 157.621094 401.003906 L 157.621094 81.273438 L 146.875 81.273438 Z M 146.875 401.003906 "/>
<path style=" stroke:none;fill-rule:nonzero;fill:rgb(34.901961%,34.901961%,34.901961%);fill-opacity:0.501961;" d="M 157.621094 401.003906 L 168.367188 401.003906 L 168.367188 292.003906 L 157.621094 292.003906 Z M 157.621094 401.003906 "/>
<path style=" stroke:none;fill-rule:nonzero;fill:rgb(34.901961%,34.901961%,34.901961%);fill-opacity:0.501961;" d="M 168.367188 401.003906 L 179.113281 401.003906 L 179.113281 295.640625 L 168.367188 295.640625 Z M 168.367188 401.003906 "/>
<path style=" stroke:none;fill-rule:nonzero;fill:rgb(34.901961%,34.901961%,34.901961%);fill-opacity:0.501961;" d="M 179.117188 401.003906 L 189.863281 401.003906 L 189.863281 331.972656 L 179.117188 331.972656 Z M 179.117188 401.003906 "/>
<path style=" stroke:none;fill-rule:nonzero;fill:rgb(34.901961%,34.901961%,34.901961%);fill-opacity:0.501961;" d="M 189.863281 401.003906 L 200.609375 401.003906 L 200.609375 375.570312 L 189.863281 375.570312 Z M 189.863281 401.003906 "/>
<path style=" stroke:none;fill-rule:nonzero;fill:rgb(34.901961%,34.901961%,34.901961%);fill-opacity:0.501961;" d="M 200.609375 401.003906 L 211.355469 401.003906 L 211.355469 353.769531 L 200.609375 353.769531 Z M 200.609375 401.003906 "/>
<path style=" stroke:none;fill-rule:nonzero;fill:rgb(34.901961%,34.901961%,34.901961%);fill-opacity:0.501961;" d="M 211.355469 401.003906 L 222.101562 401.003906 L 222.101562 368.304688 L 211.355469 368.304688 Z M 211.355469 401.003906 "/>
<path style=" stroke:none;fill-rule:nonzero;fill:rgb(34.901961%,34.901961%,34.901961%);fill-opacity:0.501961;" d="M 222.101562 401.003906 L 232.847656 401.003906 L 232.847656 371.9375 L 222.101562 371.9375 Z M 222.101562 401.003906 "/>
<path style=" stroke:none;fill-rule:nonzero;fill:rgb(34.901961%,34.901961%,34.901961%);fill-opacity:0.501961;" d="M 232.847656 401.003906 L 243.59375 401.003906 L 243.59375 364.671875 L 232.847656 364.671875 Z M 232.847656 401.003906 "/>
<path style=" stroke:none;fill-rule:nonzero;fill:rgb(34.901961%,34.901961%,34.901961%);fill-opacity:0.501961;" d="M 243.597656 401.003906 L 254.34375 401.003906 L 254.34375 371.9375 L 243.597656 371.9375 Z M 243.597656 401.003906 "/>
<path style=" stroke:none;fill-rule:nonzero;fill:rgb(34.901961%,34.901961%,34.901961%);fill-opacity:0.501961;" d="M 254.34375 401.003906 L 265.089844 401.003906 L 265.089844 361.039062 L 254.34375 361.039062 Z M 254.34375 401.003906 "/>
<path style=" stroke:none;fill-rule:nonzero;fill:rgb(34.901961%,34.901961%,34.901961%);fill-opacity:0.501961;" d="M 265.089844 401.003906 L 275.835938 401.003906 L 275.835938 368.304688 L 265.089844 368.304688 Z M 265.089844 401.003906 "/>
<path style=" stroke:none;fill-rule:nonzero;fill:rgb(34.901961%,34.901961%,34.901961%);fill-opacity:0.501961;" d="M 275.835938 401.003906 L 286.582031 401.003906 L 286.582031 371.9375 L 275.835938 371.9375 Z M 275.835938 401.003906 "/>
<path style=" stroke:none;fill-rule:nonzero;fill:rgb(34.901961%,34.901961%,34.901961%);fill-opacity:0.501961;" d="M 286.582031 401.003906 L 297.328125 401.003906 L 297.328125 364.671875 L 286.582031 364.671875 Z M 286.582031 401.003906 "/>
<path style=" stroke:none;fill-rule:nonzero;fill:rgb(34.901961%,34.901961%,34.901961%);fill-opacity:0.501961;" d="M 297.332031 401.003906 L 308.078125 401.003906 L 308.078125 371.9375 L 297.332031 371.9375 Z M 297.332031 401.003906 "/>
<path style=" stroke:none;fill-rule:nonzero;fill:rgb(34.901961%,34.901961%,34.901961%);fill-opacity:0.501961;" d="M 308.078125 401.003906 L 318.824219 401.003906 L 318.824219 397.371094 L 308.078125 397.371094 Z M 308.078125 401.003906 "/>
<path style=" stroke:none;fill-rule:nonzero;fill:rgb(34.901961%,34.901961%,34.901961%);fill-opacity:0.501961;" d="M 318.824219 401.003906 L 329.570312 401.003906 L 329.570312 397.371094 L 318.824219 397.371094 Z M 318.824219 401.003906 "/>
<path style=" stroke:none;fill-rule:nonzero;fill:rgb(34.901961%,34.901961%,34.901961%);fill-opacity:0.501961;" d="M 329.570312 401.003906 L 340.316406 401.003906 L 340.316406 375.570312 L 329.570312 375.570312 Z M 329.570312 401.003906 "/>
<path style=" stroke:none;fill-rule:nonzero;fill:rgb(34.901961%,34.901961%,34.901961%);fill-opacity:0.501961;" d="M 340.316406 401.003906 L 351.0625 401.003906 L 351.0625 342.871094 L 340.316406 342.871094 Z M 340.316406 401.003906 "/>
<path style=" stroke:none;fill-rule:nonzero;fill:rgb(34.901961%,34.901961%,34.901961%);fill-opacity:0.501961;" d="M 361.8125 401.003906 L 372.558594 401.003906 L 372.558594 393.738281 L 361.8125 393.738281 Z M 361.8125 401.003906 "/>
<path style=" stroke:none;fill-rule:nonzero;fill:rgb(34.901961%,34.901961%,34.901961%);fill-opacity:0.501961;" d="M 415.546875 401.003906 L 426.292969 401.003906 L 426.292969 364.671875 L 415.546875 364.671875 Z M 415.546875 401.003906 "/>
<path style=" stroke:none;fill-rule:nonzero;fill:rgb(34.901961%,34.901961%,34.901961%);fill-opacity:0.501961;" d="M 426.292969 401.003906 L 437.039062 401.003906 L 437.039062 313.804688 L 426.292969 313.804688 Z M 426.292969 401.003906 "/>
<path style=" stroke:none;fill-rule:nonzero;fill:rgb(34.901961%,34.901961%,34.901961%);fill-opacity:0.501961;" d="M 447.785156 401.003906 L 458.53125 401.003906 L 458.53125 353.769531 L 447.785156 353.769531 Z M 447.785156 401.003906 "/>
<path style="fill:none;stroke-width:4.267913;stroke-linecap:butt;stroke-linejoin:round;stroke:rgb(0%,0%,0%);stroke-opacity:1;stroke-dasharray:17.071654,17.071654;stroke-miterlimit:1;" d="M 144.246094 163.199219 L 147.363281 130.269531 L 150.476562 144.71875 L 153.59375 167.449219 L 156.710938 190.097656 L 159.828125 210.644531 L 162.945312 228.757812 L 166.0625 244.59375 L 169.175781 258.425781 L 172.292969 270.542969 L 175.410156 281.195312 L 178.527344 290.601562 L 181.644531 298.949219 L 184.761719 306.386719 L 187.878906 313.042969 L 190.992188 319.023438 L 194.109375 324.417969 L 197.226562 329.300781 L 200.34375 333.734375 L 203.460938 337.769531 L 206.578125 341.460938 L 209.691406 344.839844 L 212.808594 347.945312 L 215.925781 350.800781 L 219.042969 353.4375 L 222.160156 355.878906 L 225.277344 358.140625 L 228.394531 360.238281 L 231.507812 362.1875 L 234.625 364.007812 L 237.742188 365.707031 L 240.859375 367.292969 L 243.976562 368.777344 L 247.09375 370.171875 L 250.207031 371.476562 L 253.324219 372.707031 L 256.441406 373.863281 L 259.558594 374.953125 L 262.675781 375.980469 L 265.792969 376.949219 L 268.910156 377.867188 L 272.023438 378.738281 L 275.140625 379.558594 L 278.257812 380.339844 L 281.375 381.078125 L 284.492188 381.78125 L 287.609375 382.449219 L 290.722656 383.085938 L 293.839844 383.691406 L 296.957031 384.265625 L 300.074219 384.816406 L 303.191406 385.339844 L 306.308594 385.84375 L 309.425781 386.320312 L 312.539062 386.777344 L 315.65625 387.214844 L 318.773438 387.636719 L 321.890625 388.035156 L 325.007812 388.421875 L 328.125 388.789062 L 331.238281 389.144531 L 334.355469 389.480469 L 337.472656 389.808594 L 340.589844 390.121094 L 343.707031 390.421875 L 346.824219 390.710938 L 349.941406 390.992188 L 353.054688 391.257812 L 356.171875 391.515625 L 359.289062 391.765625 L 362.40625 392.007812 L 365.523438 392.238281 L 368.640625 392.460938 L 371.753906 392.675781 L 374.871094 392.882812 L 377.988281 393.085938 L 381.105469 393.277344 L 384.222656 393.464844 L 387.339844 393.648438 L 390.457031 393.820312 L 393.570312 393.992188 L 396.6875 394.15625 L 402.921875 394.46875 L 406.039062 394.617188 L 409.15625 394.761719 L 412.269531 394.898438 L 415.386719 395.035156 L 418.503906 395.167969 L 424.738281 395.417969 L 427.855469 395.539062 L 430.972656 395.65625 L 434.085938 395.769531 L 437.203125 395.878906 L 440.320312 395.984375 L 446.554688 396.1875 L 449.671875 396.285156 L 452.785156 396.382812 L 455.902344 396.472656 "/>
<g style="fill:rgb(0%,0%,0%);fill-opacity:1;">
  <use xlink:href="#glyph0-1" x="325.652344" y="89.522461"/>
  <use xlink:href="#glyph0-2" x="338.94043" y="89.522461"/>
  <use xlink:href="#glyph0-3" x="353.327148" y="89.522461"/>
  <use xlink:href="#glyph0-4" x="365.496094" y="89.522461"/>
  <use xlink:href="#glyph0-5" x="371.03125" y="89.522461"/>
  <use xlink:href="#glyph0-6" x="376.566406" y="89.522461"/>
  <use xlink:href="#glyph0-7" x="387.646484" y="89.522461"/>
  <use xlink:href="#glyph0-8" x="398.726562" y="89.522461"/>
  <use xlink:href="#glyph0-9" x="409.806641" y="89.522461"/>
  <use xlink:href="#glyph0-7" x="424.193359" y="89.522461"/>
  <use xlink:href="#glyph0-10" x="435.273438" y="89.522461"/>
  <use xlink:href="#glyph0-11" x="441.907227" y="89.522461"/>
  <use xlink:href="#glyph0-12" x="458.501953" y="89.522461"/>
  <use xlink:href="#glyph0-13" x="469.582031" y="89.522461"/>
</g>
<g style="fill:rgb(0%,0%,0%);fill-opacity:1;">
  <use xlink:href="#glyph0-14" x="405.652344" y="113.319336"/>
  <use xlink:href="#glyph0-15" x="420.039062" y="113.319336"/>
  <use xlink:href="#glyph0-8" x="431.119141" y="113.319336"/>
  <use xlink:href="#glyph0-4" x="442.199219" y="113.319336"/>
  <use xlink:href="#glyph0-5" x="447.734375" y="113.319336"/>
  <use xlink:href="#glyph0-16" x="452.170898" y="113.319336"/>
  <use xlink:href="#glyph0-13" x="465.458984" y="113.319336"/>
  <use xlink:href="#glyph0-13" x="469.884766" y="113.319336"/>
</g>
<g style="fill:rgb(0%,0%,0%);fill-opacity:1;">
  <use xlink:href="#glyph0-6" x="304.652344" y="147.319336"/>
  <use xlink:href="#glyph0-7" x="315.732422" y="147.319336"/>
  <use xlink:href="#glyph0-8" x="326.8125" y="147.319336"/>
</g>
<g style="fill:rgb(0%,0%,0%);fill-opacity:1;">
  <use xlink:href="#glyph1-1" x="338.652344" y="147.433594"/>
</g>
<g style="fill:rgb(0%,0%,0%);fill-opacity:1;">
  <use xlink:href="#glyph0-6" x="347.652344" y="147.319336"/>
</g>
<g style="fill:rgb(0%,0%,0%);fill-opacity:1;">
  <use xlink:href="#glyph1-2" x="359.652344" y="147.433594"/>
</g>
<g style="fill:rgb(0%,0%,0%);fill-opacity:1;">
  <use xlink:href="#glyph2-1" x="368.652344" y="147.405273"/>
</g>
<g style="fill:rgb(0%,0%,0%);fill-opacity:1;">
  <use xlink:href="#glyph0-4" x="373.652344" y="147.319336"/>
</g>
<g style="fill:rgb(0%,0%,0%);fill-opacity:1;">
  <use xlink:href="#glyph2-1" x="379.652344" y="147.405273"/>
</g>
<g style="fill:rgb(0%,0%,0%);fill-opacity:1;">
  <use xlink:href="#glyph0-17" x="384.652344" y="147.319336"/>
  <use xlink:href="#glyph0-18" x="391.286133" y="147.319336"/>
  <use xlink:href="#glyph0-19" x="402.366211" y="147.319336"/>
  <use xlink:href="#glyph0-20" x="413.446289" y="147.319336"/>
  <use xlink:href="#glyph0-21" x="424.526367" y="147.319336"/>
  <use xlink:href="#glyph0-22" x="435.606445" y="147.319336"/>
  <use xlink:href="#glyph0-23" x="441.141602" y="147.319336"/>
  <use xlink:href="#glyph0-24" x="452.22168" y="147.319336"/>
  <use xlink:href="#glyph0-18" x="463.301758" y="147.319336"/>
</g>
<g style="fill:rgb(0%,0%,0%);fill-opacity:1;">
  <use xlink:href="#glyph2-2" x="284.652344" y="180.405273"/>
</g>
<g style="fill:rgb(0%,0%,0%);fill-opacity:1;">
  <use xlink:href="#glyph2-1" x="296.652344" y="180.405273"/>
</g>
<g style="fill:rgb(0%,0%,0%);fill-opacity:1;">
  <use xlink:href="#glyph0-4" x="301.652344" y="180.319336"/>
</g>
<g style="fill:rgb(0%,0%,0%);fill-opacity:1;">
  <use xlink:href="#glyph2-1" x="307.652344" y="180.405273"/>
</g>
<g style="fill:rgb(0%,0%,0%);fill-opacity:1;">
  <use xlink:href="#glyph0-25" x="312.652344" y="180.319336"/>
  <use xlink:href="#glyph0-22" x="323.732422" y="180.319336"/>
  <use xlink:href="#glyph0-18" x="329.267578" y="180.319336"/>
  <use xlink:href="#glyph0-26" x="340.347656" y="180.319336"/>
</g>
<g style="fill:rgb(0%,0%,0%);fill-opacity:1;">
  <use xlink:href="#glyph2-1" x="351.652344" y="180.405273"/>
</g>
<g style="fill:rgb(0%,0%,0%);fill-opacity:1;">
  <use xlink:href="#glyph0-27" x="356.652344" y="180.319336"/>
</g>
<g style="fill:rgb(0%,0%,0%);fill-opacity:1;">
  <use xlink:href="#glyph2-1" x="363.652344" y="180.405273"/>
</g>
<g style="fill:rgb(0%,0%,0%);fill-opacity:1;">
  <use xlink:href="#glyph0-25" x="368.652344" y="180.319336"/>
  <use xlink:href="#glyph0-22" x="379.732422" y="180.319336"/>
  <use xlink:href="#glyph0-23" x="385.267578" y="180.319336"/>
  <use xlink:href="#glyph0-28" x="396.347656" y="180.319336"/>
</g>
<g style="fill:rgb(0%,0%,0%);fill-opacity:1;">
  <use xlink:href="#glyph2-1" x="407.652344" y="180.405273"/>
</g>
<g style="fill:rgb(0%,0%,0%);fill-opacity:1;">
  <use xlink:href="#glyph0-29" x="412.652344" y="180.319336"/>
</g>
<g style="fill:rgb(0%,0%,0%);fill-opacity:1;">
  <use xlink:href="#glyph2-1" x="418.652344" y="180.405273"/>
</g>
<g style="fill:rgb(0%,0%,0%);fill-opacity:1;">
  <use xlink:href="#glyph0-25" x="423.652344" y="180.319336"/>
  <use xlink:href="#glyph0-22" x="434.732422" y="180.319336"/>
  <use xlink:href="#glyph0-21" x="440.267578" y="180.319336"/>
  <use xlink:href="#glyph0-19" x="451.347656" y="180.319336"/>
</g>
<g style="fill:rgb(0%,0%,0%);fill-opacity:1;">
  <use xlink:href="#glyph2-1" x="462.652344" y="180.405273"/>
</g>
<g style="fill:rgb(0%,0%,0%);fill-opacity:1;">
  <use xlink:href="#glyph0-30" x="467.652344" y="180.319336"/>
</g>
<g style="fill:rgb(0%,0%,0%);fill-opacity:1;">
  <use xlink:href="#glyph2-3" x="283.652344" y="214.405273"/>
</g>
<g style="fill:rgb(0%,0%,0%);fill-opacity:1;">
  <use xlink:href="#glyph2-1" x="296.652344" y="214.405273"/>
</g>
<g style="fill:rgb(0%,0%,0%);fill-opacity:1;">
  <use xlink:href="#glyph0-4" x="301.652344" y="214.319336"/>
</g>
<g style="fill:rgb(0%,0%,0%);fill-opacity:1;">
  <use xlink:href="#glyph2-1" x="307.652344" y="214.405273"/>
</g>
<g style="fill:rgb(0%,0%,0%);fill-opacity:1;">
  <use xlink:href="#glyph0-18" x="312.652344" y="214.319336"/>
  <use xlink:href="#glyph0-22" x="323.732422" y="214.319336"/>
  <use xlink:href="#glyph0-19" x="329.267578" y="214.319336"/>
  <use xlink:href="#glyph0-18" x="340.347656" y="214.319336"/>
</g>
<g style="fill:rgb(0%,0%,0%);fill-opacity:1;">
  <use xlink:href="#glyph2-1" x="351.652344" y="214.405273"/>
</g>
<g style="fill:rgb(0%,0%,0%);fill-opacity:1;">
  <use xlink:href="#glyph0-27" x="356.652344" y="214.319336"/>
</g>
<g style="fill:rgb(0%,0%,0%);fill-opacity:1;">
  <use xlink:href="#glyph2-1" x="363.652344" y="214.405273"/>
</g>
<g style="fill:rgb(0%,0%,0%);fill-opacity:1;">
  <use xlink:href="#glyph0-18" x="368.652344" y="214.319336"/>
  <use xlink:href="#glyph0-22" x="379.732422" y="214.319336"/>
  <use xlink:href="#glyph0-21" x="385.267578" y="214.319336"/>
  <use xlink:href="#glyph0-18" x="396.347656" y="214.319336"/>
</g>
<g style="fill:rgb(0%,0%,0%);fill-opacity:1;">
  <use xlink:href="#glyph2-1" x="407.652344" y="214.405273"/>
</g>
<g style="fill:rgb(0%,0%,0%);fill-opacity:1;">
  <use xlink:href="#glyph0-29" x="412.652344" y="214.319336"/>
</g>
<g style="fill:rgb(0%,0%,0%);fill-opacity:1;">
  <use xlink:href="#glyph2-1" x="418.652344" y="214.405273"/>
</g>
<g style="fill:rgb(0%,0%,0%);fill-opacity:1;">
  <use xlink:href="#glyph0-18" x="423.652344" y="214.319336"/>
  <use xlink:href="#glyph0-22" x="434.732422" y="214.319336"/>
  <use xlink:href="#glyph0-28" x="440.267578" y="214.319336"/>
  <use xlink:href="#glyph0-18" x="451.347656" y="214.319336"/>
</g>
<g style="fill:rgb(0%,0%,0%);fill-opacity:1;">
  <use xlink:href="#glyph2-1" x="462.652344" y="214.405273"/>
</g>
<g style="fill:rgb(0%,0%,0%);fill-opacity:1;">
  <use xlink:href="#glyph0-30" x="467.652344" y="214.319336"/>
</g>
<path style="fill:none;stroke-width:1.066978;stroke-linecap:butt;stroke-linejoin:round;stroke:rgb(0%,0%,0%);stroke-opacity:1;stroke-miterlimit:10;" d="M 120.007812 416.992188 L 120.007812 65.289062 "/>
<g style="fill:rgb(0%,0%,0%);fill-opacity:1;">
  <use xlink:href="#glyph3-1" x="62.800781" y="407.667969"/>
  <use xlink:href="#glyph3-2" x="72.808594" y="407.667969"/>
  <use xlink:href="#glyph3-1" x="77.8125" y="407.667969"/>
  <use xlink:href="#glyph3-1" x="87.820312" y="407.667969"/>
  <use xlink:href="#glyph3-1" x="97.828125" y="407.667969"/>
</g>
<g style="fill:rgb(0%,0%,0%);fill-opacity:1;">
  <use xlink:href="#glyph3-1" x="62.800781" y="328.042969"/>
  <use xlink:href="#glyph3-2" x="72.808594" y="328.042969"/>
  <use xlink:href="#glyph3-1" x="77.8125" y="328.042969"/>
  <use xlink:href="#glyph3-3" x="87.820312" y="328.042969"/>
  <use xlink:href="#glyph3-4" x="97.828125" y="328.042969"/>
</g>
<g style="fill:rgb(0%,0%,0%);fill-opacity:1;">
  <use xlink:href="#glyph3-1" x="62.800781" y="248.417969"/>
  <use xlink:href="#glyph3-2" x="72.808594" y="248.417969"/>
  <use xlink:href="#glyph3-1" x="77.8125" y="248.417969"/>
  <use xlink:href="#glyph3-4" x="87.820312" y="248.417969"/>
  <use xlink:href="#glyph3-1" x="97.828125" y="248.417969"/>
</g>
<g style="fill:rgb(0%,0%,0%);fill-opacity:1;">
  <use xlink:href="#glyph3-1" x="62.800781" y="168.792969"/>
  <use xlink:href="#glyph3-2" x="72.808594" y="168.792969"/>
  <use xlink:href="#glyph3-1" x="77.8125" y="168.792969"/>
  <use xlink:href="#glyph3-5" x="87.820312" y="168.792969"/>
  <use xlink:href="#glyph3-4" x="97.828125" y="168.792969"/>
</g>
<g style="fill:rgb(0%,0%,0%);fill-opacity:1;">
  <use xlink:href="#glyph3-1" x="62.800781" y="89.167969"/>
  <use xlink:href="#glyph3-2" x="72.808594" y="89.167969"/>
  <use xlink:href="#glyph3-6" x="77.8125" y="89.167969"/>
  <use xlink:href="#glyph3-1" x="87.820312" y="89.167969"/>
  <use xlink:href="#glyph3-1" x="97.828125" y="89.167969"/>
</g>
<path style="fill:none;stroke-width:1.066978;stroke-linecap:butt;stroke-linejoin:round;stroke:rgb(0%,0%,0%);stroke-opacity:1;stroke-miterlimit:10;" d="M 113.78125 401.003906 L 120.007812 401.003906 "/>
<path style="fill:none;stroke-width:1.066978;stroke-linecap:butt;stroke-linejoin:round;stroke:rgb(0%,0%,0%);stroke-opacity:1;stroke-miterlimit:10;" d="M 113.78125 321.378906 L 120.007812 321.378906 "/>
<path style="fill:none;stroke-width:1.066978;stroke-linecap:butt;stroke-linejoin:round;stroke:rgb(0%,0%,0%);stroke-opacity:1;stroke-miterlimit:10;" d="M 113.78125 241.753906 L 120.007812 241.753906 "/>
<path style="fill:none;stroke-width:1.066978;stroke-linecap:butt;stroke-linejoin:round;stroke:rgb(0%,0%,0%);stroke-opacity:1;stroke-miterlimit:10;" d="M 113.78125 162.128906 L 120.007812 162.128906 "/>
<path style="fill:none;stroke-width:1.066978;stroke-linecap:butt;stroke-linejoin:round;stroke:rgb(0%,0%,0%);stroke-opacity:1;stroke-miterlimit:10;" d="M 113.78125 82.503906 L 120.007812 82.503906 "/>
<path style="fill:none;stroke-width:1.066978;stroke-linecap:butt;stroke-linejoin:round;stroke:rgb(0%,0%,0%);stroke-opacity:1;stroke-miterlimit:10;" d="M 120.007812 416.992188 L 474.652344 416.992188 "/>
<path style="fill:none;stroke-width:1.066978;stroke-linecap:butt;stroke-linejoin:round;stroke:rgb(0%,0%,0%);stroke-opacity:1;stroke-miterlimit:10;" d="M 141.5 423.21875 L 141.5 416.992188 "/>
<path style="fill:none;stroke-width:1.066978;stroke-linecap:butt;stroke-linejoin:round;stroke:rgb(0%,0%,0%);stroke-opacity:1;stroke-miterlimit:10;" d="M 232.21875 423.21875 L 232.21875 416.992188 "/>
<path style="fill:none;stroke-width:1.066978;stroke-linecap:butt;stroke-linejoin:round;stroke:rgb(0%,0%,0%);stroke-opacity:1;stroke-miterlimit:10;" d="M 322.9375 423.21875 L 322.9375 416.992188 "/>
<path style="fill:none;stroke-width:1.066978;stroke-linecap:butt;stroke-linejoin:round;stroke:rgb(0%,0%,0%);stroke-opacity:1;stroke-miterlimit:10;" d="M 413.65625 423.21875 L 413.65625 416.992188 "/>
<g style="fill:rgb(0%,0%,0%);fill-opacity:1;">
  <use xlink:href="#glyph3-1" x="136" y="441.863281"/>
</g>
<g style="fill:rgb(0%,0%,0%);fill-opacity:1;">
  <use xlink:href="#glyph3-3" x="221.71875" y="441.863281"/>
  <use xlink:href="#glyph3-1" x="231.726562" y="441.863281"/>
</g>
<g style="fill:rgb(0%,0%,0%);fill-opacity:1;">
  <use xlink:href="#glyph3-7" x="312.4375" y="441.863281"/>
  <use xlink:href="#glyph3-1" x="322.445312" y="441.863281"/>
</g>
<g style="fill:rgb(0%,0%,0%);fill-opacity:1;">
  <use xlink:href="#glyph3-8" x="403.15625" y="441.863281"/>
  <use xlink:href="#glyph3-1" x="413.164062" y="441.863281"/>
</g>
<g style="fill:rgb(0%,0%,0%);fill-opacity:1;">
  <use xlink:href="#glyph4-1" x="189.332031" y="473.980469"/>
  <use xlink:href="#glyph4-2" x="203.232422" y="473.980469"/>
  <use xlink:href="#glyph4-3" x="218.507812" y="473.980469"/>
  <use xlink:href="#glyph4-4" x="233.783203" y="473.980469"/>
  <use xlink:href="#glyph4-5" x="247.683594" y="473.980469"/>
  <use xlink:href="#glyph4-6" x="261.583984" y="473.980469"/>
  <use xlink:href="#glyph4-7" x="271.808594" y="473.980469"/>
  <use xlink:href="#glyph4-8" x="285.333984" y="473.980469"/>
  <use xlink:href="#glyph4-9" x="299.234375" y="473.980469"/>
  <use xlink:href="#glyph4-10" x="307.55957" y="473.980469"/>
  <use xlink:href="#glyph4-2" x="314.509766" y="473.980469"/>
  <use xlink:href="#glyph4-3" x="329.785156" y="473.980469"/>
  <use xlink:href="#glyph4-11" x="345.060547" y="473.980469"/>
  <use xlink:href="#glyph4-12" x="353.385742" y="473.980469"/>
  <use xlink:href="#glyph4-12" x="360.335938" y="473.980469"/>
  <use xlink:href="#glyph4-13" x="367.286133" y="473.980469"/>
  <use xlink:href="#glyph4-14" x="381.186523" y="473.980469"/>
  <use xlink:href="#glyph4-15" x="388.136719" y="473.980469"/>
</g>
<g style="fill:rgb(0%,0%,0%);fill-opacity:1;">
  <use xlink:href="#glyph5-1" x="43.472656" y="285.140625"/>
  <use xlink:href="#glyph5-2" x="43.472656" y="269.865234"/>
  <use xlink:href="#glyph5-3" x="43.472656" y="255.964844"/>
  <use xlink:href="#glyph5-4" x="43.472656" y="240.689453"/>
  <use xlink:href="#glyph5-5" x="43.472656" y="226.789062"/>
  <use xlink:href="#glyph5-6" x="43.472656" y="219.838867"/>
  <use xlink:href="#glyph5-7" x="43.472656" y="211.513672"/>
</g>
</g>
</svg>
