<?xml version="1.0" encoding="UTF-8"?>
<svg xmlns="http://www.w3.org/2000/svg" xmlns:xlink="http://www.w3.org/1999/xlink" width="504pt" height="504pt" viewBox="0 0 504 504" version="1.1">
<defs>
<g>
<symbol overflow="visible" id="glyph0-0">
<path style="stroke:none;" d=""/>
</symbol>
<symbol overflow="visible" id="glyph0-1">
<path style="stroke:none;" d="M 3.78125 0 L 3.78125 -18.21875 L 1.671875 -18.21875 L 1.671875 0 Z M 3.78125 0 "/>
</symbol>
<symbol overflow="visible" id="glyph0-2">
<path style="stroke:none;" d="M 12.75 -6.453125 C 12.75 -10.96875 10.578125 -13.46875 6.796875 -13.46875 C 3.125 -13.46875 0.875 -10.953125 0.875 -6.546875 C 0.875 -2.15625 3.09375 0.375 6.828125 0.375 C 10.5 0.375 12.75 -2.15625 12.75 -6.453125 Z M 10.546875 -6.46875 C 10.546875 -3.40625 9.125 -1.546875 6.828125 -1.546875 C 4.5 -1.546875 3.078125 -3.375 3.078125 -6.546875 C 3.078125 -9.703125 4.5 -11.546875 6.828125 -11.546875 C 9.171875 -11.546875 10.546875 -9.71875 10.546875 -6.46875 Z M 10.546875 -6.46875 "/>
</symbol>
<symbol overflow="visible" id="glyph0-3">
<path style="stroke:none;" d="M 11.921875 -4.5 L 9.796875 -4.5 C 9.453125 -2.40625 8.40625 -1.546875 6.625 -1.546875 C 4.328125 -1.546875 2.953125 -3.328125 2.953125 -6.421875 C 2.953125 -9.703125 4.296875 -11.546875 6.578125 -11.546875 C 8.328125 -11.546875 9.40625 -10.53125 9.65625 -8.703125 L 11.78125 -8.703125 C 11.53125 -11.90625 9.53125 -13.46875 6.59375 -13.46875 C 3.078125 -13.46875 0.75 -10.78125 0.75 -6.421875 C 0.75 -2.203125 3.03125 0.375 6.578125 0.375 C 9.703125 0.375 11.671875 -1.5 11.921875 -4.5 Z M 11.921875 -4.5 "/>
</symbol>
<symbol overflow="visible" id="glyph0-4">
<path style="stroke:none;" d="M 13.375 -0.046875 L 13.375 -1.625 C 13.15625 -1.578125 13.046875 -1.578125 12.921875 -1.578125 C 12.203125 -1.578125 11.796875 -1.953125 11.796875 -2.59375 L 11.796875 -9.90625 C 11.796875 -12.21875 10.09375 -13.46875 6.875 -13.46875 C 3.703125 -13.46875 1.71875 -12.25 1.59375 -9.21875 L 3.71875 -9.21875 C 3.90625 -10.828125 4.84375 -11.546875 6.796875 -11.546875 C 8.671875 -11.546875 9.703125 -10.84375 9.703125 -9.59375 L 9.703125 -9.046875 C 9.703125 -8.171875 9.203125 -7.796875 7.546875 -7.59375 C 4.59375 -7.21875 4.15625 -7.125 3.34375 -6.796875 C 1.828125 -6.171875 1.03125 -5 1.03125 -3.40625 C 1.03125 -1.03125 2.703125 0.375 5.34375 0.375 C 7.03125 0.375 8.65625 -0.328125 9.78125 -1.53125 C 10 -0.546875 10.921875 0.171875 11.953125 0.171875 C 12.375 0.171875 12.703125 0.125 13.375 -0.046875 Z M 9.703125 -4.53125 C 9.703125 -2.65625 7.828125 -1.453125 5.796875 -1.453125 C 4.171875 -1.453125 3.21875 -2.03125 3.21875 -3.453125 C 3.21875 -4.828125 4.15625 -5.421875 6.375 -5.75 C 8.578125 -6.046875 9.03125 -6.15625 9.703125 -6.453125 Z M 9.703125 -4.53125 "/>
</symbol>
<symbol overflow="visible" id="glyph0-5">
<path style="stroke:none;" d="M 6.34375 0 L 6.34375 -1.75 C 6.078125 -1.671875 5.75 -1.65625 5.34375 -1.65625 C 4.453125 -1.65625 4.203125 -1.90625 4.203125 -2.828125 L 4.203125 -11.40625 L 6.34375 -11.40625 L 6.34375 -13.09375 L 4.203125 -13.09375 L 4.203125 -16.703125 L 2.09375 -16.703125 L 2.09375 -13.09375 L 0.328125 -13.09375 L 0.328125 -11.40625 L 2.09375 -11.40625 L 2.09375 -1.90625 C 2.09375 -0.578125 3.03125 0.171875 4.65625 0.171875 C 5.15625 0.171875 5.65625 0.125 6.34375 0 Z M 6.34375 0 "/>
</symbol>
<symbol overflow="visible" id="glyph0-6">
<path style="stroke:none;" d="M 3.828125 0 L 3.828125 -13.09375 L 1.71875 -13.09375 L 1.71875 0 Z M 4.09375 -15.078125 L 4.09375 -17.671875 L 1.46875 -17.671875 L 1.46875 -15.078125 Z M 4.09375 -15.078125 "/>
</symbol>
<symbol overflow="visible" id="glyph0-7">
<path style="stroke:none;" d="M 12.171875 0 L 12.171875 -9.90625 C 12.171875 -12.078125 10.546875 -13.46875 8.03125 -13.46875 C 6.078125 -13.46875 4.796875 -12.71875 3.65625 -10.90625 L 3.671875 -10.90625 L 3.671875 -13.09375 L 1.71875 -13.09375 L 1.71875 0 L 3.828125 0 L 3.828125 -7.21875 C 3.828125 -9.90625 5.28125 -11.65625 7.40625 -11.65625 C 9.046875 -11.65625 10.078125 -10.65625 10.078125 -9.078125 L 10.078125 0 Z M 12.171875 0 "/>
</symbol>
<symbol overflow="visible" id="glyph1-0">
<path style="stroke:none;" d=""/>
</symbol>
<symbol overflow="visible" id="glyph1-1">
<path style="stroke:none;" d="M 3.453125 -2.5 C 2.671875 -2.5 2.03125 -1.875 2.03125 -1.09375 C 2.03125 -0.328125 2.65625 0.328125 3.421875 0.328125 C 4.203125 0.328125 4.828125 -0.328125 4.828125 -1.09375 C 4.828125 -1.84375 4.171875 -2.5 3.453125 -2.5 Z M 3.453125 -11.578125 C 2.671875 -11.578125 2.03125 -10.953125 2.03125 -10.171875 C 2.03125 -9.40625 2.65625 -8.75 3.421875 -8.75 C 4.203125 -8.75 4.828125 -9.40625 4.828125 -10.171875 C 4.828125 -10.921875 4.203125 -11.578125 3.453125 -11.578125 Z M 3.453125 -11.578125 "/>
</symbol>
<symbol overflow="visible" id="glyph1-2">
<path style="stroke:none;" d="M 11.046875 -12.5 L 8.828125 -12.5 L 8.84375 -3.28125 C 7.953125 -2 7.09375 -1.453125 6.046875 -1.453125 C 4.59375 -1.453125 3.75 -2.46875 3.75 -4.21875 L 3.75 -12.5 L 1.546875 -12.5 L 1.546875 -0.5 C 1.546875 0.03125 1.453125 0.65625 1.28125 1.40625 C 0.84375 2.953125 0.828125 3.09375 0.828125 3.671875 C 0.828125 4.71875 1.34375 5.46875 2.078125 5.46875 C 2.796875 5.46875 3.296875 4.71875 3.296875 3.625 C 3.296875 3.09375 3.21875 2.78125 2.828125 1.328125 C 2.578125 0.421875 2.53125 0.171875 2.53125 -0.53125 L 2.53125 -0.828125 C 3.578125 0.046875 4.15625 0.328125 5 0.328125 C 6.25 0.328125 7.53125 -0.453125 8.84375 -2 C 9.046875 -1.203125 9.171875 -0.90625 9.421875 -0.53125 C 9.796875 0 10.46875 0.328125 11.203125 0.328125 C 12.75 0.328125 13.828125 -0.78125 14.171875 -2.703125 L 13.5 -2.71875 C 13.40625 -1.78125 12.875 -1.03125 12.296875 -1.03125 C 11.546875 -1.03125 11.046875 -1.921875 11.046875 -3.28125 Z M 11.046875 -12.5 "/>
</symbol>
<symbol overflow="visible" id="glyph2-0">
<path style="stroke:none;" d=""/>
</symbol>
<symbol overflow="visible" id="glyph2-1">
<path style="stroke:none;" d="M 0 -16.96875 L -0.546875 -16.96875 C -1.171875 -16.09375 -1.828125 -15.90625 -4.25 -15.875 C -7.25 -15.828125 -8.15625 -15.375 -9 -13.40625 C -10 -15.453125 -11.28125 -16.28125 -13.34375 -16.28125 C -16.5 -16.28125 -18.21875 -14.296875 -18.21875 -10.71875 L -18.21875 -2.296875 L 0 -2.296875 L 0 -4.65625 L -7.84375 -4.65625 L -7.84375 -10.65625 C -7.84375 -12.703125 -6.84375 -13.65625 -4.59375 -13.625 L -2.96875 -13.59375 C -1.84375 -13.578125 -0.75 -13.796875 0 -14.125 Z M -13.03125 -13.828125 C -10.875 -13.828125 -9.90625 -12.75 -9.90625 -10.28125 L -9.90625 -4.65625 L -16.171875 -4.65625 L -16.171875 -10.28125 C -16.171875 -12.875 -15.078125 -13.828125 -13.03125 -13.828125 Z M -13.03125 -13.828125 "/>
</symbol>
<symbol overflow="visible" id="glyph2-2">
<path style="stroke:none;" d="M -5.953125 -12.828125 C -7.84375 -12.828125 -9.046875 -12.671875 -10.03125 -12.296875 C -12.171875 -11.453125 -13.46875 -9.453125 -13.46875 -7 C -13.46875 -3.34375 -10.78125 -0.96875 -6.46875 -0.96875 C -2.171875 -0.96875 0.375 -3.28125 0.375 -6.953125 C 0.375 -9.953125 -1.328125 -12.03125 -3.96875 -12.546875 L -3.96875 -10.421875 C -2.25 -9.84375 -1.546875 -8.703125 -1.546875 -7.03125 C -1.546875 -4.84375 -2.953125 -3.21875 -5.953125 -3.171875 Z M -7.796875 -10.59375 C -7.796875 -10.59375 -7.703125 -10.578125 -7.65625 -10.546875 L -7.65625 -3.21875 C -9.96875 -3.40625 -11.546875 -4.875 -11.546875 -6.96875 C -11.546875 -9.03125 -9.84375 -10.578125 -7.796875 -10.578125 Z M -7.796875 -10.59375 "/>
</symbol>
<symbol overflow="visible" id="glyph2-3">
<path style="stroke:none;" d="M -2.15625 -12.21875 L -13.09375 -12.21875 L -13.09375 -10.28125 L -11.203125 -10.28125 L -11.203125 -10.296875 C -12.75 -9.25 -13.46875 -7.96875 -13.46875 -6.296875 C -13.46875 -2.96875 -10.671875 -0.703125 -6.421875 -0.703125 C -2.296875 -0.703125 0.375 -3.046875 0.375 -6.125 C 0.375 -7.78125 -0.328125 -8.921875 -1.96875 -10.296875 L -1.96875 -10.28125 L -1.09375 -10.28125 C 2.375 -10.28125 3.703125 -8.875 3.703125 -6.453125 C 3.703125 -4.796875 3.09375 -3.53125 1.5 -3.28125 L 1.5 -1.125 C 3.96875 -1.34375 5.453125 -3.296875 5.453125 -6.375 C 5.453125 -10.46875 3.625 -12.21875 -2.15625 -12.21875 Z M -6.46875 -10.078125 C -3.34375 -10.078125 -1.546875 -8.75 -1.546875 -6.546875 C -1.546875 -4.28125 -3.375 -2.90625 -6.546875 -2.90625 C -9.703125 -2.90625 -11.546875 -4.296875 -11.546875 -6.53125 C -11.546875 -8.78125 -9.65625 -10.078125 -6.46875 -10.078125 Z M -6.46875 -10.078125 "/>
</symbol>
<symbol overflow="visible" id="glyph2-4">
<path style="stroke:none;" d="M 0 -3.828125 L -13.09375 -3.828125 L -13.09375 -1.71875 L 0 -1.71875 Z M -15.078125 -4.09375 L -17.671875 -4.09375 L -17.671875 -1.46875 L -15.078125 -1.46875 Z M -15.078125 -4.09375 "/>
</symbol>
<symbol overflow="visible" id="glyph2-5">
<path style="stroke:none;" d="M -6.453125 -12.75 C -10.96875 -12.75 -13.46875 -10.578125 -13.46875 -6.796875 C -13.46875 -3.125 -10.953125 -0.875 -6.546875 -0.875 C -2.15625 -0.875 0.375 -3.09375 0.375 -6.828125 C 0.375 -10.5 -2.15625 -12.75 -6.453125 -12.75 Z M -6.46875 -10.546875 C -3.40625 -10.546875 -1.546875 -9.125 -1.546875 -6.828125 C -1.546875 -4.5 -3.375 -3.078125 -6.546875 -3.078125 C -9.703125 -3.078125 -11.546875 -4.5 -11.546875 -6.828125 C -11.546875 -9.171875 -9.71875 -10.546875 -6.46875 -10.546875 Z M -6.46875 -10.546875 "/>
</symbol>
<symbol overflow="visible" id="glyph2-6">
<path style="stroke:none;" d="M 0 -12.171875 L -9.90625 -12.171875 C -12.078125 -12.171875 -13.46875 -10.546875 -13.46875 -8.03125 C -13.46875 -6.078125 -12.71875 -4.796875 -10.90625 -3.65625 L -10.90625 -3.671875 L -13.09375 -3.671875 L -13.09375 -1.71875 L 0 -1.71875 L 0 -3.828125 L -7.21875 -3.828125 C -9.90625 -3.828125 -11.65625 -5.28125 -11.65625 -7.40625 C -11.65625 -9.046875 -10.65625 -10.078125 -9.078125 -10.078125 L 0 -10.078125 Z M 0 -12.171875 "/>
</symbol>
</g>
<clipPath id="clip1">
  <path d="M 68.800781 28.347656 L 476 28.347656 L 476 436 L 68.800781 436 Z M 68.800781 28.347656 "/>
</clipPath>
</defs>
<g id="surface360">
<rect x="0" y="0" width="504" height="504" style="fill:rgb(100%,100%,100%);fill-opacity:1;stroke:none;"/>
<rect x="0" y="0" width="504" height="504" style="fill:rgb(100%,100%,100%);fill-opacity:1;stroke:none;"/>
<g clip-path="url(#clip1)" clip-rule="nonzero">
<path style=" stroke:none;fill-rule:nonzero;fill:rgb(100%,100%,100%);fill-opacity:1;" d="M 68.800781 435.199219 L 475.65625 435.199219 L 475.65625 28.34375 L 68.800781 28.34375 Z M 68.800781 435.199219 "/>
</g>
<g style="fill:rgb(0%,0%,0%);fill-opacity:1;">
  <use xlink:href="#glyph0-1" x="212.558594" y="469.954102"/>
</g>
<g style="fill:rgb(0%,0%,0%);fill-opacity:1;">
  <use xlink:href="#glyph0-2" x="218.558594" y="469.954102"/>
</g>
<g style="fill:rgb(0%,0%,0%);fill-opacity:1;">
  <use xlink:href="#glyph0-3" x="232.558594" y="469.954102"/>
</g>
<g style="fill:rgb(0%,0%,0%);fill-opacity:1;">
  <use xlink:href="#glyph0-4" x="245.558594" y="469.954102"/>
</g>
<g style="fill:rgb(0%,0%,0%);fill-opacity:1;">
  <use xlink:href="#glyph0-5" x="259.558594" y="469.954102"/>
</g>
<g style="fill:rgb(0%,0%,0%);fill-opacity:1;">
  <use xlink:href="#glyph0-6" x="266.558594" y="469.954102"/>
</g>
<g style="fill:rgb(0%,0%,0%);fill-opacity:1;">
  <use xlink:href="#glyph0-2" x="272.558594" y="469.954102"/>
</g>
<g style="fill:rgb(0%,0%,0%);fill-opacity:1;">
  <use xlink:href="#glyph0-7" x="286.558594" y="469.954102"/>
</g>
<g style="fill:rgb(0%,0%,0%);fill-opacity:1;">
  <use xlink:href="#glyph1-1" x="305.226562" y="469.503906"/>
</g>
<g style="fill:rgb(0%,0%,0%);fill-opacity:1;">
  <use xlink:href="#glyph1-2" x="316.894531" y="469.503906"/>
</g>
<g style="fill:rgb(0%,0%,0%);fill-opacity:1;">
  <use xlink:href="#glyph2-1" x="44.047852" y="272.273438"/>
</g>
<g style="fill:rgb(0%,0%,0%);fill-opacity:1;">
  <use xlink:href="#glyph2-2" x="44.047852" y="253.273438"/>
</g>
<g style="fill:rgb(0%,0%,0%);fill-opacity:1;">
  <use xlink:href="#glyph2-3" x="44.047852" y="239.273438"/>
</g>
<g style="fill:rgb(0%,0%,0%);fill-opacity:1;">
  <use xlink:href="#glyph2-4" x="44.047852" y="225.273438"/>
</g>
<g style="fill:rgb(0%,0%,0%);fill-opacity:1;">
  <use xlink:href="#glyph2-5" x="44.047852" y="219.273438"/>
</g>
<g style="fill:rgb(0%,0%,0%);fill-opacity:1;">
  <use xlink:href="#glyph2-6" x="44.047852" y="205.273438"/>
</g>
</g>
</svg>
