<?xml version="1.0" encoding="UTF-8"?>
<svg xmlns="http://www.w3.org/2000/svg" xmlns:xlink="http://www.w3.org/1999/xlink" width="504pt" height="504pt" viewBox="0 0 504 504" version="1.1">
<defs>
<g>
<symbol overflow="visible" id="glyph0-0">
<path style="stroke:none;" d=""/>
</symbol>
<symbol overflow="visible" id="glyph0-1">
<path style="stroke:none;" d="M 4.296875 -0.125 L 4.296875 -8.765625 L 3.359375 -8.765625 C 2.953125 -7.328125 2.859375 -7.28125 1.078125 -7.0625 L 1.078125 -6.0625 L 2.96875 -6.0625 L 2.96875 0 L 4.296875 0 Z M 4.296875 -0.125 "/>
</symbol>
<symbol overflow="visible" id="glyph0-2">
<path style="stroke:none;" d="M 2.421875 -0.125 L 2.421875 -1.515625 L 0.90625 -1.515625 L 0.90625 0 L 2.421875 0 Z M 2.421875 -0.125 "/>
</symbol>
<symbol overflow="visible" id="glyph0-3">
<path style="stroke:none;" d="M 6.28125 -2.53125 C 6.28125 -3.484375 5.671875 -4.265625 4.953125 -4.625 C 5.65625 -5.046875 5.984375 -5.5625 5.984375 -6.375 C 5.984375 -7.703125 4.8125 -8.765625 3.296875 -8.765625 C 1.796875 -8.765625 0.59375 -7.703125 0.59375 -6.375 C 0.59375 -5.578125 0.921875 -5.046875 1.625 -4.625 C 0.921875 -4.265625 0.296875 -3.484375 0.296875 -2.546875 C 0.296875 -0.984375 1.625 0.1875 3.296875 0.1875 C 4.984375 0.1875 6.28125 -0.984375 6.28125 -2.53125 Z M 4.625 -6.34375 C 4.625 -5.5625 4.1875 -5.15625 3.296875 -5.15625 C 2.40625 -5.15625 1.953125 -5.5625 1.953125 -6.359375 C 1.953125 -7.171875 2.40625 -7.578125 3.296875 -7.578125 C 4.203125 -7.578125 4.625 -7.171875 4.625 -6.34375 Z M 4.9375 -2.515625 C 4.9375 -1.515625 4.359375 -1.015625 3.28125 -1.015625 C 2.25 -1.015625 1.65625 -1.53125 1.65625 -2.515625 C 1.65625 -3.515625 2.25 -4.015625 3.296875 -4.015625 C 4.359375 -4.015625 4.9375 -3.515625 4.9375 -2.515625 Z M 4.9375 -2.515625 "/>
</symbol>
<symbol overflow="visible" id="glyph0-4">
<path style="stroke:none;" d="M 6.28125 -2.953125 C 6.28125 -4.625 5.046875 -5.875 3.40625 -5.875 C 2.8125 -5.875 2.21875 -5.671875 2.015625 -5.515625 L 2.28125 -7.28125 L 5.84375 -7.28125 L 5.84375 -8.59375 L 1.203125 -8.59375 L 0.515625 -3.875 L 1.71875 -3.875 C 2.25 -4.5 2.5625 -4.671875 3.21875 -4.671875 C 4.359375 -4.671875 4.9375 -4.0625 4.9375 -2.8125 C 4.9375 -1.578125 4.375 -1.015625 3.21875 -1.015625 C 2.296875 -1.015625 1.859375 -1.359375 1.578125 -2.453125 L 0.25 -2.453125 C 0.625 -0.625 1.734375 0.1875 3.234375 0.1875 C 4.953125 0.1875 6.28125 -1.15625 6.28125 -2.953125 Z M 6.28125 -2.953125 "/>
</symbol>
<symbol overflow="visible" id="glyph0-5">
<path style="stroke:none;" d="M 6.234375 -4.578125 C 6.234375 -7.25 5.1875 -8.765625 3.234375 -8.765625 C 1.625 -8.765625 0.3125 -7.484375 0.3125 -5.8125 C 0.3125 -4.234375 1.53125 -3.03125 3.078125 -3.03125 C 3.875 -3.03125 4.5625 -3.359375 5.109375 -4.015625 L 4.875 -4.109375 C 4.859375 -2.046875 4.328125 -1.015625 3.125 -1.015625 C 2.375 -1.015625 1.984375 -1.359375 1.796875 -2.296875 L 0.46875 -2.296875 C 0.703125 -0.78125 1.75 0.1875 3.046875 0.1875 C 5.046875 0.1875 6.234375 -1.640625 6.234375 -4.578125 Z M 4.8125 -5.84375 C 4.8125 -4.796875 4.21875 -4.234375 3.1875 -4.234375 C 2.171875 -4.234375 1.671875 -4.765625 1.671875 -5.90625 C 1.671875 -6.984375 2.25 -7.578125 3.234375 -7.578125 C 4.21875 -7.578125 4.8125 -6.953125 4.8125 -5.84375 Z M 4.8125 -5.84375 "/>
</symbol>
<symbol overflow="visible" id="glyph0-6">
<path style="stroke:none;" d="M 6.21875 -4.21875 C 6.21875 -7.171875 5.140625 -8.765625 3.296875 -8.765625 C 1.46875 -8.765625 0.375 -7.15625 0.375 -4.296875 C 0.375 -1.421875 1.46875 0.1875 3.296875 0.1875 C 5.09375 0.1875 6.21875 -1.421875 6.21875 -4.21875 Z M 4.859375 -4.3125 C 4.859375 -1.90625 4.453125 -0.953125 3.28125 -0.953125 C 2.15625 -0.953125 1.734375 -1.953125 1.734375 -4.28125 C 1.734375 -6.609375 2.15625 -7.578125 3.296875 -7.578125 C 4.4375 -7.578125 4.859375 -6.59375 4.859375 -4.3125 Z M 4.859375 -4.3125 "/>
</symbol>
<symbol overflow="visible" id="glyph0-7">
<path style="stroke:none;" d="M 6.265625 -6.140625 C 6.265625 -7.578125 5.015625 -8.765625 3.40625 -8.765625 C 1.671875 -8.765625 0.515625 -7.75 0.453125 -5.5625 L 1.78125 -5.5625 C 1.875 -7.109375 2.328125 -7.578125 3.375 -7.578125 C 4.328125 -7.578125 4.90625 -7.03125 4.90625 -6.125 C 4.90625 -5.453125 4.546875 -4.96875 3.796875 -4.53125 L 2.6875 -3.90625 C 0.90625 -2.90625 0.359375 -2 0.25 0 L 6.203125 0 L 6.203125 -1.3125 L 1.75 -1.3125 C 1.84375 -1.875 2.1875 -2.21875 3.234375 -2.828125 L 4.421875 -3.484375 C 5.609375 -4.109375 6.265625 -5.09375 6.265625 -6.140625 Z M 6.265625 -6.140625 "/>
</symbol>
<symbol overflow="visible" id="glyph0-8">
<path style="stroke:none;" d="M 9.25 -0.125 L 9.25 -4.84375 C 9.25 -5.96875 8.5 -6.734375 7.3125 -6.734375 C 6.484375 -6.734375 5.875 -6.4375 5.40625 -5.875 C 5.109375 -6.40625 4.515625 -6.734375 3.703125 -6.734375 C 2.859375 -6.734375 2.203125 -6.390625 1.65625 -5.625 L 1.890625 -5.53125 L 1.890625 -6.546875 L 0.703125 -6.546875 L 0.703125 0 L 1.984375 0 L 1.984375 -4.078125 C 1.984375 -4.984375 2.515625 -5.59375 3.328125 -5.59375 C 4.0625 -5.59375 4.34375 -5.265625 4.34375 -4.46875 L 4.34375 0 L 5.609375 0 L 5.609375 -4.078125 C 5.609375 -4.984375 6.15625 -5.59375 6.96875 -5.59375 C 7.703125 -5.59375 7.984375 -5.25 7.984375 -4.46875 L 7.984375 0 L 9.25 0 Z M 9.25 -0.125 "/>
</symbol>
<symbol overflow="visible" id="glyph0-9">
<path style="stroke:none;" d="M 5.921875 -0.125 L 5.921875 -6.546875 L 4.640625 -6.546875 L 4.640625 -2.953125 C 4.640625 -1.671875 4.109375 -0.953125 3.078125 -0.953125 C 2.28125 -0.953125 1.90625 -1.3125 1.90625 -2.0625 L 1.90625 -6.546875 L 0.640625 -6.546875 L 0.640625 -1.671875 C 0.640625 -0.625 1.5625 0.1875 2.78125 0.1875 C 3.703125 0.1875 4.390625 -0.1875 4.984375 -1.015625 L 4.734375 -1.109375 L 4.734375 0 L 5.921875 0 Z M 5.921875 -0.125 "/>
</symbol>
<symbol overflow="visible" id="glyph0-10">
<path style="stroke:none;" d="M 4.578125 -6.28125 C 4.578125 -7.4375 3.546875 -8.484375 2.390625 -8.484375 C 1.265625 -8.484375 0.203125 -7.421875 0.203125 -6.296875 C 0.203125 -5.171875 1.265625 -4.109375 2.40625 -4.109375 C 3.515625 -4.109375 4.578125 -5.171875 4.578125 -6.28125 Z M 3.46875 -6.28125 C 3.46875 -5.625 3.0625 -5.21875 2.40625 -5.21875 C 1.734375 -5.21875 1.3125 -5.640625 1.3125 -6.296875 C 1.3125 -6.96875 1.734375 -7.375 2.390625 -7.375 C 3.078125 -7.375 3.46875 -6.96875 3.46875 -6.28125 Z M 8.09375 -8.765625 L 7.21875 -8.765625 L 2.34375 0.234375 L 3.4375 0.234375 L 8.3125 -8.765625 Z M 10.4375 -1.9375 C 10.4375 -3.078125 9.40625 -4.125 8.25 -4.125 C 7.140625 -4.125 6.078125 -3.078125 6.078125 -1.953125 C 6.078125 -0.828125 7.140625 0.234375 8.265625 0.234375 C 9.375 0.234375 10.4375 -0.828125 10.4375 -1.9375 Z M 9.34375 -1.9375 C 9.34375 -1.28125 8.921875 -0.875 8.265625 -0.875 C 7.59375 -0.875 7.171875 -1.28125 7.171875 -1.953125 C 7.171875 -2.609375 7.59375 -3.03125 8.25 -3.03125 C 8.9375 -3.03125 9.34375 -2.609375 9.34375 -1.9375 Z M 9.34375 -1.9375 "/>
</symbol>
<symbol overflow="visible" id="glyph0-11">
<path style="stroke:none;" d="M 6.28125 -2.765625 C 6.28125 -4.359375 5.078125 -5.5625 3.546875 -5.5625 C 2.71875 -5.5625 1.9375 -5.203125 1.484375 -4.578125 L 1.734375 -4.46875 C 1.734375 -6.546875 2.28125 -7.578125 3.484375 -7.578125 C 4.234375 -7.578125 4.609375 -7.234375 4.796875 -6.28125 L 6.125 -6.28125 C 5.90625 -7.8125 4.859375 -8.765625 3.5625 -8.765625 C 1.578125 -8.765625 0.375 -6.96875 0.375 -4.015625 C 0.375 -1.359375 1.421875 0.1875 3.375 0.1875 C 4.984375 0.1875 6.28125 -1.109375 6.28125 -2.765625 Z M 4.9375 -2.6875 C 4.9375 -1.625 4.359375 -1.015625 3.390625 -1.015625 C 2.40625 -1.015625 1.78125 -1.65625 1.78125 -2.75 C 1.78125 -3.796875 2.375 -4.359375 3.421875 -4.359375 C 4.4375 -4.359375 4.9375 -3.828125 4.9375 -2.6875 Z M 4.9375 -2.6875 "/>
</symbol>
<symbol overflow="visible" id="glyph0-12">
<path style="stroke:none;" d="M 6.375 -2.171875 L 6.375 -3.25 L 5.109375 -3.25 L 5.109375 -8.765625 L 4.125 -8.765625 L 0.1875 -3.328125 L 0.1875 -2.046875 L 3.78125 -2.046875 L 3.78125 0 L 5.109375 0 L 5.109375 -2.046875 L 6.375 -2.046875 Z M 3.921875 -3.25 L 1.515625 -3.25 L 4.015625 -6.75 L 3.78125 -6.84375 L 3.78125 -3.25 Z M 3.921875 -3.25 "/>
</symbol>
<symbol overflow="visible" id="glyph0-13">
<path style="stroke:none;" d="M 6.375 -7.578125 L 6.375 -8.59375 L 0.40625 -8.59375 L 0.40625 -7.28125 L 4.859375 -7.28125 C 3.34375 -5.375 2.109375 -2.796875 1.46875 0 L 2.890625 0 C 3.390625 -2.875 4.546875 -5.359375 6.375 -7.53125 Z M 6.375 -7.578125 "/>
</symbol>
<symbol overflow="visible" id="glyph0-14">
<path style="stroke:none;" d="M 5.640625 -1.890625 C 5.640625 -2.828125 4.984375 -3.4375 3.734375 -3.734375 L 2.765625 -3.953125 C 1.953125 -4.15625 1.734375 -4.28125 1.734375 -4.734375 C 1.734375 -5.296875 2.125 -5.546875 2.9375 -5.546875 C 3.75 -5.546875 4.03125 -5.328125 4.0625 -4.53125 L 5.390625 -4.53125 C 5.375 -5.90625 4.421875 -6.734375 2.96875 -6.734375 C 1.515625 -6.734375 0.421875 -5.84375 0.421875 -4.6875 C 0.421875 -3.703125 1.0625 -3.09375 2.5625 -2.734375 L 3.484375 -2.515625 C 4.1875 -2.34375 4.3125 -2.265625 4.3125 -1.8125 C 4.3125 -1.21875 3.875 -1.015625 3 -1.015625 C 2.09375 -1.015625 1.734375 -1.09375 1.578125 -2.1875 L 0.265625 -2.1875 C 0.3125 -0.59375 1.265625 0.1875 2.921875 0.1875 C 4.5 0.1875 5.640625 -0.6875 5.640625 -1.890625 Z M 5.640625 -1.890625 "/>
</symbol>
<symbol overflow="visible" id="glyph0-15">
<path style="stroke:none;" d="M 1.96875 -0.125 L 1.96875 -6.546875 L 0.703125 -6.546875 L 0.703125 0 L 1.96875 0 Z M 2.09375 -7.375 L 2.09375 -8.75 L 0.578125 -8.75 L 0.578125 -7.234375 L 2.09375 -7.234375 Z M 2.09375 -7.375 "/>
</symbol>
<symbol overflow="visible" id="glyph0-16">
<path style="stroke:none;" d="M 6 -1.15625 L 6 -6.546875 L 4.796875 -6.546875 L 4.796875 -5.515625 L 5.046875 -5.609375 C 4.53125 -6.34375 3.828125 -6.734375 3.03125 -6.734375 C 1.421875 -6.734375 0.203125 -5.25 0.203125 -3.21875 C 0.203125 -1.234375 1.46875 0.1875 2.9375 0.1875 C 3.734375 0.1875 4.375 -0.1875 5.046875 -0.984375 L 4.796875 -1.078125 L 4.796875 -0.65625 C 4.796875 1.015625 4.265625 1.515625 3.09375 1.515625 C 2.296875 1.515625 1.828125 1.359375 1.6875 0.453125 L 0.390625 0.453125 C 0.515625 1.78125 1.578125 2.609375 3.0625 2.609375 C 5.03125 2.609375 6 1.609375 6 -1.15625 Z M 4.703125 -3.234375 C 4.703125 -1.734375 4.203125 -1.015625 3.140625 -1.015625 C 2.046875 -1.015625 1.53125 -1.75 1.53125 -3.28125 C 1.53125 -4.78125 2.0625 -5.546875 3.125 -5.546875 C 4.21875 -5.546875 4.703125 -4.765625 4.703125 -3.234375 Z M 4.703125 -3.234375 "/>
</symbol>
<symbol overflow="visible" id="glyph0-17">
<path style="stroke:none;" d="M 6.546875 -0.15625 L 6.546875 -1.078125 C 6.3125 -1.015625 6.265625 -1.015625 6.203125 -1.015625 C 5.859375 -1.015625 5.796875 -1.0625 5.796875 -1.375 L 5.796875 -4.890625 C 5.796875 -6 4.84375 -6.734375 3.296875 -6.734375 C 1.78125 -6.734375 0.703125 -6.015625 0.640625 -4.421875 L 1.90625 -4.421875 C 2 -5.328125 2.328125 -5.546875 3.265625 -5.546875 C 4.15625 -5.546875 4.53125 -5.34375 4.53125 -4.734375 L 4.53125 -4.46875 C 4.53125 -4.0625 4.421875 -4.015625 3.625 -3.90625 C 2.203125 -3.734375 1.984375 -3.6875 1.609375 -3.53125 C 0.875 -3.234375 0.359375 -2.53125 0.359375 -1.765625 C 0.359375 -0.625 1.296875 0.1875 2.5625 0.1875 C 3.375 0.1875 4.25 -0.1875 4.625 -0.59375 C 4.671875 -0.390625 5.25 0.078125 5.734375 0.078125 C 5.9375 0.078125 6.09375 0.0625 6.546875 -0.046875 Z M 4.53125 -2.296875 C 4.53125 -1.40625 3.75 -0.953125 2.78125 -0.953125 C 2 -0.953125 1.6875 -1.109375 1.6875 -1.78125 C 1.6875 -2.453125 1.984375 -2.609375 3.0625 -2.765625 C 4.109375 -2.90625 4.328125 -2.953125 4.53125 -3.03125 Z M 4.53125 -2.296875 "/>
</symbol>
<symbol overflow="visible" id="glyph1-0">
<path style="stroke:none;" d=""/>
</symbol>
<symbol overflow="visible" id="glyph1-1">
<path style="stroke:none;" d="M -4.21875 -6.21875 C -7.171875 -6.21875 -8.765625 -5.140625 -8.765625 -3.296875 C -8.765625 -1.46875 -7.15625 -0.375 -4.296875 -0.375 C -1.421875 -0.375 0.1875 -1.46875 0.1875 -3.296875 C 0.1875 -5.09375 -1.421875 -6.21875 -4.21875 -6.21875 Z M -4.3125 -4.859375 C -1.90625 -4.859375 -0.953125 -4.453125 -0.953125 -3.28125 C -0.953125 -2.15625 -1.953125 -1.734375 -4.28125 -1.734375 C -6.609375 -1.734375 -7.578125 -2.15625 -7.578125 -3.296875 C -7.578125 -4.4375 -6.59375 -4.859375 -4.3125 -4.859375 Z M -4.3125 -4.859375 "/>
</symbol>
<symbol overflow="visible" id="glyph1-2">
<path style="stroke:none;" d="M -0.125 -2.421875 L -1.515625 -2.421875 L -1.515625 -0.90625 L 0 -0.90625 L 0 -2.421875 Z M -0.125 -2.421875 "/>
</symbol>
<symbol overflow="visible" id="glyph1-3">
<path style="stroke:none;" d="M -2.953125 -6.28125 C -4.625 -6.28125 -5.875 -5.046875 -5.875 -3.40625 C -5.875 -2.8125 -5.671875 -2.21875 -5.515625 -2.015625 L -7.28125 -2.28125 L -7.28125 -5.84375 L -8.59375 -5.84375 L -8.59375 -1.203125 L -3.875 -0.515625 L -3.875 -1.71875 C -4.5 -2.25 -4.671875 -2.5625 -4.671875 -3.21875 C -4.671875 -4.359375 -4.0625 -4.9375 -2.8125 -4.9375 C -1.578125 -4.9375 -1.015625 -4.375 -1.015625 -3.21875 C -1.015625 -2.296875 -1.359375 -1.859375 -2.453125 -1.578125 L -2.453125 -0.25 C -0.625 -0.625 0.1875 -1.734375 0.1875 -3.234375 C 0.1875 -4.953125 -1.15625 -6.28125 -2.953125 -6.28125 Z M -2.953125 -6.28125 "/>
</symbol>
<symbol overflow="visible" id="glyph1-4">
<path style="stroke:none;" d="M -0.125 -4.296875 L -8.765625 -4.296875 L -8.765625 -3.359375 C -7.328125 -2.953125 -7.28125 -2.859375 -7.0625 -1.078125 L -6.0625 -1.078125 L -6.0625 -2.96875 L 0 -2.96875 L 0 -4.296875 Z M -0.125 -4.296875 "/>
</symbol>
<symbol overflow="visible" id="glyph1-5">
<path style="stroke:none;" d="M -6.140625 -6.265625 C -7.578125 -6.265625 -8.765625 -5.015625 -8.765625 -3.40625 C -8.765625 -1.671875 -7.75 -0.515625 -5.5625 -0.453125 L -5.5625 -1.78125 C -7.109375 -1.875 -7.578125 -2.328125 -7.578125 -3.375 C -7.578125 -4.328125 -7.03125 -4.90625 -6.125 -4.90625 C -5.453125 -4.90625 -4.96875 -4.546875 -4.53125 -3.796875 L -3.90625 -2.6875 C -2.90625 -0.90625 -2 -0.359375 0 -0.25 L 0 -6.203125 L -1.3125 -6.203125 L -1.3125 -1.75 C -1.875 -1.84375 -2.21875 -2.1875 -2.828125 -3.234375 L -3.484375 -4.421875 C -4.109375 -5.609375 -5.09375 -6.265625 -6.140625 -6.265625 Z M -6.140625 -6.265625 "/>
</symbol>
<symbol overflow="visible" id="glyph1-6">
<path style="stroke:none;" d="M -0.125 -5.609375 L -1.140625 -5.609375 L -1.140625 -1.875 L -5.484375 -5.453125 L -6.546875 -5.453125 L -6.546875 -0.484375 L -5.40625 -0.484375 L -5.40625 -3.828125 L -1.078125 -0.234375 L 0 -0.234375 L 0 -5.609375 Z M -0.125 -5.609375 "/>
</symbol>
<symbol overflow="visible" id="glyph2-0">
<path style="stroke:none;" d=""/>
</symbol>
<symbol overflow="visible" id="glyph2-1">
<path style="stroke:none;" d="M 8.40625 -0.125 L 8.40625 -2.078125 L 3.390625 -2.078125 L 3.390625 -10.78125 L 1.0625 -10.78125 L 1.0625 0 L 8.40625 0 Z M 8.40625 -0.125 "/>
</symbol>
<symbol overflow="visible" id="glyph2-2">
<path style="stroke:none;" d="M 3.046875 -0.125 L 3.046875 -8.046875 L 0.875 -8.046875 L 0.875 0 L 3.046875 0 Z M 3.078125 -8.84375 L 3.078125 -11 L 0.90625 -11 L 0.90625 -8.71875 L 3.078125 -8.71875 Z M 3.078125 -8.84375 "/>
</symbol>
<symbol overflow="visible" id="glyph2-3">
<path style="stroke:none;" d="M 7.9375 -0.234375 L 5.171875 -4.953125 L 7.96875 -8.046875 L 5.390625 -8.046875 L 2.9375 -5.140625 L 2.9375 -10.78125 L 0.765625 -10.78125 L 0.765625 0 L 2.9375 0 L 2.9375 -2.609375 L 3.65625 -3.390625 L 5.484375 0 L 8.078125 0 Z M 7.9375 -0.234375 "/>
</symbol>
<symbol overflow="visible" id="glyph2-4">
<path style="stroke:none;" d="M 7.640625 -3.734375 C 7.640625 -6.40625 6.203125 -8.1875 3.921875 -8.1875 C 1.6875 -8.1875 0.234375 -6.53125 0.234375 -3.921875 C 0.234375 -1.421875 1.671875 0.125 3.875 0.125 C 5.625 0.125 7.109375 -0.796875 7.59375 -2.46875 L 5.453125 -2.46875 C 5.234375 -1.703125 4.6875 -1.6875 3.953125 -1.6875 C 3 -1.6875 2.46875 -1.96875 2.40625 -3.359375 L 7.609375 -3.359375 Z M 5.453125 -4.96875 L 2.453125 -4.96875 C 2.5625 -5.90625 3 -6.375 3.890625 -6.375 C 4.75 -6.375 5.265625 -5.9375 5.359375 -4.96875 Z M 5.453125 -4.96875 "/>
</symbol>
<symbol overflow="visible" id="glyph2-5">
<path style="stroke:none;" d="M 3.046875 -0.125 L 3.046875 -10.78125 L 0.875 -10.78125 L 0.875 0 L 3.046875 0 Z M 3.046875 -0.125 "/>
</symbol>
<symbol overflow="visible" id="glyph2-6">
<path style="stroke:none;" d="M 7.859375 -0.125 L 7.859375 -5.34375 C 7.859375 -7.15625 6.734375 -8.1875 5.265625 -8.1875 C 4.265625 -8.1875 3.484375 -7.734375 3.046875 -7.09375 L 3.046875 -10.78125 L 0.875 -10.78125 L 0.875 0 L 3.046875 0 L 3.046875 -4.796875 C 3.046875 -5.6875 3.625 -6.1875 4.53125 -6.1875 C 5.265625 -6.1875 5.6875 -5.9375 5.6875 -4.890625 L 5.6875 0 L 7.859375 0 Z M 7.859375 -0.125 "/>
</symbol>
<symbol overflow="visible" id="glyph2-7">
<path style="stroke:none;" d="M 8.265625 -3.96875 C 8.265625 -6.59375 6.765625 -8.1875 4.34375 -8.1875 C 1.953125 -8.1875 0.421875 -6.5625 0.421875 -4.015625 C 0.421875 -1.453125 1.953125 0.125 4.34375 0.125 C 6.71875 0.125 8.265625 -1.46875 8.265625 -3.96875 Z M 6.09375 -3.984375 C 6.09375 -2.53125 5.4375 -1.765625 4.34375 -1.765625 C 3.25 -1.765625 2.59375 -2.53125 2.59375 -4.015625 C 2.59375 -5.5 3.25 -6.28125 4.34375 -6.28125 C 5.453125 -6.28125 6.09375 -5.515625 6.09375 -3.984375 Z M 6.09375 -3.984375 "/>
</symbol>
<symbol overflow="visible" id="glyph2-8">
<path style="stroke:none;" d="M 7.921875 -0.125 L 7.921875 -10.78125 L 5.75 -10.78125 L 5.75 -7.21875 C 5.375 -7.78125 4.65625 -8.1875 3.6875 -8.1875 C 1.828125 -8.1875 0.328125 -6.359375 0.328125 -4 C 0.328125 -1.796875 1.625 0.125 3.6875 0.125 C 4.65625 0.125 5.375 -0.265625 5.75 -0.75 L 5.75 0 L 7.921875 0 Z M 5.75 -3.96875 C 5.75 -2.5625 5.140625 -1.828125 4.140625 -1.828125 C 3.125 -1.828125 2.5 -2.578125 2.5 -4 C 2.5 -5.453125 3.125 -6.21875 4.140625 -6.21875 C 5.15625 -6.21875 5.75 -5.453125 5.75 -3.96875 Z M 5.75 -3.96875 "/>
</symbol>
<symbol overflow="visible" id="glyph2-9">
<path style="stroke:none;" d=""/>
</symbol>
<symbol overflow="visible" id="glyph2-10">
<path style="stroke:none;" d="M 8.34375 -4.015625 C 8.34375 -6.328125 7.046875 -8.1875 5.015625 -8.1875 C 4.03125 -8.1875 3.28125 -7.71875 2.796875 -6.859375 L 2.921875 -6.75 L 2.921875 -8.046875 L 0.75 -8.046875 L 0.75 3.140625 L 2.921875 3.140625 L 2.921875 -1.171875 L 2.796875 -1.0625 C 3.28125 -0.203125 4.03125 0.125 5.015625 0.125 C 6.890625 0.125 8.34375 -1.65625 8.34375 -4.015625 Z M 6.171875 -3.984375 C 6.171875 -2.578125 5.546875 -1.828125 4.546875 -1.828125 C 3.546875 -1.828125 2.921875 -2.5625 2.921875 -4.015625 C 2.921875 -5.46875 3.546875 -6.21875 4.546875 -6.21875 C 5.578125 -6.21875 6.171875 -5.46875 6.171875 -3.984375 Z M 6.171875 -3.984375 "/>
</symbol>
<symbol overflow="visible" id="glyph2-11">
<path style="stroke:none;" d="M 5.40625 -5.984375 L 5.40625 -8.15625 C 5.21875 -8.1875 5.140625 -8.1875 5.078125 -8.1875 C 4.15625 -8.1875 3.265625 -7.375 2.84375 -6.328125 L 3 -6.375 L 3 -8.046875 L 0.828125 -8.046875 L 0.828125 0 L 3 0 L 3 -4.265625 C 3 -5.453125 3.515625 -5.90625 4.703125 -5.90625 C 4.90625 -5.90625 5.0625 -5.890625 5.40625 -5.828125 Z M 5.40625 -5.984375 "/>
</symbol>
<symbol overflow="visible" id="glyph2-12">
<path style="stroke:none;" d="M 4.578125 -6.40625 L 4.578125 -7.890625 L 3.390625 -7.890625 L 3.390625 -8.515625 C 3.390625 -8.921875 3.484375 -8.984375 3.859375 -8.984375 C 4.03125 -8.984375 4.265625 -8.96875 4.515625 -8.9375 L 4.515625 -10.734375 C 4.0625 -10.765625 3.5625 -10.78125 3.28125 -10.78125 C 1.9375 -10.78125 1.203125 -10 1.203125 -8.6875 L 1.203125 -7.890625 L 0.109375 -7.890625 L 0.109375 -6.28125 L 1.203125 -6.28125 L 1.203125 0 L 3.390625 0 L 3.390625 -6.28125 L 4.578125 -6.28125 Z M 7.84375 -0.125 L 7.84375 -8.046875 L 5.671875 -8.046875 L 5.671875 0 L 7.84375 0 Z M 7.84375 -8.84375 L 7.84375 -11 L 5.671875 -11 L 5.671875 -8.71875 L 7.84375 -8.71875 Z M 7.84375 -8.84375 "/>
</symbol>
<symbol overflow="visible" id="glyph2-13">
<path style="stroke:none;" d="M 3.5625 -0.125 L 3.5625 -2.375 L 1.234375 -2.375 L 1.234375 0 L 3.5625 0 Z M 3.5625 -5.515625 L 3.5625 -7.765625 L 1.234375 -7.765625 L 1.234375 -5.390625 L 3.5625 -5.390625 Z M 3.5625 -5.515625 "/>
</symbol>
<symbol overflow="visible" id="glyph2-14">
<path style="stroke:none;" d="M 11.9375 -0.125 L 11.9375 -5.640625 C 11.9375 -7.140625 10.953125 -8.1875 9.390625 -8.1875 C 8.40625 -8.1875 7.671875 -7.796875 7.109375 -7.078125 C 6.78125 -7.71875 5.96875 -8.1875 5 -8.1875 C 4.109375 -8.1875 3.46875 -7.84375 2.9375 -7.203125 L 2.9375 -8.046875 L 0.78125 -8.046875 L 0.78125 0 L 2.953125 0 L 2.953125 -4.796875 C 2.953125 -5.75 3.40625 -6.1875 4.265625 -6.1875 C 4.9375 -6.1875 5.265625 -5.9375 5.265625 -5.3125 L 5.265625 0 L 7.453125 0 L 7.453125 -4.796875 C 7.453125 -5.75 7.890625 -6.1875 8.765625 -6.1875 C 9.4375 -6.1875 9.765625 -5.9375 9.765625 -5.3125 L 9.765625 0 L 11.9375 0 Z M 11.9375 -0.125 "/>
</symbol>
<symbol overflow="visible" id="glyph2-15">
<path style="stroke:none;" d="M 7.859375 -0.125 L 7.859375 -8.046875 L 5.6875 -8.046875 L 5.6875 -3.234375 C 5.6875 -2.3125 5.125 -1.859375 4.15625 -1.859375 C 3.28125 -1.859375 2.921875 -2.171875 2.921875 -3.109375 L 2.921875 -8.046875 L 0.75 -8.046875 L 0.75 -2.6875 C 0.75 -0.984375 1.78125 0.125 3.4375 0.125 C 4.5 0.125 5.25 -0.28125 5.6875 -0.875 L 5.6875 0 L 7.859375 0 Z M 7.859375 -0.125 "/>
</symbol>
<symbol overflow="visible" id="glyph2-16">
<path style="stroke:none;" d="M 7.5625 -2.4375 L 7.5625 -2.53125 C 7.5625 -3.421875 6.984375 -4.234375 5.96875 -4.53125 L 3.421875 -5.265625 C 2.859375 -5.4375 2.78125 -5.421875 2.78125 -5.734375 C 2.78125 -6.171875 3.171875 -6.328125 3.875 -6.328125 C 4.84375 -6.328125 5.234375 -6.109375 5.25 -5.265625 L 7.34375 -5.265625 C 7.3125 -7.046875 5.984375 -8.1875 3.890625 -8.1875 C 1.921875 -8.1875 0.609375 -7.046875 0.609375 -5.453125 C 0.609375 -4.5 0.953125 -3.84375 2.390625 -3.40625 L 4.796875 -2.65625 C 5.296875 -2.5 5.390625 -2.46875 5.390625 -2.25 C 5.390625 -1.765625 4.90625 -1.734375 3.96875 -1.734375 C 3.046875 -1.734375 2.640625 -1.75 2.4375 -2.734375 L 0.328125 -2.734375 C 0.390625 -0.890625 1.734375 0.125 4.09375 0.125 C 6.28125 0.125 7.5625 -0.859375 7.5625 -2.4375 Z M 7.5625 -2.4375 "/>
</symbol>
<symbol overflow="visible" id="glyph2-17">
<path style="stroke:none;" d="M 7.859375 0.125 L 7.859375 -8.046875 L 5.796875 -8.046875 L 5.796875 -7.015625 C 5.3125 -7.734375 4.609375 -8.1875 3.71875 -8.1875 C 1.875 -8.1875 0.40625 -6.34375 0.40625 -3.9375 C 0.40625 -1.515625 1.75 0.125 3.671875 0.125 C 4.578125 0.125 5.171875 -0.171875 5.796875 -0.796875 L 5.796875 0.125 C 5.796875 1.0625 5.171875 1.5625 4.15625 1.5625 C 3.40625 1.5625 2.96875 1.390625 2.765625 0.65625 L 0.5625 0.65625 C 0.59375 2.078125 1.953125 3.140625 4.09375 3.140625 C 6.4375 3.140625 7.859375 1.953125 7.859375 0.125 Z M 5.8125 -3.96875 C 5.8125 -2.546875 5.171875 -1.828125 4.125 -1.828125 C 3.171875 -1.828125 2.578125 -2.546875 2.578125 -3.96875 C 2.578125 -5.4375 3.171875 -6.21875 4.15625 -6.21875 C 5.15625 -6.21875 5.8125 -5.40625 5.8125 -3.96875 Z M 5.8125 -3.96875 "/>
</symbol>
<symbol overflow="visible" id="glyph2-18">
<path style="stroke:none;" d="M 7.625 -0.125 L 7.625 -0.46875 C 7.234375 -0.8125 7.15625 -0.921875 7.15625 -1.328125 L 7.15625 -5.640625 C 7.15625 -7.234375 6 -8.1875 3.90625 -8.1875 C 1.796875 -8.1875 0.625 -7.09375 0.484375 -5.21875 L 2.578125 -5.21875 C 2.6875 -6.15625 2.953125 -6.28125 3.953125 -6.28125 C 4.71875 -6.28125 5.03125 -6.15625 5.03125 -5.640625 C 5.03125 -4.8125 4.515625 -5.046875 3.5 -4.875 L 2.6875 -4.71875 C 1.15625 -4.453125 0.3125 -3.640625 0.3125 -2.234375 C 0.3125 -0.71875 1.46875 0.125 2.765625 0.125 C 3.625 0.125 4.46875 -0.28125 5.046875 -0.875 C 5.046875 -0.703125 5.109375 -0.265625 5.328125 0 L 7.625 0 Z M 5.03125 -3.453125 C 5.03125 -2.296875 4.53125 -1.765625 3.515625 -1.765625 C 2.84375 -1.765625 2.5 -1.890625 2.5 -2.46875 C 2.5 -3.046875 2.734375 -3.140625 3.578125 -3.296875 L 4.265625 -3.421875 C 4.796875 -3.53125 4.921875 -3.59375 5.03125 -3.640625 Z M 5.03125 -3.453125 "/>
</symbol>
</g>
<clipPath id="clip1">
  <path d="M 59.039062 59.039062 L 222.757812 59.039062 L 222.757812 418 L 59.039062 418 Z M 59.039062 59.039062 "/>
</clipPath>
<clipPath id="clip2">
  <path d="M 59.039062 416 L 222.757812 416 L 222.757812 418 L 59.039062 418 Z M 59.039062 416 "/>
</clipPath>
<clipPath id="clip3">
  <path d="M 140 59.039062 L 141 59.039062 L 141 431 L 140 431 Z M 140 59.039062 "/>
</clipPath>
<clipPath id="clip4">
  <path d="M 311.039062 59.039062 L 474.757812 59.039062 L 474.757812 418 L 311.039062 418 Z M 311.039062 59.039062 "/>
</clipPath>
<clipPath id="clip5">
  <path d="M 311.039062 416 L 474.757812 416 L 474.757812 418 L 311.039062 418 Z M 311.039062 416 "/>
</clipPath>
<clipPath id="clip6">
  <path d="M 385 59.039062 L 387 59.039062 L 387 431 L 385 431 Z M 385 59.039062 "/>
</clipPath>
</defs>
<g id="surface20239">
<rect x="0" y="0" width="504" height="504" style="fill:rgb(100%,100%,100%);fill-opacity:1;stroke:none;"/>
<path style="fill:none;stroke-width:0.75;stroke-linecap:round;stroke-linejoin:round;stroke:rgb(0%,0%,0%);stroke-opacity:1;stroke-miterlimit:10;" d="M 95.8125 430.558594 L 209.199219 430.558594 "/>
<path style="fill:none;stroke-width:0.75;stroke-linecap:round;stroke-linejoin:round;stroke:rgb(0%,0%,0%);stroke-opacity:1;stroke-miterlimit:10;" d="M 95.8125 430.558594 L 95.8125 437.761719 "/>
<path style="fill:none;stroke-width:0.75;stroke-linecap:round;stroke-linejoin:round;stroke:rgb(0%,0%,0%);stroke-opacity:1;stroke-miterlimit:10;" d="M 133.609375 430.558594 L 133.609375 437.761719 "/>
<path style="fill:none;stroke-width:0.75;stroke-linecap:round;stroke-linejoin:round;stroke:rgb(0%,0%,0%);stroke-opacity:1;stroke-miterlimit:10;" d="M 171.40625 430.558594 L 171.40625 437.761719 "/>
<path style="fill:none;stroke-width:0.75;stroke-linecap:round;stroke-linejoin:round;stroke:rgb(0%,0%,0%);stroke-opacity:1;stroke-miterlimit:10;" d="M 209.199219 430.558594 L 209.199219 437.761719 "/>
<g style="fill:rgb(0%,0%,0%);fill-opacity:1;">
  <use xlink:href="#glyph0-1" x="83.8125" y="456.256836"/>
  <use xlink:href="#glyph0-2" x="90.484375" y="456.256836"/>
  <use xlink:href="#glyph0-3" x="93.820312" y="456.256836"/>
  <use xlink:href="#glyph0-4" x="100.492188" y="456.256836"/>
</g>
<g style="fill:rgb(0%,0%,0%);fill-opacity:1;">
  <use xlink:href="#glyph0-1" x="121.609375" y="456.256836"/>
  <use xlink:href="#glyph0-2" x="128.28125" y="456.256836"/>
  <use xlink:href="#glyph0-5" x="131.617188" y="456.256836"/>
  <use xlink:href="#glyph0-6" x="138.289062" y="456.256836"/>
</g>
<g style="fill:rgb(0%,0%,0%);fill-opacity:1;">
  <use xlink:href="#glyph0-1" x="159.40625" y="456.256836"/>
  <use xlink:href="#glyph0-2" x="166.078125" y="456.256836"/>
  <use xlink:href="#glyph0-5" x="169.414062" y="456.256836"/>
  <use xlink:href="#glyph0-4" x="176.085938" y="456.256836"/>
</g>
<g style="fill:rgb(0%,0%,0%);fill-opacity:1;">
  <use xlink:href="#glyph0-7" x="197.199219" y="456.256836"/>
  <use xlink:href="#glyph0-2" x="203.871094" y="456.256836"/>
  <use xlink:href="#glyph0-6" x="207.207031" y="456.256836"/>
  <use xlink:href="#glyph0-6" x="213.878906" y="456.256836"/>
</g>
<path style="fill:none;stroke-width:0.75;stroke-linecap:round;stroke-linejoin:round;stroke:rgb(0%,0%,0%);stroke-opacity:1;stroke-miterlimit:10;" d="M 59.039062 416.800781 L 59.039062 98.824219 "/>
<path style="fill:none;stroke-width:0.75;stroke-linecap:round;stroke-linejoin:round;stroke:rgb(0%,0%,0%);stroke-opacity:1;stroke-miterlimit:10;" d="M 59.039062 416.800781 L 51.839844 416.800781 "/>
<path style="fill:none;stroke-width:0.75;stroke-linecap:round;stroke-linejoin:round;stroke:rgb(0%,0%,0%);stroke-opacity:1;stroke-miterlimit:10;" d="M 59.039062 353.207031 L 51.839844 353.207031 "/>
<path style="fill:none;stroke-width:0.75;stroke-linecap:round;stroke-linejoin:round;stroke:rgb(0%,0%,0%);stroke-opacity:1;stroke-miterlimit:10;" d="M 59.039062 289.609375 L 51.839844 289.609375 "/>
<path style="fill:none;stroke-width:0.75;stroke-linecap:round;stroke-linejoin:round;stroke:rgb(0%,0%,0%);stroke-opacity:1;stroke-miterlimit:10;" d="M 59.039062 226.015625 L 51.839844 226.015625 "/>
<path style="fill:none;stroke-width:0.75;stroke-linecap:round;stroke-linejoin:round;stroke:rgb(0%,0%,0%);stroke-opacity:1;stroke-miterlimit:10;" d="M 59.039062 162.421875 L 51.839844 162.421875 "/>
<path style="fill:none;stroke-width:0.75;stroke-linecap:round;stroke-linejoin:round;stroke:rgb(0%,0%,0%);stroke-opacity:1;stroke-miterlimit:10;" d="M 59.039062 98.824219 L 51.839844 98.824219 "/>
<g style="fill:rgb(0%,0%,0%);fill-opacity:1;">
  <use xlink:href="#glyph1-1" x="41.538086" y="425.300781"/>
  <use xlink:href="#glyph1-2" x="41.538086" y="418.628906"/>
  <use xlink:href="#glyph1-1" x="41.538086" y="415.292969"/>
</g>
<g style="fill:rgb(0%,0%,0%);fill-opacity:1;">
  <use xlink:href="#glyph1-1" x="41.538086" y="361.707031"/>
  <use xlink:href="#glyph1-2" x="41.538086" y="355.035156"/>
  <use xlink:href="#glyph1-3" x="41.538086" y="351.699219"/>
</g>
<g style="fill:rgb(0%,0%,0%);fill-opacity:1;">
  <use xlink:href="#glyph1-4" x="41.538086" y="298.109375"/>
  <use xlink:href="#glyph1-2" x="41.538086" y="291.4375"/>
  <use xlink:href="#glyph1-1" x="41.538086" y="288.101562"/>
</g>
<g style="fill:rgb(0%,0%,0%);fill-opacity:1;">
  <use xlink:href="#glyph1-4" x="41.538086" y="234.515625"/>
  <use xlink:href="#glyph1-2" x="41.538086" y="227.84375"/>
  <use xlink:href="#glyph1-3" x="41.538086" y="224.507812"/>
</g>
<g style="fill:rgb(0%,0%,0%);fill-opacity:1;">
  <use xlink:href="#glyph1-5" x="41.538086" y="170.921875"/>
  <use xlink:href="#glyph1-2" x="41.538086" y="164.25"/>
  <use xlink:href="#glyph1-1" x="41.538086" y="160.914062"/>
</g>
<g style="fill:rgb(0%,0%,0%);fill-opacity:1;">
  <use xlink:href="#glyph1-5" x="41.538086" y="107.324219"/>
  <use xlink:href="#glyph1-2" x="41.538086" y="100.652344"/>
  <use xlink:href="#glyph1-3" x="41.538086" y="97.316406"/>
</g>
<path style="fill:none;stroke-width:0.75;stroke-linecap:round;stroke-linejoin:round;stroke:rgb(0%,0%,0%);stroke-opacity:1;stroke-miterlimit:10;" d="M 59.039062 430.558594 L 221.761719 430.558594 L 221.761719 59.039062 L 59.039062 59.039062 L 59.039062 430.558594 "/>
<g style="fill:rgb(0%,0%,0%);fill-opacity:1;">
  <use xlink:href="#glyph2-1" x="64.898438" y="34.21875"/>
  <use xlink:href="#glyph2-2" x="73.700195" y="34.21875"/>
  <use xlink:href="#glyph2-3" x="77.705078" y="34.21875"/>
  <use xlink:href="#glyph2-4" x="85.499023" y="34.21875"/>
  <use xlink:href="#glyph2-5" x="93.508789" y="34.21875"/>
  <use xlink:href="#glyph2-2" x="97.513672" y="34.21875"/>
  <use xlink:href="#glyph2-6" x="101.518555" y="34.21875"/>
  <use xlink:href="#glyph2-7" x="110.320312" y="34.21875"/>
  <use xlink:href="#glyph2-7" x="119.12207" y="34.21875"/>
  <use xlink:href="#glyph2-8" x="127.923828" y="34.21875"/>
  <use xlink:href="#glyph2-9" x="136.725586" y="34.21875"/>
  <use xlink:href="#glyph2-10" x="140.730469" y="34.21875"/>
  <use xlink:href="#glyph2-11" x="149.532227" y="34.21875"/>
  <use xlink:href="#glyph2-7" x="155.136719" y="34.21875"/>
  <use xlink:href="#glyph2-12" x="163.938477" y="34.21875"/>
  <use xlink:href="#glyph2-5" x="172.740234" y="34.21875"/>
  <use xlink:href="#glyph2-4" x="176.745117" y="34.21875"/>
  <use xlink:href="#glyph2-13" x="184.754883" y="34.21875"/>
  <use xlink:href="#glyph2-9" x="189.551758" y="34.21875"/>
  <use xlink:href="#glyph2-14" x="193.556641" y="34.21875"/>
  <use xlink:href="#glyph2-15" x="206.363281" y="34.21875"/>
</g>
<g style="fill:rgb(0%,0%,0%);fill-opacity:1;">
  <use xlink:href="#glyph0-8" x="131.898438" y="485.057617"/>
  <use xlink:href="#glyph0-9" x="141.894531" y="485.057617"/>
</g>
<path style="fill:none;stroke-width:0.75;stroke-linecap:round;stroke-linejoin:round;stroke:rgb(0%,0%,0%);stroke-opacity:1;stroke-miterlimit:10;" d="M 12.960938 248.355469 L 5.960938 248.355469 "/>
<g style="fill:rgb(0%,0%,0%);fill-opacity:1;">
  <use xlink:href="#glyph1-6" x="12.737305" y="247.800781"/>
</g>
<path style="fill:none;stroke-width:0.75;stroke-linecap:round;stroke-linejoin:round;stroke:rgb(0%,0%,0%);stroke-opacity:1;stroke-miterlimit:10;" d="M 12.960938 241.246094 L 5.960938 241.246094 "/>
<g clip-path="url(#clip1)" clip-rule="nonzero">
<path style="fill:none;stroke-width:0.75;stroke-linecap:round;stroke-linejoin:round;stroke:rgb(0%,0%,100%);stroke-opacity:1;stroke-miterlimit:10;" d="M 50.0625 5.164062 L 53.675781 21.433594 L 57.289062 37.707031 L 60.902344 53.996094 L 64.515625 70.308594 L 65.117188 73.03125 L 68.128906 86.648438 L 71.742188 103.019531 L 75.355469 119.410156 L 78.96875 135.824219 L 80.175781 141.296875 L 82.582031 152.253906 L 86.195312 168.699219 L 89.808594 185.164062 L 93.425781 201.640625 L 95.230469 209.886719 L 97.039062 218.136719 L 100.652344 234.640625 L 104.265625 251.164062 L 107.878906 267.695312 L 110.285156 278.71875 L 111.492188 284.234375 L 115.105469 300.785156 L 118.71875 317.34375 L 122.332031 333.910156 L 125.34375 347.71875 L 125.945312 350.480469 L 133.171875 383.636719 L 140.398438 416.800781 L 147.625 383.636719 L 151.242188 367.058594 L 154.855469 350.480469 L 155.457031 347.71875 L 158.46875 333.910156 L 162.082031 317.347656 L 165.695312 300.789062 L 169.308594 284.238281 L 170.511719 278.722656 L 172.921875 267.695312 L 176.535156 251.164062 L 180.148438 234.644531 L 183.761719 218.136719 L 185.570312 209.886719 L 187.375 201.644531 L 190.988281 185.164062 L 194.601562 168.703125 L 198.214844 152.253906 L 200.625 141.296875 L 201.828125 135.824219 L 205.445312 119.410156 L 209.058594 103.019531 L 212.671875 86.652344 L 215.683594 73.03125 L 216.285156 70.3125 L 219.898438 54 L 223.511719 37.707031 L 227.125 21.433594 L 230.738281 5.164062 "/>
</g>
<path style="fill:none;stroke-width:0.75;stroke-linecap:round;stroke-linejoin:round;stroke:rgb(0%,0%,0%);stroke-opacity:1;stroke-miterlimit:10;" d="M 67.816406 73.03125 C 67.816406 76.632812 62.417969 76.632812 62.417969 73.03125 C 62.417969 69.429688 67.816406 69.429688 67.816406 73.03125 "/>
<path style="fill:none;stroke-width:0.75;stroke-linecap:round;stroke-linejoin:round;stroke:rgb(0%,0%,0%);stroke-opacity:1;stroke-miterlimit:10;" d="M 82.875 141.296875 C 82.875 144.898438 77.472656 144.898438 77.472656 141.296875 C 77.472656 137.699219 82.875 137.699219 82.875 141.296875 "/>
<path style="fill:none;stroke-width:0.75;stroke-linecap:round;stroke-linejoin:round;stroke:rgb(0%,0%,0%);stroke-opacity:1;stroke-miterlimit:10;" d="M 97.929688 209.886719 C 97.929688 213.488281 92.53125 213.488281 92.53125 209.886719 C 92.53125 206.285156 97.929688 206.285156 97.929688 209.886719 "/>
<path style="fill:none;stroke-width:0.75;stroke-linecap:round;stroke-linejoin:round;stroke:rgb(0%,0%,0%);stroke-opacity:1;stroke-miterlimit:10;" d="M 112.988281 278.71875 C 112.988281 282.320312 107.585938 282.320312 107.585938 278.71875 C 107.585938 275.121094 112.988281 275.121094 112.988281 278.71875 "/>
<path style="fill:none;stroke-width:0.75;stroke-linecap:round;stroke-linejoin:round;stroke:rgb(0%,0%,0%);stroke-opacity:1;stroke-miterlimit:10;" d="M 128.042969 347.71875 C 128.042969 351.320312 122.644531 351.320312 122.644531 347.71875 C 122.644531 344.117188 128.042969 344.117188 128.042969 347.71875 "/>
<path style="fill:none;stroke-width:0.75;stroke-linecap:round;stroke-linejoin:round;stroke:rgb(0%,0%,0%);stroke-opacity:1;stroke-miterlimit:10;" d="M 143.101562 416.800781 C 143.101562 420.398438 137.699219 420.398438 137.699219 416.800781 C 137.699219 413.199219 143.101562 413.199219 143.101562 416.800781 "/>
<path style="fill:none;stroke-width:0.75;stroke-linecap:round;stroke-linejoin:round;stroke:rgb(0%,0%,0%);stroke-opacity:1;stroke-miterlimit:10;" d="M 158.15625 347.71875 C 158.15625 351.320312 152.757812 351.320312 152.757812 347.71875 C 152.757812 344.121094 158.15625 344.121094 158.15625 347.71875 "/>
<path style="fill:none;stroke-width:0.75;stroke-linecap:round;stroke-linejoin:round;stroke:rgb(0%,0%,0%);stroke-opacity:1;stroke-miterlimit:10;" d="M 173.210938 278.722656 C 173.210938 282.320312 167.8125 282.320312 167.8125 278.722656 C 167.8125 275.121094 173.210938 275.121094 173.210938 278.722656 "/>
<path style="fill:none;stroke-width:0.75;stroke-linecap:round;stroke-linejoin:round;stroke:rgb(0%,0%,0%);stroke-opacity:1;stroke-miterlimit:10;" d="M 188.269531 209.886719 C 188.269531 213.488281 182.867188 213.488281 182.867188 209.886719 C 182.867188 206.289062 188.269531 206.289062 188.269531 209.886719 "/>
<path style="fill:none;stroke-width:0.75;stroke-linecap:round;stroke-linejoin:round;stroke:rgb(0%,0%,0%);stroke-opacity:1;stroke-miterlimit:10;" d="M 203.324219 141.296875 C 203.324219 144.898438 197.925781 144.898438 197.925781 141.296875 C 197.925781 137.699219 203.324219 137.699219 203.324219 141.296875 "/>
<path style="fill:none;stroke-width:0.75;stroke-linecap:round;stroke-linejoin:round;stroke:rgb(0%,0%,0%);stroke-opacity:1;stroke-miterlimit:10;" d="M 218.382812 73.03125 C 218.382812 76.632812 212.980469 76.632812 212.980469 73.03125 C 212.980469 69.433594 218.382812 69.433594 218.382812 73.03125 "/>
<g clip-path="url(#clip2)" clip-rule="nonzero">
<path style="fill:none;stroke-width:0.75;stroke-linecap:round;stroke-linejoin:round;stroke:rgb(0%,100%,0%);stroke-opacity:1;stroke-dasharray:3,3;stroke-miterlimit:10;" d="M 59.039062 416.800781 L 221.761719 416.800781 "/>
</g>
<g clip-path="url(#clip3)" clip-rule="nonzero">
<path style="fill:none;stroke-width:0.75;stroke-linecap:round;stroke-linejoin:round;stroke:rgb(0%,100%,0%);stroke-opacity:1;stroke-dasharray:3,3;stroke-miterlimit:10;" d="M 140.398438 430.558594 L 140.398438 59.039062 "/>
</g>
<path style="fill:none;stroke-width:0.75;stroke-linecap:round;stroke-linejoin:round;stroke:rgb(100%,0%,100%);stroke-opacity:1;stroke-dasharray:3,3;stroke-miterlimit:10;" d="M 68.6875 416.800781 L 68.6875 89.179688 "/>
<path style="fill:none;stroke-width:0.75;stroke-linecap:round;stroke-linejoin:round;stroke:rgb(100%,0%,100%);stroke-opacity:1;stroke-dasharray:3,3;stroke-miterlimit:10;" d="M 212.113281 416.800781 L 212.113281 89.179688 "/>
<path style="fill:none;stroke-width:0.75;stroke-linecap:round;stroke-linejoin:round;stroke:rgb(100%,0%,100%);stroke-opacity:1;stroke-dasharray:3,3;stroke-miterlimit:10;" d="M 68.6875 89.179688 L 212.113281 89.179688 "/>
<g style="fill:rgb(100%,0%,100%);fill-opacity:1;">
  <use xlink:href="#glyph0-5" x="127.898438" y="92.956055"/>
  <use xlink:href="#glyph0-5" x="134.570312" y="92.956055"/>
  <use xlink:href="#glyph0-10" x="141.242188" y="92.956055"/>
</g>
<path style="fill:none;stroke-width:0.75;stroke-linecap:round;stroke-linejoin:round;stroke:rgb(100%,0%,100%);stroke-opacity:1;stroke-dasharray:3,3;stroke-miterlimit:10;" d="M 85.9375 416.800781 L 85.9375 167.511719 "/>
<path style="fill:none;stroke-width:0.75;stroke-linecap:round;stroke-linejoin:round;stroke:rgb(100%,0%,100%);stroke-opacity:1;stroke-dasharray:3,3;stroke-miterlimit:10;" d="M 194.863281 416.800781 L 194.863281 167.511719 "/>
<path style="fill:none;stroke-width:0.75;stroke-linecap:round;stroke-linejoin:round;stroke:rgb(100%,0%,100%);stroke-opacity:1;stroke-dasharray:3,3;stroke-miterlimit:10;" d="M 85.9375 167.511719 L 194.863281 167.511719 "/>
<g style="fill:rgb(100%,0%,100%);fill-opacity:1;">
  <use xlink:href="#glyph0-5" x="127.898438" y="171.288086"/>
  <use xlink:href="#glyph0-4" x="134.570312" y="171.288086"/>
  <use xlink:href="#glyph0-10" x="141.242188" y="171.288086"/>
</g>
<path style="fill:none;stroke-width:0.75;stroke-linecap:round;stroke-linejoin:round;stroke:rgb(100%,0%,100%);stroke-opacity:1;stroke-dasharray:3,3;stroke-miterlimit:10;" d="M 94.726562 416.800781 L 94.726562 207.589844 "/>
<path style="fill:none;stroke-width:0.75;stroke-linecap:round;stroke-linejoin:round;stroke:rgb(100%,0%,100%);stroke-opacity:1;stroke-dasharray:3,3;stroke-miterlimit:10;" d="M 186.070312 416.800781 L 186.070312 207.589844 "/>
<path style="fill:none;stroke-width:0.75;stroke-linecap:round;stroke-linejoin:round;stroke:rgb(100%,0%,100%);stroke-opacity:1;stroke-dasharray:3,3;stroke-miterlimit:10;" d="M 94.726562 207.589844 L 186.070312 207.589844 "/>
<g style="fill:rgb(100%,0%,100%);fill-opacity:1;">
  <use xlink:href="#glyph0-5" x="127.898438" y="211.366211"/>
  <use xlink:href="#glyph0-6" x="134.570312" y="211.366211"/>
  <use xlink:href="#glyph0-10" x="141.242188" y="211.366211"/>
</g>
<path style="fill:none;stroke-width:0.75;stroke-linecap:round;stroke-linejoin:round;stroke:rgb(100%,0%,100%);stroke-opacity:1;stroke-dasharray:3,3;stroke-miterlimit:10;" d="M 104.839844 416.800781 L 104.839844 253.800781 "/>
<path style="fill:none;stroke-width:0.75;stroke-linecap:round;stroke-linejoin:round;stroke:rgb(100%,0%,100%);stroke-opacity:1;stroke-dasharray:3,3;stroke-miterlimit:10;" d="M 175.957031 416.800781 L 175.957031 253.800781 "/>
<path style="fill:none;stroke-width:0.75;stroke-linecap:round;stroke-linejoin:round;stroke:rgb(100%,0%,100%);stroke-opacity:1;stroke-dasharray:3,3;stroke-miterlimit:10;" d="M 104.839844 253.800781 L 175.957031 253.800781 "/>
<g style="fill:rgb(100%,0%,100%);fill-opacity:1;">
  <use xlink:href="#glyph0-3" x="127.898438" y="257.577148"/>
  <use xlink:href="#glyph0-6" x="134.570312" y="257.577148"/>
  <use xlink:href="#glyph0-10" x="141.242188" y="257.577148"/>
</g>
<path style="fill:none;stroke-width:0.75;stroke-linecap:round;stroke-linejoin:round;stroke:rgb(100%,0%,100%);stroke-opacity:1;stroke-dasharray:3,3;stroke-miterlimit:10;" d="M 121.699219 416.800781 L 121.699219 331.011719 "/>
<path style="fill:none;stroke-width:0.75;stroke-linecap:round;stroke-linejoin:round;stroke:rgb(100%,0%,100%);stroke-opacity:1;stroke-dasharray:3,3;stroke-miterlimit:10;" d="M 159.101562 416.800781 L 159.101562 331.011719 "/>
<path style="fill:none;stroke-width:0.75;stroke-linecap:round;stroke-linejoin:round;stroke:rgb(100%,0%,100%);stroke-opacity:1;stroke-dasharray:3,3;stroke-miterlimit:10;" d="M 121.699219 331.011719 L 159.101562 331.011719 "/>
<g style="fill:rgb(100%,0%,100%);fill-opacity:1;">
  <use xlink:href="#glyph0-4" x="127.898438" y="334.788086"/>
  <use xlink:href="#glyph0-6" x="134.570312" y="334.788086"/>
  <use xlink:href="#glyph0-10" x="141.242188" y="334.788086"/>
</g>
<path style="fill:none;stroke-width:0.75;stroke-linecap:round;stroke-linejoin:round;stroke:rgb(0%,0%,0%);stroke-opacity:1;stroke-miterlimit:10;" d="M 316.386719 430.558594 L 465.941406 430.558594 "/>
<path style="fill:none;stroke-width:0.75;stroke-linecap:round;stroke-linejoin:round;stroke:rgb(0%,0%,0%);stroke-opacity:1;stroke-miterlimit:10;" d="M 316.386719 430.558594 L 316.386719 437.761719 "/>
<path style="fill:none;stroke-width:0.75;stroke-linecap:round;stroke-linejoin:round;stroke:rgb(0%,0%,0%);stroke-opacity:1;stroke-miterlimit:10;" d="M 337.75 430.558594 L 337.75 437.761719 "/>
<path style="fill:none;stroke-width:0.75;stroke-linecap:round;stroke-linejoin:round;stroke:rgb(0%,0%,0%);stroke-opacity:1;stroke-miterlimit:10;" d="M 359.117188 430.558594 L 359.117188 437.761719 "/>
<path style="fill:none;stroke-width:0.75;stroke-linecap:round;stroke-linejoin:round;stroke:rgb(0%,0%,0%);stroke-opacity:1;stroke-miterlimit:10;" d="M 380.480469 430.558594 L 380.480469 437.761719 "/>
<path style="fill:none;stroke-width:0.75;stroke-linecap:round;stroke-linejoin:round;stroke:rgb(0%,0%,0%);stroke-opacity:1;stroke-miterlimit:10;" d="M 401.847656 430.558594 L 401.847656 437.761719 "/>
<path style="fill:none;stroke-width:0.75;stroke-linecap:round;stroke-linejoin:round;stroke:rgb(0%,0%,0%);stroke-opacity:1;stroke-miterlimit:10;" d="M 423.210938 430.558594 L 423.210938 437.761719 "/>
<path style="fill:none;stroke-width:0.75;stroke-linecap:round;stroke-linejoin:round;stroke:rgb(0%,0%,0%);stroke-opacity:1;stroke-miterlimit:10;" d="M 444.578125 430.558594 L 444.578125 437.761719 "/>
<path style="fill:none;stroke-width:0.75;stroke-linecap:round;stroke-linejoin:round;stroke:rgb(0%,0%,0%);stroke-opacity:1;stroke-miterlimit:10;" d="M 465.941406 430.558594 L 465.941406 437.761719 "/>
<g style="fill:rgb(0%,0%,0%);fill-opacity:1;">
  <use xlink:href="#glyph0-6" x="304.386719" y="456.256836"/>
  <use xlink:href="#glyph0-2" x="311.058594" y="456.256836"/>
  <use xlink:href="#glyph0-11" x="314.394531" y="456.256836"/>
  <use xlink:href="#glyph0-12" x="321.066406" y="456.256836"/>
</g>
<g style="fill:rgb(0%,0%,0%);fill-opacity:1;">
  <use xlink:href="#glyph0-6" x="347.117188" y="456.256836"/>
  <use xlink:href="#glyph0-2" x="353.789062" y="456.256836"/>
  <use xlink:href="#glyph0-11" x="357.125" y="456.256836"/>
  <use xlink:href="#glyph0-3" x="363.796875" y="456.256836"/>
</g>
<g style="fill:rgb(0%,0%,0%);fill-opacity:1;">
  <use xlink:href="#glyph0-6" x="389.847656" y="456.256836"/>
  <use xlink:href="#glyph0-2" x="396.519531" y="456.256836"/>
  <use xlink:href="#glyph0-13" x="399.855469" y="456.256836"/>
  <use xlink:href="#glyph0-7" x="406.527344" y="456.256836"/>
</g>
<g style="fill:rgb(0%,0%,0%);fill-opacity:1;">
  <use xlink:href="#glyph0-6" x="432.578125" y="456.256836"/>
  <use xlink:href="#glyph0-2" x="439.25" y="456.256836"/>
  <use xlink:href="#glyph0-13" x="442.585938" y="456.256836"/>
  <use xlink:href="#glyph0-11" x="449.257812" y="456.256836"/>
</g>
<path style="fill:none;stroke-width:0.75;stroke-linecap:round;stroke-linejoin:round;stroke:rgb(0%,0%,0%);stroke-opacity:1;stroke-miterlimit:10;" d="M 311.039062 416.800781 L 311.039062 98.824219 "/>
<path style="fill:none;stroke-width:0.75;stroke-linecap:round;stroke-linejoin:round;stroke:rgb(0%,0%,0%);stroke-opacity:1;stroke-miterlimit:10;" d="M 311.039062 416.800781 L 303.839844 416.800781 "/>
<path style="fill:none;stroke-width:0.75;stroke-linecap:round;stroke-linejoin:round;stroke:rgb(0%,0%,0%);stroke-opacity:1;stroke-miterlimit:10;" d="M 311.039062 353.207031 L 303.839844 353.207031 "/>
<path style="fill:none;stroke-width:0.75;stroke-linecap:round;stroke-linejoin:round;stroke:rgb(0%,0%,0%);stroke-opacity:1;stroke-miterlimit:10;" d="M 311.039062 289.609375 L 303.839844 289.609375 "/>
<path style="fill:none;stroke-width:0.75;stroke-linecap:round;stroke-linejoin:round;stroke:rgb(0%,0%,0%);stroke-opacity:1;stroke-miterlimit:10;" d="M 311.039062 226.015625 L 303.839844 226.015625 "/>
<path style="fill:none;stroke-width:0.75;stroke-linecap:round;stroke-linejoin:round;stroke:rgb(0%,0%,0%);stroke-opacity:1;stroke-miterlimit:10;" d="M 311.039062 162.421875 L 303.839844 162.421875 "/>
<path style="fill:none;stroke-width:0.75;stroke-linecap:round;stroke-linejoin:round;stroke:rgb(0%,0%,0%);stroke-opacity:1;stroke-miterlimit:10;" d="M 311.039062 98.824219 L 303.839844 98.824219 "/>
<g style="fill:rgb(0%,0%,0%);fill-opacity:1;">
  <use xlink:href="#glyph1-1" x="293.538086" y="425.300781"/>
  <use xlink:href="#glyph1-2" x="293.538086" y="418.628906"/>
  <use xlink:href="#glyph1-1" x="293.538086" y="415.292969"/>
</g>
<g style="fill:rgb(0%,0%,0%);fill-opacity:1;">
  <use xlink:href="#glyph1-1" x="293.538086" y="361.707031"/>
  <use xlink:href="#glyph1-2" x="293.538086" y="355.035156"/>
  <use xlink:href="#glyph1-3" x="293.538086" y="351.699219"/>
</g>
<g style="fill:rgb(0%,0%,0%);fill-opacity:1;">
  <use xlink:href="#glyph1-4" x="293.538086" y="298.109375"/>
  <use xlink:href="#glyph1-2" x="293.538086" y="291.4375"/>
  <use xlink:href="#glyph1-1" x="293.538086" y="288.101562"/>
</g>
<g style="fill:rgb(0%,0%,0%);fill-opacity:1;">
  <use xlink:href="#glyph1-4" x="293.538086" y="234.515625"/>
  <use xlink:href="#glyph1-2" x="293.538086" y="227.84375"/>
  <use xlink:href="#glyph1-3" x="293.538086" y="224.507812"/>
</g>
<g style="fill:rgb(0%,0%,0%);fill-opacity:1;">
  <use xlink:href="#glyph1-5" x="293.538086" y="170.921875"/>
  <use xlink:href="#glyph1-2" x="293.538086" y="164.25"/>
  <use xlink:href="#glyph1-1" x="293.538086" y="160.914062"/>
</g>
<g style="fill:rgb(0%,0%,0%);fill-opacity:1;">
  <use xlink:href="#glyph1-5" x="293.538086" y="107.324219"/>
  <use xlink:href="#glyph1-2" x="293.538086" y="100.652344"/>
  <use xlink:href="#glyph1-3" x="293.538086" y="97.316406"/>
</g>
<path style="fill:none;stroke-width:0.75;stroke-linecap:round;stroke-linejoin:round;stroke:rgb(0%,0%,0%);stroke-opacity:1;stroke-miterlimit:10;" d="M 311.039062 430.558594 L 473.761719 430.558594 L 473.761719 59.039062 L 311.039062 59.039062 L 311.039062 430.558594 "/>
<g style="fill:rgb(0%,0%,0%);fill-opacity:1;">
  <use xlink:href="#glyph2-1" x="306.898438" y="34.21875"/>
  <use xlink:href="#glyph2-2" x="315.700195" y="34.21875"/>
  <use xlink:href="#glyph2-3" x="319.705078" y="34.21875"/>
  <use xlink:href="#glyph2-4" x="327.499023" y="34.21875"/>
  <use xlink:href="#glyph2-5" x="335.508789" y="34.21875"/>
  <use xlink:href="#glyph2-2" x="339.513672" y="34.21875"/>
  <use xlink:href="#glyph2-6" x="343.518555" y="34.21875"/>
  <use xlink:href="#glyph2-7" x="352.320312" y="34.21875"/>
  <use xlink:href="#glyph2-7" x="361.12207" y="34.21875"/>
  <use xlink:href="#glyph2-8" x="369.923828" y="34.21875"/>
  <use xlink:href="#glyph2-9" x="378.725586" y="34.21875"/>
  <use xlink:href="#glyph2-10" x="382.730469" y="34.21875"/>
  <use xlink:href="#glyph2-11" x="391.532227" y="34.21875"/>
  <use xlink:href="#glyph2-7" x="397.136719" y="34.21875"/>
  <use xlink:href="#glyph2-12" x="405.938477" y="34.21875"/>
  <use xlink:href="#glyph2-5" x="414.740234" y="34.21875"/>
  <use xlink:href="#glyph2-4" x="418.745117" y="34.21875"/>
  <use xlink:href="#glyph2-13" x="426.754883" y="34.21875"/>
  <use xlink:href="#glyph2-9" x="431.551758" y="34.21875"/>
  <use xlink:href="#glyph2-16" x="435.556641" y="34.21875"/>
  <use xlink:href="#glyph2-2" x="443.566406" y="34.21875"/>
  <use xlink:href="#glyph2-17" x="447.571289" y="34.21875"/>
  <use xlink:href="#glyph2-14" x="456.373047" y="34.21875"/>
  <use xlink:href="#glyph2-18" x="469.179688" y="34.21875"/>
</g>
<g style="fill:rgb(0%,0%,0%);fill-opacity:1;">
  <use xlink:href="#glyph0-14" x="375.898438" y="485.057617"/>
  <use xlink:href="#glyph0-15" x="381.898438" y="485.057617"/>
  <use xlink:href="#glyph0-16" x="384.5625" y="485.057617"/>
  <use xlink:href="#glyph0-8" x="391.234375" y="485.057617"/>
  <use xlink:href="#glyph0-17" x="401.230469" y="485.057617"/>
</g>
<path style="fill:none;stroke-width:0.75;stroke-linecap:round;stroke-linejoin:round;stroke:rgb(0%,0%,0%);stroke-opacity:1;stroke-miterlimit:10;" d="M 264.960938 248.355469 L 257.960938 248.355469 "/>
<g style="fill:rgb(0%,0%,0%);fill-opacity:1;">
  <use xlink:href="#glyph1-6" x="264.737305" y="247.800781"/>
</g>
<path style="fill:none;stroke-width:0.75;stroke-linecap:round;stroke-linejoin:round;stroke:rgb(0%,0%,0%);stroke-opacity:1;stroke-miterlimit:10;" d="M 264.960938 241.246094 L 257.960938 241.246094 "/>
<g clip-path="url(#clip4)" clip-rule="nonzero">
<path style="fill:none;stroke-width:0.75;stroke-linecap:round;stroke-linejoin:round;stroke:rgb(0%,0%,100%);stroke-opacity:1;stroke-miterlimit:10;" d="M 310.894531 39.605469 L 314.203125 57.539062 L 317.515625 75.429688 L 320.824219 93.246094 L 324.136719 110.941406 L 325.941406 120.527344 L 327.445312 128.476562 L 330.753906 145.839844 L 334.066406 163.039062 L 337.375 180.09375 L 340.683594 197.011719 L 340.984375 198.542969 L 343.996094 213.804688 L 347.304688 230.472656 L 350.617188 247.019531 L 353.925781 263.4375 L 356.03125 273.820312 L 357.234375 279.730469 L 360.546875 295.898438 L 363.855469 311.941406 L 367.164062 327.859375 L 370.476562 343.660156 L 371.078125 346.523438 L 373.785156 359.347656 L 377.097656 374.917969 L 380.40625 390.375 L 383.714844 405.714844 L 386.125 416.800781 L 387.027344 412.660156 L 390.335938 397.542969 L 393.644531 382.542969 L 396.957031 367.648438 L 400.265625 352.859375 L 401.167969 348.847656 L 403.578125 338.179688 L 406.886719 323.597656 L 410.195312 309.121094 L 413.507812 294.746094 L 416.214844 283.058594 L 416.816406 280.46875 L 420.125 266.292969 L 423.4375 252.214844 L 426.746094 238.234375 L 430.058594 224.355469 L 431.261719 219.328125 L 433.367188 210.566406 L 436.675781 196.875 L 439.988281 183.277344 L 443.296875 169.765625 L 446.304688 157.558594 L 446.605469 156.339844 L 449.917969 143 L 453.226562 129.753906 L 456.539062 116.597656 L 459.847656 103.542969 L 461.351562 97.640625 L 463.15625 90.589844 L 466.46875 77.734375 L 469.777344 64.945312 L 473.085938 52.207031 L 476.398438 39.488281 "/>
</g>
<path style="fill:none;stroke-width:0.75;stroke-linecap:round;stroke-linejoin:round;stroke:rgb(0%,0%,0%);stroke-opacity:1;stroke-miterlimit:10;" d="M 328.640625 120.527344 C 328.640625 124.125 323.242188 124.125 323.242188 120.527344 C 323.242188 116.925781 328.640625 116.925781 328.640625 120.527344 "/>
<path style="fill:none;stroke-width:0.75;stroke-linecap:round;stroke-linejoin:round;stroke:rgb(0%,0%,0%);stroke-opacity:1;stroke-miterlimit:10;" d="M 343.6875 198.542969 C 343.6875 202.140625 338.285156 202.140625 338.285156 198.542969 C 338.285156 194.941406 343.6875 194.941406 343.6875 198.542969 "/>
<path style="fill:none;stroke-width:0.75;stroke-linecap:round;stroke-linejoin:round;stroke:rgb(0%,0%,0%);stroke-opacity:1;stroke-miterlimit:10;" d="M 358.730469 273.820312 C 358.730469 277.421875 353.332031 277.421875 353.332031 273.820312 C 353.332031 270.222656 358.730469 270.222656 358.730469 273.820312 "/>
<path style="fill:none;stroke-width:0.75;stroke-linecap:round;stroke-linejoin:round;stroke:rgb(0%,0%,0%);stroke-opacity:1;stroke-miterlimit:10;" d="M 373.777344 346.523438 C 373.777344 350.121094 368.378906 350.121094 368.378906 346.523438 C 368.378906 342.921875 373.777344 342.921875 373.777344 346.523438 "/>
<path style="fill:none;stroke-width:0.75;stroke-linecap:round;stroke-linejoin:round;stroke:rgb(0%,0%,0%);stroke-opacity:1;stroke-miterlimit:10;" d="M 388.824219 416.800781 C 388.824219 420.398438 383.421875 420.398438 383.421875 416.800781 C 383.421875 413.199219 388.824219 413.199219 388.824219 416.800781 "/>
<path style="fill:none;stroke-width:0.75;stroke-linecap:round;stroke-linejoin:round;stroke:rgb(0%,0%,0%);stroke-opacity:1;stroke-miterlimit:10;" d="M 403.867188 348.847656 C 403.867188 352.445312 398.46875 352.445312 398.46875 348.847656 C 398.46875 345.246094 403.867188 345.246094 403.867188 348.847656 "/>
<path style="fill:none;stroke-width:0.75;stroke-linecap:round;stroke-linejoin:round;stroke:rgb(0%,0%,0%);stroke-opacity:1;stroke-miterlimit:10;" d="M 418.914062 283.058594 C 418.914062 286.65625 413.515625 286.65625 413.515625 283.058594 C 413.515625 279.457031 418.914062 279.457031 418.914062 283.058594 "/>
<path style="fill:none;stroke-width:0.75;stroke-linecap:round;stroke-linejoin:round;stroke:rgb(0%,0%,0%);stroke-opacity:1;stroke-miterlimit:10;" d="M 433.960938 219.328125 C 433.960938 222.929688 428.5625 222.929688 428.5625 219.328125 C 428.5625 215.730469 433.960938 215.730469 433.960938 219.328125 "/>
<path style="fill:none;stroke-width:0.75;stroke-linecap:round;stroke-linejoin:round;stroke:rgb(0%,0%,0%);stroke-opacity:1;stroke-miterlimit:10;" d="M 449.007812 157.558594 C 449.007812 161.15625 443.605469 161.15625 443.605469 157.558594 C 443.605469 153.957031 449.007812 153.957031 449.007812 157.558594 "/>
<path style="fill:none;stroke-width:0.75;stroke-linecap:round;stroke-linejoin:round;stroke:rgb(0%,0%,0%);stroke-opacity:1;stroke-miterlimit:10;" d="M 464.050781 97.640625 C 464.050781 101.242188 458.652344 101.242188 458.652344 97.640625 C 458.652344 94.042969 464.050781 94.042969 464.050781 97.640625 "/>
<g clip-path="url(#clip5)" clip-rule="nonzero">
<path style="fill:none;stroke-width:0.75;stroke-linecap:round;stroke-linejoin:round;stroke:rgb(0%,100%,0%);stroke-opacity:1;stroke-dasharray:3,3;stroke-miterlimit:10;" d="M 311.039062 416.800781 L 473.761719 416.800781 "/>
</g>
<g clip-path="url(#clip6)" clip-rule="nonzero">
<path style="fill:none;stroke-width:0.75;stroke-linecap:round;stroke-linejoin:round;stroke:rgb(0%,100%,0%);stroke-opacity:1;stroke-dasharray:3,3;stroke-miterlimit:10;" d="M 386.125 430.558594 L 386.125 59.039062 "/>
</g>
<path style="fill:none;stroke-width:0.75;stroke-linecap:round;stroke-linejoin:round;stroke:rgb(100%,0%,100%);stroke-opacity:1;stroke-dasharray:3,3;stroke-miterlimit:10;" d="M 320.113281 416.800781 L 320.113281 89.179688 "/>
<path style="fill:none;stroke-width:0.75;stroke-linecap:round;stroke-linejoin:round;stroke:rgb(100%,0%,100%);stroke-opacity:1;stroke-dasharray:3,3;stroke-miterlimit:10;" d="M 463.519531 416.800781 L 463.519531 89.179688 "/>
<path style="fill:none;stroke-width:0.75;stroke-linecap:round;stroke-linejoin:round;stroke:rgb(100%,0%,100%);stroke-opacity:1;stroke-dasharray:3,3;stroke-miterlimit:10;" d="M 320.113281 89.179688 L 463.519531 89.179688 "/>
<g style="fill:rgb(100%,0%,100%);fill-opacity:1;">
  <use xlink:href="#glyph0-5" x="373.625" y="92.956055"/>
  <use xlink:href="#glyph0-5" x="380.296875" y="92.956055"/>
  <use xlink:href="#glyph0-10" x="386.96875" y="92.956055"/>
</g>
<path style="fill:none;stroke-width:0.75;stroke-linecap:round;stroke-linejoin:round;stroke:rgb(100%,0%,100%);stroke-opacity:1;stroke-dasharray:3,3;stroke-miterlimit:10;" d="M 334.929688 416.800781 L 334.929688 167.511719 "/>
<path style="fill:none;stroke-width:0.75;stroke-linecap:round;stroke-linejoin:round;stroke:rgb(100%,0%,100%);stroke-opacity:1;stroke-dasharray:3,3;stroke-miterlimit:10;" d="M 443.851562 416.800781 L 443.851562 167.511719 "/>
<path style="fill:none;stroke-width:0.75;stroke-linecap:round;stroke-linejoin:round;stroke:rgb(100%,0%,100%);stroke-opacity:1;stroke-dasharray:3,3;stroke-miterlimit:10;" d="M 334.929688 167.511719 L 443.851562 167.511719 "/>
<g style="fill:rgb(100%,0%,100%);fill-opacity:1;">
  <use xlink:href="#glyph0-5" x="373.625" y="171.288086"/>
  <use xlink:href="#glyph0-4" x="380.296875" y="171.288086"/>
  <use xlink:href="#glyph0-10" x="386.96875" y="171.288086"/>
</g>
<path style="fill:none;stroke-width:0.75;stroke-linecap:round;stroke-linejoin:round;stroke:rgb(100%,0%,100%);stroke-opacity:1;stroke-dasharray:3,3;stroke-miterlimit:10;" d="M 342.769531 416.800781 L 342.769531 207.589844 "/>
<path style="fill:none;stroke-width:0.75;stroke-linecap:round;stroke-linejoin:round;stroke:rgb(100%,0%,100%);stroke-opacity:1;stroke-dasharray:3,3;stroke-miterlimit:10;" d="M 434.085938 416.800781 L 434.085938 207.589844 "/>
<path style="fill:none;stroke-width:0.75;stroke-linecap:round;stroke-linejoin:round;stroke:rgb(100%,0%,100%);stroke-opacity:1;stroke-dasharray:3,3;stroke-miterlimit:10;" d="M 342.769531 207.589844 L 434.085938 207.589844 "/>
<g style="fill:rgb(100%,0%,100%);fill-opacity:1;">
  <use xlink:href="#glyph0-5" x="373.625" y="211.366211"/>
  <use xlink:href="#glyph0-6" x="380.296875" y="211.366211"/>
  <use xlink:href="#glyph0-10" x="386.96875" y="211.366211"/>
</g>
<path style="fill:none;stroke-width:0.75;stroke-linecap:round;stroke-linejoin:round;stroke:rgb(100%,0%,100%);stroke-opacity:1;stroke-dasharray:3,3;stroke-miterlimit:10;" d="M 351.980469 416.800781 L 351.980469 253.800781 "/>
<path style="fill:none;stroke-width:0.75;stroke-linecap:round;stroke-linejoin:round;stroke:rgb(100%,0%,100%);stroke-opacity:1;stroke-dasharray:3,3;stroke-miterlimit:10;" d="M 423.0625 416.800781 L 423.0625 253.800781 "/>
<path style="fill:none;stroke-width:0.75;stroke-linecap:round;stroke-linejoin:round;stroke:rgb(100%,0%,100%);stroke-opacity:1;stroke-dasharray:3,3;stroke-miterlimit:10;" d="M 351.980469 253.800781 L 423.0625 253.800781 "/>
<g style="fill:rgb(100%,0%,100%);fill-opacity:1;">
  <use xlink:href="#glyph0-3" x="373.625" y="257.577148"/>
  <use xlink:href="#glyph0-6" x="380.296875" y="257.577148"/>
  <use xlink:href="#glyph0-10" x="386.96875" y="257.577148"/>
</g>
<path style="fill:none;stroke-width:0.75;stroke-linecap:round;stroke-linejoin:round;stroke:rgb(100%,0%,100%);stroke-opacity:1;stroke-dasharray:3,3;stroke-miterlimit:10;" d="M 367.824219 416.800781 L 367.824219 331.011719 "/>
<path style="fill:none;stroke-width:0.75;stroke-linecap:round;stroke-linejoin:round;stroke:rgb(100%,0%,100%);stroke-opacity:1;stroke-dasharray:3,3;stroke-miterlimit:10;" d="M 405.199219 416.800781 L 405.199219 331.011719 "/>
<path style="fill:none;stroke-width:0.75;stroke-linecap:round;stroke-linejoin:round;stroke:rgb(100%,0%,100%);stroke-opacity:1;stroke-dasharray:3,3;stroke-miterlimit:10;" d="M 367.824219 331.011719 L 405.199219 331.011719 "/>
<g style="fill:rgb(100%,0%,100%);fill-opacity:1;">
  <use xlink:href="#glyph0-4" x="373.625" y="334.788086"/>
  <use xlink:href="#glyph0-6" x="380.296875" y="334.788086"/>
  <use xlink:href="#glyph0-10" x="386.96875" y="334.788086"/>
</g>
</g>
</svg>
