<?xml version="1.0" encoding="UTF-8"?>
<svg xmlns="http://www.w3.org/2000/svg" xmlns:xlink="http://www.w3.org/1999/xlink" width="504pt" height="504pt" viewBox="0 0 504 504" version="1.1">
<defs>
<g>
<symbol overflow="visible" id="glyph0-0">
<path style="stroke:none;" d=""/>
</symbol>
<symbol overflow="visible" id="glyph0-1">
<path style="stroke:none;" d="M 6.21875 -4.21875 C 6.21875 -7.171875 5.140625 -8.765625 3.296875 -8.765625 C 1.46875 -8.765625 0.375 -7.15625 0.375 -4.296875 C 0.375 -1.421875 1.46875 0.1875 3.296875 0.1875 C 5.09375 0.1875 6.21875 -1.421875 6.21875 -4.21875 Z M 4.859375 -4.3125 C 4.859375 -1.90625 4.453125 -0.953125 3.28125 -0.953125 C 2.15625 -0.953125 1.734375 -1.953125 1.734375 -4.28125 C 1.734375 -6.609375 2.15625 -7.578125 3.296875 -7.578125 C 4.4375 -7.578125 4.859375 -6.59375 4.859375 -4.3125 Z M 4.859375 -4.3125 "/>
</symbol>
<symbol overflow="visible" id="glyph0-2">
<path style="stroke:none;" d="M 2.421875 -0.125 L 2.421875 -1.515625 L 0.90625 -1.515625 L 0.90625 0 L 2.421875 0 Z M 2.421875 -0.125 "/>
</symbol>
<symbol overflow="visible" id="glyph0-3">
<path style="stroke:none;" d="M 6.28125 -2.53125 C 6.28125 -3.484375 5.671875 -4.265625 4.953125 -4.625 C 5.65625 -5.046875 5.984375 -5.5625 5.984375 -6.375 C 5.984375 -7.703125 4.8125 -8.765625 3.296875 -8.765625 C 1.796875 -8.765625 0.59375 -7.703125 0.59375 -6.375 C 0.59375 -5.578125 0.921875 -5.046875 1.625 -4.625 C 0.921875 -4.265625 0.296875 -3.484375 0.296875 -2.546875 C 0.296875 -0.984375 1.625 0.1875 3.296875 0.1875 C 4.984375 0.1875 6.28125 -0.984375 6.28125 -2.53125 Z M 4.625 -6.34375 C 4.625 -5.5625 4.1875 -5.15625 3.296875 -5.15625 C 2.40625 -5.15625 1.953125 -5.5625 1.953125 -6.359375 C 1.953125 -7.171875 2.40625 -7.578125 3.296875 -7.578125 C 4.203125 -7.578125 4.625 -7.171875 4.625 -6.34375 Z M 4.9375 -2.515625 C 4.9375 -1.515625 4.359375 -1.015625 3.28125 -1.015625 C 2.25 -1.015625 1.65625 -1.53125 1.65625 -2.515625 C 1.65625 -3.515625 2.25 -4.015625 3.296875 -4.015625 C 4.359375 -4.015625 4.9375 -3.515625 4.9375 -2.515625 Z M 4.9375 -2.515625 "/>
</symbol>
<symbol overflow="visible" id="glyph0-4">
<path style="stroke:none;" d="M 4.296875 -0.125 L 4.296875 -8.765625 L 3.359375 -8.765625 C 2.953125 -7.328125 2.859375 -7.28125 1.078125 -7.0625 L 1.078125 -6.0625 L 2.96875 -6.0625 L 2.96875 0 L 4.296875 0 Z M 4.296875 -0.125 "/>
</symbol>
<symbol overflow="visible" id="glyph0-5">
<path style="stroke:none;" d="M 6.265625 -6.140625 C 6.265625 -7.578125 5.015625 -8.765625 3.40625 -8.765625 C 1.671875 -8.765625 0.515625 -7.75 0.453125 -5.5625 L 1.78125 -5.5625 C 1.875 -7.109375 2.328125 -7.578125 3.375 -7.578125 C 4.328125 -7.578125 4.90625 -7.03125 4.90625 -6.125 C 4.90625 -5.453125 4.546875 -4.96875 3.796875 -4.53125 L 2.6875 -3.90625 C 0.90625 -2.90625 0.359375 -2 0.25 0 L 6.203125 0 L 6.203125 -1.3125 L 1.75 -1.3125 C 1.84375 -1.875 2.1875 -2.21875 3.234375 -2.828125 L 4.421875 -3.484375 C 5.609375 -4.109375 6.265625 -5.09375 6.265625 -6.140625 Z M 6.265625 -6.140625 "/>
</symbol>
<symbol overflow="visible" id="glyph0-6">
<path style="stroke:none;" d="M 6.375 -2.171875 L 6.375 -3.25 L 5.109375 -3.25 L 5.109375 -8.765625 L 4.125 -8.765625 L 0.1875 -3.328125 L 0.1875 -2.046875 L 3.78125 -2.046875 L 3.78125 0 L 5.109375 0 L 5.109375 -2.046875 L 6.375 -2.046875 Z M 3.921875 -3.25 L 1.515625 -3.25 L 4.015625 -6.75 L 3.78125 -6.84375 L 3.78125 -3.25 Z M 3.921875 -3.25 "/>
</symbol>
<symbol overflow="visible" id="glyph0-7">
<path style="stroke:none;" d="M 6.28125 -2.765625 C 6.28125 -4.359375 5.078125 -5.5625 3.546875 -5.5625 C 2.71875 -5.5625 1.9375 -5.203125 1.484375 -4.578125 L 1.734375 -4.46875 C 1.734375 -6.546875 2.28125 -7.578125 3.484375 -7.578125 C 4.234375 -7.578125 4.609375 -7.234375 4.796875 -6.28125 L 6.125 -6.28125 C 5.90625 -7.8125 4.859375 -8.765625 3.5625 -8.765625 C 1.578125 -8.765625 0.375 -6.96875 0.375 -4.015625 C 0.375 -1.359375 1.421875 0.1875 3.375 0.1875 C 4.984375 0.1875 6.28125 -1.109375 6.28125 -2.765625 Z M 4.9375 -2.6875 C 4.9375 -1.625 4.359375 -1.015625 3.390625 -1.015625 C 2.40625 -1.015625 1.78125 -1.65625 1.78125 -2.75 C 1.78125 -3.796875 2.375 -4.359375 3.421875 -4.359375 C 4.4375 -4.359375 4.9375 -3.828125 4.9375 -2.6875 Z M 4.9375 -2.6875 "/>
</symbol>
<symbol overflow="visible" id="glyph0-8">
<path style="stroke:none;" d="M 9.25 -0.125 L 9.25 -4.84375 C 9.25 -5.96875 8.5 -6.734375 7.3125 -6.734375 C 6.484375 -6.734375 5.875 -6.4375 5.40625 -5.875 C 5.109375 -6.40625 4.515625 -6.734375 3.703125 -6.734375 C 2.859375 -6.734375 2.203125 -6.390625 1.65625 -5.625 L 1.890625 -5.53125 L 1.890625 -6.546875 L 0.703125 -6.546875 L 0.703125 0 L 1.984375 0 L 1.984375 -4.078125 C 1.984375 -4.984375 2.515625 -5.59375 3.328125 -5.59375 C 4.0625 -5.59375 4.34375 -5.265625 4.34375 -4.46875 L 4.34375 0 L 5.609375 0 L 5.609375 -4.078125 C 5.609375 -4.984375 6.15625 -5.59375 6.96875 -5.59375 C 7.703125 -5.59375 7.984375 -5.25 7.984375 -4.46875 L 7.984375 0 L 9.25 0 Z M 9.25 -0.125 "/>
</symbol>
<symbol overflow="visible" id="glyph0-9">
<path style="stroke:none;" d="M 5.921875 -0.125 L 5.921875 -6.546875 L 4.640625 -6.546875 L 4.640625 -2.953125 C 4.640625 -1.671875 4.109375 -0.953125 3.078125 -0.953125 C 2.28125 -0.953125 1.90625 -1.3125 1.90625 -2.0625 L 1.90625 -6.546875 L 0.640625 -6.546875 L 0.640625 -1.671875 C 0.640625 -0.625 1.5625 0.1875 2.78125 0.1875 C 3.703125 0.1875 4.390625 -0.1875 4.984375 -1.015625 L 4.734375 -1.109375 L 4.734375 0 L 5.921875 0 Z M 5.921875 -0.125 "/>
</symbol>
<symbol overflow="visible" id="glyph0-10">
<path style="stroke:none;" d="M 6.234375 -4.578125 C 6.234375 -7.25 5.1875 -8.765625 3.234375 -8.765625 C 1.625 -8.765625 0.3125 -7.484375 0.3125 -5.8125 C 0.3125 -4.234375 1.53125 -3.03125 3.078125 -3.03125 C 3.875 -3.03125 4.5625 -3.359375 5.109375 -4.015625 L 4.875 -4.109375 C 4.859375 -2.046875 4.328125 -1.015625 3.125 -1.015625 C 2.375 -1.015625 1.984375 -1.359375 1.796875 -2.296875 L 0.46875 -2.296875 C 0.703125 -0.78125 1.75 0.1875 3.046875 0.1875 C 5.046875 0.1875 6.234375 -1.640625 6.234375 -4.578125 Z M 4.8125 -5.84375 C 4.8125 -4.796875 4.21875 -4.234375 3.1875 -4.234375 C 2.171875 -4.234375 1.671875 -4.765625 1.671875 -5.90625 C 1.671875 -6.984375 2.25 -7.578125 3.234375 -7.578125 C 4.21875 -7.578125 4.8125 -6.953125 4.8125 -5.84375 Z M 4.8125 -5.84375 "/>
</symbol>
<symbol overflow="visible" id="glyph0-11">
<path style="stroke:none;" d="M 4.578125 -6.28125 C 4.578125 -7.4375 3.546875 -8.484375 2.390625 -8.484375 C 1.265625 -8.484375 0.203125 -7.421875 0.203125 -6.296875 C 0.203125 -5.171875 1.265625 -4.109375 2.40625 -4.109375 C 3.515625 -4.109375 4.578125 -5.171875 4.578125 -6.28125 Z M 3.46875 -6.28125 C 3.46875 -5.625 3.0625 -5.21875 2.40625 -5.21875 C 1.734375 -5.21875 1.3125 -5.640625 1.3125 -6.296875 C 1.3125 -6.96875 1.734375 -7.375 2.390625 -7.375 C 3.078125 -7.375 3.46875 -6.96875 3.46875 -6.28125 Z M 8.09375 -8.765625 L 7.21875 -8.765625 L 2.34375 0.234375 L 3.4375 0.234375 L 8.3125 -8.765625 Z M 10.4375 -1.9375 C 10.4375 -3.078125 9.40625 -4.125 8.25 -4.125 C 7.140625 -4.125 6.078125 -3.078125 6.078125 -1.953125 C 6.078125 -0.828125 7.140625 0.234375 8.265625 0.234375 C 9.375 0.234375 10.4375 -0.828125 10.4375 -1.9375 Z M 9.34375 -1.9375 C 9.34375 -1.28125 8.921875 -0.875 8.265625 -0.875 C 7.59375 -0.875 7.171875 -1.28125 7.171875 -1.953125 C 7.171875 -2.609375 7.59375 -3.03125 8.25 -3.03125 C 8.9375 -3.03125 9.34375 -2.609375 9.34375 -1.9375 Z M 9.34375 -1.9375 "/>
</symbol>
<symbol overflow="visible" id="glyph0-12">
<path style="stroke:none;" d="M 6.28125 -2.953125 C 6.28125 -4.625 5.046875 -5.875 3.40625 -5.875 C 2.8125 -5.875 2.21875 -5.671875 2.015625 -5.515625 L 2.28125 -7.28125 L 5.84375 -7.28125 L 5.84375 -8.59375 L 1.203125 -8.59375 L 0.515625 -3.875 L 1.71875 -3.875 C 2.25 -4.5 2.5625 -4.671875 3.21875 -4.671875 C 4.359375 -4.671875 4.9375 -4.0625 4.9375 -2.8125 C 4.9375 -1.578125 4.375 -1.015625 3.21875 -1.015625 C 2.296875 -1.015625 1.859375 -1.359375 1.578125 -2.453125 L 0.25 -2.453125 C 0.625 -0.625 1.734375 0.1875 3.234375 0.1875 C 4.953125 0.1875 6.28125 -1.15625 6.28125 -2.953125 Z M 6.28125 -2.953125 "/>
</symbol>
<symbol overflow="visible" id="glyph0-13">
<path style="stroke:none;" d="M 6.203125 -2.609375 C 6.203125 -3.640625 5.65625 -4.375 4.625 -4.71875 L 4.625 -4.453125 C 5.421875 -4.765625 5.953125 -5.453125 5.953125 -6.296875 C 5.953125 -7.765625 4.84375 -8.765625 3.234375 -8.765625 C 1.515625 -8.765625 0.453125 -7.703125 0.421875 -5.765625 L 1.75 -5.765625 C 1.78125 -7.15625 2.15625 -7.578125 3.234375 -7.578125 C 4.171875 -7.578125 4.59375 -7.15625 4.59375 -6.265625 C 4.59375 -5.359375 4.34375 -5.109375 2.515625 -5.109375 L 2.515625 -3.953125 L 3.234375 -3.953125 C 4.390625 -3.953125 4.84375 -3.546875 4.84375 -2.59375 C 4.84375 -1.53125 4.328125 -1.015625 3.234375 -1.015625 C 2.078125 -1.015625 1.640625 -1.46875 1.5625 -2.828125 L 0.234375 -2.828125 C 0.375 -0.796875 1.453125 0.1875 3.1875 0.1875 C 4.9375 0.1875 6.203125 -1 6.203125 -2.609375 Z M 6.203125 -2.609375 "/>
</symbol>
<symbol overflow="visible" id="glyph0-14">
<path style="stroke:none;" d="M 5.640625 -1.890625 C 5.640625 -2.828125 4.984375 -3.4375 3.734375 -3.734375 L 2.765625 -3.953125 C 1.953125 -4.15625 1.734375 -4.28125 1.734375 -4.734375 C 1.734375 -5.296875 2.125 -5.546875 2.9375 -5.546875 C 3.75 -5.546875 4.03125 -5.328125 4.0625 -4.53125 L 5.390625 -4.53125 C 5.375 -5.90625 4.421875 -6.734375 2.96875 -6.734375 C 1.515625 -6.734375 0.421875 -5.84375 0.421875 -4.6875 C 0.421875 -3.703125 1.0625 -3.09375 2.5625 -2.734375 L 3.484375 -2.515625 C 4.1875 -2.34375 4.3125 -2.265625 4.3125 -1.8125 C 4.3125 -1.21875 3.875 -1.015625 3 -1.015625 C 2.09375 -1.015625 1.734375 -1.09375 1.578125 -2.1875 L 0.265625 -2.1875 C 0.3125 -0.59375 1.265625 0.1875 2.921875 0.1875 C 4.5 0.1875 5.640625 -0.6875 5.640625 -1.890625 Z M 5.640625 -1.890625 "/>
</symbol>
<symbol overflow="visible" id="glyph0-15">
<path style="stroke:none;" d="M 1.96875 -0.125 L 1.96875 -6.546875 L 0.703125 -6.546875 L 0.703125 0 L 1.96875 0 Z M 2.09375 -7.375 L 2.09375 -8.75 L 0.578125 -8.75 L 0.578125 -7.234375 L 2.09375 -7.234375 Z M 2.09375 -7.375 "/>
</symbol>
<symbol overflow="visible" id="glyph0-16">
<path style="stroke:none;" d="M 6 -1.15625 L 6 -6.546875 L 4.796875 -6.546875 L 4.796875 -5.515625 L 5.046875 -5.609375 C 4.53125 -6.34375 3.828125 -6.734375 3.03125 -6.734375 C 1.421875 -6.734375 0.203125 -5.25 0.203125 -3.21875 C 0.203125 -1.234375 1.46875 0.1875 2.9375 0.1875 C 3.734375 0.1875 4.375 -0.1875 5.046875 -0.984375 L 4.796875 -1.078125 L 4.796875 -0.65625 C 4.796875 1.015625 4.265625 1.515625 3.09375 1.515625 C 2.296875 1.515625 1.828125 1.359375 1.6875 0.453125 L 0.390625 0.453125 C 0.515625 1.78125 1.578125 2.609375 3.0625 2.609375 C 5.03125 2.609375 6 1.609375 6 -1.15625 Z M 4.703125 -3.234375 C 4.703125 -1.734375 4.203125 -1.015625 3.140625 -1.015625 C 2.046875 -1.015625 1.53125 -1.75 1.53125 -3.28125 C 1.53125 -4.78125 2.0625 -5.546875 3.125 -5.546875 C 4.21875 -5.546875 4.703125 -4.765625 4.703125 -3.234375 Z M 4.703125 -3.234375 "/>
</symbol>
<symbol overflow="visible" id="glyph0-17">
<path style="stroke:none;" d="M 6.546875 -0.15625 L 6.546875 -1.078125 C 6.3125 -1.015625 6.265625 -1.015625 6.203125 -1.015625 C 5.859375 -1.015625 5.796875 -1.0625 5.796875 -1.375 L 5.796875 -4.890625 C 5.796875 -6 4.84375 -6.734375 3.296875 -6.734375 C 1.78125 -6.734375 0.703125 -6.015625 0.640625 -4.421875 L 1.90625 -4.421875 C 2 -5.328125 2.328125 -5.546875 3.265625 -5.546875 C 4.15625 -5.546875 4.53125 -5.34375 4.53125 -4.734375 L 4.53125 -4.46875 C 4.53125 -4.0625 4.421875 -4.015625 3.625 -3.90625 C 2.203125 -3.734375 1.984375 -3.6875 1.609375 -3.53125 C 0.875 -3.234375 0.359375 -2.53125 0.359375 -1.765625 C 0.359375 -0.625 1.296875 0.1875 2.5625 0.1875 C 3.375 0.1875 4.25 -0.1875 4.625 -0.59375 C 4.671875 -0.390625 5.25 0.078125 5.734375 0.078125 C 5.9375 0.078125 6.09375 0.0625 6.546875 -0.046875 Z M 4.53125 -2.296875 C 4.53125 -1.40625 3.75 -0.953125 2.78125 -0.953125 C 2 -0.953125 1.6875 -1.109375 1.6875 -1.78125 C 1.6875 -2.453125 1.984375 -2.609375 3.0625 -2.765625 C 4.109375 -2.90625 4.328125 -2.953125 4.53125 -3.03125 Z M 4.53125 -2.296875 "/>
</symbol>
<symbol overflow="visible" id="glyph1-0">
<path style="stroke:none;" d=""/>
</symbol>
<symbol overflow="visible" id="glyph1-1">
<path style="stroke:none;" d="M -4.21875 -6.21875 C -7.171875 -6.21875 -8.765625 -5.140625 -8.765625 -3.296875 C -8.765625 -1.46875 -7.15625 -0.375 -4.296875 -0.375 C -1.421875 -0.375 0.1875 -1.46875 0.1875 -3.296875 C 0.1875 -5.09375 -1.421875 -6.21875 -4.21875 -6.21875 Z M -4.3125 -4.859375 C -1.90625 -4.859375 -0.953125 -4.453125 -0.953125 -3.28125 C -0.953125 -2.15625 -1.953125 -1.734375 -4.28125 -1.734375 C -6.609375 -1.734375 -7.578125 -2.15625 -7.578125 -3.296875 C -7.578125 -4.4375 -6.59375 -4.859375 -4.3125 -4.859375 Z M -4.3125 -4.859375 "/>
</symbol>
<symbol overflow="visible" id="glyph1-2">
<path style="stroke:none;" d="M -0.125 -2.421875 L -1.515625 -2.421875 L -1.515625 -0.90625 L 0 -0.90625 L 0 -2.421875 Z M -0.125 -2.421875 "/>
</symbol>
<symbol overflow="visible" id="glyph1-3">
<path style="stroke:none;" d="M -2.953125 -6.28125 C -4.625 -6.28125 -5.875 -5.046875 -5.875 -3.40625 C -5.875 -2.8125 -5.671875 -2.21875 -5.515625 -2.015625 L -7.28125 -2.28125 L -7.28125 -5.84375 L -8.59375 -5.84375 L -8.59375 -1.203125 L -3.875 -0.515625 L -3.875 -1.71875 C -4.5 -2.25 -4.671875 -2.5625 -4.671875 -3.21875 C -4.671875 -4.359375 -4.0625 -4.9375 -2.8125 -4.9375 C -1.578125 -4.9375 -1.015625 -4.375 -1.015625 -3.21875 C -1.015625 -2.296875 -1.359375 -1.859375 -2.453125 -1.578125 L -2.453125 -0.25 C -0.625 -0.625 0.1875 -1.734375 0.1875 -3.234375 C 0.1875 -4.953125 -1.15625 -6.28125 -2.953125 -6.28125 Z M -2.953125 -6.28125 "/>
</symbol>
<symbol overflow="visible" id="glyph1-4">
<path style="stroke:none;" d="M -0.125 -4.296875 L -8.765625 -4.296875 L -8.765625 -3.359375 C -7.328125 -2.953125 -7.28125 -2.859375 -7.0625 -1.078125 L -6.0625 -1.078125 L -6.0625 -2.96875 L 0 -2.96875 L 0 -4.296875 Z M -0.125 -4.296875 "/>
</symbol>
<symbol overflow="visible" id="glyph1-5">
<path style="stroke:none;" d="M -6.140625 -6.265625 C -7.578125 -6.265625 -8.765625 -5.015625 -8.765625 -3.40625 C -8.765625 -1.671875 -7.75 -0.515625 -5.5625 -0.453125 L -5.5625 -1.78125 C -7.109375 -1.875 -7.578125 -2.328125 -7.578125 -3.375 C -7.578125 -4.328125 -7.03125 -4.90625 -6.125 -4.90625 C -5.453125 -4.90625 -4.96875 -4.546875 -4.53125 -3.796875 L -3.90625 -2.6875 C -2.90625 -0.90625 -2 -0.359375 0 -0.25 L 0 -6.203125 L -1.3125 -6.203125 L -1.3125 -1.75 C -1.875 -1.84375 -2.21875 -2.1875 -2.828125 -3.234375 L -3.484375 -4.421875 C -4.109375 -5.609375 -5.09375 -6.265625 -6.140625 -6.265625 Z M -6.140625 -6.265625 "/>
</symbol>
<symbol overflow="visible" id="glyph1-6">
<path style="stroke:none;" d="M -0.125 -5.609375 L -1.140625 -5.609375 L -1.140625 -1.875 L -5.484375 -5.453125 L -6.546875 -5.453125 L -6.546875 -0.484375 L -5.40625 -0.484375 L -5.40625 -3.828125 L -1.078125 -0.234375 L 0 -0.234375 L 0 -5.609375 Z M -0.125 -5.609375 "/>
</symbol>
<symbol overflow="visible" id="glyph2-0">
<path style="stroke:none;" d=""/>
</symbol>
<symbol overflow="visible" id="glyph2-1">
<path style="stroke:none;" d="M 8.40625 -0.125 L 8.40625 -2.078125 L 3.390625 -2.078125 L 3.390625 -10.78125 L 1.0625 -10.78125 L 1.0625 0 L 8.40625 0 Z M 8.40625 -0.125 "/>
</symbol>
<symbol overflow="visible" id="glyph2-2">
<path style="stroke:none;" d="M 3.046875 -0.125 L 3.046875 -8.046875 L 0.875 -8.046875 L 0.875 0 L 3.046875 0 Z M 3.078125 -8.84375 L 3.078125 -11 L 0.90625 -11 L 0.90625 -8.71875 L 3.078125 -8.71875 Z M 3.078125 -8.84375 "/>
</symbol>
<symbol overflow="visible" id="glyph2-3">
<path style="stroke:none;" d="M 7.9375 -0.234375 L 5.171875 -4.953125 L 7.96875 -8.046875 L 5.390625 -8.046875 L 2.9375 -5.140625 L 2.9375 -10.78125 L 0.765625 -10.78125 L 0.765625 0 L 2.9375 0 L 2.9375 -2.609375 L 3.65625 -3.390625 L 5.484375 0 L 8.078125 0 Z M 7.9375 -0.234375 "/>
</symbol>
<symbol overflow="visible" id="glyph2-4">
<path style="stroke:none;" d="M 7.640625 -3.734375 C 7.640625 -6.40625 6.203125 -8.1875 3.921875 -8.1875 C 1.6875 -8.1875 0.234375 -6.53125 0.234375 -3.921875 C 0.234375 -1.421875 1.671875 0.125 3.875 0.125 C 5.625 0.125 7.109375 -0.796875 7.59375 -2.46875 L 5.453125 -2.46875 C 5.234375 -1.703125 4.6875 -1.6875 3.953125 -1.6875 C 3 -1.6875 2.46875 -1.96875 2.40625 -3.359375 L 7.609375 -3.359375 Z M 5.453125 -4.96875 L 2.453125 -4.96875 C 2.5625 -5.90625 3 -6.375 3.890625 -6.375 C 4.75 -6.375 5.265625 -5.9375 5.359375 -4.96875 Z M 5.453125 -4.96875 "/>
</symbol>
<symbol overflow="visible" id="glyph2-5">
<path style="stroke:none;" d="M 3.046875 -0.125 L 3.046875 -10.78125 L 0.875 -10.78125 L 0.875 0 L 3.046875 0 Z M 3.046875 -0.125 "/>
</symbol>
<symbol overflow="visible" id="glyph2-6">
<path style="stroke:none;" d="M 7.859375 -0.125 L 7.859375 -5.34375 C 7.859375 -7.15625 6.734375 -8.1875 5.265625 -8.1875 C 4.265625 -8.1875 3.484375 -7.734375 3.046875 -7.09375 L 3.046875 -10.78125 L 0.875 -10.78125 L 0.875 0 L 3.046875 0 L 3.046875 -4.796875 C 3.046875 -5.6875 3.625 -6.1875 4.53125 -6.1875 C 5.265625 -6.1875 5.6875 -5.9375 5.6875 -4.890625 L 5.6875 0 L 7.859375 0 Z M 7.859375 -0.125 "/>
</symbol>
<symbol overflow="visible" id="glyph2-7">
<path style="stroke:none;" d="M 8.265625 -3.96875 C 8.265625 -6.59375 6.765625 -8.1875 4.34375 -8.1875 C 1.953125 -8.1875 0.421875 -6.5625 0.421875 -4.015625 C 0.421875 -1.453125 1.953125 0.125 4.34375 0.125 C 6.71875 0.125 8.265625 -1.46875 8.265625 -3.96875 Z M 6.09375 -3.984375 C 6.09375 -2.53125 5.4375 -1.765625 4.34375 -1.765625 C 3.25 -1.765625 2.59375 -2.53125 2.59375 -4.015625 C 2.59375 -5.5 3.25 -6.28125 4.34375 -6.28125 C 5.453125 -6.28125 6.09375 -5.515625 6.09375 -3.984375 Z M 6.09375 -3.984375 "/>
</symbol>
<symbol overflow="visible" id="glyph2-8">
<path style="stroke:none;" d="M 7.921875 -0.125 L 7.921875 -10.78125 L 5.75 -10.78125 L 5.75 -7.21875 C 5.375 -7.78125 4.65625 -8.1875 3.6875 -8.1875 C 1.828125 -8.1875 0.328125 -6.359375 0.328125 -4 C 0.328125 -1.796875 1.625 0.125 3.6875 0.125 C 4.65625 0.125 5.375 -0.265625 5.75 -0.75 L 5.75 0 L 7.921875 0 Z M 5.75 -3.96875 C 5.75 -2.5625 5.140625 -1.828125 4.140625 -1.828125 C 3.125 -1.828125 2.5 -2.578125 2.5 -4 C 2.5 -5.453125 3.125 -6.21875 4.140625 -6.21875 C 5.15625 -6.21875 5.75 -5.453125 5.75 -3.96875 Z M 5.75 -3.96875 "/>
</symbol>
<symbol overflow="visible" id="glyph2-9">
<path style="stroke:none;" d=""/>
</symbol>
<symbol overflow="visible" id="glyph2-10">
<path style="stroke:none;" d="M 8.34375 -4.015625 C 8.34375 -6.328125 7.046875 -8.1875 5.015625 -8.1875 C 4.03125 -8.1875 3.28125 -7.71875 2.796875 -6.859375 L 2.921875 -6.75 L 2.921875 -8.046875 L 0.75 -8.046875 L 0.75 3.140625 L 2.921875 3.140625 L 2.921875 -1.171875 L 2.796875 -1.0625 C 3.28125 -0.203125 4.03125 0.125 5.015625 0.125 C 6.890625 0.125 8.34375 -1.65625 8.34375 -4.015625 Z M 6.171875 -3.984375 C 6.171875 -2.578125 5.546875 -1.828125 4.546875 -1.828125 C 3.546875 -1.828125 2.921875 -2.5625 2.921875 -4.015625 C 2.921875 -5.46875 3.546875 -6.21875 4.546875 -6.21875 C 5.578125 -6.21875 6.171875 -5.46875 6.171875 -3.984375 Z M 6.171875 -3.984375 "/>
</symbol>
<symbol overflow="visible" id="glyph2-11">
<path style="stroke:none;" d="M 5.40625 -5.984375 L 5.40625 -8.15625 C 5.21875 -8.1875 5.140625 -8.1875 5.078125 -8.1875 C 4.15625 -8.1875 3.265625 -7.375 2.84375 -6.328125 L 3 -6.375 L 3 -8.046875 L 0.828125 -8.046875 L 0.828125 0 L 3 0 L 3 -4.265625 C 3 -5.453125 3.515625 -5.90625 4.703125 -5.90625 C 4.90625 -5.90625 5.0625 -5.890625 5.40625 -5.828125 Z M 5.40625 -5.984375 "/>
</symbol>
<symbol overflow="visible" id="glyph2-12">
<path style="stroke:none;" d="M 4.578125 -6.40625 L 4.578125 -7.890625 L 3.390625 -7.890625 L 3.390625 -8.515625 C 3.390625 -8.921875 3.484375 -8.984375 3.859375 -8.984375 C 4.03125 -8.984375 4.265625 -8.96875 4.515625 -8.9375 L 4.515625 -10.734375 C 4.0625 -10.765625 3.5625 -10.78125 3.28125 -10.78125 C 1.9375 -10.78125 1.203125 -10 1.203125 -8.6875 L 1.203125 -7.890625 L 0.109375 -7.890625 L 0.109375 -6.28125 L 1.203125 -6.28125 L 1.203125 0 L 3.390625 0 L 3.390625 -6.28125 L 4.578125 -6.28125 Z M 7.84375 -0.125 L 7.84375 -8.046875 L 5.671875 -8.046875 L 5.671875 0 L 7.84375 0 Z M 7.84375 -8.84375 L 7.84375 -11 L 5.671875 -11 L 5.671875 -8.71875 L 7.84375 -8.71875 Z M 7.84375 -8.84375 "/>
</symbol>
<symbol overflow="visible" id="glyph2-13">
<path style="stroke:none;" d="M 3.5625 -0.125 L 3.5625 -2.375 L 1.234375 -2.375 L 1.234375 0 L 3.5625 0 Z M 3.5625 -5.515625 L 3.5625 -7.765625 L 1.234375 -7.765625 L 1.234375 -5.390625 L 3.5625 -5.390625 Z M 3.5625 -5.515625 "/>
</symbol>
<symbol overflow="visible" id="glyph2-14">
<path style="stroke:none;" d="M 11.9375 -0.125 L 11.9375 -5.640625 C 11.9375 -7.140625 10.953125 -8.1875 9.390625 -8.1875 C 8.40625 -8.1875 7.671875 -7.796875 7.109375 -7.078125 C 6.78125 -7.71875 5.96875 -8.1875 5 -8.1875 C 4.109375 -8.1875 3.46875 -7.84375 2.9375 -7.203125 L 2.9375 -8.046875 L 0.78125 -8.046875 L 0.78125 0 L 2.953125 0 L 2.953125 -4.796875 C 2.953125 -5.75 3.40625 -6.1875 4.265625 -6.1875 C 4.9375 -6.1875 5.265625 -5.9375 5.265625 -5.3125 L 5.265625 0 L 7.453125 0 L 7.453125 -4.796875 C 7.453125 -5.75 7.890625 -6.1875 8.765625 -6.1875 C 9.4375 -6.1875 9.765625 -5.9375 9.765625 -5.3125 L 9.765625 0 L 11.9375 0 Z M 11.9375 -0.125 "/>
</symbol>
<symbol overflow="visible" id="glyph2-15">
<path style="stroke:none;" d="M 7.859375 -0.125 L 7.859375 -8.046875 L 5.6875 -8.046875 L 5.6875 -3.234375 C 5.6875 -2.3125 5.125 -1.859375 4.15625 -1.859375 C 3.28125 -1.859375 2.921875 -2.171875 2.921875 -3.109375 L 2.921875 -8.046875 L 0.75 -8.046875 L 0.75 -2.6875 C 0.75 -0.984375 1.78125 0.125 3.4375 0.125 C 4.5 0.125 5.25 -0.28125 5.6875 -0.875 L 5.6875 0 L 7.859375 0 Z M 7.859375 -0.125 "/>
</symbol>
<symbol overflow="visible" id="glyph2-16">
<path style="stroke:none;" d="M 7.5625 -2.4375 L 7.5625 -2.53125 C 7.5625 -3.421875 6.984375 -4.234375 5.96875 -4.53125 L 3.421875 -5.265625 C 2.859375 -5.4375 2.78125 -5.421875 2.78125 -5.734375 C 2.78125 -6.171875 3.171875 -6.328125 3.875 -6.328125 C 4.84375 -6.328125 5.234375 -6.109375 5.25 -5.265625 L 7.34375 -5.265625 C 7.3125 -7.046875 5.984375 -8.1875 3.890625 -8.1875 C 1.921875 -8.1875 0.609375 -7.046875 0.609375 -5.453125 C 0.609375 -4.5 0.953125 -3.84375 2.390625 -3.40625 L 4.796875 -2.65625 C 5.296875 -2.5 5.390625 -2.46875 5.390625 -2.25 C 5.390625 -1.765625 4.90625 -1.734375 3.96875 -1.734375 C 3.046875 -1.734375 2.640625 -1.75 2.4375 -2.734375 L 0.328125 -2.734375 C 0.390625 -0.890625 1.734375 0.125 4.09375 0.125 C 6.28125 0.125 7.5625 -0.859375 7.5625 -2.4375 Z M 7.5625 -2.4375 "/>
</symbol>
<symbol overflow="visible" id="glyph2-17">
<path style="stroke:none;" d="M 7.859375 0.125 L 7.859375 -8.046875 L 5.796875 -8.046875 L 5.796875 -7.015625 C 5.3125 -7.734375 4.609375 -8.1875 3.71875 -8.1875 C 1.875 -8.1875 0.40625 -6.34375 0.40625 -3.9375 C 0.40625 -1.515625 1.75 0.125 3.671875 0.125 C 4.578125 0.125 5.171875 -0.171875 5.796875 -0.796875 L 5.796875 0.125 C 5.796875 1.0625 5.171875 1.5625 4.15625 1.5625 C 3.40625 1.5625 2.96875 1.390625 2.765625 0.65625 L 0.5625 0.65625 C 0.59375 2.078125 1.953125 3.140625 4.09375 3.140625 C 6.4375 3.140625 7.859375 1.953125 7.859375 0.125 Z M 5.8125 -3.96875 C 5.8125 -2.546875 5.171875 -1.828125 4.125 -1.828125 C 3.171875 -1.828125 2.578125 -2.546875 2.578125 -3.96875 C 2.578125 -5.4375 3.171875 -6.21875 4.15625 -6.21875 C 5.15625 -6.21875 5.8125 -5.40625 5.8125 -3.96875 Z M 5.8125 -3.96875 "/>
</symbol>
<symbol overflow="visible" id="glyph2-18">
<path style="stroke:none;" d="M 7.625 -0.125 L 7.625 -0.46875 C 7.234375 -0.8125 7.15625 -0.921875 7.15625 -1.328125 L 7.15625 -5.640625 C 7.15625 -7.234375 6 -8.1875 3.90625 -8.1875 C 1.796875 -8.1875 0.625 -7.09375 0.484375 -5.21875 L 2.578125 -5.21875 C 2.6875 -6.15625 2.953125 -6.28125 3.953125 -6.28125 C 4.71875 -6.28125 5.03125 -6.15625 5.03125 -5.640625 C 5.03125 -4.8125 4.515625 -5.046875 3.5 -4.875 L 2.6875 -4.71875 C 1.15625 -4.453125 0.3125 -3.640625 0.3125 -2.234375 C 0.3125 -0.71875 1.46875 0.125 2.765625 0.125 C 3.625 0.125 4.46875 -0.28125 5.046875 -0.875 C 5.046875 -0.703125 5.109375 -0.265625 5.328125 0 L 7.625 0 Z M 5.03125 -3.453125 C 5.03125 -2.296875 4.53125 -1.765625 3.515625 -1.765625 C 2.84375 -1.765625 2.5 -1.890625 2.5 -2.46875 C 2.5 -3.046875 2.734375 -3.140625 3.578125 -3.296875 L 4.265625 -3.421875 C 4.796875 -3.53125 4.921875 -3.59375 5.03125 -3.640625 Z M 5.03125 -3.453125 "/>
</symbol>
</g>
<clipPath id="clip1">
  <path d="M 59.039062 59.039062 L 222.757812 59.039062 L 222.757812 418 L 59.039062 418 Z M 59.039062 59.039062 "/>
</clipPath>
<clipPath id="clip2">
  <path d="M 59.039062 416 L 222.757812 416 L 222.757812 418 L 59.039062 418 Z M 59.039062 416 "/>
</clipPath>
<clipPath id="clip3">
  <path d="M 140 59.039062 L 141 59.039062 L 141 431 L 140 431 Z M 140 59.039062 "/>
</clipPath>
<clipPath id="clip4">
  <path d="M 311.039062 59.039062 L 474.757812 59.039062 L 474.757812 418 L 311.039062 418 Z M 311.039062 59.039062 "/>
</clipPath>
<clipPath id="clip5">
  <path d="M 311.039062 416 L 474.757812 416 L 474.757812 418 L 311.039062 418 Z M 311.039062 416 "/>
</clipPath>
<clipPath id="clip6">
  <path d="M 374 59.039062 L 376 59.039062 L 376 431 L 374 431 Z M 374 59.039062 "/>
</clipPath>
</defs>
<g id="surface18653">
<rect x="0" y="0" width="504" height="504" style="fill:rgb(100%,100%,100%);fill-opacity:1;stroke:none;"/>
<path style="fill:none;stroke-width:0.75;stroke-linecap:round;stroke-linejoin:round;stroke:rgb(0%,0%,0%);stroke-opacity:1;stroke-miterlimit:10;" d="M 62.941406 430.558594 L 213.8125 430.558594 "/>
<path style="fill:none;stroke-width:0.75;stroke-linecap:round;stroke-linejoin:round;stroke:rgb(0%,0%,0%);stroke-opacity:1;stroke-miterlimit:10;" d="M 62.941406 430.558594 L 62.941406 437.761719 "/>
<path style="fill:none;stroke-width:0.75;stroke-linecap:round;stroke-linejoin:round;stroke:rgb(0%,0%,0%);stroke-opacity:1;stroke-miterlimit:10;" d="M 93.113281 430.558594 L 93.113281 437.761719 "/>
<path style="fill:none;stroke-width:0.75;stroke-linecap:round;stroke-linejoin:round;stroke:rgb(0%,0%,0%);stroke-opacity:1;stroke-miterlimit:10;" d="M 123.289062 430.558594 L 123.289062 437.761719 "/>
<path style="fill:none;stroke-width:0.75;stroke-linecap:round;stroke-linejoin:round;stroke:rgb(0%,0%,0%);stroke-opacity:1;stroke-miterlimit:10;" d="M 153.464844 430.558594 L 153.464844 437.761719 "/>
<path style="fill:none;stroke-width:0.75;stroke-linecap:round;stroke-linejoin:round;stroke:rgb(0%,0%,0%);stroke-opacity:1;stroke-miterlimit:10;" d="M 183.636719 430.558594 L 183.636719 437.761719 "/>
<path style="fill:none;stroke-width:0.75;stroke-linecap:round;stroke-linejoin:round;stroke:rgb(0%,0%,0%);stroke-opacity:1;stroke-miterlimit:10;" d="M 213.8125 430.558594 L 213.8125 437.761719 "/>
<g style="fill:rgb(0%,0%,0%);fill-opacity:1;">
  <use xlink:href="#glyph0-1" x="54.441406" y="456.256836"/>
  <use xlink:href="#glyph0-2" x="61.113281" y="456.256836"/>
  <use xlink:href="#glyph0-3" x="64.449219" y="456.256836"/>
</g>
<g style="fill:rgb(0%,0%,0%);fill-opacity:1;">
  <use xlink:href="#glyph0-4" x="84.613281" y="456.256836"/>
  <use xlink:href="#glyph0-2" x="91.285156" y="456.256836"/>
  <use xlink:href="#glyph0-1" x="94.621094" y="456.256836"/>
</g>
<g style="fill:rgb(0%,0%,0%);fill-opacity:1;">
  <use xlink:href="#glyph0-4" x="114.789062" y="456.256836"/>
  <use xlink:href="#glyph0-2" x="121.460938" y="456.256836"/>
  <use xlink:href="#glyph0-5" x="124.796875" y="456.256836"/>
</g>
<g style="fill:rgb(0%,0%,0%);fill-opacity:1;">
  <use xlink:href="#glyph0-4" x="144.964844" y="456.256836"/>
  <use xlink:href="#glyph0-2" x="151.636719" y="456.256836"/>
  <use xlink:href="#glyph0-6" x="154.972656" y="456.256836"/>
</g>
<g style="fill:rgb(0%,0%,0%);fill-opacity:1;">
  <use xlink:href="#glyph0-4" x="175.136719" y="456.256836"/>
  <use xlink:href="#glyph0-2" x="181.808594" y="456.256836"/>
  <use xlink:href="#glyph0-7" x="185.144531" y="456.256836"/>
</g>
<g style="fill:rgb(0%,0%,0%);fill-opacity:1;">
  <use xlink:href="#glyph0-4" x="205.3125" y="456.256836"/>
  <use xlink:href="#glyph0-2" x="211.984375" y="456.256836"/>
  <use xlink:href="#glyph0-3" x="215.320312" y="456.256836"/>
</g>
<path style="fill:none;stroke-width:0.75;stroke-linecap:round;stroke-linejoin:round;stroke:rgb(0%,0%,0%);stroke-opacity:1;stroke-miterlimit:10;" d="M 59.039062 416.800781 L 59.039062 98.824219 "/>
<path style="fill:none;stroke-width:0.75;stroke-linecap:round;stroke-linejoin:round;stroke:rgb(0%,0%,0%);stroke-opacity:1;stroke-miterlimit:10;" d="M 59.039062 416.800781 L 51.839844 416.800781 "/>
<path style="fill:none;stroke-width:0.75;stroke-linecap:round;stroke-linejoin:round;stroke:rgb(0%,0%,0%);stroke-opacity:1;stroke-miterlimit:10;" d="M 59.039062 353.207031 L 51.839844 353.207031 "/>
<path style="fill:none;stroke-width:0.75;stroke-linecap:round;stroke-linejoin:round;stroke:rgb(0%,0%,0%);stroke-opacity:1;stroke-miterlimit:10;" d="M 59.039062 289.609375 L 51.839844 289.609375 "/>
<path style="fill:none;stroke-width:0.75;stroke-linecap:round;stroke-linejoin:round;stroke:rgb(0%,0%,0%);stroke-opacity:1;stroke-miterlimit:10;" d="M 59.039062 226.015625 L 51.839844 226.015625 "/>
<path style="fill:none;stroke-width:0.75;stroke-linecap:round;stroke-linejoin:round;stroke:rgb(0%,0%,0%);stroke-opacity:1;stroke-miterlimit:10;" d="M 59.039062 162.421875 L 51.839844 162.421875 "/>
<path style="fill:none;stroke-width:0.75;stroke-linecap:round;stroke-linejoin:round;stroke:rgb(0%,0%,0%);stroke-opacity:1;stroke-miterlimit:10;" d="M 59.039062 98.824219 L 51.839844 98.824219 "/>
<g style="fill:rgb(0%,0%,0%);fill-opacity:1;">
  <use xlink:href="#glyph1-1" x="41.538086" y="425.300781"/>
  <use xlink:href="#glyph1-2" x="41.538086" y="418.628906"/>
  <use xlink:href="#glyph1-1" x="41.538086" y="415.292969"/>
</g>
<g style="fill:rgb(0%,0%,0%);fill-opacity:1;">
  <use xlink:href="#glyph1-1" x="41.538086" y="361.707031"/>
  <use xlink:href="#glyph1-2" x="41.538086" y="355.035156"/>
  <use xlink:href="#glyph1-3" x="41.538086" y="351.699219"/>
</g>
<g style="fill:rgb(0%,0%,0%);fill-opacity:1;">
  <use xlink:href="#glyph1-4" x="41.538086" y="298.109375"/>
  <use xlink:href="#glyph1-2" x="41.538086" y="291.4375"/>
  <use xlink:href="#glyph1-1" x="41.538086" y="288.101562"/>
</g>
<g style="fill:rgb(0%,0%,0%);fill-opacity:1;">
  <use xlink:href="#glyph1-4" x="41.538086" y="234.515625"/>
  <use xlink:href="#glyph1-2" x="41.538086" y="227.84375"/>
  <use xlink:href="#glyph1-3" x="41.538086" y="224.507812"/>
</g>
<g style="fill:rgb(0%,0%,0%);fill-opacity:1;">
  <use xlink:href="#glyph1-5" x="41.538086" y="170.921875"/>
  <use xlink:href="#glyph1-2" x="41.538086" y="164.25"/>
  <use xlink:href="#glyph1-1" x="41.538086" y="160.914062"/>
</g>
<g style="fill:rgb(0%,0%,0%);fill-opacity:1;">
  <use xlink:href="#glyph1-5" x="41.538086" y="107.324219"/>
  <use xlink:href="#glyph1-2" x="41.538086" y="100.652344"/>
  <use xlink:href="#glyph1-3" x="41.538086" y="97.316406"/>
</g>
<path style="fill:none;stroke-width:0.75;stroke-linecap:round;stroke-linejoin:round;stroke:rgb(0%,0%,0%);stroke-opacity:1;stroke-miterlimit:10;" d="M 59.039062 430.558594 L 221.761719 430.558594 L 221.761719 59.039062 L 59.039062 59.039062 L 59.039062 430.558594 "/>
<g style="fill:rgb(0%,0%,0%);fill-opacity:1;">
  <use xlink:href="#glyph2-1" x="64.898438" y="34.21875"/>
  <use xlink:href="#glyph2-2" x="73.700195" y="34.21875"/>
  <use xlink:href="#glyph2-3" x="77.705078" y="34.21875"/>
  <use xlink:href="#glyph2-4" x="85.499023" y="34.21875"/>
  <use xlink:href="#glyph2-5" x="93.508789" y="34.21875"/>
  <use xlink:href="#glyph2-2" x="97.513672" y="34.21875"/>
  <use xlink:href="#glyph2-6" x="101.518555" y="34.21875"/>
  <use xlink:href="#glyph2-7" x="110.320312" y="34.21875"/>
  <use xlink:href="#glyph2-7" x="119.12207" y="34.21875"/>
  <use xlink:href="#glyph2-8" x="127.923828" y="34.21875"/>
  <use xlink:href="#glyph2-9" x="136.725586" y="34.21875"/>
  <use xlink:href="#glyph2-10" x="140.730469" y="34.21875"/>
  <use xlink:href="#glyph2-11" x="149.532227" y="34.21875"/>
  <use xlink:href="#glyph2-7" x="155.136719" y="34.21875"/>
  <use xlink:href="#glyph2-12" x="163.938477" y="34.21875"/>
  <use xlink:href="#glyph2-5" x="172.740234" y="34.21875"/>
  <use xlink:href="#glyph2-4" x="176.745117" y="34.21875"/>
  <use xlink:href="#glyph2-13" x="184.754883" y="34.21875"/>
  <use xlink:href="#glyph2-9" x="189.551758" y="34.21875"/>
  <use xlink:href="#glyph2-14" x="193.556641" y="34.21875"/>
  <use xlink:href="#glyph2-15" x="206.363281" y="34.21875"/>
</g>
<g style="fill:rgb(0%,0%,0%);fill-opacity:1;">
  <use xlink:href="#glyph0-8" x="131.898438" y="485.057617"/>
  <use xlink:href="#glyph0-9" x="141.894531" y="485.057617"/>
</g>
<path style="fill:none;stroke-width:0.75;stroke-linecap:round;stroke-linejoin:round;stroke:rgb(0%,0%,0%);stroke-opacity:1;stroke-miterlimit:10;" d="M 12.960938 248.355469 L 5.960938 248.355469 "/>
<g style="fill:rgb(0%,0%,0%);fill-opacity:1;">
  <use xlink:href="#glyph1-6" x="12.737305" y="247.800781"/>
</g>
<path style="fill:none;stroke-width:0.75;stroke-linecap:round;stroke-linejoin:round;stroke:rgb(0%,0%,0%);stroke-opacity:1;stroke-miterlimit:10;" d="M 12.960938 241.246094 L 5.960938 241.246094 "/>
<g clip-path="url(#clip1)" clip-rule="nonzero">
<path style="fill:none;stroke-width:0.75;stroke-linecap:round;stroke-linejoin:round;stroke:rgb(0%,0%,100%);stroke-opacity:1;stroke-miterlimit:10;" d="M 53.289062 24.015625 L 56.773438 38.375 L 60.257812 52.78125 L 63.742188 67.277344 L 67.230469 81.914062 L 67.808594 84.371094 L 70.714844 96.730469 L 74.199219 111.722656 L 77.683594 126.878906 L 81.167969 142.175781 L 82.328125 147.300781 L 84.652344 157.597656 L 88.136719 173.140625 L 91.621094 188.796875 L 95.105469 204.566406 L 96.847656 212.496094 L 98.589844 220.449219 L 102.074219 236.433594 L 105.558594 252.519531 L 109.042969 268.691406 L 111.363281 279.515625 L 112.527344 284.941406 L 116.011719 301.265625 L 119.496094 317.652344 L 122.980469 334.09375 L 125.882812 347.828125 L 126.464844 350.578125 L 129.949219 367.101562 L 133.433594 383.652344 L 136.917969 400.21875 L 140.402344 416.800781 L 143.886719 400.21875 L 147.371094 383.644531 L 150.855469 367.089844 L 154.339844 350.566406 L 154.917969 347.8125 L 157.824219 334.078125 L 161.308594 317.636719 L 164.792969 301.25 L 168.277344 284.929688 L 169.4375 279.503906 L 171.761719 268.675781 L 175.246094 252.507812 L 178.730469 236.421875 L 182.214844 220.4375 L 183.957031 212.480469 L 185.699219 204.554688 L 189.183594 188.785156 L 192.667969 173.128906 L 196.152344 157.585938 L 198.476562 147.289062 L 199.636719 142.164062 L 203.121094 126.867188 L 206.605469 111.710938 L 210.089844 96.71875 L 212.992188 84.359375 L 213.574219 81.902344 L 217.058594 67.265625 L 220.542969 52.769531 L 224.027344 38.363281 L 227.511719 24.003906 "/>
</g>
<path style="fill:none;stroke-width:0.75;stroke-linecap:round;stroke-linejoin:round;stroke:rgb(0%,0%,0%);stroke-opacity:1;stroke-miterlimit:10;" d="M 70.507812 84.371094 C 70.507812 87.972656 65.109375 87.972656 65.109375 84.371094 C 65.109375 80.769531 70.507812 80.769531 70.507812 84.371094 "/>
<path style="fill:none;stroke-width:0.75;stroke-linecap:round;stroke-linejoin:round;stroke:rgb(0%,0%,0%);stroke-opacity:1;stroke-miterlimit:10;" d="M 85.027344 147.300781 C 85.027344 150.902344 79.628906 150.902344 79.628906 147.300781 C 79.628906 143.703125 85.027344 143.703125 85.027344 147.300781 "/>
<path style="fill:none;stroke-width:0.75;stroke-linecap:round;stroke-linejoin:round;stroke:rgb(0%,0%,0%);stroke-opacity:1;stroke-miterlimit:10;" d="M 99.546875 212.496094 C 99.546875 216.09375 94.144531 216.09375 94.144531 212.496094 C 94.144531 208.894531 99.546875 208.894531 99.546875 212.496094 "/>
<path style="fill:none;stroke-width:0.75;stroke-linecap:round;stroke-linejoin:round;stroke:rgb(0%,0%,0%);stroke-opacity:1;stroke-miterlimit:10;" d="M 114.066406 279.515625 C 114.066406 283.117188 108.664062 283.117188 108.664062 279.515625 C 108.664062 275.917969 114.066406 275.917969 114.066406 279.515625 "/>
<path style="fill:none;stroke-width:0.75;stroke-linecap:round;stroke-linejoin:round;stroke:rgb(0%,0%,0%);stroke-opacity:1;stroke-miterlimit:10;" d="M 128.582031 347.828125 C 128.582031 351.425781 123.183594 351.425781 123.183594 347.828125 C 123.183594 344.226562 128.582031 344.226562 128.582031 347.828125 "/>
<path style="fill:none;stroke-width:0.75;stroke-linecap:round;stroke-linejoin:round;stroke:rgb(0%,0%,0%);stroke-opacity:1;stroke-miterlimit:10;" d="M 143.101562 416.800781 C 143.101562 420.398438 137.703125 420.398438 137.703125 416.800781 C 137.703125 413.199219 143.101562 413.199219 143.101562 416.800781 "/>
<path style="fill:none;stroke-width:0.75;stroke-linecap:round;stroke-linejoin:round;stroke:rgb(0%,0%,0%);stroke-opacity:1;stroke-miterlimit:10;" d="M 157.621094 347.8125 C 157.621094 351.414062 152.21875 351.414062 152.21875 347.8125 C 152.21875 344.214844 157.621094 344.214844 157.621094 347.8125 "/>
<path style="fill:none;stroke-width:0.75;stroke-linecap:round;stroke-linejoin:round;stroke:rgb(0%,0%,0%);stroke-opacity:1;stroke-miterlimit:10;" d="M 172.136719 279.503906 C 172.136719 283.101562 166.738281 283.101562 166.738281 279.503906 C 166.738281 275.902344 172.136719 275.902344 172.136719 279.503906 "/>
<path style="fill:none;stroke-width:0.75;stroke-linecap:round;stroke-linejoin:round;stroke:rgb(0%,0%,0%);stroke-opacity:1;stroke-miterlimit:10;" d="M 186.65625 212.480469 C 186.65625 216.082031 181.257812 216.082031 181.257812 212.480469 C 181.257812 208.882812 186.65625 208.882812 186.65625 212.480469 "/>
<path style="fill:none;stroke-width:0.75;stroke-linecap:round;stroke-linejoin:round;stroke:rgb(0%,0%,0%);stroke-opacity:1;stroke-miterlimit:10;" d="M 201.175781 147.289062 C 201.175781 150.890625 195.773438 150.890625 195.773438 147.289062 C 195.773438 143.691406 201.175781 143.691406 201.175781 147.289062 "/>
<path style="fill:none;stroke-width:0.75;stroke-linecap:round;stroke-linejoin:round;stroke:rgb(0%,0%,0%);stroke-opacity:1;stroke-miterlimit:10;" d="M 215.695312 84.359375 C 215.695312 87.960938 210.292969 87.960938 210.292969 84.359375 C 210.292969 80.757812 215.695312 80.757812 215.695312 84.359375 "/>
<g clip-path="url(#clip2)" clip-rule="nonzero">
<path style="fill:none;stroke-width:0.75;stroke-linecap:round;stroke-linejoin:round;stroke:rgb(0%,100%,0%);stroke-opacity:1;stroke-dasharray:3,3;stroke-miterlimit:10;" d="M 59.039062 416.800781 L 221.761719 416.800781 "/>
</g>
<g clip-path="url(#clip3)" clip-rule="nonzero">
<path style="fill:none;stroke-width:0.75;stroke-linecap:round;stroke-linejoin:round;stroke:rgb(0%,100%,0%);stroke-opacity:1;stroke-dasharray:3,3;stroke-miterlimit:10;" d="M 140.402344 430.558594 L 140.402344 59.039062 "/>
</g>
<path style="fill:none;stroke-width:0.75;stroke-linecap:round;stroke-linejoin:round;stroke:rgb(100%,0%,100%);stroke-opacity:1;stroke-dasharray:3,3;stroke-miterlimit:10;" d="M 68.941406 416.800781 L 68.941406 89.179688 "/>
<path style="fill:none;stroke-width:0.75;stroke-linecap:round;stroke-linejoin:round;stroke:rgb(100%,0%,100%);stroke-opacity:1;stroke-dasharray:3,3;stroke-miterlimit:10;" d="M 211.855469 416.800781 L 211.855469 89.179688 "/>
<path style="fill:none;stroke-width:0.75;stroke-linecap:round;stroke-linejoin:round;stroke:rgb(100%,0%,100%);stroke-opacity:1;stroke-dasharray:3,3;stroke-miterlimit:10;" d="M 68.941406 89.179688 L 211.855469 89.179688 "/>
<g style="fill:rgb(100%,0%,100%);fill-opacity:1;">
  <use xlink:href="#glyph0-10" x="127.902344" y="92.956055"/>
  <use xlink:href="#glyph0-10" x="134.574219" y="92.956055"/>
  <use xlink:href="#glyph0-11" x="141.246094" y="92.956055"/>
</g>
<path style="fill:none;stroke-width:0.75;stroke-linecap:round;stroke-linejoin:round;stroke:rgb(100%,0%,100%);stroke-opacity:1;stroke-dasharray:3,3;stroke-miterlimit:10;" d="M 86.875 416.800781 L 86.875 167.511719 "/>
<path style="fill:none;stroke-width:0.75;stroke-linecap:round;stroke-linejoin:round;stroke:rgb(100%,0%,100%);stroke-opacity:1;stroke-dasharray:3,3;stroke-miterlimit:10;" d="M 193.921875 416.800781 L 193.921875 167.511719 "/>
<path style="fill:none;stroke-width:0.75;stroke-linecap:round;stroke-linejoin:round;stroke:rgb(100%,0%,100%);stroke-opacity:1;stroke-dasharray:3,3;stroke-miterlimit:10;" d="M 86.875 167.511719 L 193.921875 167.511719 "/>
<g style="fill:rgb(100%,0%,100%);fill-opacity:1;">
  <use xlink:href="#glyph0-10" x="127.902344" y="171.288086"/>
  <use xlink:href="#glyph0-12" x="134.574219" y="171.288086"/>
  <use xlink:href="#glyph0-11" x="141.246094" y="171.288086"/>
</g>
<path style="fill:none;stroke-width:0.75;stroke-linecap:round;stroke-linejoin:round;stroke:rgb(100%,0%,100%);stroke-opacity:1;stroke-dasharray:3,3;stroke-miterlimit:10;" d="M 95.769531 416.800781 L 95.769531 207.589844 "/>
<path style="fill:none;stroke-width:0.75;stroke-linecap:round;stroke-linejoin:round;stroke:rgb(100%,0%,100%);stroke-opacity:1;stroke-dasharray:3,3;stroke-miterlimit:10;" d="M 185.03125 416.800781 L 185.03125 207.589844 "/>
<path style="fill:none;stroke-width:0.75;stroke-linecap:round;stroke-linejoin:round;stroke:rgb(100%,0%,100%);stroke-opacity:1;stroke-dasharray:3,3;stroke-miterlimit:10;" d="M 95.769531 207.589844 L 185.03125 207.589844 "/>
<g style="fill:rgb(100%,0%,100%);fill-opacity:1;">
  <use xlink:href="#glyph0-10" x="127.902344" y="211.366211"/>
  <use xlink:href="#glyph0-1" x="134.574219" y="211.366211"/>
  <use xlink:href="#glyph0-11" x="141.246094" y="211.366211"/>
</g>
<path style="fill:none;stroke-width:0.75;stroke-linecap:round;stroke-linejoin:round;stroke:rgb(100%,0%,100%);stroke-opacity:1;stroke-dasharray:3,3;stroke-miterlimit:10;" d="M 105.835938 416.800781 L 105.835938 253.800781 "/>
<path style="fill:none;stroke-width:0.75;stroke-linecap:round;stroke-linejoin:round;stroke:rgb(100%,0%,100%);stroke-opacity:1;stroke-dasharray:3,3;stroke-miterlimit:10;" d="M 174.964844 416.800781 L 174.964844 253.800781 "/>
<path style="fill:none;stroke-width:0.75;stroke-linecap:round;stroke-linejoin:round;stroke:rgb(100%,0%,100%);stroke-opacity:1;stroke-dasharray:3,3;stroke-miterlimit:10;" d="M 105.835938 253.800781 L 174.964844 253.800781 "/>
<g style="fill:rgb(100%,0%,100%);fill-opacity:1;">
  <use xlink:href="#glyph0-3" x="127.902344" y="257.577148"/>
  <use xlink:href="#glyph0-1" x="134.574219" y="257.577148"/>
  <use xlink:href="#glyph0-11" x="141.246094" y="257.577148"/>
</g>
<path style="fill:none;stroke-width:0.75;stroke-linecap:round;stroke-linejoin:round;stroke:rgb(100%,0%,100%);stroke-opacity:1;stroke-dasharray:3,3;stroke-miterlimit:10;" d="M 122.328125 416.800781 L 122.328125 331.011719 "/>
<path style="fill:none;stroke-width:0.75;stroke-linecap:round;stroke-linejoin:round;stroke:rgb(100%,0%,100%);stroke-opacity:1;stroke-dasharray:3,3;stroke-miterlimit:10;" d="M 158.472656 416.800781 L 158.472656 331.011719 "/>
<path style="fill:none;stroke-width:0.75;stroke-linecap:round;stroke-linejoin:round;stroke:rgb(100%,0%,100%);stroke-opacity:1;stroke-dasharray:3,3;stroke-miterlimit:10;" d="M 122.328125 331.011719 L 158.472656 331.011719 "/>
<g style="fill:rgb(100%,0%,100%);fill-opacity:1;">
  <use xlink:href="#glyph0-12" x="127.902344" y="334.788086"/>
  <use xlink:href="#glyph0-1" x="134.574219" y="334.788086"/>
  <use xlink:href="#glyph0-11" x="141.246094" y="334.788086"/>
</g>
<path style="fill:none;stroke-width:0.75;stroke-linecap:round;stroke-linejoin:round;stroke:rgb(0%,0%,0%);stroke-opacity:1;stroke-miterlimit:10;" d="M 313.695312 430.558594 L 461.734375 430.558594 "/>
<path style="fill:none;stroke-width:0.75;stroke-linecap:round;stroke-linejoin:round;stroke:rgb(0%,0%,0%);stroke-opacity:1;stroke-miterlimit:10;" d="M 313.695312 430.558594 L 313.695312 437.761719 "/>
<path style="fill:none;stroke-width:0.75;stroke-linecap:round;stroke-linejoin:round;stroke:rgb(0%,0%,0%);stroke-opacity:1;stroke-miterlimit:10;" d="M 334.84375 430.558594 L 334.84375 437.761719 "/>
<path style="fill:none;stroke-width:0.75;stroke-linecap:round;stroke-linejoin:round;stroke:rgb(0%,0%,0%);stroke-opacity:1;stroke-miterlimit:10;" d="M 355.992188 430.558594 L 355.992188 437.761719 "/>
<path style="fill:none;stroke-width:0.75;stroke-linecap:round;stroke-linejoin:round;stroke:rgb(0%,0%,0%);stroke-opacity:1;stroke-miterlimit:10;" d="M 377.140625 430.558594 L 377.140625 437.761719 "/>
<path style="fill:none;stroke-width:0.75;stroke-linecap:round;stroke-linejoin:round;stroke:rgb(0%,0%,0%);stroke-opacity:1;stroke-miterlimit:10;" d="M 398.289062 430.558594 L 398.289062 437.761719 "/>
<path style="fill:none;stroke-width:0.75;stroke-linecap:round;stroke-linejoin:round;stroke:rgb(0%,0%,0%);stroke-opacity:1;stroke-miterlimit:10;" d="M 419.4375 430.558594 L 419.4375 437.761719 "/>
<path style="fill:none;stroke-width:0.75;stroke-linecap:round;stroke-linejoin:round;stroke:rgb(0%,0%,0%);stroke-opacity:1;stroke-miterlimit:10;" d="M 440.585938 430.558594 L 440.585938 437.761719 "/>
<path style="fill:none;stroke-width:0.75;stroke-linecap:round;stroke-linejoin:round;stroke:rgb(0%,0%,0%);stroke-opacity:1;stroke-miterlimit:10;" d="M 461.734375 430.558594 L 461.734375 437.761719 "/>
<g style="fill:rgb(0%,0%,0%);fill-opacity:1;">
  <use xlink:href="#glyph0-1" x="305.195312" y="456.256836"/>
  <use xlink:href="#glyph0-2" x="311.867188" y="456.256836"/>
  <use xlink:href="#glyph0-10" x="315.203125" y="456.256836"/>
</g>
<g style="fill:rgb(0%,0%,0%);fill-opacity:1;">
  <use xlink:href="#glyph0-4" x="347.492188" y="456.256836"/>
  <use xlink:href="#glyph0-2" x="354.164062" y="456.256836"/>
  <use xlink:href="#glyph0-4" x="357.5" y="456.256836"/>
</g>
<g style="fill:rgb(0%,0%,0%);fill-opacity:1;">
  <use xlink:href="#glyph0-4" x="389.789062" y="456.256836"/>
  <use xlink:href="#glyph0-2" x="396.460938" y="456.256836"/>
  <use xlink:href="#glyph0-13" x="399.796875" y="456.256836"/>
</g>
<g style="fill:rgb(0%,0%,0%);fill-opacity:1;">
  <use xlink:href="#glyph0-4" x="432.085938" y="456.256836"/>
  <use xlink:href="#glyph0-2" x="438.757812" y="456.256836"/>
  <use xlink:href="#glyph0-12" x="442.09375" y="456.256836"/>
</g>
<path style="fill:none;stroke-width:0.75;stroke-linecap:round;stroke-linejoin:round;stroke:rgb(0%,0%,0%);stroke-opacity:1;stroke-miterlimit:10;" d="M 311.039062 416.800781 L 311.039062 98.824219 "/>
<path style="fill:none;stroke-width:0.75;stroke-linecap:round;stroke-linejoin:round;stroke:rgb(0%,0%,0%);stroke-opacity:1;stroke-miterlimit:10;" d="M 311.039062 416.800781 L 303.839844 416.800781 "/>
<path style="fill:none;stroke-width:0.75;stroke-linecap:round;stroke-linejoin:round;stroke:rgb(0%,0%,0%);stroke-opacity:1;stroke-miterlimit:10;" d="M 311.039062 353.207031 L 303.839844 353.207031 "/>
<path style="fill:none;stroke-width:0.75;stroke-linecap:round;stroke-linejoin:round;stroke:rgb(0%,0%,0%);stroke-opacity:1;stroke-miterlimit:10;" d="M 311.039062 289.609375 L 303.839844 289.609375 "/>
<path style="fill:none;stroke-width:0.75;stroke-linecap:round;stroke-linejoin:round;stroke:rgb(0%,0%,0%);stroke-opacity:1;stroke-miterlimit:10;" d="M 311.039062 226.015625 L 303.839844 226.015625 "/>
<path style="fill:none;stroke-width:0.75;stroke-linecap:round;stroke-linejoin:round;stroke:rgb(0%,0%,0%);stroke-opacity:1;stroke-miterlimit:10;" d="M 311.039062 162.421875 L 303.839844 162.421875 "/>
<path style="fill:none;stroke-width:0.75;stroke-linecap:round;stroke-linejoin:round;stroke:rgb(0%,0%,0%);stroke-opacity:1;stroke-miterlimit:10;" d="M 311.039062 98.824219 L 303.839844 98.824219 "/>
<g style="fill:rgb(0%,0%,0%);fill-opacity:1;">
  <use xlink:href="#glyph1-1" x="293.538086" y="425.300781"/>
  <use xlink:href="#glyph1-2" x="293.538086" y="418.628906"/>
  <use xlink:href="#glyph1-1" x="293.538086" y="415.292969"/>
</g>
<g style="fill:rgb(0%,0%,0%);fill-opacity:1;">
  <use xlink:href="#glyph1-1" x="293.538086" y="361.707031"/>
  <use xlink:href="#glyph1-2" x="293.538086" y="355.035156"/>
  <use xlink:href="#glyph1-3" x="293.538086" y="351.699219"/>
</g>
<g style="fill:rgb(0%,0%,0%);fill-opacity:1;">
  <use xlink:href="#glyph1-4" x="293.538086" y="298.109375"/>
  <use xlink:href="#glyph1-2" x="293.538086" y="291.4375"/>
  <use xlink:href="#glyph1-1" x="293.538086" y="288.101562"/>
</g>
<g style="fill:rgb(0%,0%,0%);fill-opacity:1;">
  <use xlink:href="#glyph1-4" x="293.538086" y="234.515625"/>
  <use xlink:href="#glyph1-2" x="293.538086" y="227.84375"/>
  <use xlink:href="#glyph1-3" x="293.538086" y="224.507812"/>
</g>
<g style="fill:rgb(0%,0%,0%);fill-opacity:1;">
  <use xlink:href="#glyph1-5" x="293.538086" y="170.921875"/>
  <use xlink:href="#glyph1-2" x="293.538086" y="164.25"/>
  <use xlink:href="#glyph1-1" x="293.538086" y="160.914062"/>
</g>
<g style="fill:rgb(0%,0%,0%);fill-opacity:1;">
  <use xlink:href="#glyph1-5" x="293.538086" y="107.324219"/>
  <use xlink:href="#glyph1-2" x="293.538086" y="100.652344"/>
  <use xlink:href="#glyph1-3" x="293.538086" y="97.316406"/>
</g>
<path style="fill:none;stroke-width:0.75;stroke-linecap:round;stroke-linejoin:round;stroke:rgb(0%,0%,0%);stroke-opacity:1;stroke-miterlimit:10;" d="M 311.039062 430.558594 L 473.761719 430.558594 L 473.761719 59.039062 L 311.039062 59.039062 L 311.039062 430.558594 "/>
<g style="fill:rgb(0%,0%,0%);fill-opacity:1;">
  <use xlink:href="#glyph2-1" x="306.898438" y="34.21875"/>
  <use xlink:href="#glyph2-2" x="315.700195" y="34.21875"/>
  <use xlink:href="#glyph2-3" x="319.705078" y="34.21875"/>
  <use xlink:href="#glyph2-4" x="327.499023" y="34.21875"/>
  <use xlink:href="#glyph2-5" x="335.508789" y="34.21875"/>
  <use xlink:href="#glyph2-2" x="339.513672" y="34.21875"/>
  <use xlink:href="#glyph2-6" x="343.518555" y="34.21875"/>
  <use xlink:href="#glyph2-7" x="352.320312" y="34.21875"/>
  <use xlink:href="#glyph2-7" x="361.12207" y="34.21875"/>
  <use xlink:href="#glyph2-8" x="369.923828" y="34.21875"/>
  <use xlink:href="#glyph2-9" x="378.725586" y="34.21875"/>
  <use xlink:href="#glyph2-10" x="382.730469" y="34.21875"/>
  <use xlink:href="#glyph2-11" x="391.532227" y="34.21875"/>
  <use xlink:href="#glyph2-7" x="397.136719" y="34.21875"/>
  <use xlink:href="#glyph2-12" x="405.938477" y="34.21875"/>
  <use xlink:href="#glyph2-5" x="414.740234" y="34.21875"/>
  <use xlink:href="#glyph2-4" x="418.745117" y="34.21875"/>
  <use xlink:href="#glyph2-13" x="426.754883" y="34.21875"/>
  <use xlink:href="#glyph2-9" x="431.551758" y="34.21875"/>
  <use xlink:href="#glyph2-16" x="435.556641" y="34.21875"/>
  <use xlink:href="#glyph2-2" x="443.566406" y="34.21875"/>
  <use xlink:href="#glyph2-17" x="447.571289" y="34.21875"/>
  <use xlink:href="#glyph2-14" x="456.373047" y="34.21875"/>
  <use xlink:href="#glyph2-18" x="469.179688" y="34.21875"/>
</g>
<g style="fill:rgb(0%,0%,0%);fill-opacity:1;">
  <use xlink:href="#glyph0-14" x="375.898438" y="485.057617"/>
  <use xlink:href="#glyph0-15" x="381.898438" y="485.057617"/>
  <use xlink:href="#glyph0-16" x="384.5625" y="485.057617"/>
  <use xlink:href="#glyph0-8" x="391.234375" y="485.057617"/>
  <use xlink:href="#glyph0-17" x="401.230469" y="485.057617"/>
</g>
<path style="fill:none;stroke-width:0.75;stroke-linecap:round;stroke-linejoin:round;stroke:rgb(0%,0%,0%);stroke-opacity:1;stroke-miterlimit:10;" d="M 264.960938 248.355469 L 257.960938 248.355469 "/>
<g style="fill:rgb(0%,0%,0%);fill-opacity:1;">
  <use xlink:href="#glyph1-6" x="264.737305" y="247.800781"/>
</g>
<path style="fill:none;stroke-width:0.75;stroke-linecap:round;stroke-linejoin:round;stroke:rgb(0%,0%,0%);stroke-opacity:1;stroke-miterlimit:10;" d="M 264.960938 241.246094 L 257.960938 241.246094 "/>
<g clip-path="url(#clip4)" clip-rule="nonzero">
<path style="fill:none;stroke-width:0.75;stroke-linecap:round;stroke-linejoin:round;stroke:rgb(0%,0%,100%);stroke-opacity:1;stroke-miterlimit:10;" d="M 307.828125 0 L 309.625 14.578125 L 313.078125 42.054688 L 316.53125 68.773438 L 317.109375 73.136719 L 319.988281 94.519531 L 323.441406 119.3125 L 326.894531 143.265625 L 330.347656 166.496094 L 331.5 174.097656 L 333.800781 189.109375 L 337.253906 211.148438 L 340.707031 232.628906 L 344.160156 253.546875 L 345.886719 263.796875 L 347.613281 273.90625 L 351.066406 293.730469 L 354.523438 313.042969 L 357.976562 331.875 L 360.277344 344.175781 L 361.429688 350.253906 L 364.882812 368.203125 L 368.335938 385.726562 L 371.789062 402.84375 L 374.667969 416.800781 L 375.242188 414.042969 L 378.695312 397.714844 L 382.148438 381.757812 L 385.601562 366.152344 L 389.058594 350.886719 L 392.511719 335.933594 L 395.964844 321.289062 L 399.417969 306.945312 L 402.871094 292.894531 L 403.445312 290.582031 L 406.324219 279.125 L 409.777344 265.632812 L 413.230469 252.402344 L 416.683594 239.429688 L 417.835938 235.160156 L 420.136719 226.703125 L 423.589844 214.210938 L 427.046875 201.953125 L 430.5 189.921875 L 432.226562 183.988281 L 433.953125 178.109375 L 437.40625 166.511719 L 440.859375 155.113281 L 444.3125 143.910156 L 446.613281 136.542969 L 447.765625 132.890625 L 451.21875 122.050781 L 454.671875 111.398438 L 458.125 100.941406 L 461.003906 92.378906 L 461.582031 90.683594 L 465.035156 80.621094 L 468.488281 70.707031 L 471.941406 60.894531 L 475.394531 51.128906 "/>
</g>
<path style="fill:none;stroke-width:0.75;stroke-linecap:round;stroke-linejoin:round;stroke:rgb(0%,0%,0%);stroke-opacity:1;stroke-miterlimit:10;" d="M 319.808594 73.136719 C 319.808594 76.734375 314.410156 76.734375 314.410156 73.136719 C 314.410156 69.535156 319.808594 69.535156 319.808594 73.136719 "/>
<path style="fill:none;stroke-width:0.75;stroke-linecap:round;stroke-linejoin:round;stroke:rgb(0%,0%,0%);stroke-opacity:1;stroke-miterlimit:10;" d="M 334.199219 174.097656 C 334.199219 177.695312 328.796875 177.695312 328.796875 174.097656 C 328.796875 170.496094 334.199219 170.496094 334.199219 174.097656 "/>
<path style="fill:none;stroke-width:0.75;stroke-linecap:round;stroke-linejoin:round;stroke:rgb(0%,0%,0%);stroke-opacity:1;stroke-miterlimit:10;" d="M 348.589844 263.796875 C 348.589844 267.394531 343.1875 267.394531 343.1875 263.796875 C 343.1875 260.195312 348.589844 260.195312 348.589844 263.796875 "/>
<path style="fill:none;stroke-width:0.75;stroke-linecap:round;stroke-linejoin:round;stroke:rgb(0%,0%,0%);stroke-opacity:1;stroke-miterlimit:10;" d="M 362.976562 344.175781 C 362.976562 347.777344 357.578125 347.777344 357.578125 344.175781 C 357.578125 340.578125 362.976562 340.578125 362.976562 344.175781 "/>
<path style="fill:none;stroke-width:0.75;stroke-linecap:round;stroke-linejoin:round;stroke:rgb(0%,0%,0%);stroke-opacity:1;stroke-miterlimit:10;" d="M 377.367188 416.800781 C 377.367188 420.398438 371.96875 420.398438 371.96875 416.800781 C 371.96875 413.199219 377.367188 413.199219 377.367188 416.800781 "/>
<path style="fill:none;stroke-width:0.75;stroke-linecap:round;stroke-linejoin:round;stroke:rgb(0%,0%,0%);stroke-opacity:1;stroke-miterlimit:10;" d="M 391.757812 350.886719 C 391.757812 354.484375 386.355469 354.484375 386.355469 350.886719 C 386.355469 347.285156 391.757812 347.285156 391.757812 350.886719 "/>
<path style="fill:none;stroke-width:0.75;stroke-linecap:round;stroke-linejoin:round;stroke:rgb(0%,0%,0%);stroke-opacity:1;stroke-miterlimit:10;" d="M 406.144531 290.582031 C 406.144531 294.179688 400.746094 294.179688 400.746094 290.582031 C 400.746094 286.980469 406.144531 286.980469 406.144531 290.582031 "/>
<path style="fill:none;stroke-width:0.75;stroke-linecap:round;stroke-linejoin:round;stroke:rgb(0%,0%,0%);stroke-opacity:1;stroke-miterlimit:10;" d="M 420.535156 235.160156 C 420.535156 238.761719 415.136719 238.761719 415.136719 235.160156 C 415.136719 231.5625 420.535156 231.5625 420.535156 235.160156 "/>
<path style="fill:none;stroke-width:0.75;stroke-linecap:round;stroke-linejoin:round;stroke:rgb(0%,0%,0%);stroke-opacity:1;stroke-miterlimit:10;" d="M 434.925781 183.988281 C 434.925781 187.589844 429.523438 187.589844 429.523438 183.988281 C 429.523438 180.390625 434.925781 180.390625 434.925781 183.988281 "/>
<path style="fill:none;stroke-width:0.75;stroke-linecap:round;stroke-linejoin:round;stroke:rgb(0%,0%,0%);stroke-opacity:1;stroke-miterlimit:10;" d="M 449.316406 136.542969 C 449.316406 140.144531 443.914062 140.144531 443.914062 136.542969 C 443.914062 132.941406 449.316406 132.941406 449.316406 136.542969 "/>
<path style="fill:none;stroke-width:0.75;stroke-linecap:round;stroke-linejoin:round;stroke:rgb(0%,0%,0%);stroke-opacity:1;stroke-miterlimit:10;" d="M 463.703125 92.378906 C 463.703125 95.980469 458.304688 95.980469 458.304688 92.378906 C 458.304688 88.78125 463.703125 88.78125 463.703125 92.378906 "/>
<g clip-path="url(#clip5)" clip-rule="nonzero">
<path style="fill:none;stroke-width:0.75;stroke-linecap:round;stroke-linejoin:round;stroke:rgb(0%,100%,0%);stroke-opacity:1;stroke-dasharray:3,3;stroke-miterlimit:10;" d="M 311.039062 416.800781 L 473.761719 416.800781 "/>
</g>
<g clip-path="url(#clip6)" clip-rule="nonzero">
<path style="fill:none;stroke-width:0.75;stroke-linecap:round;stroke-linejoin:round;stroke:rgb(0%,100%,0%);stroke-opacity:1;stroke-dasharray:3,3;stroke-miterlimit:10;" d="M 374.667969 430.558594 L 374.667969 59.039062 "/>
</g>
<path style="fill:none;stroke-width:0.75;stroke-linecap:round;stroke-linejoin:round;stroke:rgb(100%,0%,100%);stroke-opacity:1;stroke-dasharray:3,3;stroke-miterlimit:10;" d="M 319.261719 416.800781 L 319.261719 89.179688 "/>
<path style="fill:none;stroke-width:0.75;stroke-linecap:round;stroke-linejoin:round;stroke:rgb(100%,0%,100%);stroke-opacity:1;stroke-dasharray:3,3;stroke-miterlimit:10;" d="M 462.089844 416.800781 L 462.089844 89.179688 "/>
<path style="fill:none;stroke-width:0.75;stroke-linecap:round;stroke-linejoin:round;stroke:rgb(100%,0%,100%);stroke-opacity:1;stroke-dasharray:3,3;stroke-miterlimit:10;" d="M 319.261719 89.179688 L 462.089844 89.179688 "/>
<g style="fill:rgb(100%,0%,100%);fill-opacity:1;">
  <use xlink:href="#glyph0-10" x="362.167969" y="92.956055"/>
  <use xlink:href="#glyph0-10" x="368.839844" y="92.956055"/>
  <use xlink:href="#glyph0-11" x="375.511719" y="92.956055"/>
</g>
<path style="fill:none;stroke-width:0.75;stroke-linecap:round;stroke-linejoin:round;stroke:rgb(100%,0%,100%);stroke-opacity:1;stroke-dasharray:3,3;stroke-miterlimit:10;" d="M 330.5 416.800781 L 330.5 167.511719 "/>
<path style="fill:none;stroke-width:0.75;stroke-linecap:round;stroke-linejoin:round;stroke:rgb(100%,0%,100%);stroke-opacity:1;stroke-dasharray:3,3;stroke-miterlimit:10;" d="M 437.105469 416.800781 L 437.105469 167.511719 "/>
<path style="fill:none;stroke-width:0.75;stroke-linecap:round;stroke-linejoin:round;stroke:rgb(100%,0%,100%);stroke-opacity:1;stroke-dasharray:3,3;stroke-miterlimit:10;" d="M 330.5 167.511719 L 437.105469 167.511719 "/>
<g style="fill:rgb(100%,0%,100%);fill-opacity:1;">
  <use xlink:href="#glyph0-10" x="362.167969" y="171.288086"/>
  <use xlink:href="#glyph0-12" x="368.839844" y="171.288086"/>
  <use xlink:href="#glyph0-11" x="375.511719" y="171.288086"/>
</g>
<path style="fill:none;stroke-width:0.75;stroke-linecap:round;stroke-linejoin:round;stroke:rgb(100%,0%,100%);stroke-opacity:1;stroke-dasharray:3,3;stroke-miterlimit:10;" d="M 336.691406 416.800781 L 336.691406 207.589844 "/>
<path style="fill:none;stroke-width:0.75;stroke-linecap:round;stroke-linejoin:round;stroke:rgb(100%,0%,100%);stroke-opacity:1;stroke-dasharray:3,3;stroke-miterlimit:10;" d="M 425.449219 416.800781 L 425.449219 207.589844 "/>
<path style="fill:none;stroke-width:0.75;stroke-linecap:round;stroke-linejoin:round;stroke:rgb(100%,0%,100%);stroke-opacity:1;stroke-dasharray:3,3;stroke-miterlimit:10;" d="M 336.691406 207.589844 L 425.449219 207.589844 "/>
<g style="fill:rgb(100%,0%,100%);fill-opacity:1;">
  <use xlink:href="#glyph0-10" x="362.167969" y="211.366211"/>
  <use xlink:href="#glyph0-1" x="368.839844" y="211.366211"/>
  <use xlink:href="#glyph0-11" x="375.511719" y="211.366211"/>
</g>
<path style="fill:none;stroke-width:0.75;stroke-linecap:round;stroke-linejoin:round;stroke:rgb(100%,0%,100%);stroke-opacity:1;stroke-dasharray:3,3;stroke-miterlimit:10;" d="M 344.203125 416.800781 L 344.203125 253.800781 "/>
<path style="fill:none;stroke-width:0.75;stroke-linecap:round;stroke-linejoin:round;stroke:rgb(100%,0%,100%);stroke-opacity:1;stroke-dasharray:3,3;stroke-miterlimit:10;" d="M 412.863281 416.800781 L 412.863281 253.800781 "/>
<path style="fill:none;stroke-width:0.75;stroke-linecap:round;stroke-linejoin:round;stroke:rgb(100%,0%,100%);stroke-opacity:1;stroke-dasharray:3,3;stroke-miterlimit:10;" d="M 344.203125 253.800781 L 412.863281 253.800781 "/>
<g style="fill:rgb(100%,0%,100%);fill-opacity:1;">
  <use xlink:href="#glyph0-3" x="362.167969" y="257.577148"/>
  <use xlink:href="#glyph0-1" x="368.839844" y="257.577148"/>
  <use xlink:href="#glyph0-11" x="375.511719" y="257.577148"/>
</g>
<path style="fill:none;stroke-width:0.75;stroke-linecap:round;stroke-linejoin:round;stroke:rgb(100%,0%,100%);stroke-opacity:1;stroke-dasharray:3,3;stroke-miterlimit:10;" d="M 357.816406 416.800781 L 357.816406 331.011719 "/>
<path style="fill:none;stroke-width:0.75;stroke-linecap:round;stroke-linejoin:round;stroke:rgb(100%,0%,100%);stroke-opacity:1;stroke-dasharray:3,3;stroke-miterlimit:10;" d="M 393.664062 416.800781 L 393.664062 331.011719 "/>
<path style="fill:none;stroke-width:0.75;stroke-linecap:round;stroke-linejoin:round;stroke:rgb(100%,0%,100%);stroke-opacity:1;stroke-dasharray:3,3;stroke-miterlimit:10;" d="M 357.816406 331.011719 L 393.664062 331.011719 "/>
<g style="fill:rgb(100%,0%,100%);fill-opacity:1;">
  <use xlink:href="#glyph0-12" x="362.167969" y="334.788086"/>
  <use xlink:href="#glyph0-1" x="368.839844" y="334.788086"/>
  <use xlink:href="#glyph0-11" x="375.511719" y="334.788086"/>
</g>
</g>
</svg>
