<?xml version="1.0" encoding="UTF-8"?>
<svg xmlns="http://www.w3.org/2000/svg" xmlns:xlink="http://www.w3.org/1999/xlink" width="504pt" height="504pt" viewBox="0 0 504 504" version="1.1">
<defs>
<g>
<symbol overflow="visible" id="glyph0-0">
<path style="stroke:none;" d=""/>
</symbol>
<symbol overflow="visible" id="glyph0-1">
<path style="stroke:none;" d="M 6.21875 -4.21875 C 6.21875 -7.171875 5.140625 -8.765625 3.296875 -8.765625 C 1.46875 -8.765625 0.375 -7.15625 0.375 -4.296875 C 0.375 -1.421875 1.46875 0.1875 3.296875 0.1875 C 5.09375 0.1875 6.21875 -1.421875 6.21875 -4.21875 Z M 4.859375 -4.3125 C 4.859375 -1.90625 4.453125 -0.953125 3.28125 -0.953125 C 2.15625 -0.953125 1.734375 -1.953125 1.734375 -4.28125 C 1.734375 -6.609375 2.15625 -7.578125 3.296875 -7.578125 C 4.4375 -7.578125 4.859375 -6.59375 4.859375 -4.3125 Z M 4.859375 -4.3125 "/>
</symbol>
<symbol overflow="visible" id="glyph0-2">
<path style="stroke:none;" d="M 2.421875 -0.125 L 2.421875 -1.515625 L 0.90625 -1.515625 L 0.90625 0 L 2.421875 0 Z M 2.421875 -0.125 "/>
</symbol>
<symbol overflow="visible" id="glyph0-3">
<path style="stroke:none;" d="M 6.28125 -2.953125 C 6.28125 -4.625 5.046875 -5.875 3.40625 -5.875 C 2.8125 -5.875 2.21875 -5.671875 2.015625 -5.515625 L 2.28125 -7.28125 L 5.84375 -7.28125 L 5.84375 -8.59375 L 1.203125 -8.59375 L 0.515625 -3.875 L 1.71875 -3.875 C 2.25 -4.5 2.5625 -4.671875 3.21875 -4.671875 C 4.359375 -4.671875 4.9375 -4.0625 4.9375 -2.8125 C 4.9375 -1.578125 4.375 -1.015625 3.21875 -1.015625 C 2.296875 -1.015625 1.859375 -1.359375 1.578125 -2.453125 L 0.25 -2.453125 C 0.625 -0.625 1.734375 0.1875 3.234375 0.1875 C 4.953125 0.1875 6.28125 -1.15625 6.28125 -2.953125 Z M 6.28125 -2.953125 "/>
</symbol>
<symbol overflow="visible" id="glyph0-4">
<path style="stroke:none;" d="M 6.28125 -2.765625 C 6.28125 -4.359375 5.078125 -5.5625 3.546875 -5.5625 C 2.71875 -5.5625 1.9375 -5.203125 1.484375 -4.578125 L 1.734375 -4.46875 C 1.734375 -6.546875 2.28125 -7.578125 3.484375 -7.578125 C 4.234375 -7.578125 4.609375 -7.234375 4.796875 -6.28125 L 6.125 -6.28125 C 5.90625 -7.8125 4.859375 -8.765625 3.5625 -8.765625 C 1.578125 -8.765625 0.375 -6.96875 0.375 -4.015625 C 0.375 -1.359375 1.421875 0.1875 3.375 0.1875 C 4.984375 0.1875 6.28125 -1.109375 6.28125 -2.765625 Z M 4.9375 -2.6875 C 4.9375 -1.625 4.359375 -1.015625 3.390625 -1.015625 C 2.40625 -1.015625 1.78125 -1.65625 1.78125 -2.75 C 1.78125 -3.796875 2.375 -4.359375 3.421875 -4.359375 C 4.4375 -4.359375 4.9375 -3.828125 4.9375 -2.6875 Z M 4.9375 -2.6875 "/>
</symbol>
<symbol overflow="visible" id="glyph0-5">
<path style="stroke:none;" d="M 6.375 -7.578125 L 6.375 -8.59375 L 0.40625 -8.59375 L 0.40625 -7.28125 L 4.859375 -7.28125 C 3.34375 -5.375 2.109375 -2.796875 1.46875 0 L 2.890625 0 C 3.390625 -2.875 4.546875 -5.359375 6.375 -7.53125 Z M 6.375 -7.578125 "/>
</symbol>
<symbol overflow="visible" id="glyph0-6">
<path style="stroke:none;" d="M 6.28125 -2.53125 C 6.28125 -3.484375 5.671875 -4.265625 4.953125 -4.625 C 5.65625 -5.046875 5.984375 -5.5625 5.984375 -6.375 C 5.984375 -7.703125 4.8125 -8.765625 3.296875 -8.765625 C 1.796875 -8.765625 0.59375 -7.703125 0.59375 -6.375 C 0.59375 -5.578125 0.921875 -5.046875 1.625 -4.625 C 0.921875 -4.265625 0.296875 -3.484375 0.296875 -2.546875 C 0.296875 -0.984375 1.625 0.1875 3.296875 0.1875 C 4.984375 0.1875 6.28125 -0.984375 6.28125 -2.53125 Z M 4.625 -6.34375 C 4.625 -5.5625 4.1875 -5.15625 3.296875 -5.15625 C 2.40625 -5.15625 1.953125 -5.5625 1.953125 -6.359375 C 1.953125 -7.171875 2.40625 -7.578125 3.296875 -7.578125 C 4.203125 -7.578125 4.625 -7.171875 4.625 -6.34375 Z M 4.9375 -2.515625 C 4.9375 -1.515625 4.359375 -1.015625 3.28125 -1.015625 C 2.25 -1.015625 1.65625 -1.53125 1.65625 -2.515625 C 1.65625 -3.515625 2.25 -4.015625 3.296875 -4.015625 C 4.359375 -4.015625 4.9375 -3.515625 4.9375 -2.515625 Z M 4.9375 -2.515625 "/>
</symbol>
<symbol overflow="visible" id="glyph0-7">
<path style="stroke:none;" d="M 6.546875 -0.15625 L 6.546875 -1.078125 C 6.3125 -1.015625 6.265625 -1.015625 6.203125 -1.015625 C 5.859375 -1.015625 5.796875 -1.0625 5.796875 -1.375 L 5.796875 -4.890625 C 5.796875 -6 4.84375 -6.734375 3.296875 -6.734375 C 1.78125 -6.734375 0.703125 -6.015625 0.640625 -4.421875 L 1.90625 -4.421875 C 2 -5.328125 2.328125 -5.546875 3.265625 -5.546875 C 4.15625 -5.546875 4.53125 -5.34375 4.53125 -4.734375 L 4.53125 -4.46875 C 4.53125 -4.0625 4.421875 -4.015625 3.625 -3.90625 C 2.203125 -3.734375 1.984375 -3.6875 1.609375 -3.53125 C 0.875 -3.234375 0.359375 -2.53125 0.359375 -1.765625 C 0.359375 -0.625 1.296875 0.1875 2.5625 0.1875 C 3.375 0.1875 4.25 -0.1875 4.625 -0.59375 C 4.671875 -0.390625 5.25 0.078125 5.734375 0.078125 C 5.9375 0.078125 6.09375 0.0625 6.546875 -0.046875 Z M 4.53125 -2.296875 C 4.53125 -1.40625 3.75 -0.953125 2.78125 -0.953125 C 2 -0.953125 1.6875 -1.109375 1.6875 -1.78125 C 1.6875 -2.453125 1.984375 -2.609375 3.0625 -2.765625 C 4.109375 -2.90625 4.328125 -2.953125 4.53125 -3.03125 Z M 4.53125 -2.296875 "/>
</symbol>
<symbol overflow="visible" id="glyph0-8">
<path style="stroke:none;" d="M 1.9375 -0.125 L 1.9375 -9.015625 L 0.671875 -9.015625 L 0.671875 0 L 1.9375 0 Z M 1.9375 -0.125 "/>
</symbol>
<symbol overflow="visible" id="glyph0-9">
<path style="stroke:none;" d="M 6.40625 -3.21875 C 6.40625 -5.328125 5.25 -6.734375 3.578125 -6.734375 C 2.71875 -6.734375 1.9375 -6.3125 1.46875 -5.5625 L 1.703125 -5.46875 L 1.703125 -6.546875 L 0.515625 -6.546875 L 0.515625 2.609375 L 1.78125 2.609375 L 1.78125 -0.890625 L 1.546875 -0.796875 C 2.078125 -0.140625 2.765625 0.1875 3.59375 0.1875 C 5.203125 0.1875 6.40625 -1.21875 6.40625 -3.21875 Z M 5.09375 -3.234375 C 5.09375 -1.8125 4.5 -1.015625 3.40625 -1.015625 C 2.359375 -1.015625 1.78125 -1.75 1.78125 -3.234375 C 1.78125 -4.703125 2.359375 -5.53125 3.40625 -5.53125 C 4.515625 -5.53125 5.09375 -4.734375 5.09375 -3.234375 Z M 5.09375 -3.234375 "/>
</symbol>
<symbol overflow="visible" id="glyph0-10">
<path style="stroke:none;" d="M 5.96875 -0.125 L 5.96875 -4.890625 C 5.96875 -5.9375 5.078125 -6.734375 3.859375 -6.734375 C 2.96875 -6.734375 2.3125 -6.421875 1.734375 -5.65625 L 1.96875 -5.5625 L 1.96875 -9.015625 L 0.703125 -9.015625 L 0.703125 0 L 1.96875 0 L 1.96875 -3.59375 C 1.96875 -4.890625 2.515625 -5.59375 3.546875 -5.59375 C 4.25 -5.59375 4.6875 -5.3125 4.6875 -4.484375 L 4.6875 0 L 5.96875 0 Z M 5.96875 -0.125 "/>
</symbol>
<symbol overflow="visible" id="glyph0-11">
<path style="stroke:none;" d="M 6.234375 -4.578125 C 6.234375 -7.25 5.1875 -8.765625 3.234375 -8.765625 C 1.625 -8.765625 0.3125 -7.484375 0.3125 -5.8125 C 0.3125 -4.234375 1.53125 -3.03125 3.078125 -3.03125 C 3.875 -3.03125 4.5625 -3.359375 5.109375 -4.015625 L 4.875 -4.109375 C 4.859375 -2.046875 4.328125 -1.015625 3.125 -1.015625 C 2.375 -1.015625 1.984375 -1.359375 1.796875 -2.296875 L 0.46875 -2.296875 C 0.703125 -0.78125 1.75 0.1875 3.046875 0.1875 C 5.046875 0.1875 6.234375 -1.640625 6.234375 -4.578125 Z M 4.8125 -5.84375 C 4.8125 -4.796875 4.21875 -4.234375 3.1875 -4.234375 C 2.171875 -4.234375 1.671875 -4.765625 1.671875 -5.90625 C 1.671875 -6.984375 2.25 -7.578125 3.234375 -7.578125 C 4.21875 -7.578125 4.8125 -6.953125 4.8125 -5.84375 Z M 4.8125 -5.84375 "/>
</symbol>
<symbol overflow="visible" id="glyph0-12">
<path style="stroke:none;" d="M 4.578125 -6.28125 C 4.578125 -7.4375 3.546875 -8.484375 2.390625 -8.484375 C 1.265625 -8.484375 0.203125 -7.421875 0.203125 -6.296875 C 0.203125 -5.171875 1.265625 -4.109375 2.40625 -4.109375 C 3.515625 -4.109375 4.578125 -5.171875 4.578125 -6.28125 Z M 3.46875 -6.28125 C 3.46875 -5.625 3.0625 -5.21875 2.40625 -5.21875 C 1.734375 -5.21875 1.3125 -5.640625 1.3125 -6.296875 C 1.3125 -6.96875 1.734375 -7.375 2.390625 -7.375 C 3.078125 -7.375 3.46875 -6.96875 3.46875 -6.28125 Z M 8.09375 -8.765625 L 7.21875 -8.765625 L 2.34375 0.234375 L 3.4375 0.234375 L 8.3125 -8.765625 Z M 10.4375 -1.9375 C 10.4375 -3.078125 9.40625 -4.125 8.25 -4.125 C 7.140625 -4.125 6.078125 -3.078125 6.078125 -1.953125 C 6.078125 -0.828125 7.140625 0.234375 8.265625 0.234375 C 9.375 0.234375 10.4375 -0.828125 10.4375 -1.9375 Z M 9.34375 -1.9375 C 9.34375 -1.28125 8.921875 -0.875 8.265625 -0.875 C 7.59375 -0.875 7.171875 -1.28125 7.171875 -1.953125 C 7.171875 -2.609375 7.59375 -3.03125 8.25 -3.03125 C 8.9375 -3.03125 9.34375 -2.609375 9.34375 -1.9375 Z M 9.34375 -1.9375 "/>
</symbol>
<symbol overflow="visible" id="glyph0-13">
<path style="stroke:none;" d="M 6.203125 -2.609375 C 6.203125 -3.640625 5.65625 -4.375 4.625 -4.71875 L 4.625 -4.453125 C 5.421875 -4.765625 5.953125 -5.453125 5.953125 -6.296875 C 5.953125 -7.765625 4.84375 -8.765625 3.234375 -8.765625 C 1.515625 -8.765625 0.453125 -7.703125 0.421875 -5.765625 L 1.75 -5.765625 C 1.78125 -7.15625 2.15625 -7.578125 3.234375 -7.578125 C 4.171875 -7.578125 4.59375 -7.15625 4.59375 -6.265625 C 4.59375 -5.359375 4.34375 -5.109375 2.515625 -5.109375 L 2.515625 -3.953125 L 3.234375 -3.953125 C 4.390625 -3.953125 4.84375 -3.546875 4.84375 -2.59375 C 4.84375 -1.53125 4.328125 -1.015625 3.234375 -1.015625 C 2.078125 -1.015625 1.640625 -1.46875 1.5625 -2.828125 L 0.234375 -2.828125 C 0.375 -0.796875 1.453125 0.1875 3.1875 0.1875 C 4.9375 0.1875 6.203125 -1 6.203125 -2.609375 Z M 6.203125 -2.609375 "/>
</symbol>
<symbol overflow="visible" id="glyph0-14">
<path style="stroke:none;" d="M 6.375 -2.171875 L 6.375 -3.25 L 5.109375 -3.25 L 5.109375 -8.765625 L 4.125 -8.765625 L 0.1875 -3.328125 L 0.1875 -2.046875 L 3.78125 -2.046875 L 3.78125 0 L 5.109375 0 L 5.109375 -2.046875 L 6.375 -2.046875 Z M 3.921875 -3.25 L 1.515625 -3.25 L 4.015625 -6.75 L 3.78125 -6.84375 L 3.78125 -3.25 Z M 3.921875 -3.25 "/>
</symbol>
<symbol overflow="visible" id="glyph0-15">
<path style="stroke:none;" d="M 6.40625 -3.34375 C 6.40625 -5.390625 5.25 -6.734375 3.59375 -6.734375 C 2.71875 -6.734375 2 -6.375 1.53125 -5.65625 L 1.78125 -5.5625 L 1.78125 -9.015625 L 0.5 -9.015625 L 0.5 0 L 1.6875 0 L 1.6875 -1.03125 L 1.4375 -0.9375 C 1.921875 -0.203125 2.65625 0.1875 3.546875 0.1875 C 5.203125 0.1875 6.40625 -1.3125 6.40625 -3.34375 Z M 5.09375 -3.28125 C 5.09375 -1.859375 4.484375 -1.015625 3.390625 -1.015625 C 2.34375 -1.015625 1.78125 -1.84375 1.78125 -3.28125 C 1.78125 -4.75 2.34375 -5.578125 3.390625 -5.53125 C 4.515625 -5.53125 5.09375 -4.6875 5.09375 -3.28125 Z M 5.09375 -3.28125 "/>
</symbol>
<symbol overflow="visible" id="glyph0-16">
<path style="stroke:none;" d="M 6.28125 -2.984375 C 6.28125 -3.90625 6.21875 -4.46875 6.03125 -4.9375 C 5.625 -5.96875 4.53125 -6.734375 3.359375 -6.734375 C 1.609375 -6.734375 0.34375 -5.296875 0.34375 -3.234375 C 0.34375 -1.171875 1.578125 0.1875 3.34375 0.1875 C 4.78125 0.1875 5.90625 -0.765625 6.1875 -2.171875 L 4.921875 -2.171875 C 4.59375 -1.21875 4.171875 -1.015625 3.375 -1.015625 C 2.328125 -1.015625 1.6875 -1.546875 1.65625 -2.859375 L 6.28125 -2.859375 Z M 5.1875 -3.78125 C 5.1875 -3.78125 4.984375 -3.921875 4.984375 -3.9375 L 1.6875 -3.9375 C 1.765625 -4.921875 2.34375 -5.546875 3.34375 -5.546875 C 4.328125 -5.546875 4.9375 -4.859375 4.9375 -3.875 Z M 5.1875 -3.78125 "/>
</symbol>
<symbol overflow="visible" id="glyph0-17">
<path style="stroke:none;" d="M 3.1875 -0.125 L 3.1875 -1.15625 C 2.921875 -1.0625 2.765625 -1.0625 2.5625 -1.0625 C 2.140625 -1.0625 2.140625 -1.046875 2.140625 -1.484375 L 2.140625 -5.46875 L 3.1875 -5.46875 L 3.1875 -6.546875 L 2.140625 -6.546875 L 2.140625 -8.28125 L 0.875 -8.28125 L 0.875 -6.546875 L 0.03125 -6.546875 L 0.03125 -5.46875 L 0.875 -5.46875 L 0.875 -1.046875 C 0.875 -0.40625 1.453125 0.078125 2.234375 0.078125 C 2.46875 0.078125 2.71875 0.0625 3.1875 -0.03125 Z M 3.1875 -0.125 "/>
</symbol>
<symbol overflow="visible" id="glyph1-0">
<path style="stroke:none;" d=""/>
</symbol>
<symbol overflow="visible" id="glyph1-1">
<path style="stroke:none;" d="M -4.21875 -6.21875 C -7.171875 -6.21875 -8.765625 -5.140625 -8.765625 -3.296875 C -8.765625 -1.46875 -7.15625 -0.375 -4.296875 -0.375 C -1.421875 -0.375 0.1875 -1.46875 0.1875 -3.296875 C 0.1875 -5.09375 -1.421875 -6.21875 -4.21875 -6.21875 Z M -4.3125 -4.859375 C -1.90625 -4.859375 -0.953125 -4.453125 -0.953125 -3.28125 C -0.953125 -2.15625 -1.953125 -1.734375 -4.28125 -1.734375 C -6.609375 -1.734375 -7.578125 -2.15625 -7.578125 -3.296875 C -7.578125 -4.4375 -6.59375 -4.859375 -4.3125 -4.859375 Z M -4.3125 -4.859375 "/>
</symbol>
<symbol overflow="visible" id="glyph1-2">
<path style="stroke:none;" d="M -0.125 -2.421875 L -1.515625 -2.421875 L -1.515625 -0.90625 L 0 -0.90625 L 0 -2.421875 Z M -0.125 -2.421875 "/>
</symbol>
<symbol overflow="visible" id="glyph1-3">
<path style="stroke:none;" d="M -2.953125 -6.28125 C -4.625 -6.28125 -5.875 -5.046875 -5.875 -3.40625 C -5.875 -2.8125 -5.671875 -2.21875 -5.515625 -2.015625 L -7.28125 -2.28125 L -7.28125 -5.84375 L -8.59375 -5.84375 L -8.59375 -1.203125 L -3.875 -0.515625 L -3.875 -1.71875 C -4.5 -2.25 -4.671875 -2.5625 -4.671875 -3.21875 C -4.671875 -4.359375 -4.0625 -4.9375 -2.8125 -4.9375 C -1.578125 -4.9375 -1.015625 -4.375 -1.015625 -3.21875 C -1.015625 -2.296875 -1.359375 -1.859375 -2.453125 -1.578125 L -2.453125 -0.25 C -0.625 -0.625 0.1875 -1.734375 0.1875 -3.234375 C 0.1875 -4.953125 -1.15625 -6.28125 -2.953125 -6.28125 Z M -2.953125 -6.28125 "/>
</symbol>
<symbol overflow="visible" id="glyph1-4">
<path style="stroke:none;" d="M -0.125 -4.296875 L -8.765625 -4.296875 L -8.765625 -3.359375 C -7.328125 -2.953125 -7.28125 -2.859375 -7.0625 -1.078125 L -6.0625 -1.078125 L -6.0625 -2.96875 L 0 -2.96875 L 0 -4.296875 Z M -0.125 -4.296875 "/>
</symbol>
<symbol overflow="visible" id="glyph1-5">
<path style="stroke:none;" d="M -6.140625 -6.265625 C -7.578125 -6.265625 -8.765625 -5.015625 -8.765625 -3.40625 C -8.765625 -1.671875 -7.75 -0.515625 -5.5625 -0.453125 L -5.5625 -1.78125 C -7.109375 -1.875 -7.578125 -2.328125 -7.578125 -3.375 C -7.578125 -4.328125 -7.03125 -4.90625 -6.125 -4.90625 C -5.453125 -4.90625 -4.96875 -4.546875 -4.53125 -3.796875 L -3.90625 -2.6875 C -2.90625 -0.90625 -2 -0.359375 0 -0.25 L 0 -6.203125 L -1.3125 -6.203125 L -1.3125 -1.75 C -1.875 -1.84375 -2.21875 -2.1875 -2.828125 -3.234375 L -3.484375 -4.421875 C -4.109375 -5.609375 -5.09375 -6.265625 -6.140625 -6.265625 Z M -6.140625 -6.265625 "/>
</symbol>
<symbol overflow="visible" id="glyph1-6">
<path style="stroke:none;" d="M -0.125 -5.609375 L -1.140625 -5.609375 L -1.140625 -1.875 L -5.484375 -5.453125 L -6.546875 -5.453125 L -6.546875 -0.484375 L -5.40625 -0.484375 L -5.40625 -3.828125 L -1.078125 -0.234375 L 0 -0.234375 L 0 -5.609375 Z M -0.125 -5.609375 "/>
</symbol>
<symbol overflow="visible" id="glyph2-0">
<path style="stroke:none;" d=""/>
</symbol>
<symbol overflow="visible" id="glyph2-1">
<path style="stroke:none;" d="M 8.40625 -0.125 L 8.40625 -2.078125 L 3.390625 -2.078125 L 3.390625 -10.78125 L 1.0625 -10.78125 L 1.0625 0 L 8.40625 0 Z M 8.40625 -0.125 "/>
</symbol>
<symbol overflow="visible" id="glyph2-2">
<path style="stroke:none;" d="M 3.046875 -0.125 L 3.046875 -8.046875 L 0.875 -8.046875 L 0.875 0 L 3.046875 0 Z M 3.078125 -8.84375 L 3.078125 -11 L 0.90625 -11 L 0.90625 -8.71875 L 3.078125 -8.71875 Z M 3.078125 -8.84375 "/>
</symbol>
<symbol overflow="visible" id="glyph2-3">
<path style="stroke:none;" d="M 7.9375 -0.234375 L 5.171875 -4.953125 L 7.96875 -8.046875 L 5.390625 -8.046875 L 2.9375 -5.140625 L 2.9375 -10.78125 L 0.765625 -10.78125 L 0.765625 0 L 2.9375 0 L 2.9375 -2.609375 L 3.65625 -3.390625 L 5.484375 0 L 8.078125 0 Z M 7.9375 -0.234375 "/>
</symbol>
<symbol overflow="visible" id="glyph2-4">
<path style="stroke:none;" d="M 7.640625 -3.734375 C 7.640625 -6.40625 6.203125 -8.1875 3.921875 -8.1875 C 1.6875 -8.1875 0.234375 -6.53125 0.234375 -3.921875 C 0.234375 -1.421875 1.671875 0.125 3.875 0.125 C 5.625 0.125 7.109375 -0.796875 7.59375 -2.46875 L 5.453125 -2.46875 C 5.234375 -1.703125 4.6875 -1.6875 3.953125 -1.6875 C 3 -1.6875 2.46875 -1.96875 2.40625 -3.359375 L 7.609375 -3.359375 Z M 5.453125 -4.96875 L 2.453125 -4.96875 C 2.5625 -5.90625 3 -6.375 3.890625 -6.375 C 4.75 -6.375 5.265625 -5.9375 5.359375 -4.96875 Z M 5.453125 -4.96875 "/>
</symbol>
<symbol overflow="visible" id="glyph2-5">
<path style="stroke:none;" d="M 3.046875 -0.125 L 3.046875 -10.78125 L 0.875 -10.78125 L 0.875 0 L 3.046875 0 Z M 3.046875 -0.125 "/>
</symbol>
<symbol overflow="visible" id="glyph2-6">
<path style="stroke:none;" d="M 7.859375 -0.125 L 7.859375 -5.34375 C 7.859375 -7.15625 6.734375 -8.1875 5.265625 -8.1875 C 4.265625 -8.1875 3.484375 -7.734375 3.046875 -7.09375 L 3.046875 -10.78125 L 0.875 -10.78125 L 0.875 0 L 3.046875 0 L 3.046875 -4.796875 C 3.046875 -5.6875 3.625 -6.1875 4.53125 -6.1875 C 5.265625 -6.1875 5.6875 -5.9375 5.6875 -4.890625 L 5.6875 0 L 7.859375 0 Z M 7.859375 -0.125 "/>
</symbol>
<symbol overflow="visible" id="glyph2-7">
<path style="stroke:none;" d="M 8.265625 -3.96875 C 8.265625 -6.59375 6.765625 -8.1875 4.34375 -8.1875 C 1.953125 -8.1875 0.421875 -6.5625 0.421875 -4.015625 C 0.421875 -1.453125 1.953125 0.125 4.34375 0.125 C 6.71875 0.125 8.265625 -1.46875 8.265625 -3.96875 Z M 6.09375 -3.984375 C 6.09375 -2.53125 5.4375 -1.765625 4.34375 -1.765625 C 3.25 -1.765625 2.59375 -2.53125 2.59375 -4.015625 C 2.59375 -5.5 3.25 -6.28125 4.34375 -6.28125 C 5.453125 -6.28125 6.09375 -5.515625 6.09375 -3.984375 Z M 6.09375 -3.984375 "/>
</symbol>
<symbol overflow="visible" id="glyph2-8">
<path style="stroke:none;" d="M 7.921875 -0.125 L 7.921875 -10.78125 L 5.75 -10.78125 L 5.75 -7.21875 C 5.375 -7.78125 4.65625 -8.1875 3.6875 -8.1875 C 1.828125 -8.1875 0.328125 -6.359375 0.328125 -4 C 0.328125 -1.796875 1.625 0.125 3.6875 0.125 C 4.65625 0.125 5.375 -0.265625 5.75 -0.75 L 5.75 0 L 7.921875 0 Z M 5.75 -3.96875 C 5.75 -2.5625 5.140625 -1.828125 4.140625 -1.828125 C 3.125 -1.828125 2.5 -2.578125 2.5 -4 C 2.5 -5.453125 3.125 -6.21875 4.140625 -6.21875 C 5.15625 -6.21875 5.75 -5.453125 5.75 -3.96875 Z M 5.75 -3.96875 "/>
</symbol>
<symbol overflow="visible" id="glyph2-9">
<path style="stroke:none;" d=""/>
</symbol>
<symbol overflow="visible" id="glyph2-10">
<path style="stroke:none;" d="M 8.34375 -4.015625 C 8.34375 -6.328125 7.046875 -8.1875 5.015625 -8.1875 C 4.03125 -8.1875 3.28125 -7.71875 2.796875 -6.859375 L 2.921875 -6.75 L 2.921875 -8.046875 L 0.75 -8.046875 L 0.75 3.140625 L 2.921875 3.140625 L 2.921875 -1.171875 L 2.796875 -1.0625 C 3.28125 -0.203125 4.03125 0.125 5.015625 0.125 C 6.890625 0.125 8.34375 -1.65625 8.34375 -4.015625 Z M 6.171875 -3.984375 C 6.171875 -2.578125 5.546875 -1.828125 4.546875 -1.828125 C 3.546875 -1.828125 2.921875 -2.5625 2.921875 -4.015625 C 2.921875 -5.46875 3.546875 -6.21875 4.546875 -6.21875 C 5.578125 -6.21875 6.171875 -5.46875 6.171875 -3.984375 Z M 6.171875 -3.984375 "/>
</symbol>
<symbol overflow="visible" id="glyph2-11">
<path style="stroke:none;" d="M 5.40625 -5.984375 L 5.40625 -8.15625 C 5.21875 -8.1875 5.140625 -8.1875 5.078125 -8.1875 C 4.15625 -8.1875 3.265625 -7.375 2.84375 -6.328125 L 3 -6.375 L 3 -8.046875 L 0.828125 -8.046875 L 0.828125 0 L 3 0 L 3 -4.265625 C 3 -5.453125 3.515625 -5.90625 4.703125 -5.90625 C 4.90625 -5.90625 5.0625 -5.890625 5.40625 -5.828125 Z M 5.40625 -5.984375 "/>
</symbol>
<symbol overflow="visible" id="glyph2-12">
<path style="stroke:none;" d="M 4.578125 -6.40625 L 4.578125 -7.890625 L 3.390625 -7.890625 L 3.390625 -8.515625 C 3.390625 -8.921875 3.484375 -8.984375 3.859375 -8.984375 C 4.03125 -8.984375 4.265625 -8.96875 4.515625 -8.9375 L 4.515625 -10.734375 C 4.0625 -10.765625 3.5625 -10.78125 3.28125 -10.78125 C 1.9375 -10.78125 1.203125 -10 1.203125 -8.6875 L 1.203125 -7.890625 L 0.109375 -7.890625 L 0.109375 -6.28125 L 1.203125 -6.28125 L 1.203125 0 L 3.390625 0 L 3.390625 -6.28125 L 4.578125 -6.28125 Z M 7.84375 -0.125 L 7.84375 -8.046875 L 5.671875 -8.046875 L 5.671875 0 L 7.84375 0 Z M 7.84375 -8.84375 L 7.84375 -11 L 5.671875 -11 L 5.671875 -8.71875 L 7.84375 -8.71875 Z M 7.84375 -8.84375 "/>
</symbol>
<symbol overflow="visible" id="glyph2-13">
<path style="stroke:none;" d="M 3.5625 -0.125 L 3.5625 -2.375 L 1.234375 -2.375 L 1.234375 0 L 3.5625 0 Z M 3.5625 -5.515625 L 3.5625 -7.765625 L 1.234375 -7.765625 L 1.234375 -5.390625 L 3.5625 -5.390625 Z M 3.5625 -5.515625 "/>
</symbol>
<symbol overflow="visible" id="glyph2-14">
<path style="stroke:none;" d="M 7.625 -0.125 L 7.625 -0.46875 C 7.234375 -0.8125 7.15625 -0.921875 7.15625 -1.328125 L 7.15625 -5.640625 C 7.15625 -7.234375 6 -8.1875 3.90625 -8.1875 C 1.796875 -8.1875 0.625 -7.09375 0.484375 -5.21875 L 2.578125 -5.21875 C 2.6875 -6.15625 2.953125 -6.28125 3.953125 -6.28125 C 4.71875 -6.28125 5.03125 -6.15625 5.03125 -5.640625 C 5.03125 -4.8125 4.515625 -5.046875 3.5 -4.875 L 2.6875 -4.71875 C 1.15625 -4.453125 0.3125 -3.640625 0.3125 -2.234375 C 0.3125 -0.71875 1.46875 0.125 2.765625 0.125 C 3.625 0.125 4.46875 -0.28125 5.046875 -0.875 C 5.046875 -0.703125 5.109375 -0.265625 5.328125 0 L 7.625 0 Z M 5.03125 -3.453125 C 5.03125 -2.296875 4.53125 -1.765625 3.515625 -1.765625 C 2.84375 -1.765625 2.5 -1.890625 2.5 -2.46875 C 2.5 -3.046875 2.734375 -3.140625 3.578125 -3.296875 L 4.265625 -3.421875 C 4.796875 -3.53125 4.921875 -3.59375 5.03125 -3.640625 Z M 5.03125 -3.453125 "/>
</symbol>
<symbol overflow="visible" id="glyph2-15">
<path style="stroke:none;" d="M 8.359375 -3.921875 C 8.359375 -6.125 7.0625 -8.1875 5.015625 -8.1875 C 4.046875 -8.1875 3.296875 -7.78125 2.9375 -7.21875 L 2.9375 -10.78125 L 0.765625 -10.78125 L 0.765625 0 L 2.9375 0 L 2.9375 -0.75 C 3.296875 -0.265625 4.03125 0.125 5.015625 0.125 C 6.875 0.125 8.359375 -1.5625 8.359375 -3.921875 Z M 6.1875 -4 C 6.1875 -2.59375 5.5625 -1.828125 4.5625 -1.828125 C 3.546875 -1.828125 2.9375 -2.5625 2.9375 -4.046875 C 2.9375 -5.453125 3.5625 -6.21875 4.5625 -6.21875 C 5.5625 -6.21875 6.1875 -5.453125 6.1875 -4 Z M 6.1875 -4 "/>
</symbol>
<symbol overflow="visible" id="glyph2-16">
<path style="stroke:none;" d="M 4.40625 -0.125 L 4.40625 -1.703125 C 4.140625 -1.65625 4.015625 -1.640625 3.875 -1.640625 C 3.34375 -1.640625 3.28125 -1.65625 3.28125 -2.34375 L 3.28125 -6.28125 L 4.40625 -6.28125 L 4.40625 -7.890625 L 3.28125 -7.890625 L 3.28125 -9.984375 L 1.109375 -9.984375 L 1.109375 -7.890625 L 0.109375 -7.890625 L 0.109375 -6.28125 L 1.109375 -6.28125 L 1.109375 -1.796875 C 1.109375 -0.578125 1.84375 0.0625 3.171875 0.0625 C 3.609375 0.0625 3.96875 0.015625 4.40625 0 Z M 4.40625 -0.125 "/>
</symbol>
</g>
<clipPath id="clip1">
  <path d="M 59.039062 59.039062 L 222.757812 59.039062 L 222.757812 418 L 59.039062 418 Z M 59.039062 59.039062 "/>
</clipPath>
<clipPath id="clip2">
  <path d="M 59.039062 416 L 222.757812 416 L 222.757812 418 L 59.039062 418 Z M 59.039062 416 "/>
</clipPath>
<clipPath id="clip3">
  <path d="M 133 59.039062 L 134 59.039062 L 134 431 L 133 431 Z M 133 59.039062 "/>
</clipPath>
<clipPath id="clip4">
  <path d="M 311.039062 59.039062 L 474.757812 59.039062 L 474.757812 418 L 311.039062 418 Z M 311.039062 59.039062 "/>
</clipPath>
<clipPath id="clip5">
  <path d="M 311.039062 416 L 474.757812 416 L 474.757812 418 L 311.039062 418 Z M 311.039062 416 "/>
</clipPath>
<clipPath id="clip6">
  <path d="M 383 59.039062 L 385 59.039062 L 385 431 L 383 431 Z M 383 59.039062 "/>
</clipPath>
</defs>
<g id="surface18291">
<rect x="0" y="0" width="504" height="504" style="fill:rgb(100%,100%,100%);fill-opacity:1;stroke:none;"/>
<path style="fill:none;stroke-width:0.75;stroke-linecap:round;stroke-linejoin:round;stroke:rgb(0%,0%,0%);stroke-opacity:1;stroke-miterlimit:10;" d="M 72.121094 430.558594 L 200.457031 430.558594 "/>
<path style="fill:none;stroke-width:0.75;stroke-linecap:round;stroke-linejoin:round;stroke:rgb(0%,0%,0%);stroke-opacity:1;stroke-miterlimit:10;" d="M 72.121094 430.558594 L 72.121094 437.761719 "/>
<path style="fill:none;stroke-width:0.75;stroke-linecap:round;stroke-linejoin:round;stroke:rgb(0%,0%,0%);stroke-opacity:1;stroke-miterlimit:10;" d="M 93.511719 430.558594 L 93.511719 437.761719 "/>
<path style="fill:none;stroke-width:0.75;stroke-linecap:round;stroke-linejoin:round;stroke:rgb(0%,0%,0%);stroke-opacity:1;stroke-miterlimit:10;" d="M 114.902344 430.558594 L 114.902344 437.761719 "/>
<path style="fill:none;stroke-width:0.75;stroke-linecap:round;stroke-linejoin:round;stroke:rgb(0%,0%,0%);stroke-opacity:1;stroke-miterlimit:10;" d="M 136.289062 430.558594 L 136.289062 437.761719 "/>
<path style="fill:none;stroke-width:0.75;stroke-linecap:round;stroke-linejoin:round;stroke:rgb(0%,0%,0%);stroke-opacity:1;stroke-miterlimit:10;" d="M 157.679688 430.558594 L 157.679688 437.761719 "/>
<path style="fill:none;stroke-width:0.75;stroke-linecap:round;stroke-linejoin:round;stroke:rgb(0%,0%,0%);stroke-opacity:1;stroke-miterlimit:10;" d="M 179.070312 430.558594 L 179.070312 437.761719 "/>
<path style="fill:none;stroke-width:0.75;stroke-linecap:round;stroke-linejoin:round;stroke:rgb(0%,0%,0%);stroke-opacity:1;stroke-miterlimit:10;" d="M 200.457031 430.558594 L 200.457031 437.761719 "/>
<g style="fill:rgb(0%,0%,0%);fill-opacity:1;">
  <use xlink:href="#glyph0-1" x="60.121094" y="456.256836"/>
  <use xlink:href="#glyph0-2" x="66.792969" y="456.256836"/>
  <use xlink:href="#glyph0-3" x="70.128906" y="456.256836"/>
  <use xlink:href="#glyph0-3" x="76.800781" y="456.256836"/>
</g>
<g style="fill:rgb(0%,0%,0%);fill-opacity:1;">
  <use xlink:href="#glyph0-1" x="102.902344" y="456.256836"/>
  <use xlink:href="#glyph0-2" x="109.574219" y="456.256836"/>
  <use xlink:href="#glyph0-4" x="112.910156" y="456.256836"/>
  <use xlink:href="#glyph0-3" x="119.582031" y="456.256836"/>
</g>
<g style="fill:rgb(0%,0%,0%);fill-opacity:1;">
  <use xlink:href="#glyph0-1" x="145.679688" y="456.256836"/>
  <use xlink:href="#glyph0-2" x="152.351562" y="456.256836"/>
  <use xlink:href="#glyph0-5" x="155.6875" y="456.256836"/>
  <use xlink:href="#glyph0-3" x="162.359375" y="456.256836"/>
</g>
<g style="fill:rgb(0%,0%,0%);fill-opacity:1;">
  <use xlink:href="#glyph0-1" x="188.457031" y="456.256836"/>
  <use xlink:href="#glyph0-2" x="195.128906" y="456.256836"/>
  <use xlink:href="#glyph0-6" x="198.464844" y="456.256836"/>
  <use xlink:href="#glyph0-3" x="205.136719" y="456.256836"/>
</g>
<path style="fill:none;stroke-width:0.75;stroke-linecap:round;stroke-linejoin:round;stroke:rgb(0%,0%,0%);stroke-opacity:1;stroke-miterlimit:10;" d="M 59.039062 416.800781 L 59.039062 98.824219 "/>
<path style="fill:none;stroke-width:0.75;stroke-linecap:round;stroke-linejoin:round;stroke:rgb(0%,0%,0%);stroke-opacity:1;stroke-miterlimit:10;" d="M 59.039062 416.800781 L 51.839844 416.800781 "/>
<path style="fill:none;stroke-width:0.75;stroke-linecap:round;stroke-linejoin:round;stroke:rgb(0%,0%,0%);stroke-opacity:1;stroke-miterlimit:10;" d="M 59.039062 353.207031 L 51.839844 353.207031 "/>
<path style="fill:none;stroke-width:0.75;stroke-linecap:round;stroke-linejoin:round;stroke:rgb(0%,0%,0%);stroke-opacity:1;stroke-miterlimit:10;" d="M 59.039062 289.609375 L 51.839844 289.609375 "/>
<path style="fill:none;stroke-width:0.75;stroke-linecap:round;stroke-linejoin:round;stroke:rgb(0%,0%,0%);stroke-opacity:1;stroke-miterlimit:10;" d="M 59.039062 226.015625 L 51.839844 226.015625 "/>
<path style="fill:none;stroke-width:0.75;stroke-linecap:round;stroke-linejoin:round;stroke:rgb(0%,0%,0%);stroke-opacity:1;stroke-miterlimit:10;" d="M 59.039062 162.421875 L 51.839844 162.421875 "/>
<path style="fill:none;stroke-width:0.75;stroke-linecap:round;stroke-linejoin:round;stroke:rgb(0%,0%,0%);stroke-opacity:1;stroke-miterlimit:10;" d="M 59.039062 98.824219 L 51.839844 98.824219 "/>
<g style="fill:rgb(0%,0%,0%);fill-opacity:1;">
  <use xlink:href="#glyph1-1" x="41.538086" y="425.300781"/>
  <use xlink:href="#glyph1-2" x="41.538086" y="418.628906"/>
  <use xlink:href="#glyph1-1" x="41.538086" y="415.292969"/>
</g>
<g style="fill:rgb(0%,0%,0%);fill-opacity:1;">
  <use xlink:href="#glyph1-1" x="41.538086" y="361.707031"/>
  <use xlink:href="#glyph1-2" x="41.538086" y="355.035156"/>
  <use xlink:href="#glyph1-3" x="41.538086" y="351.699219"/>
</g>
<g style="fill:rgb(0%,0%,0%);fill-opacity:1;">
  <use xlink:href="#glyph1-4" x="41.538086" y="298.109375"/>
  <use xlink:href="#glyph1-2" x="41.538086" y="291.4375"/>
  <use xlink:href="#glyph1-1" x="41.538086" y="288.101562"/>
</g>
<g style="fill:rgb(0%,0%,0%);fill-opacity:1;">
  <use xlink:href="#glyph1-4" x="41.538086" y="234.515625"/>
  <use xlink:href="#glyph1-2" x="41.538086" y="227.84375"/>
  <use xlink:href="#glyph1-3" x="41.538086" y="224.507812"/>
</g>
<g style="fill:rgb(0%,0%,0%);fill-opacity:1;">
  <use xlink:href="#glyph1-5" x="41.538086" y="170.921875"/>
  <use xlink:href="#glyph1-2" x="41.538086" y="164.25"/>
  <use xlink:href="#glyph1-1" x="41.538086" y="160.914062"/>
</g>
<g style="fill:rgb(0%,0%,0%);fill-opacity:1;">
  <use xlink:href="#glyph1-5" x="41.538086" y="107.324219"/>
  <use xlink:href="#glyph1-2" x="41.538086" y="100.652344"/>
  <use xlink:href="#glyph1-3" x="41.538086" y="97.316406"/>
</g>
<path style="fill:none;stroke-width:0.75;stroke-linecap:round;stroke-linejoin:round;stroke:rgb(0%,0%,0%);stroke-opacity:1;stroke-miterlimit:10;" d="M 59.039062 430.558594 L 221.761719 430.558594 L 221.761719 59.039062 L 59.039062 59.039062 L 59.039062 430.558594 "/>
<g style="fill:rgb(0%,0%,0%);fill-opacity:1;">
  <use xlink:href="#glyph2-1" x="56.898438" y="34.21875"/>
  <use xlink:href="#glyph2-2" x="65.700195" y="34.21875"/>
  <use xlink:href="#glyph2-3" x="69.705078" y="34.21875"/>
  <use xlink:href="#glyph2-4" x="77.499023" y="34.21875"/>
  <use xlink:href="#glyph2-5" x="85.508789" y="34.21875"/>
  <use xlink:href="#glyph2-2" x="89.513672" y="34.21875"/>
  <use xlink:href="#glyph2-6" x="93.518555" y="34.21875"/>
  <use xlink:href="#glyph2-7" x="102.320312" y="34.21875"/>
  <use xlink:href="#glyph2-7" x="111.12207" y="34.21875"/>
  <use xlink:href="#glyph2-8" x="119.923828" y="34.21875"/>
  <use xlink:href="#glyph2-9" x="128.725586" y="34.21875"/>
  <use xlink:href="#glyph2-10" x="132.730469" y="34.21875"/>
  <use xlink:href="#glyph2-11" x="141.532227" y="34.21875"/>
  <use xlink:href="#glyph2-7" x="147.136719" y="34.21875"/>
  <use xlink:href="#glyph2-12" x="155.938477" y="34.21875"/>
  <use xlink:href="#glyph2-5" x="164.740234" y="34.21875"/>
  <use xlink:href="#glyph2-4" x="168.745117" y="34.21875"/>
  <use xlink:href="#glyph2-13" x="176.754883" y="34.21875"/>
  <use xlink:href="#glyph2-9" x="181.551758" y="34.21875"/>
  <use xlink:href="#glyph2-14" x="185.556641" y="34.21875"/>
  <use xlink:href="#glyph2-5" x="193.566406" y="34.21875"/>
  <use xlink:href="#glyph2-10" x="197.571289" y="34.21875"/>
  <use xlink:href="#glyph2-6" x="206.373047" y="34.21875"/>
  <use xlink:href="#glyph2-14" x="215.174805" y="34.21875"/>
</g>
<g style="fill:rgb(0%,0%,0%);fill-opacity:1;">
  <use xlink:href="#glyph0-7" x="125.398438" y="485.057617"/>
  <use xlink:href="#glyph0-8" x="132.070312" y="485.057617"/>
  <use xlink:href="#glyph0-9" x="134.734375" y="485.057617"/>
  <use xlink:href="#glyph0-10" x="141.40625" y="485.057617"/>
  <use xlink:href="#glyph0-7" x="148.078125" y="485.057617"/>
</g>
<path style="fill:none;stroke-width:0.75;stroke-linecap:round;stroke-linejoin:round;stroke:rgb(0%,0%,0%);stroke-opacity:1;stroke-miterlimit:10;" d="M 12.960938 248.355469 L 5.960938 248.355469 "/>
<g style="fill:rgb(0%,0%,0%);fill-opacity:1;">
  <use xlink:href="#glyph1-6" x="12.737305" y="247.800781"/>
</g>
<path style="fill:none;stroke-width:0.75;stroke-linecap:round;stroke-linejoin:round;stroke:rgb(0%,0%,0%);stroke-opacity:1;stroke-miterlimit:10;" d="M 12.960938 241.246094 L 5.960938 241.246094 "/>
<g clip-path="url(#clip1)" clip-rule="nonzero">
<path style="fill:none;stroke-width:0.75;stroke-linecap:round;stroke-linejoin:round;stroke:rgb(0%,0%,100%);stroke-opacity:1;stroke-miterlimit:10;" d="M 57.90625 33.066406 L 61.230469 51.679688 L 64.550781 70.238281 L 67.875 88.691406 L 71.195312 106.980469 L 73.007812 116.867188 L 74.515625 125.050781 L 77.839844 142.890625 L 81.160156 160.511719 L 84.484375 177.9375 L 87.804688 195.1875 L 88.105469 196.746094 L 91.125 212.277344 L 94.449219 229.214844 L 97.769531 246 L 101.09375 262.628906 L 103.207031 273.132812 L 104.414062 279.105469 L 107.734375 295.425781 L 111.058594 311.597656 L 114.378906 327.621094 L 117.703125 343.507812 L 118.304688 346.382812 L 121.023438 359.257812 L 124.34375 374.871094 L 127.667969 390.355469 L 130.988281 405.710938 L 133.40625 416.800781 L 134.3125 412.660156 L 137.632812 397.550781 L 140.957031 382.566406 L 144.277344 367.699219 L 147.597656 352.953125 L 148.503906 348.949219 L 150.921875 338.316406 L 154.242188 323.792969 L 157.566406 309.375 L 160.886719 295.070312 L 163.605469 283.441406 L 164.207031 280.867188 L 167.53125 266.769531 L 170.851562 252.773438 L 174.175781 238.875 L 177.496094 225.078125 L 178.703125 220.082031 L 180.816406 211.375 L 184.140625 197.769531 L 187.460938 184.257812 L 190.785156 170.832031 L 193.804688 158.703125 L 194.105469 157.492188 L 197.429688 144.238281 L 200.75 131.070312 L 204.070312 117.992188 L 207.394531 105.011719 L 208.902344 99.144531 L 210.714844 92.132812 L 214.039062 79.339844 L 217.359375 66.617188 L 220.679688 53.9375 L 224.003906 41.28125 "/>
</g>
<path style="fill:none;stroke-width:0.75;stroke-linecap:round;stroke-linejoin:round;stroke:rgb(0%,0%,0%);stroke-opacity:1;stroke-miterlimit:10;" d="M 75.707031 116.867188 C 75.707031 120.46875 70.308594 120.46875 70.308594 116.867188 C 70.308594 113.265625 75.707031 113.265625 75.707031 116.867188 "/>
<path style="fill:none;stroke-width:0.75;stroke-linecap:round;stroke-linejoin:round;stroke:rgb(0%,0%,0%);stroke-opacity:1;stroke-miterlimit:10;" d="M 90.804688 196.746094 C 90.804688 200.347656 85.40625 200.347656 85.40625 196.746094 C 85.40625 193.144531 90.804688 193.144531 90.804688 196.746094 "/>
<path style="fill:none;stroke-width:0.75;stroke-linecap:round;stroke-linejoin:round;stroke:rgb(0%,0%,0%);stroke-opacity:1;stroke-miterlimit:10;" d="M 105.90625 273.132812 C 105.90625 276.730469 100.507812 276.730469 100.507812 273.132812 C 100.507812 269.53125 105.90625 269.53125 105.90625 273.132812 "/>
<path style="fill:none;stroke-width:0.75;stroke-linecap:round;stroke-linejoin:round;stroke:rgb(0%,0%,0%);stroke-opacity:1;stroke-miterlimit:10;" d="M 121.003906 346.382812 C 121.003906 349.980469 115.605469 349.980469 115.605469 346.382812 C 115.605469 342.78125 121.003906 342.78125 121.003906 346.382812 "/>
<path style="fill:none;stroke-width:0.75;stroke-linecap:round;stroke-linejoin:round;stroke:rgb(0%,0%,0%);stroke-opacity:1;stroke-miterlimit:10;" d="M 136.105469 416.800781 C 136.105469 420.398438 130.707031 420.398438 130.707031 416.800781 C 130.707031 413.199219 136.105469 413.199219 136.105469 416.800781 "/>
<path style="fill:none;stroke-width:0.75;stroke-linecap:round;stroke-linejoin:round;stroke:rgb(0%,0%,0%);stroke-opacity:1;stroke-miterlimit:10;" d="M 151.203125 348.949219 C 151.203125 352.546875 145.804688 352.546875 145.804688 348.949219 C 145.804688 345.347656 151.203125 345.347656 151.203125 348.949219 "/>
<path style="fill:none;stroke-width:0.75;stroke-linecap:round;stroke-linejoin:round;stroke:rgb(0%,0%,0%);stroke-opacity:1;stroke-miterlimit:10;" d="M 166.304688 283.441406 C 166.304688 287.042969 160.90625 287.042969 160.90625 283.441406 C 160.90625 279.84375 166.304688 279.84375 166.304688 283.441406 "/>
<path style="fill:none;stroke-width:0.75;stroke-linecap:round;stroke-linejoin:round;stroke:rgb(0%,0%,0%);stroke-opacity:1;stroke-miterlimit:10;" d="M 181.402344 220.082031 C 181.402344 223.683594 176.003906 223.683594 176.003906 220.082031 C 176.003906 216.484375 181.402344 216.484375 181.402344 220.082031 "/>
<path style="fill:none;stroke-width:0.75;stroke-linecap:round;stroke-linejoin:round;stroke:rgb(0%,0%,0%);stroke-opacity:1;stroke-miterlimit:10;" d="M 196.503906 158.703125 C 196.503906 162.300781 191.105469 162.300781 191.105469 158.703125 C 191.105469 155.101562 196.503906 155.101562 196.503906 158.703125 "/>
<path style="fill:none;stroke-width:0.75;stroke-linecap:round;stroke-linejoin:round;stroke:rgb(0%,0%,0%);stroke-opacity:1;stroke-miterlimit:10;" d="M 211.605469 99.144531 C 211.605469 102.746094 206.203125 102.746094 206.203125 99.144531 C 206.203125 95.546875 211.605469 95.546875 211.605469 99.144531 "/>
<g clip-path="url(#clip2)" clip-rule="nonzero">
<path style="fill:none;stroke-width:0.75;stroke-linecap:round;stroke-linejoin:round;stroke:rgb(0%,100%,0%);stroke-opacity:1;stroke-dasharray:3,3;stroke-miterlimit:10;" d="M 59.039062 416.800781 L 221.761719 416.800781 "/>
</g>
<g clip-path="url(#clip3)" clip-rule="nonzero">
<path style="fill:none;stroke-width:0.75;stroke-linecap:round;stroke-linejoin:round;stroke:rgb(0%,100%,0%);stroke-opacity:1;stroke-dasharray:3,3;stroke-miterlimit:10;" d="M 133.40625 430.558594 L 133.40625 59.039062 "/>
</g>
<path style="fill:none;stroke-width:0.75;stroke-linecap:round;stroke-linejoin:round;stroke:rgb(100%,0%,100%);stroke-opacity:1;stroke-dasharray:3,3;stroke-miterlimit:10;" d="M 68.019531 416.800781 L 68.019531 89.179688 "/>
<path style="fill:none;stroke-width:0.75;stroke-linecap:round;stroke-linejoin:round;stroke:rgb(100%,0%,100%);stroke-opacity:1;stroke-dasharray:3,3;stroke-miterlimit:10;" d="M 211.476562 416.800781 L 211.476562 89.179688 "/>
<path style="fill:none;stroke-width:0.75;stroke-linecap:round;stroke-linejoin:round;stroke:rgb(100%,0%,100%);stroke-opacity:1;stroke-dasharray:3,3;stroke-miterlimit:10;" d="M 68.019531 89.179688 L 211.476562 89.179688 "/>
<g style="fill:rgb(100%,0%,100%);fill-opacity:1;">
  <use xlink:href="#glyph0-11" x="120.90625" y="92.956055"/>
  <use xlink:href="#glyph0-11" x="127.578125" y="92.956055"/>
  <use xlink:href="#glyph0-12" x="134.25" y="92.956055"/>
</g>
<path style="fill:none;stroke-width:0.75;stroke-linecap:round;stroke-linejoin:round;stroke:rgb(100%,0%,100%);stroke-opacity:1;stroke-dasharray:3,3;stroke-miterlimit:10;" d="M 82.492188 416.800781 L 82.492188 167.511719 "/>
<path style="fill:none;stroke-width:0.75;stroke-linecap:round;stroke-linejoin:round;stroke:rgb(100%,0%,100%);stroke-opacity:1;stroke-dasharray:3,3;stroke-miterlimit:10;" d="M 191.609375 416.800781 L 191.609375 167.511719 "/>
<path style="fill:none;stroke-width:0.75;stroke-linecap:round;stroke-linejoin:round;stroke:rgb(100%,0%,100%);stroke-opacity:1;stroke-dasharray:3,3;stroke-miterlimit:10;" d="M 82.492188 167.511719 L 191.609375 167.511719 "/>
<g style="fill:rgb(100%,0%,100%);fill-opacity:1;">
  <use xlink:href="#glyph0-11" x="120.90625" y="171.288086"/>
  <use xlink:href="#glyph0-3" x="127.578125" y="171.288086"/>
  <use xlink:href="#glyph0-12" x="134.25" y="171.288086"/>
</g>
<path style="fill:none;stroke-width:0.75;stroke-linecap:round;stroke-linejoin:round;stroke:rgb(100%,0%,100%);stroke-opacity:1;stroke-dasharray:3,3;stroke-miterlimit:10;" d="M 90.210938 416.800781 L 90.210938 207.589844 "/>
<path style="fill:none;stroke-width:0.75;stroke-linecap:round;stroke-linejoin:round;stroke:rgb(100%,0%,100%);stroke-opacity:1;stroke-dasharray:3,3;stroke-miterlimit:10;" d="M 181.738281 416.800781 L 181.738281 207.589844 "/>
<path style="fill:none;stroke-width:0.75;stroke-linecap:round;stroke-linejoin:round;stroke:rgb(100%,0%,100%);stroke-opacity:1;stroke-dasharray:3,3;stroke-miterlimit:10;" d="M 90.210938 207.589844 L 181.738281 207.589844 "/>
<g style="fill:rgb(100%,0%,100%);fill-opacity:1;">
  <use xlink:href="#glyph0-11" x="120.90625" y="211.366211"/>
  <use xlink:href="#glyph0-1" x="127.578125" y="211.366211"/>
  <use xlink:href="#glyph0-12" x="134.25" y="211.366211"/>
</g>
<path style="fill:none;stroke-width:0.75;stroke-linecap:round;stroke-linejoin:round;stroke:rgb(100%,0%,100%);stroke-opacity:1;stroke-dasharray:3,3;stroke-miterlimit:10;" d="M 99.324219 416.800781 L 99.324219 253.800781 "/>
<path style="fill:none;stroke-width:0.75;stroke-linecap:round;stroke-linejoin:round;stroke:rgb(100%,0%,100%);stroke-opacity:1;stroke-dasharray:3,3;stroke-miterlimit:10;" d="M 170.609375 416.800781 L 170.609375 253.800781 "/>
<path style="fill:none;stroke-width:0.75;stroke-linecap:round;stroke-linejoin:round;stroke:rgb(100%,0%,100%);stroke-opacity:1;stroke-dasharray:3,3;stroke-miterlimit:10;" d="M 99.324219 253.800781 L 170.609375 253.800781 "/>
<g style="fill:rgb(100%,0%,100%);fill-opacity:1;">
  <use xlink:href="#glyph0-6" x="120.90625" y="257.577148"/>
  <use xlink:href="#glyph0-1" x="127.578125" y="257.577148"/>
  <use xlink:href="#glyph0-12" x="134.25" y="257.577148"/>
</g>
<path style="fill:none;stroke-width:0.75;stroke-linecap:round;stroke-linejoin:round;stroke:rgb(100%,0%,100%);stroke-opacity:1;stroke-dasharray:3,3;stroke-miterlimit:10;" d="M 115.085938 416.800781 L 115.085938 331.011719 "/>
<path style="fill:none;stroke-width:0.75;stroke-linecap:round;stroke-linejoin:round;stroke:rgb(100%,0%,100%);stroke-opacity:1;stroke-dasharray:3,3;stroke-miterlimit:10;" d="M 152.589844 416.800781 L 152.589844 331.011719 "/>
<path style="fill:none;stroke-width:0.75;stroke-linecap:round;stroke-linejoin:round;stroke:rgb(100%,0%,100%);stroke-opacity:1;stroke-dasharray:3,3;stroke-miterlimit:10;" d="M 115.085938 331.011719 L 152.589844 331.011719 "/>
<g style="fill:rgb(100%,0%,100%);fill-opacity:1;">
  <use xlink:href="#glyph0-3" x="120.90625" y="334.788086"/>
  <use xlink:href="#glyph0-1" x="127.578125" y="334.788086"/>
  <use xlink:href="#glyph0-12" x="134.25" y="334.788086"/>
</g>
<path style="fill:none;stroke-width:0.75;stroke-linecap:round;stroke-linejoin:round;stroke:rgb(0%,0%,0%);stroke-opacity:1;stroke-miterlimit:10;" d="M 317.976562 430.558594 L 461.800781 430.558594 "/>
<path style="fill:none;stroke-width:0.75;stroke-linecap:round;stroke-linejoin:round;stroke:rgb(0%,0%,0%);stroke-opacity:1;stroke-miterlimit:10;" d="M 317.976562 430.558594 L 317.976562 437.761719 "/>
<path style="fill:none;stroke-width:0.75;stroke-linecap:round;stroke-linejoin:round;stroke:rgb(0%,0%,0%);stroke-opacity:1;stroke-miterlimit:10;" d="M 341.949219 430.558594 L 341.949219 437.761719 "/>
<path style="fill:none;stroke-width:0.75;stroke-linecap:round;stroke-linejoin:round;stroke:rgb(0%,0%,0%);stroke-opacity:1;stroke-miterlimit:10;" d="M 365.917969 430.558594 L 365.917969 437.761719 "/>
<path style="fill:none;stroke-width:0.75;stroke-linecap:round;stroke-linejoin:round;stroke:rgb(0%,0%,0%);stroke-opacity:1;stroke-miterlimit:10;" d="M 389.890625 430.558594 L 389.890625 437.761719 "/>
<path style="fill:none;stroke-width:0.75;stroke-linecap:round;stroke-linejoin:round;stroke:rgb(0%,0%,0%);stroke-opacity:1;stroke-miterlimit:10;" d="M 413.859375 430.558594 L 413.859375 437.761719 "/>
<path style="fill:none;stroke-width:0.75;stroke-linecap:round;stroke-linejoin:round;stroke:rgb(0%,0%,0%);stroke-opacity:1;stroke-miterlimit:10;" d="M 437.832031 430.558594 L 437.832031 437.761719 "/>
<path style="fill:none;stroke-width:0.75;stroke-linecap:round;stroke-linejoin:round;stroke:rgb(0%,0%,0%);stroke-opacity:1;stroke-miterlimit:10;" d="M 461.800781 430.558594 L 461.800781 437.761719 "/>
<g style="fill:rgb(0%,0%,0%);fill-opacity:1;">
  <use xlink:href="#glyph0-13" x="309.476562" y="456.256836"/>
  <use xlink:href="#glyph0-2" x="316.148438" y="456.256836"/>
  <use xlink:href="#glyph0-1" x="319.484375" y="456.256836"/>
</g>
<g style="fill:rgb(0%,0%,0%);fill-opacity:1;">
  <use xlink:href="#glyph0-14" x="357.417969" y="456.256836"/>
  <use xlink:href="#glyph0-2" x="364.089844" y="456.256836"/>
  <use xlink:href="#glyph0-1" x="367.425781" y="456.256836"/>
</g>
<g style="fill:rgb(0%,0%,0%);fill-opacity:1;">
  <use xlink:href="#glyph0-3" x="405.359375" y="456.256836"/>
  <use xlink:href="#glyph0-2" x="412.03125" y="456.256836"/>
  <use xlink:href="#glyph0-1" x="415.367188" y="456.256836"/>
</g>
<g style="fill:rgb(0%,0%,0%);fill-opacity:1;">
  <use xlink:href="#glyph0-4" x="453.300781" y="456.256836"/>
  <use xlink:href="#glyph0-2" x="459.972656" y="456.256836"/>
  <use xlink:href="#glyph0-1" x="463.308594" y="456.256836"/>
</g>
<path style="fill:none;stroke-width:0.75;stroke-linecap:round;stroke-linejoin:round;stroke:rgb(0%,0%,0%);stroke-opacity:1;stroke-miterlimit:10;" d="M 311.039062 416.800781 L 311.039062 98.824219 "/>
<path style="fill:none;stroke-width:0.75;stroke-linecap:round;stroke-linejoin:round;stroke:rgb(0%,0%,0%);stroke-opacity:1;stroke-miterlimit:10;" d="M 311.039062 416.800781 L 303.839844 416.800781 "/>
<path style="fill:none;stroke-width:0.75;stroke-linecap:round;stroke-linejoin:round;stroke:rgb(0%,0%,0%);stroke-opacity:1;stroke-miterlimit:10;" d="M 311.039062 353.207031 L 303.839844 353.207031 "/>
<path style="fill:none;stroke-width:0.75;stroke-linecap:round;stroke-linejoin:round;stroke:rgb(0%,0%,0%);stroke-opacity:1;stroke-miterlimit:10;" d="M 311.039062 289.609375 L 303.839844 289.609375 "/>
<path style="fill:none;stroke-width:0.75;stroke-linecap:round;stroke-linejoin:round;stroke:rgb(0%,0%,0%);stroke-opacity:1;stroke-miterlimit:10;" d="M 311.039062 226.015625 L 303.839844 226.015625 "/>
<path style="fill:none;stroke-width:0.75;stroke-linecap:round;stroke-linejoin:round;stroke:rgb(0%,0%,0%);stroke-opacity:1;stroke-miterlimit:10;" d="M 311.039062 162.421875 L 303.839844 162.421875 "/>
<path style="fill:none;stroke-width:0.75;stroke-linecap:round;stroke-linejoin:round;stroke:rgb(0%,0%,0%);stroke-opacity:1;stroke-miterlimit:10;" d="M 311.039062 98.824219 L 303.839844 98.824219 "/>
<g style="fill:rgb(0%,0%,0%);fill-opacity:1;">
  <use xlink:href="#glyph1-1" x="293.538086" y="425.300781"/>
  <use xlink:href="#glyph1-2" x="293.538086" y="418.628906"/>
  <use xlink:href="#glyph1-1" x="293.538086" y="415.292969"/>
</g>
<g style="fill:rgb(0%,0%,0%);fill-opacity:1;">
  <use xlink:href="#glyph1-1" x="293.538086" y="361.707031"/>
  <use xlink:href="#glyph1-2" x="293.538086" y="355.035156"/>
  <use xlink:href="#glyph1-3" x="293.538086" y="351.699219"/>
</g>
<g style="fill:rgb(0%,0%,0%);fill-opacity:1;">
  <use xlink:href="#glyph1-4" x="293.538086" y="298.109375"/>
  <use xlink:href="#glyph1-2" x="293.538086" y="291.4375"/>
  <use xlink:href="#glyph1-1" x="293.538086" y="288.101562"/>
</g>
<g style="fill:rgb(0%,0%,0%);fill-opacity:1;">
  <use xlink:href="#glyph1-4" x="293.538086" y="234.515625"/>
  <use xlink:href="#glyph1-2" x="293.538086" y="227.84375"/>
  <use xlink:href="#glyph1-3" x="293.538086" y="224.507812"/>
</g>
<g style="fill:rgb(0%,0%,0%);fill-opacity:1;">
  <use xlink:href="#glyph1-5" x="293.538086" y="170.921875"/>
  <use xlink:href="#glyph1-2" x="293.538086" y="164.25"/>
  <use xlink:href="#glyph1-1" x="293.538086" y="160.914062"/>
</g>
<g style="fill:rgb(0%,0%,0%);fill-opacity:1;">
  <use xlink:href="#glyph1-5" x="293.538086" y="107.324219"/>
  <use xlink:href="#glyph1-2" x="293.538086" y="100.652344"/>
  <use xlink:href="#glyph1-3" x="293.538086" y="97.316406"/>
</g>
<path style="fill:none;stroke-width:0.75;stroke-linecap:round;stroke-linejoin:round;stroke:rgb(0%,0%,0%);stroke-opacity:1;stroke-miterlimit:10;" d="M 311.039062 430.558594 L 473.761719 430.558594 L 473.761719 59.039062 L 311.039062 59.039062 L 311.039062 430.558594 "/>
<g style="fill:rgb(0%,0%,0%);fill-opacity:1;">
  <use xlink:href="#glyph2-1" x="312.898438" y="34.21875"/>
  <use xlink:href="#glyph2-2" x="321.700195" y="34.21875"/>
  <use xlink:href="#glyph2-3" x="325.705078" y="34.21875"/>
  <use xlink:href="#glyph2-4" x="333.499023" y="34.21875"/>
  <use xlink:href="#glyph2-5" x="341.508789" y="34.21875"/>
  <use xlink:href="#glyph2-2" x="345.513672" y="34.21875"/>
  <use xlink:href="#glyph2-6" x="349.518555" y="34.21875"/>
  <use xlink:href="#glyph2-7" x="358.320312" y="34.21875"/>
  <use xlink:href="#glyph2-7" x="367.12207" y="34.21875"/>
  <use xlink:href="#glyph2-8" x="375.923828" y="34.21875"/>
  <use xlink:href="#glyph2-9" x="384.725586" y="34.21875"/>
  <use xlink:href="#glyph2-10" x="388.730469" y="34.21875"/>
  <use xlink:href="#glyph2-11" x="397.532227" y="34.21875"/>
  <use xlink:href="#glyph2-7" x="403.136719" y="34.21875"/>
  <use xlink:href="#glyph2-12" x="411.938477" y="34.21875"/>
  <use xlink:href="#glyph2-5" x="420.740234" y="34.21875"/>
  <use xlink:href="#glyph2-4" x="424.745117" y="34.21875"/>
  <use xlink:href="#glyph2-13" x="432.754883" y="34.21875"/>
  <use xlink:href="#glyph2-9" x="437.551758" y="34.21875"/>
  <use xlink:href="#glyph2-15" x="441.556641" y="34.21875"/>
  <use xlink:href="#glyph2-4" x="450.358398" y="34.21875"/>
  <use xlink:href="#glyph2-16" x="458.296875" y="34.21875"/>
  <use xlink:href="#glyph2-14" x="463.165039" y="34.21875"/>
</g>
<g style="fill:rgb(0%,0%,0%);fill-opacity:1;">
  <use xlink:href="#glyph0-15" x="380.398438" y="485.057617"/>
  <use xlink:href="#glyph0-16" x="387.070312" y="485.057617"/>
  <use xlink:href="#glyph0-17" x="393.623047" y="485.057617"/>
  <use xlink:href="#glyph0-7" x="396.958984" y="485.057617"/>
</g>
<path style="fill:none;stroke-width:0.75;stroke-linecap:round;stroke-linejoin:round;stroke:rgb(0%,0%,0%);stroke-opacity:1;stroke-miterlimit:10;" d="M 264.960938 248.355469 L 257.960938 248.355469 "/>
<g style="fill:rgb(0%,0%,0%);fill-opacity:1;">
  <use xlink:href="#glyph1-6" x="264.737305" y="247.800781"/>
</g>
<path style="fill:none;stroke-width:0.75;stroke-linecap:round;stroke-linejoin:round;stroke:rgb(0%,0%,0%);stroke-opacity:1;stroke-miterlimit:10;" d="M 264.960938 241.246094 L 257.960938 241.246094 "/>
<g clip-path="url(#clip4)" clip-rule="nonzero">
<path style="fill:none;stroke-width:0.75;stroke-linecap:round;stroke-linejoin:round;stroke:rgb(0%,0%,100%);stroke-opacity:1;stroke-miterlimit:10;" d="M 308.714844 24.417969 L 312.039062 43.914062 L 315.363281 63.339844 L 318.6875 82.617188 L 322.011719 101.675781 L 323.824219 111.953125 L 325.335938 120.445312 L 328.660156 138.902344 L 331.984375 157.074219 L 335.3125 174.988281 L 338.636719 192.675781 L 338.9375 194.273438 L 341.960938 210.164062 L 345.285156 227.460938 L 348.609375 244.5625 L 351.933594 261.476562 L 354.050781 272.140625 L 355.257812 278.199219 L 358.582031 294.730469 L 361.90625 311.082031 L 365.230469 327.257812 L 368.554688 343.261719 L 369.160156 346.15625 L 371.878906 359.109375 L 375.207031 374.792969 L 378.53125 390.324219 L 381.855469 405.707031 L 384.273438 416.800781 L 385.179688 412.660156 L 388.503906 397.566406 L 391.828125 382.617188 L 395.152344 367.800781 L 398.476562 353.117188 L 399.382812 349.136719 L 401.800781 338.566406 L 405.125 324.140625 L 408.449219 309.835938 L 411.773438 295.652344 L 414.496094 284.136719 L 415.097656 281.589844 L 418.425781 267.636719 L 421.75 253.800781 L 425.074219 240.074219 L 428.398438 226.457031 L 429.605469 221.53125 L 431.722656 212.945312 L 435.046875 199.539062 L 438.371094 186.230469 L 441.695312 173.019531 L 444.71875 161.089844 L 445.019531 159.902344 L 448.34375 146.875 L 451.667969 133.941406 L 454.992188 121.105469 L 458.316406 108.375 L 459.828125 102.621094 L 461.644531 95.746094 L 464.96875 83.214844 L 468.292969 70.757812 L 471.617188 58.347656 L 474.941406 45.957031 "/>
</g>
<path style="fill:none;stroke-width:0.75;stroke-linecap:round;stroke-linejoin:round;stroke:rgb(0%,0%,0%);stroke-opacity:1;stroke-miterlimit:10;" d="M 326.527344 111.953125 C 326.527344 115.554688 321.125 115.554688 321.125 111.953125 C 321.125 108.355469 326.527344 108.355469 326.527344 111.953125 "/>
<path style="fill:none;stroke-width:0.75;stroke-linecap:round;stroke-linejoin:round;stroke:rgb(0%,0%,0%);stroke-opacity:1;stroke-miterlimit:10;" d="M 341.636719 194.273438 C 341.636719 197.871094 336.238281 197.871094 336.238281 194.273438 C 336.238281 190.671875 341.636719 190.671875 341.636719 194.273438 "/>
<path style="fill:none;stroke-width:0.75;stroke-linecap:round;stroke-linejoin:round;stroke:rgb(0%,0%,0%);stroke-opacity:1;stroke-miterlimit:10;" d="M 356.75 272.140625 C 356.75 275.738281 351.347656 275.738281 351.347656 272.140625 C 351.347656 268.539062 356.75 268.539062 356.75 272.140625 "/>
<path style="fill:none;stroke-width:0.75;stroke-linecap:round;stroke-linejoin:round;stroke:rgb(0%,0%,0%);stroke-opacity:1;stroke-miterlimit:10;" d="M 371.859375 346.15625 C 371.859375 349.757812 366.460938 349.757812 366.460938 346.15625 C 366.460938 342.554688 371.859375 342.554688 371.859375 346.15625 "/>
<path style="fill:none;stroke-width:0.75;stroke-linecap:round;stroke-linejoin:round;stroke:rgb(0%,0%,0%);stroke-opacity:1;stroke-miterlimit:10;" d="M 386.972656 416.800781 C 386.972656 420.398438 381.570312 420.398438 381.570312 416.800781 C 381.570312 413.199219 386.972656 413.199219 386.972656 416.800781 "/>
<path style="fill:none;stroke-width:0.75;stroke-linecap:round;stroke-linejoin:round;stroke:rgb(0%,0%,0%);stroke-opacity:1;stroke-miterlimit:10;" d="M 402.082031 349.136719 C 402.082031 352.738281 396.683594 352.738281 396.683594 349.136719 C 396.683594 345.539062 402.082031 345.539062 402.082031 349.136719 "/>
<path style="fill:none;stroke-width:0.75;stroke-linecap:round;stroke-linejoin:round;stroke:rgb(0%,0%,0%);stroke-opacity:1;stroke-miterlimit:10;" d="M 417.195312 284.136719 C 417.195312 287.738281 411.796875 287.738281 411.796875 284.136719 C 411.796875 280.539062 417.195312 280.539062 417.195312 284.136719 "/>
<path style="fill:none;stroke-width:0.75;stroke-linecap:round;stroke-linejoin:round;stroke:rgb(0%,0%,0%);stroke-opacity:1;stroke-miterlimit:10;" d="M 432.304688 221.53125 C 432.304688 225.128906 426.90625 225.128906 426.90625 221.53125 C 426.90625 217.929688 432.304688 217.929688 432.304688 221.53125 "/>
<path style="fill:none;stroke-width:0.75;stroke-linecap:round;stroke-linejoin:round;stroke:rgb(0%,0%,0%);stroke-opacity:1;stroke-miterlimit:10;" d="M 447.417969 161.089844 C 447.417969 164.691406 442.019531 164.691406 442.019531 161.089844 C 442.019531 157.488281 447.417969 157.488281 447.417969 161.089844 "/>
<path style="fill:none;stroke-width:0.75;stroke-linecap:round;stroke-linejoin:round;stroke:rgb(0%,0%,0%);stroke-opacity:1;stroke-miterlimit:10;" d="M 462.53125 102.621094 C 462.53125 106.222656 457.128906 106.222656 457.128906 102.621094 C 457.128906 99.019531 462.53125 99.019531 462.53125 102.621094 "/>
<g clip-path="url(#clip5)" clip-rule="nonzero">
<path style="fill:none;stroke-width:0.75;stroke-linecap:round;stroke-linejoin:round;stroke:rgb(0%,100%,0%);stroke-opacity:1;stroke-dasharray:3,3;stroke-miterlimit:10;" d="M 311.039062 416.800781 L 473.761719 416.800781 "/>
</g>
<g clip-path="url(#clip6)" clip-rule="nonzero">
<path style="fill:none;stroke-width:0.75;stroke-linecap:round;stroke-linejoin:round;stroke:rgb(0%,100%,0%);stroke-opacity:1;stroke-dasharray:3,3;stroke-miterlimit:10;" d="M 384.273438 430.558594 L 384.273438 59.039062 "/>
</g>
<path style="fill:none;stroke-width:0.75;stroke-linecap:round;stroke-linejoin:round;stroke:rgb(100%,0%,100%);stroke-opacity:1;stroke-dasharray:3,3;stroke-miterlimit:10;" d="M 319.894531 416.800781 L 319.894531 89.179688 "/>
<path style="fill:none;stroke-width:0.75;stroke-linecap:round;stroke-linejoin:round;stroke:rgb(100%,0%,100%);stroke-opacity:1;stroke-dasharray:3,3;stroke-miterlimit:10;" d="M 463.378906 416.800781 L 463.378906 89.179688 "/>
<path style="fill:none;stroke-width:0.75;stroke-linecap:round;stroke-linejoin:round;stroke:rgb(100%,0%,100%);stroke-opacity:1;stroke-dasharray:3,3;stroke-miterlimit:10;" d="M 319.894531 89.179688 L 463.378906 89.179688 "/>
<g style="fill:rgb(100%,0%,100%);fill-opacity:1;">
  <use xlink:href="#glyph0-11" x="371.773438" y="92.956055"/>
  <use xlink:href="#glyph0-11" x="378.445312" y="92.956055"/>
  <use xlink:href="#glyph0-12" x="385.117188" y="92.956055"/>
</g>
<path style="fill:none;stroke-width:0.75;stroke-linecap:round;stroke-linejoin:round;stroke:rgb(100%,0%,100%);stroke-opacity:1;stroke-dasharray:3,3;stroke-miterlimit:10;" d="M 333.917969 416.800781 L 333.917969 167.511719 "/>
<path style="fill:none;stroke-width:0.75;stroke-linecap:round;stroke-linejoin:round;stroke:rgb(100%,0%,100%);stroke-opacity:1;stroke-dasharray:3,3;stroke-miterlimit:10;" d="M 443.089844 416.800781 L 443.089844 167.511719 "/>
<path style="fill:none;stroke-width:0.75;stroke-linecap:round;stroke-linejoin:round;stroke:rgb(100%,0%,100%);stroke-opacity:1;stroke-dasharray:3,3;stroke-miterlimit:10;" d="M 333.917969 167.511719 L 443.089844 167.511719 "/>
<g style="fill:rgb(100%,0%,100%);fill-opacity:1;">
  <use xlink:href="#glyph0-11" x="371.773438" y="171.288086"/>
  <use xlink:href="#glyph0-3" x="378.445312" y="171.288086"/>
  <use xlink:href="#glyph0-12" x="385.117188" y="171.288086"/>
</g>
<path style="fill:none;stroke-width:0.75;stroke-linecap:round;stroke-linejoin:round;stroke:rgb(100%,0%,100%);stroke-opacity:1;stroke-dasharray:3,3;stroke-miterlimit:10;" d="M 341.46875 416.800781 L 341.46875 207.589844 "/>
<path style="fill:none;stroke-width:0.75;stroke-linecap:round;stroke-linejoin:round;stroke:rgb(100%,0%,100%);stroke-opacity:1;stroke-dasharray:3,3;stroke-miterlimit:10;" d="M 433.046875 416.800781 L 433.046875 207.589844 "/>
<path style="fill:none;stroke-width:0.75;stroke-linecap:round;stroke-linejoin:round;stroke:rgb(100%,0%,100%);stroke-opacity:1;stroke-dasharray:3,3;stroke-miterlimit:10;" d="M 341.46875 207.589844 L 433.046875 207.589844 "/>
<g style="fill:rgb(100%,0%,100%);fill-opacity:1;">
  <use xlink:href="#glyph0-11" x="371.773438" y="211.366211"/>
  <use xlink:href="#glyph0-1" x="378.445312" y="211.366211"/>
  <use xlink:href="#glyph0-12" x="385.117188" y="211.366211"/>
</g>
<path style="fill:none;stroke-width:0.75;stroke-linecap:round;stroke-linejoin:round;stroke:rgb(100%,0%,100%);stroke-opacity:1;stroke-dasharray:3,3;stroke-miterlimit:10;" d="M 350.417969 416.800781 L 350.417969 253.800781 "/>
<path style="fill:none;stroke-width:0.75;stroke-linecap:round;stroke-linejoin:round;stroke:rgb(100%,0%,100%);stroke-opacity:1;stroke-dasharray:3,3;stroke-miterlimit:10;" d="M 421.75 416.800781 L 421.75 253.800781 "/>
<path style="fill:none;stroke-width:0.75;stroke-linecap:round;stroke-linejoin:round;stroke:rgb(100%,0%,100%);stroke-opacity:1;stroke-dasharray:3,3;stroke-miterlimit:10;" d="M 350.417969 253.800781 L 421.75 253.800781 "/>
<g style="fill:rgb(100%,0%,100%);fill-opacity:1;">
  <use xlink:href="#glyph0-6" x="371.773438" y="257.577148"/>
  <use xlink:href="#glyph0-1" x="378.445312" y="257.577148"/>
  <use xlink:href="#glyph0-12" x="385.117188" y="257.577148"/>
</g>
<path style="fill:none;stroke-width:0.75;stroke-linecap:round;stroke-linejoin:round;stroke:rgb(100%,0%,100%);stroke-opacity:1;stroke-dasharray:3,3;stroke-miterlimit:10;" d="M 366.007812 416.800781 L 366.007812 331.011719 "/>
<path style="fill:none;stroke-width:0.75;stroke-linecap:round;stroke-linejoin:round;stroke:rgb(100%,0%,100%);stroke-opacity:1;stroke-dasharray:3,3;stroke-miterlimit:10;" d="M 403.539062 416.800781 L 403.539062 331.011719 "/>
<path style="fill:none;stroke-width:0.75;stroke-linecap:round;stroke-linejoin:round;stroke:rgb(100%,0%,100%);stroke-opacity:1;stroke-dasharray:3,3;stroke-miterlimit:10;" d="M 366.007812 331.011719 L 403.539062 331.011719 "/>
<g style="fill:rgb(100%,0%,100%);fill-opacity:1;">
  <use xlink:href="#glyph0-3" x="371.773438" y="334.788086"/>
  <use xlink:href="#glyph0-1" x="378.445312" y="334.788086"/>
  <use xlink:href="#glyph0-12" x="385.117188" y="334.788086"/>
</g>
</g>
</svg>
