modelFitToRegion[LogNormalDistribution]["gapless linkerless"]["Scaled PC"] = 
    {-213424.0738058841, {theta[1] -> 0.40715292856581514, 
      theta[2] -> 0.3872870559520959, p[1] -> 2.4044041918803227, 
      p[2] -> 0.8961154119096151}}
 
modelFitToRegion[LogNormalDistribution]["p17 gapless"]["Scaled PC"] = 
    {-91049.32316847425, {theta[1] -> 0.354305010031987, 
      theta[2] -> 0.37519954379316234, p[1] -> 2.096879566265089, 
      p[2] -> 0.9725720816960903}}
 
modelFitToRegion[LogNormalDistribution]["p24 gapless"]["Scaled PC"] = 
    {-69120.30529648472, {theta[1] -> 0.4082977411338704, 
      theta[2] -> 0.41101219540951983, p[1] -> 2.668937409331018, 
      p[2] -> 0.7977016283881276}}
 
modelFitToRegion[LogNormalDistribution]["p6 gapless"]["Scaled PC"] = 
    {-29260.96600758611, {theta[1] -> 0.27953496209712764, 
      theta[2] -> 0.49461827220196153, p[1] -> 1.9731305812900415, 
      p[2] -> 0.8028012864906263}}
 
modelFitToRegion[LogNormalDistribution]["p7 gapless"]["Scaled PC"] = 
    {-22651.06519969607, {theta[1] -> 0.7293544158567475, 
      theta[2] -> 0.17652205504760174, p[1] -> 2.511336127276406, 
      p[2] -> 0.8289898066726}}
 
modelFitToRegion[UniformDistribution][
      "gapless linkerless hyperconservedless"]["Scaled PC"] = 
    {-209971.829629448, {theta[1] -> 0.41228721088843995, 
      theta[2] -> 0.3803757645445363, gPrime[1] -> 44.153736211507564, 
      gPrime[2] -> 13.083369453718301, gPrime[3] -> 8.426820346418008, 
      gPrime[4] -> 12.953047182165772, gPrime[5] -> 10.239470841523296, 
      gPrime[6] -> 2.2661514644995817, gPrime[7] -> 29.14775036386209, 
      gPrime[8] -> 5.827369020460536, gPrime[9] -> 10.450728729438545, 
      gPrime[10] -> 3.333454439820568, gPrime[11] -> 10.196562404638385, 
      gPrime[12] -> 41.66992023330143, gPrime[13] -> 12.10148694116236, 
      gPrime[14] -> 2.6315507703851684, gPrime[15] -> 13.23940461697848, 
      gPrime[16] -> 3.9663537147505377, gPrime[17] -> 12.657163124258647, 
      gPrime[18] -> 5.418339180355305, gPrime[19] -> 10.01577235569921, 
      gPrime[20] -> 12.057295707719218, gPrime[21] -> 9.893810463986268, 
      gPrime[22] -> 20.4914203497609, gPrime[23] -> 2.568850376457094, 
      gPrime[24] -> 2.8115038568941664, gPrime[25] -> 3.3725452807636866, 
      gPrime[26] -> 19.453799142941058, gPrime[27] -> 1.1388829649605192, 
      gPrime[28] -> 4.508811141764777, gPrime[29] -> 9.657824497781368, 
      gPrime[30] -> 9.39148958487412, gPrime[31] -> 54.57644686985294, 
      gPrime[32] -> 10.86850542691967, gPrime[33] -> 7.40602178613146, 
      gPrime[34] -> 3.7624902585849553, gPrime[35] -> 9.72427028878511, 
      gPrime[36] -> 18.018225283433164, gPrime[37] -> 8.459121033908456, 
      gPrime[38] -> 14.718102362873882, gPrime[39] -> 7.126890056674627, 
      gPrime[40] -> 45.209962429784426, gPrime[41] -> 43.788090311773054, 
      gPrime[42] -> 11.929334098928338, gPrime[43] -> 8.467647211543042, 
      gPrime[44] -> 3.199275800974506, gPrime[45] -> 4.964801696997278, 
      gPrime[46] -> 16.212912816006597, gPrime[47] -> 5.899032099785061, 
      gPrime[48] -> 13.6800237416823, gPrime[49] -> 7.609108498573184, 
      gPrime[50] -> 1.3190602960830802, gPrime[51] -> 2.197771160294357, 
      gPrime[52] -> 19.59969139752606, gPrime[53] -> 13.26357740625977, 
      gPrime[54] -> 2.793174454078133, gPrime[55] -> 20.62305800217691, 
      gPrime[56] -> 7.058848946709229, gPrime[57] -> 7.560176042745528, 
      gPrime[58] -> 3.5913829198180767, gPrime[59] -> 13.55497861261893, 
      gPrime[60] -> 8.56046828628497, gPrime[61] -> 7.585617973967679, 
      gPrime[62] -> 12.364519962180054, gPrime[63] -> 5.086414503553904, 
      gPrime[64] -> 2.6826632115438733, gPrime[65] -> 58.260878277223966, 
      gPrime[66] -> 2.220446049250313*^-16, gPrime[67] -> 13.525020985428283, 
      gPrime[68] -> 8.796017330600089, gPrime[69] -> 4.956651222972635, 
      gPrime[70] -> 7.907168160469927, gPrime[71] -> 5.591592590567749, 
      gPrime[72] -> 20.754222668771636, gPrime[73] -> 13.169063025868862, 
      gPrime[74] -> 14.860480705844997, gPrime[75] -> 10.688534431774354, 
      gPrime[76] -> 13.600193179518609, gPrime[77] -> 1.205331755561944, 
      gPrime[78] -> 2.609233872755853, gPrime[79] -> 7.226619183830834, 
      gPrime[80] -> 2.9645993504936206, gPrime[81] -> 3.9956545725149066, 
      gPrime[82] -> 4.4508239258643245, gPrime[83] -> 12.70049694782936, 
      gPrime[84] -> 17.94824316652939, gPrime[85] -> 14.041978607982113, 
      gPrime[86] -> 13.801707827493304, gPrime[87] -> 36.70359151168288, 
      gPrime[88] -> 12.087263115065657, gPrime[89] -> 8.942618410442046, 
      gPrime[90] -> 4.357787014260224, gPrime[91] -> 7.155598581445414, 
      gPrime[92] -> 8.281738189166052, gPrime[93] -> 9.182103573879363, 
      gPrime[94] -> 16.728180552156935, gPrime[95] -> 6.146056555856406, 
      gPrime[96] -> 8.401482918675706, gPrime[97] -> 3.0003431505667044, 
      gPrime[98] -> 11.559284785692785, gPrime[99] -> 10.079032187160147, 
      gPrime[100] -> 7.5167807186129805, gPrime[101] -> 5.4857406590641915, 
      gPrime[102] -> 9.237344137924474, gPrime[103] -> 8.248216340514938, 
      gPrime[104] -> 3.0795571968427384, gPrime[105] -> 2.5153836285162203, 
      gPrime[106] -> 3.0549522640045903, gPrime[107] -> 2.7747828326579853, 
      gPrime[108] -> 3.309463429047687, gPrime[109] -> 4.398981176830582, 
      gPrime[110] -> 2.4258868376437803, gPrime[111] -> 0.7537905185093646, 
      gPrime[112] -> 0.3579376208088513, gPrime[113] -> 6.694486297263724, 
      gPrime[114] -> 3.7356333076397625, gPrime[115] -> 12.641011502887112, 
      gPrime[116] -> 15.405980362107908, gPrime[117] -> 8.256352578085398, 
      gPrime[118] -> 7.5259765353191135, gPrime[119] -> 10.235597025741981, 
      gPrime[120] -> 17.910415352833866, gPrime[121] -> 3.3547754933232916, 
      gPrime[122] -> 24.24097679843202, gPrime[123] -> 22.292703316329412, 
      gPrime[124] -> 8.43855289889646, gPrime[125] -> 12.049050380131352, 
      gPrime[126] -> 14.609383803464183, gPrime[127] -> 3.2003446801590254, 
      gPrime[128] -> 2.295747936105822, gPrime[129] -> 7.4836670403162655, 
      gPrime[130] -> 18.338943704414245, gPrime[131] -> 13.782633045978358, 
      gPrime[132] -> 17.681139809347954, gPrime[133] -> 12.74492132205585, 
      gPrime[134] -> 11.119466905781644, gPrime[135] -> 10.894282936482734, 
      gPrime[136] -> 3.8925893427411595, gPrime[137] -> 10.963089305568259, 
      gPrime[138] -> 12.589829879342668, gPrime[139] -> 17.076908416266022, 
      gPrime[140] -> 4.678976555520157, gPrime[141] -> 4.965702615090915, 
      gPrime[142] -> 31.394402682929712, gPrime[143] -> 4.654534251227783, 
      gPrime[144] -> 9.568342712500948, gPrime[145] -> 37.50670828933793, 
      gPrime[146] -> 43.84685076835316, gPrime[147] -> 4.233105734742796, 
      gPrime[148] -> 7.989486938618852, gPrime[149] -> 48.969999934948284, 
      gPrime[150] -> 8.628233857501638, gPrime[151] -> 11.08397641233394, 
      gPrime[152] -> 10.040838566339811, gPrime[153] -> 11.49543058181753, 
      gPrime[154] -> 23.621433904349367, gPrime[155] -> 5.835841122380966, 
      gPrime[156] -> 15.898137365166534, gPrime[157] -> 48.62498113609345, 
      gPrime[158] -> 15.702369734569128, gPrime[159] -> 7.699660432989152, 
      gPrime[160] -> 33.429165935922455, gPrime[161] -> 26.241226451431157, 
      gPrime[162] -> 8.677089939998089, gPrime[163] -> 7.3501381248014, 
      gPrime[164] -> 16.40769861186814, gPrime[165] -> 12.44293227700235, 
      gPrime[166] -> 49.15882634881292, gPrime[167] -> 12.185612831041094, 
      gPrime[168] -> 19.16785426085614, gPrime[169] -> 13.724693355606513, 
      gPrime[170] -> 11.972613726068815, gPrime[171] -> 15.56814647638985, 
      gPrime[172] -> 8.733827174455993, gPrime[173] -> 15.557407472576076, 
      gPrime[174] -> 12.087986526288168, gPrime[175] -> 13.691562083159974, 
      gPrime[176] -> 10.284933002453737, gPrime[177] -> 3.285238261755104, 
      gPrime[178] -> 6.387792252238386, gPrime[179] -> 4.670292226410315, 
      gPrime[180] -> 11.936574071321893, gPrime[181] -> 0.7466927873549967, 
      gPrime[182] -> 5.934894057594549, gPrime[183] -> 19.679290502904976, 
      gPrime[184] -> 10.93379269653897, gPrime[185] -> 19.039797075212928, 
      gPrime[186] -> 3.2148714464174555, gPrime[187] -> 14.848496879327575, 
      gPrime[188] -> 8.766956387705802, gPrime[189] -> 37.209298933973606, 
      gPrime[190] -> 13.110640373752512, gPrime[191] -> 9.243170347130121, 
      gPrime[192] -> 9.506539118643483, gPrime[193] -> 12.794711763773071, 
      gPrime[194] -> 13.344682196056173, gPrime[195] -> 10.643168126034546, 
      gPrime[196] -> 13.25679494189738, gPrime[197] -> 9.198719589997873, 
      gPrime[198] -> 5.461203137830884, gPrime[199] -> 28.742345952797187, 
      gPrime[200] -> 13.754204697740143, gPrime[201] -> 15.03702870291711, 
      gPrime[202] -> 4.640067095678166, gPrime[203] -> 4.542513245968951, 
      gPrime[204] -> 16.47814738624649, gPrime[205] -> 6.392863517538204, 
      gPrime[206] -> 11.57105617376172, gPrime[207] -> 2.2521792735019335, 
      gPrime[208] -> 12.435969091983887, gPrime[209] -> 33.017801665375465, 
      gPrime[210] -> 17.009252751601338, gPrime[211] -> 0.8644637100484373, 
      gPrime[212] -> 32.066661436086314, gPrime[213] -> 14.349545422652696, 
      gPrime[214] -> 14.366034006940923, gPrime[215] -> 5.732250225852858, 
      gPrime[216] -> 9.129046101616437, gPrime[217] -> 19.152640482969, 
      gPrime[218] -> 17.13407919604769, gPrime[219] -> 12.657729191746462, 
      gPrime[220] -> 9.98337751455686, gPrime[221] -> 6.351039820504901, 
      gPrime[222] -> 36.81168675575029, gPrime[223] -> 13.852533775553109, 
      gPrime[224] -> 15.67592480625283, gPrime[225] -> 20.06813032477019, 
      gPrime[226] -> 10.770113452095888, gPrime[227] -> 12.948410299676661, 
      gPrime[228] -> 12.907904395419639, gPrime[229] -> 53.51534297674981, 
      gPrime[230] -> 5.685007572491042, gPrime[231] -> 9.214627910263141, 
      gPrime[232] -> 8.555974259573487, gPrime[233] -> 2.9638206658848727, 
      gPrime[234] -> 13.51243106145635, gPrime[235] -> 13.357323553881033, 
      gPrime[236] -> 15.64153879474492, gPrime[237] -> 19.0307340622697, 
      gPrime[238] -> 13.554456792796163, gPrime[239] -> 14.048460444367338, 
      gPrime[240] -> 14.988210993581509, gPrime[241] -> 4.256988598029502, 
      gPrime[242] -> 3.7660550795849024, gPrime[243] -> 11.942263670570027, 
      gPrime[244] -> 5.613858622516843, gPrime[245] -> 15.401690959476047, 
      gPrime[246] -> 17.597177060136193, gPrime[247] -> 5.368639621536977, 
      gPrime[248] -> 7.622283768201558, gPrime[249] -> 21.387040920694115, 
      gPrime[250] -> 5.906560874063174, gPrime[251] -> 16.630898923106745, 
      gPrime[252] -> 9.87110364780777, gPrime[253] -> 12.331009384081378, 
      gPrime[254] -> 6.980638074205352, gPrime[255] -> 12.390524702609353, 
      gPrime[256] -> 5.694732898242067, gPrime[257] -> 8.802989446276236, 
      gPrime[258] -> 13.735347989102834, gPrime[259] -> 12.351689651999772, 
      gPrime[260] -> 6.437351230341173, gPrime[261] -> 9.379739849824286, 
      gPrime[262] -> 5.4459069248786856, gPrime[263] -> 4.710830390543289, 
      gPrime[264] -> 44.57520799629218, gPrime[265] -> 5.391589239997522, 
      gPrime[266] -> 5.028476519702604, gPrime[267] -> 10.122716208397804, 
      gPrime[268] -> 4.496101046794511, gPrime[269] -> 12.356455707526731, 
      gPrime[270] -> 15.630452866570982, gPrime[271] -> 18.284326049128243, 
      gPrime[272] -> 50.992059764128044, gPrime[273] -> 44.8930497870354, 
      gPrime[274] -> 12.026793281265972, gPrime[275] -> 14.366511619303841, 
      gPrime[276] -> 14.55051922214764, gPrime[277] -> 2.5151918115753173, 
      gPrime[278] -> 17.27486769831083, gPrime[279] -> 17.642802476578655, 
      gPrime[280] -> 14.05394539134892, gPrime[281] -> 15.832145093045726, 
      gPrime[282] -> 9.387090057613168, gPrime[283] -> 8.500529231102533, 
      gPrime[284] -> 23.236099253365293, gPrime[285] -> 4.709169625017321, 
      gPrime[286] -> 2.9320397437097516, gPrime[287] -> 10.44386826630149, 
      gPrime[288] -> 2.939482830804298, gPrime[289] -> 10.7455120829503, 
      gPrime[290] -> 7.976198929668521, gPrime[291] -> 0.9827529701148666, 
      gPrime[292] -> 3.8763392669998114, gPrime[293] -> 7.066170449396578, 
      gPrime[294] -> 3.1026278878803413, gPrime[295] -> 1.8253220238456342, 
      gPrime[296] -> 18.815508662174327, gPrime[297] -> 3.2815749325600296, 
      gPrime[298] -> 14.932004148864229, gPrime[299] -> 16.46897856567404, 
      gPrime[300] -> 10.937351702920997, gPrime[301] -> 7.802592985927884, 
      gPrime[302] -> 13.305660713850301, gPrime[303] -> 17.547192888609775, 
      gPrime[304] -> 3.3980662766030445, gPrime[305] -> 13.10465951589562, 
      gPrime[306] -> 4.132555617890527, gPrime[307] -> 14.258438289196096, 
      gPrime[308] -> 8.359496751843805, gPrime[309] -> 28.935842412296964, 
      gPrime[310] -> 12.66812432425004, gPrime[311] -> 13.946987215301363, 
      gPrime[312] -> 10.396663181437447, gPrime[313] -> 18.13882392260678, 
      gPrime[314] -> 15.211367993832047, gPrime[315] -> 5.696552060085702, 
      gPrime[316] -> 13.744568051478947, gPrime[317] -> 14.431269804790665, 
      gPrime[318] -> 18.90459917664337, gPrime[319] -> 43.16710095658085, 
      gPrime[320] -> 16.993284952032106, gPrime[321] -> 11.52978900442339, 
      gPrime[322] -> 16.107668958804272, gPrime[323] -> 6.467040707228434, 
      gPrime[324] -> 10.633453279701332, gPrime[325] -> 12.076060921577156, 
      gPrime[326] -> 20.749201530364143, gPrime[327] -> 9.304790691314146, 
      gPrime[328] -> 15.41413299480486, gPrime[329] -> 8.838040779612218, 
      gPrime[330] -> 21.63313644584283, gPrime[331] -> 1.7750858871535649, 
      gPrime[332] -> 12.971853618788662, gPrime[333] -> 10.668729550508905, 
      gPrime[334] -> 8.500583763259876, gPrime[335] -> 27.336390778089207, 
      gPrime[336] -> 7.123296753110176, gPrime[337] -> 12.911598595190096, 
      gPrime[338] -> 26.055248966605483, gPrime[339] -> 5.751209222777512, 
      gPrime[340] -> 12.166001418012195, gPrime[341] -> 6.927212029770402, 
      gPrime[342] -> 3.536579712509616, gPrime[343] -> 4.403202172761696, 
      gPrime[344] -> 2.851427171970072, gPrime[345] -> 2.200082594435147, 
      gPrime[346] -> 6.1398682763937025, gPrime[347] -> 7.101619861960843, 
      gPrime[348] -> 6.252458606175302, gPrime[349] -> 5.6552877175438, 
      gPrime[350] -> 5.47617476108121, gPrime[351] -> 3.4523903461380265, 
      gPrime[352] -> 6.261438351452578, gPrime[353] -> 2.3465923945597935, 
      gPrime[354] -> 8.080245996418732, gPrime[355] -> 10.224759557109158, 
      gPrime[356] -> 8.750546029194087, gPrime[357] -> 1.6569604309142854, 
      gPrime[358] -> 5.014234042183079, gPrime[359] -> 7.754753591794146, 
      gPrime[360] -> 5.464293575997527, gPrime[361] -> 8.621842180591084, 
      gPrime[362] -> 2.595877338885744, gPrime[363] -> 1.468542237820393, 
      gPrime[364] -> 4.628968595800101, gPrime[365] -> 21.65834342464829, 
      gPrime[366] -> 5.389539821985561, gPrime[367] -> 5.070293784638006, 
      gPrime[368] -> 41.41272581578642, gPrime[369] -> 6.63943957593001, 
      gPrime[370] -> 46.43164772556834}}
 
modelFitToRegion[UniformDistribution]["p17 gapless hyperconservedless"][
     "Scaled PC"] = {-90283.19663905777, {theta[1] -> 0.36186987650431246, 
      theta[2] -> 0.3684151457055435, gPrime[1] -> 44.61555650523034, 
      gPrime[2] -> 13.58204909004728, gPrime[3] -> 8.537971501398419, 
      gPrime[4] -> 13.60177298245233, gPrime[5] -> 10.278261199084275, 
      gPrime[6] -> 2.0385707950419913, gPrime[7] -> 28.735759402316162, 
      gPrime[8] -> 5.571987797425068, gPrime[9] -> 10.441292283177166, 
      gPrime[10] -> 3.3242947646778798, gPrime[11] -> 9.92831835342061, 
      gPrime[12] -> 41.916961512204914, gPrime[13] -> 12.188376328182317, 
      gPrime[14] -> 2.5362032112439117, gPrime[15] -> 12.99639500303858, 
      gPrime[16] -> 3.772191048087285, gPrime[17] -> 12.047975853950929, 
      gPrime[18] -> 5.186335278389436, gPrime[19] -> 9.917668539104813, 
      gPrime[20] -> 12.040173273274437, gPrime[21] -> 9.45121817626549, 
      gPrime[22] -> 19.716413664996708, gPrime[23] -> 2.542214955496541, 
      gPrime[24] -> 2.7670134923208662, gPrime[25] -> 3.2486393804220572, 
      gPrime[26] -> 18.66836508099448, gPrime[27] -> 1.0973059369968712, 
      gPrime[28] -> 4.089210235264703, gPrime[29] -> 9.675562550982042, 
      gPrime[30] -> 9.25397048116696, gPrime[31] -> 54.036208612913235, 
      gPrime[32] -> 10.97210127090432, gPrime[33] -> 7.180565045393637, 
      gPrime[34] -> 3.940369282689739, gPrime[35] -> 10.147790254584201, 
      gPrime[36] -> 16.56085228958872, gPrime[37] -> 8.431447257562484, 
      gPrime[38] -> 14.235630615691798, gPrime[39] -> 7.064956235135445, 
      gPrime[40] -> 45.953345628243646, gPrime[41] -> 43.63244025215325, 
      gPrime[42] -> 12.068410641796016, gPrime[43] -> 8.223381054456766, 
      gPrime[44] -> 3.2896047560435226, gPrime[45] -> 5.0002611194175115, 
      gPrime[46] -> 15.400926761793395, gPrime[47] -> 5.670880772452289, 
      gPrime[48] -> 12.683461923186806, gPrime[49] -> 7.277886268795206, 
      gPrime[50] -> 1.23635192208616, gPrime[51] -> 2.1812178992084736, 
      gPrime[52] -> 18.16221423253757, gPrime[53] -> 12.107279667727246, 
      gPrime[54] -> 2.9455467293871918, gPrime[55] -> 20.053385732156304, 
      gPrime[56] -> 7.156777004485124, gPrime[57] -> 6.981319224968893, 
      gPrime[58] -> 3.755148684899463, gPrime[59] -> 12.98365824355741, 
      gPrime[60] -> 8.377297451902527, gPrime[61] -> 7.6302284583673385, 
      gPrime[62] -> 12.479101225346366, gPrime[63] -> 4.853358010270893, 
      gPrime[64] -> 2.461402794469584, gPrime[65] -> 56.98856598163347, 
      gPrime[66] -> 2.220446049250313*^-16, gPrime[67] -> 13.642196898744096, 
      gPrime[68] -> 8.58017819974762, gPrime[69] -> 4.479500408529367, 
      gPrime[70] -> 7.831649264535165, gPrime[71] -> 5.362695043686619, 
      gPrime[72] -> 19.57093697324784, gPrime[73] -> 12.224284763388841, 
      gPrime[74] -> 14.329611340990704, gPrime[75] -> 9.56500694051318, 
      gPrime[76] -> 13.727832512914103, gPrime[77] -> 1.2521025467854745, 
      gPrime[78] -> 2.5970812980233458, gPrime[79] -> 6.86930509128123, 
      gPrime[80] -> 2.9927808176004387, gPrime[81] -> 3.650717890288452, 
      gPrime[82] -> 4.172791365643513, gPrime[83] -> 12.731172794755544, 
      gPrime[84] -> 17.257746784820778, gPrime[85] -> 14.209635147806921, 
      gPrime[86] -> 14.19194258317777, gPrime[87] -> 35.183103298708474, 
      gPrime[88] -> 12.137951619342983, gPrime[89] -> 8.565922348285374, 
      gPrime[90] -> 4.080136101144703, gPrime[91] -> 7.193046048966197, 
      gPrime[92] -> 8.354080373868058, gPrime[93] -> 9.257987514733824, 
      gPrime[94] -> 15.545490549791381, gPrime[95] -> 6.0334440831385505, 
      gPrime[96] -> 8.13470982181724, gPrime[97] -> 2.919642051182961, 
      gPrime[98] -> 10.876414265724241, gPrime[99] -> 9.535899075820335, 
      gPrime[100] -> 7.35001143563643, gPrime[101] -> 5.379919518882098, 
      gPrime[102] -> 8.76096077023434, gPrime[103] -> 7.85966082507226, 
      gPrime[104] -> 2.9941264059544213, gPrime[105] -> 2.503399386644305, 
      gPrime[106] -> 2.9644160278662643, gPrime[107] -> 2.7520611127190198, 
      gPrime[108] -> 3.349926183996931, gPrime[109] -> 4.373651676853451, 
      gPrime[110] -> 2.4388480917734983, gPrime[111] -> 0.7706821121495836, 
      gPrime[112] -> 0.4087355829895719, gPrime[113] -> 6.57029730112203, 
      gPrime[114] -> 3.4483855034540722, gPrime[115] -> 11.813583956957666, 
      gPrime[116] -> 15.445894072027007, gPrime[117] -> 8.014565985743268}}
 
modelFitToRegion[UniformDistribution]["p24 gapless hyperconservedless"][
     "Scaled PC"] = {-67004.52307559966, {theta[1] -> 0.4148938768113163, 
      theta[2] -> 0.40006769446391993, gPrime[1] -> 7.725471669861408, 
      gPrime[2] -> 10.665164833650538, gPrime[3] -> 18.537802769619546, 
      gPrime[4] -> 3.387286803557486, gPrime[5] -> 25.315612544016062, 
      gPrime[6] -> 22.286354983690558, gPrime[7] -> 8.821049373975988, 
      gPrime[8] -> 12.05171641897326, gPrime[9] -> 14.963211717857135, 
      gPrime[10] -> 3.266619250873348, gPrime[11] -> 2.343793328203497, 
      gPrime[12] -> 7.496909369302159, gPrime[13] -> 18.67497957205143, 
      gPrime[14] -> 13.907169308722105, gPrime[15] -> 17.71599586532232, 
      gPrime[16] -> 12.771763687322098, gPrime[17] -> 11.533040631775409, 
      gPrime[18] -> 11.36844574384098, gPrime[19] -> 4.011156175643227, 
      gPrime[20] -> 10.839868936623963, gPrime[21] -> 12.392424108505761, 
      gPrime[22] -> 17.500056008029528, gPrime[23] -> 4.731143671483984, 
      gPrime[24] -> 5.003980455412601, gPrime[25] -> 31.456905597659986, 
      gPrime[26] -> 4.845200963465916, gPrime[27] -> 9.808948325803128, 
      gPrime[28] -> 37.55185548718596, gPrime[29] -> 43.41577120151309, 
      gPrime[30] -> 4.205938276929341, gPrime[31] -> 8.086622892117479, 
      gPrime[32] -> 48.4486234149091, gPrime[33] -> 8.634546385678469, 
      gPrime[34] -> 10.90709900858411, gPrime[35] -> 10.106211010905856, 
      gPrime[36] -> 11.667462482336942, gPrime[37] -> 23.74172892122737, 
      gPrime[38] -> 5.848001875325146, gPrime[39] -> 15.714084232093823, 
      gPrime[40] -> 48.03961701919641, gPrime[41] -> 15.744622365881984, 
      gPrime[42] -> 7.790467540280922, gPrime[43] -> 33.12400318730072, 
      gPrime[44] -> 26.24025505534062, gPrime[45] -> 8.818807249145033, 
      gPrime[46] -> 7.679249347188544, gPrime[47] -> 16.481963877127367, 
      gPrime[48] -> 12.474769239876801, gPrime[49] -> 48.71439288513336, 
      gPrime[50] -> 12.51041833571385, gPrime[51] -> 19.647458863266383, 
      gPrime[52] -> 13.5069684807092, gPrime[53] -> 12.162767555950133, 
      gPrime[54] -> 15.619693471919481, gPrime[55] -> 8.610028960749839, 
      gPrime[56] -> 15.318414135946972, gPrime[57] -> 12.123773784686085, 
      gPrime[58] -> 13.764520602827194, gPrime[59] -> 10.137241244273199, 
      gPrime[60] -> 3.3517925715537054, gPrime[61] -> 6.684072724195308, 
      gPrime[62] -> 4.652629925870807, gPrime[63] -> 12.013116844865054, 
      gPrime[64] -> 0.8061265787482655, gPrime[65] -> 6.03897325670755, 
      gPrime[66] -> 19.994614147584823, gPrime[67] -> 10.90494690251621, 
      gPrime[68] -> 19.66048466196569, gPrime[69] -> 3.257342313037478, 
      gPrime[70] -> 14.94361094439163, gPrime[71] -> 8.646483197197677, 
      gPrime[72] -> 37.09997907766753, gPrime[73] -> 13.229696501903861, 
      gPrime[74] -> 9.266449343038941, gPrime[75] -> 9.740007918997678, 
      gPrime[76] -> 12.773371898371016, gPrime[77] -> 13.26748970288626, 
      gPrime[78] -> 10.800256940321844, gPrime[79] -> 13.487113362347127, 
      gPrime[80] -> 9.210180758607747, gPrime[81] -> 5.515425927655007, 
      gPrime[82] -> 28.611545511936647, gPrime[83] -> 14.229723603315037, 
      gPrime[84] -> 14.775061832114682, gPrime[85] -> 4.772853462825254, 
      gPrime[86] -> 4.605067369577695, gPrime[87] -> 16.6080881890955, 
      gPrime[88] -> 6.59133080980475, gPrime[89] -> 11.73722137273299, 
      gPrime[90] -> 2.2774740461276775, gPrime[91] -> 12.503266255608548, 
      gPrime[92] -> 32.99241487038686, gPrime[93] -> 17.321082157864883, 
      gPrime[94] -> 0.9288104637502962, gPrime[95] -> 32.13160712381515, 
      gPrime[96] -> 15.014452408281352, gPrime[97] -> 14.27659327080419, 
      gPrime[98] -> 5.685676569092694, gPrime[99] -> 9.36242580050735, 
      gPrime[100] -> 19.836391534122615, gPrime[101] -> 17.559262205054424, 
      gPrime[102] -> 12.776346755841072, gPrime[103] -> 10.237167764451076, 
      gPrime[104] -> 6.528390309537598, gPrime[105] -> 36.43550729913595, 
      gPrime[106] -> 13.757971143025681, gPrime[107] -> 15.730701234800595, 
      gPrime[108] -> 20.60298976564774, gPrime[109] -> 11.0377764768091, 
      gPrime[110] -> 13.532366712984402, gPrime[111] -> 13.023996478002305, 
      gPrime[112] -> 52.78762816210302, gPrime[113] -> 5.910131625879838, 
      gPrime[114] -> 9.241743653582887, gPrime[115] -> 8.773600259075668, 
      gPrime[116] -> 2.996198629103397, gPrime[117] -> 13.416966429025173, 
      gPrime[118] -> 13.561176764391146, gPrime[119] -> 15.36411332920971, 
      gPrime[120] -> 19.666887508162706, gPrime[121] -> 14.177990608133795, 
      gPrime[122] -> 13.892141484926842, gPrime[123] -> 15.161251278284418, 
      gPrime[124] -> 4.223911775607994, gPrime[125] -> 3.740242851009339, 
      gPrime[126] -> 12.205780707297237, gPrime[127] -> 5.70246881783443, 
      gPrime[128] -> 15.491764404027304, gPrime[129] -> 17.317920117561997, 
      gPrime[130] -> 5.419255983712495, gPrime[131] -> 7.711685501520157, 
      gPrime[132] -> 22.187387804011202, gPrime[133] -> 5.857463293317382, 
      gPrime[134] -> 16.98618893398038, gPrime[135] -> 9.917355480928704, 
      gPrime[136] -> 12.514729448094318, gPrime[137] -> 6.9248202698235, 
      gPrime[138] -> 12.590095976995256, gPrime[139] -> 5.9479863795623755, 
      gPrime[140] -> 8.827488595981698, gPrime[141] -> 13.794136585258773, 
      gPrime[142] -> 12.629152508631908, gPrime[143] -> 6.538091410337517, 
      gPrime[144] -> 9.615746456701874, gPrime[145] -> 5.543642053178227, 
      gPrime[146] -> 4.752196877319635, gPrime[147] -> 44.11404054818233, 
      gPrime[148] -> 5.4742768606520515, gPrime[149] -> 5.019991536742599, 
      gPrime[150] -> 10.175066569476883, gPrime[151] -> 4.522815726616185, 
      gPrime[152] -> 12.823219138654197, gPrime[153] -> 15.369666503715711, 
      gPrime[154] -> 17.94380695782916, gPrime[155] -> 50.8124695992833, 
      gPrime[156] -> 44.2936518700931, gPrime[157] -> 12.231190000339302, 
      gPrime[158] -> 15.030645543613822, gPrime[159] -> 14.455864168014513, 
      gPrime[160] -> 2.52582883642906, gPrime[161] -> 17.30547473717571, 
      gPrime[162] -> 18.035855485117235, gPrime[163] -> 14.11482082980756, 
      gPrime[164] -> 15.96394022613811, gPrime[165] -> 9.819982702139301}}
 
modelFitToRegion[UniformDistribution]["p6 gapless hyperconservedless"][
     "Scaled PC"] = {-29066.953801869993, {theta[1] -> 0.27958565353220166, 
      theta[2] -> 0.4933653790852959, gPrime[1] -> 8.92052243069779, 
      gPrime[2] -> 20.628061233959546, gPrime[3] -> 1.8581985894575006, 
      gPrime[4] -> 14.239114948516455, gPrime[5] -> 10.387688961673723, 
      gPrime[6] -> 8.22002006186477, gPrime[7] -> 25.119120807963846, 
      gPrime[8] -> 7.270215027346624, gPrime[9] -> 14.692387957534457, 
      gPrime[10] -> 24.163263115619777, gPrime[11] -> 5.825987709905065, 
      gPrime[12] -> 11.3834061033276, gPrime[13] -> 7.238024684974932, 
      gPrime[14] -> 3.9152582902969213, gPrime[15] -> 4.1514514319292735, 
      gPrime[16] -> 3.1684158541205836, gPrime[17] -> 2.0273018887445478, 
      gPrime[18] -> 6.1194762436733745, gPrime[19] -> 6.986956212588601, 
      gPrime[20] -> 6.232198135050761, gPrime[21] -> 5.652578284919029, 
      gPrime[22] -> 5.634205648975372, gPrime[23] -> 3.4616607037760723, 
      gPrime[24] -> 6.2184362292306945, gPrime[25] -> 2.3831440037073257, 
      gPrime[26] -> 7.861723837017402, gPrime[27] -> 9.688065582783564, 
      gPrime[28] -> 8.488327681447846, gPrime[29] -> 1.7252551467051642, 
      gPrime[30] -> 4.726299198755024, gPrime[31] -> 7.6535750396537034, 
      gPrime[32] -> 5.289777532519247, gPrime[33] -> 8.28933946193275, 
      gPrime[34] -> 2.547886712705803, gPrime[35] -> 1.4357414985281511, 
      gPrime[36] -> 4.583736537896351, gPrime[37] -> 20.77989263651411, 
      gPrime[38] -> 5.2685231738113085, gPrime[39] -> 5.466555509397066, 
      gPrime[40] -> 39.09351890279486, gPrime[41] -> 6.334076119722167, 
      gPrime[42] -> 44.1296132111574}}
 
modelFitToRegion[UniformDistribution]["p7 gapless hyperconservedless"][
     "Scaled PC"] = {-22313.39717973764, {theta[1] -> 0.7354344156439613, 
      theta[2] -> 0.17248874635485845, gPrime[1] -> 10.491649378182176, 
      gPrime[2] -> 33.52425995172596, gPrime[3] -> 5.947823797537048, 
      gPrime[4] -> 2.867393637615717, gPrime[5] -> 10.246366728075362, 
      gPrime[6] -> 2.4968402626626496, gPrime[7] -> 12.806929268094441, 
      gPrime[8] -> 9.044475135698185, gPrime[9] -> 0.5768240220777506, 
      gPrime[10] -> 5.17035090356414, gPrime[11] -> 7.988733062472141, 
      gPrime[12] -> 3.8629150413891304, gPrime[13] -> 2.3035120291580555, 
      gPrime[14] -> 23.03408061452321, gPrime[15] -> 2.8019631931705846, 
      gPrime[16] -> 14.08255136025843, gPrime[17] -> 20.824530942488238, 
      gPrime[18] -> 13.060197889335639, gPrime[19] -> 9.300325910269189, 
      gPrime[20] -> 17.006271935370062, gPrime[21] -> 19.56954800293263, 
      gPrime[22] -> 4.105158508584732, gPrime[23] -> 11.858716292531408, 
      gPrime[24] -> 5.420432152406021, gPrime[25] -> 13.439905984236711, 
      gPrime[26] -> 8.989533263389282, gPrime[27] -> 38.92081653917745, 
      gPrime[28] -> 12.352062467933232, gPrime[29] -> 16.276332621022448, 
      gPrime[30] -> 12.470432905778534, gPrime[31] -> 21.87776620316852, 
      gPrime[32] -> 18.085194403193835, gPrime[33] -> 6.919726965880583, 
      gPrime[34] -> 18.705976867506333, gPrime[35] -> 18.030410794966304, 
      gPrime[36] -> 26.3976703597777, gPrime[37] -> 61.56991202531352, 
      gPrime[38] -> 19.83372999397712, gPrime[39] -> 15.615764001263646, 
      gPrime[40] -> 19.9444257771739, gPrime[41] -> 7.635484176201175, 
      gPrime[42] -> 13.297361662224796, gPrime[43] -> 11.837850705887504, 
      gPrime[44] -> 29.662719209982335, gPrime[45] -> 9.61636150863783, 
      gPrime[46] -> 14.913051250730883}}
