modelFitToRegion[LogNormalDistribution]["p6 gapless"]["Scaled PC"] = 
    {-29260.966007586103, {theta[1] -> 0.2795349612329336, 
      theta[2] -> 0.4946182734797967, p[1] -> 1.973130656306035, 
      p[2] -> 0.8028012039184219}}
 
modelFitToRegion[UniformDistribution][
      "gapless linkerless hyperconservedless"]["Scaled PC"] = 
    {-209971.82962937874, {theta[1] -> 0.41228721178019334, 
      theta[2] -> 0.38037576345802737, gPrime[1] -> 44.153735930179714, 
      gPrime[2] -> 13.083369435300687, gPrime[3] -> 8.426820408423852, 
      gPrime[4] -> 12.9530473933982, gPrime[5] -> 10.239470952861494, 
      gPrime[6] -> 2.266151445764255, gPrime[7] -> 29.147749928977575, 
      gPrime[8] -> 5.827368999786021, gPrime[9] -> 10.450728314013393, 
      gPrime[10] -> 3.3334544782973454, gPrime[11] -> 10.196562528073226, 
      gPrime[12] -> 41.66992000995298, gPrime[13] -> 12.101487733579791, 
      gPrime[14] -> 2.6315508765746647, gPrime[15] -> 13.239404493201649, 
      gPrime[16] -> 3.9663537728120812, gPrime[17] -> 12.657162539978874, 
      gPrime[18] -> 5.4183391146061615, gPrime[19] -> 10.0157723470857, 
      gPrime[20] -> 12.057296017111597, gPrime[21] -> 9.893810223035286, 
      gPrime[22] -> 20.491417892196992, gPrime[23] -> 2.5688503890246537, 
      gPrime[24] -> 2.8115038432157378, gPrime[25] -> 3.372545396034189, 
      gPrime[26] -> 19.453800007207757, gPrime[27] -> 1.1388829504165372, 
      gPrime[28] -> 4.508811182334944, gPrime[29] -> 9.657824288303063, 
      gPrime[30] -> 9.391489394458997, gPrime[31] -> 54.57644698528835, 
      gPrime[32] -> 10.868505582037146, gPrime[33] -> 7.406021796012721, 
      gPrime[34] -> 3.7624905303273244, gPrime[35] -> 9.72426995408406, 
      gPrime[36] -> 18.018224806011915, gPrime[37] -> 8.459120976271292, 
      gPrime[38] -> 14.718102343591866, gPrime[39] -> 7.126889762296089, 
      gPrime[40] -> 45.20996352132608, gPrime[41] -> 43.78809028897584, 
      gPrime[42] -> 11.929334593741808, gPrime[43] -> 8.46764732250556, 
      gPrime[44] -> 3.1992757877172826, gPrime[45] -> 4.964801654114484, 
      gPrime[46] -> 16.212914942196413, gPrime[47] -> 5.899032021610009, 
      gPrime[48] -> 13.680023699309338, gPrime[49] -> 7.6091084926618775, 
      gPrime[50] -> 1.3190603012638396, gPrime[51] -> 2.197771278563142, 
      gPrime[52] -> 19.599691336099323, gPrime[53] -> 13.26357736488149, 
      gPrime[54] -> 2.793174515708417, gPrime[55] -> 20.62305781386532, 
      gPrime[56] -> 7.0588489372273875, gPrime[57] -> 7.560175930715806, 
      gPrime[58] -> 3.591382947536727, gPrime[59] -> 13.55497829334847, 
      gPrime[60] -> 8.560468303262306, gPrime[61] -> 7.585617921833903, 
      gPrime[62] -> 12.36452042899831, gPrime[63] -> 5.0864146336436, 
      gPrime[64] -> 2.6826631762237185, gPrime[65] -> 58.26087956879358, 
      gPrime[66] -> 2.220446049250313*^-16, gPrime[67] -> 13.525020464945136, 
      gPrime[68] -> 8.796017414182533, gPrime[69] -> 4.956651194931249, 
      gPrime[70] -> 7.907168077334972, gPrime[71] -> 5.591592643068918, 
      gPrime[72] -> 20.75422278447656, gPrime[73] -> 13.169063116607033, 
      gPrime[74] -> 14.860481552475843, gPrime[75] -> 10.688534496525769, 
      gPrime[76] -> 13.600193160580375, gPrime[77] -> 1.205331704454658, 
      gPrime[78] -> 2.609233912938033, gPrime[79] -> 7.226619157057543, 
      gPrime[80] -> 2.9645993867762286, gPrime[81] -> 3.995654629101837, 
      gPrime[82] -> 4.45082390619471, gPrime[83] -> 12.700496769254983, 
      gPrime[84] -> 17.94824244542458, gPrime[85] -> 14.041978397108975, 
      gPrime[86] -> 13.801704680060185, gPrime[87] -> 36.70359192598479, 
      gPrime[88] -> 12.087262993878001, gPrime[89] -> 8.94261836234326, 
      gPrime[90] -> 4.357786995017445, gPrime[91] -> 7.15559860499097, 
      gPrime[92] -> 8.28173828760453, gPrime[93] -> 9.18210326140287, 
      gPrime[94] -> 16.728180506647803, gPrime[95] -> 6.1460564599616765, 
      gPrime[96] -> 8.401482872790561, gPrime[97] -> 3.000343104748259, 
      gPrime[98] -> 11.559284855036294, gPrime[99] -> 10.079032257142343, 
      gPrime[100] -> 7.5167806196609215, gPrime[101] -> 5.4857406945714455, 
      gPrime[102] -> 9.237344167507782, gPrime[103] -> 8.248216395891149, 
      gPrime[104] -> 3.079557247351525, gPrime[105] -> 2.515383603628229, 
      gPrime[106] -> 3.0549522501998925, gPrime[107] -> 2.7747828452231973, 
      gPrime[108] -> 3.309463431660566, gPrime[109] -> 4.398981214635101, 
      gPrime[110] -> 2.425886783503162, gPrime[111] -> 0.7537904873606911, 
      gPrime[112] -> 0.35793755140549427, gPrime[113] -> 6.694486200472401, 
      gPrime[114] -> 3.7356333200515333, gPrime[115] -> 12.641011495040601, 
      gPrime[116] -> 15.405979734030364, gPrime[117] -> 8.256352580797731, 
      gPrime[118] -> 7.525976503647692, gPrime[119] -> 10.23559725437165, 
      gPrime[120] -> 17.91041536942093, gPrime[121] -> 3.3547754579157583, 
      gPrime[122] -> 24.240975944341955, gPrime[123] -> 22.292703470002863, 
      gPrime[124] -> 8.438552776035378, gPrime[125] -> 12.049050327780598, 
      gPrime[126] -> 14.60938378173365, gPrime[127] -> 3.200344691874666, 
      gPrime[128] -> 2.29574792405131, gPrime[129] -> 7.483666906032034, 
      gPrime[130] -> 18.338943626581226, gPrime[131] -> 13.782633889296159, 
      gPrime[132] -> 17.68113990377014, gPrime[133] -> 12.74492105320545, 
      gPrime[134] -> 11.119467161273404, gPrime[135] -> 10.894283015312393, 
      gPrime[136] -> 3.8925892684910943, gPrime[137] -> 10.9630899547539, 
      gPrime[138] -> 12.589829856603476, gPrime[139] -> 17.076908457920656, 
      gPrime[140] -> 4.678976598072665, gPrime[141] -> 4.965702557675903, 
      gPrime[142] -> 31.394404069891927, gPrime[143] -> 4.654534366990107, 
      gPrime[144] -> 9.568342883684108, gPrime[145] -> 37.50670775479701, 
      gPrime[146] -> 43.8468506599913, gPrime[147] -> 4.233106147135619, 
      gPrime[148] -> 7.989486837716356, gPrime[149] -> 48.96999999922621, 
      gPrime[150] -> 8.62823410440008, gPrime[151] -> 11.083976623979826, 
      gPrime[152] -> 10.04083868906067, gPrime[153] -> 11.495430511807271, 
      gPrime[154] -> 23.62143432436733, gPrime[155] -> 5.835841228459215, 
      gPrime[156] -> 15.898135512575726, gPrime[157] -> 48.62498193270906, 
      gPrime[158] -> 15.702369019297885, gPrime[159] -> 7.699660492816265, 
      gPrime[160] -> 33.42916619547197, gPrime[161] -> 26.241226030315666, 
      gPrime[162] -> 8.677089956887258, gPrime[163] -> 7.350138168663224, 
      gPrime[164] -> 16.407698391942574, gPrime[165] -> 12.442931042648109, 
      gPrime[166] -> 49.15882697497105, gPrime[167] -> 12.18561258854795, 
      gPrime[168] -> 19.167853753622342, gPrime[169] -> 13.724691447699788, 
      gPrime[170] -> 11.972613936213758, gPrime[171] -> 15.568146826806837, 
      gPrime[172] -> 8.733826928566103, gPrime[173] -> 15.557407131793196, 
      gPrime[174] -> 12.08798644966593, gPrime[175] -> 13.691563877652447, 
      gPrime[176] -> 10.284933906257857, gPrime[177] -> 3.285238246947818, 
      gPrime[178] -> 6.387792256448231, gPrime[179] -> 4.670292272731004, 
      gPrime[180] -> 11.936574618075882, gPrime[181] -> 0.7466928074001774, 
      gPrime[182] -> 5.934893939540342, gPrime[183] -> 19.679290773390203, 
      gPrime[184] -> 10.93379265066318, gPrime[185] -> 19.03979727227958, 
      gPrime[186] -> 3.2148714773371445, gPrime[187] -> 14.848497123827043, 
      gPrime[188] -> 8.7669564092968, gPrime[189] -> 37.209299638994686, 
      gPrime[190] -> 13.110640060299895, gPrime[191] -> 9.2431705759708, 
      gPrime[192] -> 9.50653898013782, gPrime[193] -> 12.794711736612369, 
      gPrime[194] -> 13.344683766427123, gPrime[195] -> 10.643168323487805, 
      gPrime[196] -> 13.256794864611182, gPrime[197] -> 9.198719964007994, 
      gPrime[198] -> 5.4612031455435135, gPrime[199] -> 28.742346376445077, 
      gPrime[200] -> 13.754204572808879, gPrime[201] -> 15.03702945986284, 
      gPrime[202] -> 4.64006712765261, gPrime[203] -> 4.5425132248798015, 
      gPrime[204] -> 16.478147174859163, gPrime[205] -> 6.39286356127661, 
      gPrime[206] -> 11.571055928257792, gPrime[207] -> 2.2521792554699975, 
      gPrime[208] -> 12.435970350916161, gPrime[209] -> 33.01780046032299, 
      gPrime[210] -> 17.009252153614813, gPrime[211] -> 0.8644637693288465, 
      gPrime[212] -> 32.066661469603524, gPrime[213] -> 14.349545196558628, 
      gPrime[214] -> 14.366033255836248, gPrime[215] -> 5.732250227944768, 
      gPrime[216] -> 9.129045985566256, gPrime[217] -> 19.152640315385412, 
      gPrime[218] -> 17.13407991953271, gPrime[219] -> 12.657729093351827, 
      gPrime[220] -> 9.98337811923767, gPrime[221] -> 6.35103977995094, 
      gPrime[222] -> 36.81168707519326, gPrime[223] -> 13.852533390559719, 
      gPrime[224] -> 15.67592483689011, gPrime[225] -> 20.06813059740656, 
      gPrime[226] -> 10.770112917347719, gPrime[227] -> 12.948410074400499, 
      gPrime[228] -> 12.907905336703514, gPrime[229] -> 53.51534152547065, 
      gPrime[230] -> 5.685007587628288, gPrime[231] -> 9.214628113159698, 
      gPrime[232] -> 8.555974562530668, gPrime[233] -> 2.963820605370999, 
      gPrime[234] -> 13.512430851223634, gPrime[235] -> 13.357323459649693, 
      gPrime[236] -> 15.641538542796154, gPrime[237] -> 19.030733655824697, 
      gPrime[238] -> 13.554456175131621, gPrime[239] -> 14.048460615864125, 
      gPrime[240] -> 14.988210913146956, gPrime[241] -> 4.256988854221176, 
      gPrime[242] -> 3.766055010315181, gPrime[243] -> 11.942263531824404, 
      gPrime[244] -> 5.613858609426494, gPrime[245] -> 15.401690787018037, 
      gPrime[246] -> 17.59717806434248, gPrime[247] -> 5.36863959779537, 
      gPrime[248] -> 7.6222837405237716, gPrime[249] -> 21.38704074444036, 
      gPrime[250] -> 5.906560858777325, gPrime[251] -> 16.63089884299997, 
      gPrime[252] -> 9.871103831248352, gPrime[253] -> 12.331009536694891, 
      gPrime[254] -> 6.980637810465578, gPrime[255] -> 12.390524825180457, 
      gPrime[256] -> 5.694732900781843, gPrime[257] -> 8.80298917849071, 
      gPrime[258] -> 13.735349212646677, gPrime[259] -> 12.35168961587374, 
      gPrime[260] -> 6.437351200382165, gPrime[261] -> 9.379740096097041, 
      gPrime[262] -> 5.445906926390854, gPrime[263] -> 4.710830471529746, 
      gPrime[264] -> 44.575208435836565, gPrime[265] -> 5.39158932545521, 
      gPrime[266] -> 5.028476511869653, gPrime[267] -> 10.122716579820793, 
      gPrime[268] -> 4.496101047203684, gPrime[269] -> 12.356455787281716, 
      gPrime[270] -> 15.630452423947254, gPrime[271] -> 18.28432519488113, 
      gPrime[272] -> 50.992062086236366, gPrime[273] -> 44.893050539971256, 
      gPrime[274] -> 12.026793150461708, gPrime[275] -> 14.366512399243826, 
      gPrime[276] -> 14.550517609919225, gPrime[277] -> 2.5151918654782035, 
      gPrime[278] -> 17.274867650587954, gPrime[279] -> 17.642801760293576, 
      gPrime[280] -> 14.053947406897114, gPrime[281] -> 15.832145263849249, 
      gPrime[282] -> 9.387090119336365, gPrime[283] -> 8.500529443642085, 
      gPrime[284] -> 23.236098397645975, gPrime[285] -> 4.709169688722677, 
      gPrime[286] -> 2.932039784689694, gPrime[287] -> 10.44386871771864, 
      gPrime[288] -> 2.9394828480277226, gPrime[289] -> 10.745512303664071, 
      gPrime[290] -> 7.976198977452783, gPrime[291] -> 0.9827529790936881, 
      gPrime[292] -> 3.876339318138025, gPrime[293] -> 7.066170356346756, 
      gPrime[294] -> 3.102627896186558, gPrime[295] -> 1.8253220595783062, 
      gPrime[296] -> 18.815507878628207, gPrime[297] -> 3.2815749217856895, 
      gPrime[298] -> 14.932004113823735, gPrime[299] -> 16.46897822916356, 
      gPrime[300] -> 10.937351456324974, gPrime[301] -> 7.80259319252065, 
      gPrime[302] -> 13.305661166071147, gPrime[303] -> 17.547193961031244, 
      gPrime[304] -> 3.3980663510430817, gPrime[305] -> 13.104659250076836, 
      gPrime[306] -> 4.132555606760415, gPrime[307] -> 14.258437947535738, 
      gPrime[308] -> 8.359496780120478, gPrime[309] -> 28.935842411285023, 
      gPrime[310] -> 12.668124230174916, gPrime[311] -> 13.94698698116756, 
      gPrime[312] -> 10.396663302822466, gPrime[313] -> 18.13882407028581, 
      gPrime[314] -> 15.211368242582212, gPrime[315] -> 5.696552086023252, 
      gPrime[316] -> 13.744568130509428, gPrime[317] -> 14.43126925425436, 
      gPrime[318] -> 18.90459905621474, gPrime[319] -> 43.16710106877685, 
      gPrime[320] -> 16.99328372753008, gPrime[321] -> 11.529789162130173, 
      gPrime[322] -> 16.107669449005748, gPrime[323] -> 6.46704071461141, 
      gPrime[324] -> 10.633453494870302, gPrime[325] -> 12.076060934436775, 
      gPrime[326] -> 20.749201421836368, gPrime[327] -> 9.304790397366654, 
      gPrime[328] -> 15.414132028057574, gPrime[329] -> 8.838040915843406, 
      gPrime[330] -> 21.633136516721144, gPrime[331] -> 1.7750858454581446, 
      gPrime[332] -> 12.971853655615242, gPrime[333] -> 10.668729476374272, 
      gPrime[334] -> 8.500584022124853, gPrime[335] -> 27.33639097413168, 
      gPrime[336] -> 7.123296722063471, gPrime[337] -> 12.911596956413504, 
      gPrime[338] -> 26.05524917870385, gPrime[339] -> 5.751209235570399, 
      gPrime[340] -> 12.166001274476297, gPrime[341] -> 6.927212119232148, 
      gPrime[342] -> 3.536579777368225, gPrime[343] -> 4.403202142428115, 
      gPrime[344] -> 2.8514272486744723, gPrime[345] -> 2.200082610729084, 
      gPrime[346] -> 6.139868388020217, gPrime[347] -> 7.101619924949545, 
      gPrime[348] -> 6.2524585717716805, gPrime[349] -> 5.65528771657715, 
      gPrime[350] -> 5.476174881868414, gPrime[351] -> 3.452390360317901, 
      gPrime[352] -> 6.261438228170266, gPrime[353] -> 2.346592473057882, 
      gPrime[354] -> 8.080245966339028, gPrime[355] -> 10.224759534589058, 
      gPrime[356] -> 8.750545972251162, gPrime[357] -> 1.656960446503963, 
      gPrime[358] -> 5.0142339838149255, gPrime[359] -> 7.7547535676939665, 
      gPrime[360] -> 5.464293631138477, gPrime[361] -> 8.621842392321032, 
      gPrime[362] -> 2.595877356675685, gPrime[363] -> 1.4685422343290735, 
      gPrime[364] -> 4.628968516959295, gPrime[365] -> 21.658343411966797, 
      gPrime[366] -> 5.3895398679590905, gPrime[367] -> 5.070293844757653, 
      gPrime[368] -> 41.41272542272426, gPrime[369] -> 6.639439608134462, 
      gPrime[370] -> 46.431648492185566}}
 
modelFitToRegion[UniformDistribution]["p17 gapless hyperconservedless"][
     "Scaled PC"] = {-90283.19663904149, {theta[1] -> 0.36186987746399046, 
      theta[2] -> 0.368415144901015, gPrime[1] -> 44.615557516910634, 
      gPrime[2] -> 13.58204878366541, gPrime[3] -> 8.537971818507005, 
      gPrime[4] -> 13.601773208729403, gPrime[5] -> 10.278261122059142, 
      gPrime[6] -> 2.0385708366003756, gPrime[7] -> 28.735759680129483, 
      gPrime[8] -> 5.571987758170623, gPrime[9] -> 10.441291826392618, 
      gPrime[10] -> 3.3242947530184077, gPrime[11] -> 9.928318411829387, 
      gPrime[12] -> 41.91696129012557, gPrime[13] -> 12.188376155891357, 
      gPrime[14] -> 2.536203178579473, gPrime[15] -> 12.996394909779376, 
      gPrime[16] -> 3.7721911010326274, gPrime[17] -> 12.047974191717902, 
      gPrime[18] -> 5.186335302624907, gPrime[19] -> 9.91766847063621, 
      gPrime[20] -> 12.040173705283362, gPrime[21] -> 9.45121828265747, 
      gPrime[22] -> 19.71641729649506, gPrime[23] -> 2.542214940978582, 
      gPrime[24] -> 2.7670136424540335, gPrime[25] -> 3.248639478923264, 
      gPrime[26] -> 18.66836527567788, gPrime[27] -> 1.0973058478300366, 
      gPrime[28] -> 4.08921019413144, gPrime[29] -> 9.675562254584047, 
      gPrime[30] -> 9.253970590074802, gPrime[31] -> 54.03620830466195, 
      gPrime[32] -> 10.97210173391857, gPrime[33] -> 7.180565130120136, 
      gPrime[34] -> 3.9403692526730696, gPrime[35] -> 10.147790409143456, 
      gPrime[36] -> 16.560851982597505, gPrime[37] -> 8.431447178288753, 
      gPrime[38] -> 14.235630605612881, gPrime[39] -> 7.064956235624204, 
      gPrime[40] -> 45.95334513161482, gPrime[41] -> 43.63243871518284, 
      gPrime[42] -> 12.068410297822917, gPrime[43] -> 8.223380990295963, 
      gPrime[44] -> 3.2896047600912226, gPrime[45] -> 5.000261165088256, 
      gPrime[46] -> 15.400925949506584, gPrime[47] -> 5.67088062462593, 
      gPrime[48] -> 12.683461770851011, gPrime[49] -> 7.277886271286143, 
      gPrime[50] -> 1.236351981229627, gPrime[51] -> 2.181217902844611, 
      gPrime[52] -> 18.162214272315385, gPrime[53] -> 12.107279257603006, 
      gPrime[54] -> 2.9455466902915086, gPrime[55] -> 20.053385611661568, 
      gPrime[56] -> 7.156776865190098, gPrime[57] -> 6.981319315793815, 
      gPrime[58] -> 3.7551485889096097, gPrime[59] -> 12.98365729379882, 
      gPrime[60] -> 8.37729761968001, gPrime[61] -> 7.630228316686287, 
      gPrime[62] -> 12.479101510683401, gPrime[63] -> 4.85335802897625, 
      gPrime[64] -> 2.461402786289445, gPrime[65] -> 56.988566481186986, 
      gPrime[66] -> 2.220446049250313*^-16, gPrime[67] -> 13.642197323386332, 
      gPrime[68] -> 8.580178195822738, gPrime[69] -> 4.479500434004871, 
      gPrime[70] -> 7.831649097397829, gPrime[71] -> 5.362695003380335, 
      gPrime[72] -> 19.57093671567613, gPrime[73] -> 12.224284848909322, 
      gPrime[74] -> 14.329611223111497, gPrime[75] -> 9.565006911832619, 
      gPrime[76] -> 13.727832231032295, gPrime[77] -> 1.2521024884547283, 
      gPrime[78] -> 2.597081337485018, gPrime[79] -> 6.869305131843494, 
      gPrime[80] -> 2.9927809228343127, gPrime[81] -> 3.650717840605574, 
      gPrime[82] -> 4.172791385836287, gPrime[83] -> 12.731172723237405, 
      gPrime[84] -> 17.25774644864475, gPrime[85] -> 14.209634294209987, 
      gPrime[86] -> 14.191942244673479, gPrime[87] -> 35.18310288888128, 
      gPrime[88] -> 12.137951793895624, gPrime[89] -> 8.565922422580238, 
      gPrime[90] -> 4.080136091951412, gPrime[91] -> 7.193046108865759, 
      gPrime[92] -> 8.354080274082499, gPrime[93] -> 9.257987103675303, 
      gPrime[94] -> 15.545490031446917, gPrime[95] -> 6.033444105409278, 
      gPrime[96] -> 8.13470981390804, gPrime[97] -> 2.919642017516796, 
      gPrime[98] -> 10.87641427524261, gPrime[99] -> 9.53589920483606, 
      gPrime[100] -> 7.3500114271398544, gPrime[101] -> 5.379919528148352, 
      gPrime[102] -> 8.760960679231655, gPrime[103] -> 7.859660537462052, 
      gPrime[104] -> 2.9941264090156285, gPrime[105] -> 2.5033994486893407, 
      gPrime[106] -> 2.964416007049346, gPrime[107] -> 2.752061126603244, 
      gPrime[108] -> 3.3499261926784185, gPrime[109] -> 4.3736516489122765, 
      gPrime[110] -> 2.4388480404871182, gPrime[111] -> 0.7706821019713572, 
      gPrime[112] -> 0.4087354544253768, gPrime[113] -> 6.5702972900915055, 
      gPrime[114] -> 3.448385552250137, gPrime[115] -> 11.813584087624061, 
      gPrime[116] -> 15.445896145053831, gPrime[117] -> 8.014565942237537}}
 
modelFitToRegion[UniformDistribution]["p24 gapless hyperconservedless"][
     "Scaled PC"] = {-67004.52307558553, {theta[1] -> 0.41489387839528175, 
      theta[2] -> 0.40006769276045584, gPrime[1] -> 7.725471666576264, 
      gPrime[2] -> 10.66516488311667, gPrime[3] -> 18.537802946194073, 
      gPrime[4] -> 3.3872867359310175, gPrime[5] -> 25.315611191037966, 
      gPrime[6] -> 22.286354949518955, gPrime[7] -> 8.8210492698156, 
      gPrime[8] -> 12.051716708976578, gPrime[9] -> 14.963211733382213, 
      gPrime[10] -> 3.2666192935279192, gPrime[11] -> 2.3437932996595543, 
      gPrime[12] -> 7.496909394147661, gPrime[13] -> 18.674979769112515, 
      gPrime[14] -> 13.90716901113251, gPrime[15] -> 17.715997270614086, 
      gPrime[16] -> 12.771765405716978, gPrime[17] -> 11.533040577755367, 
      gPrime[18] -> 11.368445972190136, gPrime[19] -> 4.011156194202724, 
      gPrime[20] -> 10.839869091573163, gPrime[21] -> 12.392424386412829, 
      gPrime[22] -> 17.500056648954708, gPrime[23] -> 4.731143661340657, 
      gPrime[24] -> 5.003980438825012, gPrime[25] -> 31.456905609429633, 
      gPrime[26] -> 4.845200988387572, gPrime[27] -> 9.808947711079213, 
      gPrime[28] -> 37.551855502605434, gPrime[29] -> 43.415771565398146, 
      gPrime[30] -> 4.20593870918578, gPrime[31] -> 8.086622956882412, 
      gPrime[32] -> 48.44862340268693, gPrime[33] -> 8.634546364948923, 
      gPrime[34] -> 10.90709863468008, gPrime[35] -> 10.106211155962482, 
      gPrime[36] -> 11.667462413532217, gPrime[37] -> 23.74172936779997, 
      gPrime[38] -> 5.848001816281838, gPrime[39] -> 15.714085243984188, 
      gPrime[40] -> 48.03961621448817, gPrime[41] -> 15.744625060807, 
      gPrime[42] -> 7.790467467907803, gPrime[43] -> 33.12400258215954, 
      gPrime[44] -> 26.24025475658978, gPrime[45] -> 8.818807161202987, 
      gPrime[46] -> 7.679249357056037, gPrime[47] -> 16.4819644845256, 
      gPrime[48] -> 12.474767459142775, gPrime[49] -> 48.714392044032195, 
      gPrime[50] -> 12.510418251335205, gPrime[51] -> 19.64746138721176, 
      gPrime[52] -> 13.506968304998201, gPrime[53] -> 12.162768048718046, 
      gPrime[54] -> 15.619693523579336, gPrime[55] -> 8.610029098923695, 
      gPrime[56] -> 15.31841415664387, gPrime[57] -> 12.123773551816093, 
      gPrime[58] -> 13.76451982468242, gPrime[59] -> 10.137241598606982, 
      gPrime[60] -> 3.351792626796108, gPrime[61] -> 6.6840726633314915, 
      gPrime[62] -> 4.652629943169687, gPrime[63] -> 12.01311676643295, 
      gPrime[64] -> 0.8061265519611255, gPrime[65] -> 6.038973176006061, 
      gPrime[66] -> 19.99461448795715, gPrime[67] -> 10.904946677165492, 
      gPrime[68] -> 19.66048466353299, gPrime[69] -> 3.257342431476485, 
      gPrime[70] -> 14.94361152202909, gPrime[71] -> 8.64648312985316, 
      gPrime[72] -> 37.099976033955244, gPrime[73] -> 13.229696299537355, 
      gPrime[74] -> 9.266449631859707, gPrime[75] -> 9.740007605305207, 
      gPrime[76] -> 12.773371888243448, gPrime[77] -> 13.267488598601961, 
      gPrime[78] -> 10.800257120218022, gPrime[79] -> 13.487113074883489, 
      gPrime[80] -> 9.210180824902723, gPrime[81] -> 5.515425899581173, 
      gPrime[82] -> 28.611545335316478, gPrime[83] -> 14.22972365177164, 
      gPrime[84] -> 14.77506400692866, gPrime[85] -> 4.772853510538483, 
      gPrime[86] -> 4.60506733141501, gPrime[87] -> 16.608088616724363, 
      gPrime[88] -> 6.591330723699168, gPrime[89] -> 11.737221668892847, 
      gPrime[90] -> 2.2774740668936673, gPrime[91] -> 12.503266313359232, 
      gPrime[92] -> 32.992414633618885, gPrime[93] -> 17.32108181184066, 
      gPrime[94] -> 0.9288103390366059, gPrime[95] -> 32.131607524363865, 
      gPrime[96] -> 15.014451886543247, gPrime[97] -> 14.276591751528544, 
      gPrime[98] -> 5.685676665055823, gPrime[99] -> 9.362425403134097, 
      gPrime[100] -> 19.836391190980045, gPrime[101] -> 17.559262241848888, 
      gPrime[102] -> 12.776346668724209, gPrime[103] -> 10.237168058191974, 
      gPrime[104] -> 6.528390232423747, gPrime[105] -> 36.43550779023405, 
      gPrime[106] -> 13.757970470143725, gPrime[107] -> 15.730702859294654, 
      gPrime[108] -> 20.60298983843165, gPrime[109] -> 11.037776178830956, 
      gPrime[110] -> 13.532366143182124, gPrime[111] -> 13.023997134334548, 
      gPrime[112] -> 52.78762860257488, gPrime[113] -> 5.910131592441417, 
      gPrime[114] -> 9.241743564067548, gPrime[115] -> 8.773599792979242, 
      gPrime[116] -> 2.9961985570675504, gPrime[117] -> 13.416965141399523, 
      gPrime[118] -> 13.561176565533552, gPrime[119] -> 15.364113766803808, 
      gPrime[120] -> 19.66688744429946, gPrime[121] -> 14.177990904693816, 
      gPrime[122] -> 13.892141070458118, gPrime[123] -> 15.161250388596843, 
      gPrime[124] -> 4.223911739839213, gPrime[125] -> 3.7402427645513954, 
      gPrime[126] -> 12.20578050339867, gPrime[127] -> 5.702468890914106, 
      gPrime[128] -> 15.491764000442037, gPrime[129] -> 17.317921074721404, 
      gPrime[130] -> 5.4192560018234905, gPrime[131] -> 7.711685520076587, 
      gPrime[132] -> 22.187387882402323, gPrime[133] -> 5.857463267078092, 
      gPrime[134] -> 16.9861883906869, gPrime[135] -> 9.917355546997774, 
      gPrime[136] -> 12.514729973641119, gPrime[137] -> 6.924820449700996, 
      gPrime[138] -> 12.590095742036842, gPrime[139] -> 5.947986407257386, 
      gPrime[140] -> 8.82748875183931, gPrime[141] -> 13.794137204659346, 
      gPrime[142] -> 12.629152490997429, gPrime[143] -> 6.538091420558286, 
      gPrime[144] -> 9.615746706035067, gPrime[145] -> 5.543642077328742, 
      gPrime[146] -> 4.752196876856121, gPrime[147] -> 44.11404147092572, 
      gPrime[148] -> 5.474276970397097, gPrime[149] -> 5.019991491929549, 
      gPrime[150] -> 10.175065775616119, gPrime[151] -> 4.5228156780739885, 
      gPrime[152] -> 12.823219050831483, gPrime[153] -> 15.3696670293329, 
      gPrime[154] -> 17.94380751728523, gPrime[155] -> 50.81246906032746, 
      gPrime[156] -> 44.29365264279063, gPrime[157] -> 12.231190279609892, 
      gPrime[158] -> 15.030645715590152, gPrime[159] -> 14.455864438858208, 
      gPrime[160] -> 2.525828864103663, gPrime[161] -> 17.30547542544372, 
      gPrime[162] -> 18.035856016358732, gPrime[163] -> 14.114823668249025, 
      gPrime[164] -> 15.963940653380313, gPrime[165] -> 9.819982759246097}}
 
modelFitToRegion[UniformDistribution]["p6 gapless hyperconservedless"][
     "Scaled PC"] = {-29066.953801866286, {theta[1] -> 0.2795856534123423, 
      theta[2] -> 0.49336537926221485, gPrime[1] -> 8.920522492050912, 
      gPrime[2] -> 20.62806066366188, gPrime[3] -> 1.8581985732018227, 
      gPrime[4] -> 14.239114878379478, gPrime[5] -> 10.387688725416218, 
      gPrime[6] -> 8.220020099548526, gPrime[7] -> 25.11912021623087, 
      gPrime[8] -> 7.270215015975712, gPrime[9] -> 14.692387885070133, 
      gPrime[10] -> 24.163263739790747, gPrime[11] -> 5.825987773149253, 
      gPrime[12] -> 11.383406846596857, gPrime[13] -> 7.238024707907592, 
      gPrime[14] -> 3.915258302543185, gPrime[15] -> 4.151451435094623, 
      gPrime[16] -> 3.1684158266155125, gPrime[17] -> 2.0273017692816815, 
      gPrime[18] -> 6.119476316241051, gPrime[19] -> 6.986955960390127, 
      gPrime[20] -> 6.2321980488162, gPrime[21] -> 5.652578302025553, 
      gPrime[22] -> 5.634205659890964, gPrime[23] -> 3.4616607201599496, 
      gPrime[24] -> 6.218436343732665, gPrime[25] -> 2.3831438842657646, 
      gPrime[26] -> 7.861723752574583, gPrime[27] -> 9.688065501872382, 
      gPrime[28] -> 8.48832774799907, gPrime[29] -> 1.7252551726351184, 
      gPrime[30] -> 4.726299154341251, gPrime[31] -> 7.653575157761034, 
      gPrime[32] -> 5.289777530904024, gPrime[33] -> 8.289339765962838, 
      gPrime[34] -> 2.5478867095536066, gPrime[35] -> 1.4357414814987113, 
      gPrime[36] -> 4.583736516504273, gPrime[37] -> 20.779892104143503, 
      gPrime[38] -> 5.268523147707506, gPrime[39] -> 5.466555447546992, 
      gPrime[40] -> 39.093517842655956, gPrime[41] -> 6.334076067804159, 
      gPrime[42] -> 44.12961348775516}}
 
modelFitToRegion[UniformDistribution]["p7 gapless hyperconservedless"][
     "Scaled PC"] = {-22313.397179735828, {theta[1] -> 0.7354344158366382, 
      theta[2] -> 0.17248874619498736, gPrime[1] -> 10.49164932900248, 
      gPrime[2] -> 33.524261253612195, gPrime[3] -> 5.947823829129292, 
      gPrime[4] -> 2.8673936385557814, gPrime[5] -> 10.246367054712634, 
      gPrime[6] -> 2.4968402106522745, gPrime[7] -> 12.806929368407614, 
      gPrime[8] -> 9.04447500285966, gPrime[9] -> 0.5768240155649498, 
      gPrime[10] -> 5.170350927078592, gPrime[11] -> 7.98873296865745, 
      gPrime[12] -> 3.8629150503762824, gPrime[13] -> 2.3035120385402217, 
      gPrime[14] -> 23.03408030772417, gPrime[15] -> 2.8019633377838846, 
      gPrime[16] -> 14.082551308999584, gPrime[17] -> 20.824529739549668, 
      gPrime[18] -> 13.06019754466073, gPrime[19] -> 9.300325650817687, 
      gPrime[20] -> 17.006271951790175, gPrime[21] -> 19.56954801839943, 
      gPrime[22] -> 4.105158550420097, gPrime[23] -> 11.858716709712786, 
      gPrime[24] -> 5.420432161945529, gPrime[25] -> 13.439906497352027, 
      gPrime[26] -> 8.989533186406236, gPrime[27] -> 38.92081573876114, 
      gPrime[28] -> 12.352062690720158, gPrime[29] -> 16.276332533535303, 
      gPrime[30] -> 12.470432838476194, gPrime[31] -> 21.87776653798603, 
      gPrime[32] -> 18.085194165104408, gPrime[33] -> 6.919726898257122, 
      gPrime[34] -> 18.705979934302956, gPrime[35] -> 18.030410827628028, 
      gPrime[36] -> 26.39766997997927, gPrime[37] -> 61.569914199181255, 
      gPrime[38] -> 19.833730980002873, gPrime[39] -> 15.615765214749322, 
      gPrime[40] -> 19.9444241327385, gPrime[41] -> 7.6354842692916645, 
      gPrime[42] -> 13.297361657680357, gPrime[43] -> 11.837850740149053, 
      gPrime[44] -> 29.66271927116384, gPrime[45] -> 9.616361096207326, 
      gPrime[46] -> 14.913052364444102}}
