site,optAA,Gprime
1,F,1.0565397324965426
2,L,4.860699432710092
3,V,0.19815742672427109
4,S,1.3055016730980846
5,L,0.7538122307797925
6,V,1.2346439801503133
7,L,0.7369120810694582
8,V,0.4071740044244944
9,I,1.9308920558240612
10,G,4.008147580511435
11,V,2.800150621151523
12,K,2.829568360435235
13,Y,2.8642018732402583
14,S,1.07329475572986
15,K,1.0494859381025492
16,I,0.37157288397177385
17,P,0.9957680113660917
18,F,6.59176348456897
19,F,0.657203333199118
20,M,1.1731847258283814
21,P,0.9183236035405986
22,D,0.31648372052914203
23,T,3.2867999076371994
24,P,1.657352175300469
25,V,0.962767760923636
26,Q,0.12825771868322275
27,K,0.8538446107641651
28,V,0.6489663364119217
29,W,1.1500126921388922
30,Q,0.8750610058955356
31,M,0.18094119179214427
32,P,1.3655233308586394
33,C,2.204685264333452
34,C,0.407801440931539
35,I,0.16625460428154307
36,K,1.31524519982943
37,A,4.633442770521068
38,I,2.5736199200888885
39,P,0.15024041315944187
40,C,0.5715023427418786
41,I,1.30362248630925
42,M,6.332752917937062
43,M,2.466495053732141
44,P,0.6889840270536558
45,W,3.5696595371944544
46,I,0.5590126493254086
47,E,0.7838314102624991
48,L,1.4609531796342057
49,L,0.5634399601523937
50,V,2.3585514245632697
51,S,0.9852205911572768
52,Y,2.59937739694667
53,I,0.27632239712136175
54,K,1.2065017350665106
55,T,1.5177152401584781
56,L,0.5762957951554126
57,M,0.5938140952444897
58,A,0.3994101738455647
59,P,4.870528253076805
60,I,2.1336898262791917
61,Q,0.21769318912039554
62,C,0.462665710119924
63,P,0.5749413868047819
64,F,1.434102033002313
65,Q,1.5567229268738585
66,D,0.05850709804000289
67,N,0.9683777691289599
68,T,4.597869704327187
69,P,0.4638695354110952
70,C,1.07260016783281
71,W,3.0099765189372305
72,I,1.274224370784978
73,M,4.884400891991904
74,M,0.39519583718995266
75,P,0.42679763119153175
76,S,0.5626083411726299
77,C,0.9942140570991188
78,W,0.6938300575482115
79,N,0.5907932804381999
80,P,1.4182168158736357
81,M,0.36047521072485394
82,P,0.07914941419649026
83,W,0.9258599121241365
84,P,0.865432415676657
85,Y,0.9182310377823859
86,I,1.3378125829385212
87,A,1.0005387553314895
88,Y,0.9241258591465908
89,Y,1.5380315023956508
90,V,0.42936513754809624
91,W,2.3319453804227765
92,T,2.230046035911485
93,T,1.5481148145628238
94,Y,3.749196424735513
95,A,3.0736550884730987
96,C,0.18743765664459927
97,S,1.502223158438473
98,Q,1.3113680775478154
99,P,1.3026495645347134
100,P,0.19166253110195444
101,S,1.6770507785061333
102,S,1.126916479727084
103,V,0.5150342625230677
104,W,0.6626674557545047
105,P,2.411789818787802
106,M,1.3408485615104089
107,Q,1.9931736785869596
108,Q,4.0208126537667015
109,L,3.05948359726391
110,V,2.6244821305325576
111,D,1.6066128591811932
112,L,1.0897068538436872
113,T,2.5030310082959524
114,Y,0.0707345160189298
115,P,0.32241883082338624
116,S,2.564640066659096
117,I,4.594608747788908
118,V,11.281392336456916
119,M,0.7896310758320974
120,Y,0.884260270129612
121,F,0.2001492786466923
122,C,0.32848747947155854
123,T,0.884925198573192
124,A,3.059719485737821
125,Y,0.5178569743656202
126,A,0.4522461434623099
127,P,1.1929244435419957
128,S,1.683164612749582
129,D,0.2125347121160516
130,L,0.28655880626410607
131,P,0.5328187962974826
132,S,3.067852459180837
133,I,1.3845356872222356
134,Y,1.8290896296131263
135,Y,2.9440271027966465
136,G,2.8035113314537976
137,H,7.772880760008839
138,Y,2.909523394791462
139,T,1.2010200707677914
140,Y,0.8345667652682022
141,K,0.7557588327203234
142,I,3.8228565563852723
143,P,0.45234204926182525
144,F,4.961799398212972
145,C,1.0599097987591997
146,K,0.524308389857545
147,P,0.10722833282366794
148,A,4.338749318389533
149,S,7.7087346913203785
150,M,2.6482105347389635
151,M,0.9272575241561953
152,Y,0.47989226633791676
153,M,0.3965352062328356
154,W,0.3662268917511163
155,V,0.3404139284069288
156,S,4.080652611726277
157,T,0.25208143502177033
158,M,0.9226212144480429
159,L,0.30537522562654146
160,P,0.58687904977856
161,A,0.5928820606181999
162,M,0.7129949472805307
163,I,1.0262840028563711
164,K,0.1522843320863389
165,D,1.4303490196166775
166,T,6.362905697645003
167,V,0.29502645482555995
168,S,0.2491689826045653
169,A,1.053325846732689
170,W,1.5013680418306836
171,M,0.821276535090445
172,L,0.1653806039630605
173,M,0.4990569198671057
174,F,5.332182498809318
175,K,0.46194044052518307
176,Y,0.5504815101625907
177,P,0.583841934619641
178,C,0.13709551890530286
179,A,0.6818344719739298
180,Y,0.5277236034632964
181,Y,0.21059828052507684
182,N,2.3363764376872784
183,L,0.6347105594753826
184,L,2.2325673263289345
185,I,0.44723121361274976
186,N,0.5554099408092966
187,M,2.02998938164175
188,A,2.2217125857283806
189,L,4.631657886328441
190,M,2.144704755765264
191,I,3.752458744222081
192,I,0.5198386563857679
193,V,0.962637033976359
194,I,0.40157949244771235
195,M,0.9130979497344339
196,A,0.5402340926969282
197,S,0.8622396345813416
198,K,0.8039635467605006
199,L,2.5063257270278068
200,D,1.317218936262482
201,H,0.4183053989464092
202,Y,3.689975869010649
203,M,0.5944584154677223
204,L,0.17628446797496472
205,T,1.608310826705028
206,K,3.242254617493908
207,N,0.3895485383718857
208,S,0.7977848532283633
209,P,1.9979894212005889
210,M,11.297013988649397
211,C,0.700648424794491
212,V,1.4409400183038095
213,S,1.2406178318516305
214,K,0.18762332213423766
215,M,1.154251590610903
216,K,0.5403879662092312
217,Q,0.9531019549341452
218,I,1.13829071785564
219,I,1.1523758389048528
220,A,0.5553223789968833
221,I,3.883748305141041
222,C,0.5063160493918741
223,A,1.1274288184761363
224,K,0.7021868095253001
225,F,1.1932414594294927
226,L,2.0164820850138363
227,P,0.8335904058506254
228,A,3.105740108865863
229,I,0.6765611153696933
230,A,5.693164175497142
231,Y,0.44841600238372165
232,L,0.9064719353521876
233,T,0.8174275460865748
234,L,0.344224210548747
235,A,0.46163732034372695
236,E,0.9926242099678685
237,P,2.1864455463625956
238,D,1.1930606064410583
239,M,7.236410399030709
240,M,0.9761500214025417
241,K,1.0862288290324111
242,F,1.5499340049705228
243,C,1.0520762048866295
244,D,0.2973381930367474
245,Y,1.0374378651380265
246,L,3.1102222403898883
247,C,0.14769280801252918
248,D,0.6749627725383661
249,K,0.3034405064499007
250,F,0.3769942231334523
251,Q,0.21491954434882063
252,S,2.318423514027531
253,Y,0.6576259275632257
254,C,2.1003698530441675
255,A,1.168678659958493
256,M,0.8753550840914475
257,S,0.7484983092751019
258,P,1.5787191878108078
259,I,1.991485419233387
260,A,4.123486100998782
261,Y,0.6187462809515376
262,N,0.2168362116583644
263,I,0.39137801153345325
264,C,0.23305582317563278
265,S,0.6128079237041844
266,C,0.2718779484362196
267,D,0.20009338819123118
268,S,0.40972321727742034
269,T,0.9062297721774539
270,V,0.39315119873489207
271,M,2.3715637658610587
272,I,1.1691677249221974
273,D,0.5026345985349647
274,C,1.4463522311947155
275,N,0.13187942494542793
276,P,0.37475279410480733
277,H,1.191780410445942
278,M,0.4065191814784697
279,R,3.7138325400217638
280,K,0.17340056844240456
281,P,0.782390851148396
282,S,1.36152764996353
283,L,0.9034233396648333
284,I,2.4599936665910613
285,D,1.9121312263454735
286,D,1.646250247057458
287,I,0.965494103084932
288,M,1.2222634898215
289,C,1.492997455726596
290,P,1.7744502224565664
291,M,0.35748329432698056
292,Q,2.144072047202255
293,Y,1.2073189124031132
294,H,0.3159969396430802
295,K,0.5216183455838134
296,V,0.778911025586765
297,C,0.3211891620726834
298,W,1.4439445590899909
299,M,2.26200986243675
300,C,2.77464936443946
301,L,1.7879809845807353
302,I,0.12367608691462569
303,C,0.6639464771949346
304,F,2.9120562953401623
305,I,0.4184670365152718
306,I,0.6439189911083241
307,P,1.0197981588810958
308,N,1.0471193579345273
309,P,1.333601391067363
310,C,1.204470612815209
311,P,1.717866075433018
312,E,0.6895763804388999
313,P,1.1117434274479843
314,V,0.7094939195137213
315,P,1.8425624144689583
316,Y,1.5098377307237703
317,C,0.8974538626306792
318,V,1.72462027227041
319,I,0.36825819823132205
320,K,0.5018162734543102
321,M,0.47828983287344246
322,Y,2.0925875229194713
323,Y,1.1352216602156966
324,C,0.8407136551030644
325,M,3.72210199952893
326,A,0.25911708077966233
327,Y,0.28660831115283936
328,P,0.11278322360349949
329,P,0.437655417170428
330,V,0.6928322559877177
331,K,2.3551435877838878
332,D,0.2637659679229499
333,D,0.5907485979733892
334,L,0.20023597939546708
335,S,4.6495017850122675
336,A,0.9349612710124966
337,Y,0.5397887649345964
338,C,0.6961122520158425
339,M,2.588559561593853
340,P,1.0627447924566629
341,A,3.692285557127924
342,P,0.40627951783654664
343,M,2.4905441894441904
344,L,0.42407326119740496
345,K,0.604206274219867
346,P,0.6377164593914778
347,M,11.994611868465684
348,N,0.2622675166035863
349,A,0.711884522576575
350,M,0.6317114061717881
351,Y,0.4922279795826405
352,S,3.382276981476768
353,I,1.625458669052877
354,P,1.7645848360137455
355,K,1.310903772377059
356,A,0.9518974226122311
357,T,2.9293552267898275
358,V,3.8113876869622225
359,S,1.0407456143492155
360,Y,1.5846053344987272
361,A,2.0346828343967456
362,L,1.3918804374730385
363,N,0.2858708662585864
364,S,3.4588333160454043
365,Y,4.750095272504389
366,L,0.5464457272489933
367,P,0.769342155401725
368,P,1.7852363758795315
369,H,0.5037965449838804
370,M,3.402153962918842
371,P,1.0234858564668294
372,S,1.1415226068664883
373,L,2.5070054459330144
374,A,0.785956860659313
375,A,0.7326290058031665
376,P,1.0214397849181913
377,L,0.3734386272962306
378,M,1.2299551089474123
379,S,0.3389419403935803
380,E,0.6211606769379695
381,A,1.3683377054544663
382,W,0.4755683613446841
383,F,0.32082729327486453
384,I,0.8636641586021707
385,I,7.835908382437308
386,Y,1.3529744434367907
387,P,2.790065795005917
388,Y,0.24136378951642784
389,V,2.8328860079524487
390,I,0.5555323907514824
391,T,0.04528323875490993
392,L,0.8938759162855676
393,I,1.0334674415750542
394,I,4.273711268281397
395,D,0.656847562699249
396,F,12.993799349192534
397,P,0.25084141989841846
398,L,0.4668988362277053
399,W,0.5267187668721838
400,M,0.8961666229552074
401,S,0.37570410107518587
402,Y,0.6304413974176528
403,M,3.280449410403012
404,P,0.2685763012657235
405,A,1.0492073452223298
406,W,3.0173591261137416
407,S,0.403427327332395
408,P,0.798182516433332
409,C,2.3418396903791634
410,P,2.9884118365115686
411,F,1.1095077833115505
412,L,2.6023145547275672
413,C,0.21068048430990566
414,D,0.3901419477963778
415,Y,0.5199345328027446
416,L,3.8821260273733853
417,K,0.19734376261328804
418,Y,1.599280024958343
419,T,0.619755432108208
420,Y,0.7399964178490608
421,N,4.84187067807016
422,L,2.0744609249656882
423,C,5.560264827654114
424,V,0.5714116652479876
425,M,0.960354770412088
426,P,0.35643198154620653
427,M,0.40467403039469424
428,V,0.3318922516661473
429,H,0.8431578094323199
430,Y,1.1928628550168863
431,A,2.1709234416033536
432,Y,2.251579877766405
433,Y,1.3553563592551632
434,L,1.3040968811929823
435,C,0.3003432917037063
436,V,0.21609953335888052
437,K,2.2835970781182766
438,V,1.1368107579840452
439,V,1.1834567868546984
440,P,3.9003525222612225
441,A,0.7243313339508795
442,M,0.23604096392449844
443,P,0.24540931970177174
444,I,2.8201605738857523
445,A,0.6441576784706666
446,S,3.6113833352170146
447,T,1.051742470068524
448,C,0.26997189215318673
449,Y,0.8426472199256088
450,L,5.894318768752121
451,T,0.4789172278369965
452,Q,2.1849730879650164
453,C,0.4484541841253713
454,D,3.690397697188226
455,C,1.9582994559597604
456,P,11.084063223506904
457,Y,0.7152340950633489
458,M,10.808231866621655
459,W,0.4268701331898568
460,W,1.387953332734713
461,Y,0.43302786512824576
462,W,3.206305825248651
463,S,1.0275358206099756
464,P,2.2425086808894346
465,R,1.4692984668129718
466,M,4.304807473931619
467,S,0.8533366049509238
468,D,3.4999675154573895
469,K,1.074945725582789
470,L,0.189335861197782
471,C,0.9258287949584175
472,V,2.318081034060717
473,A,1.7527151567700463
474,A,1.4743345653845197
475,L,0.3527542459043089
476,M,1.5445334792518004
477,S,0.7721652106847686
478,P,0.08643087576091082
479,Y,9.135792098674152
480,K,0.5443883667635634
481,M,1.3171894884555522
482,Y,0.7632787365436453
483,L,2.2435200540744327
484,M,2.744216069349014
485,A,1.00209032751625
486,C,0.26984568497934575
487,S,1.6013501610572807
488,Q,3.0598993464497775
489,Q,4.176877465623401
490,A,0.16608772241366263
491,S,0.8824846628976875
492,V,0.6214615088698454
493,I,1.5671251861376851
494,I,1.4383425218311778
495,A,3.7567001229236854
496,D,1.9007471504612472
497,F,0.1937151233072298
498,C,8.025435126402657
499,Y,0.9665912105916169
500,P,0.9416065882710649