QT,106,E,full,2.30015042145e-07,0.0425542507,44,349,Unknown,time,0,93,184,245,305,freq_con,0,0,0,0,0.0909090909,lw_CI,0,0,0,0,0.0640816275,up_CI,0.2384041904,0.2384041904,0.2058166652,0.153317554,0.1616179707
QT,167,E,full,0.981042831,0.0001892717,44,349,Unknown,time,0,93,184,245,305,freq_con,1,0.9090909091,1,1,1,lw_CI,0.2384041904,0.1616179707,0.2058166652,0.153317554,0.2384041904,up_CI,0,0.0640816275,0,0,0
QT,200,M,full,0.9999996101,-0.0407618073,44,349,Unknown,time,0,93,184,245,305,freq_con,1,1,1,1,0.9090909091,lw_CI,0.2384041904,0.2384041904,0.2058166652,0.153317554,0.1616179707,up_CI,0,0,0,0,0.0640816275
QT,275,R,full,0.9886463742,0.0001913795,44,349,Unknown,time,0,93,184,245,305,freq_con,1,1,1,0.9444444444,1,lw_CI,0.2384041904,0.2384041904,0.2058166652,0.1059614371,0.2384041904,up_CI,0,0,0,0.0392260617,0
QT,285,I,full,0.981042831,0.0001892717,44,349,Unknown,time,0,93,184,245,305,freq_con,1,0.9090909091,1,1,1,lw_CI,0.2384041904,0.1616179707,0.2058166652,0.153317554,0.2384041904,up_CI,0,0.0640816275,0,0,0
QT,301,F,full,0.9886463742,0.0001913795,44,349,Unknown,time,0,93,184,245,305,freq_con,1,1,1,0.9444444444,1,lw_CI,0.2384041904,0.2384041904,0.2058166652,0.1059614371,0.2384041904,up_CI,0,0,0,0.0392260617,0
QT,347,M,full,0.981042831,0.0001892717,44,349,Unknown,time,0,93,184,245,305,freq_con,1,0.9090909091,1,1,1,lw_CI,0.2384041904,0.1616179707,0.2058166652,0.153317554,0.2384041904,up_CI,0,0.0640816275,0,0,0
QT,390,V,full,0.9999996101,-0.0407618073,44,349,Unknown,time,0,93,184,245,305,freq_con,1,1,1,1,0.9090909091,lw_CI,0.2384041904,0.2384041904,0.2058166652,0.153317554,0.1616179707,up_CI,0,0,0,0,0.0640816275
QT,438,W,full,0.981042831,0.0001892717,44,349,Unknown,time,0,93,184,245,305,freq_con,1,0.9090909091,1,1,1,lw_CI,0.2384041904,0.1616179707,0.2058166652,0.153317554,0.2384041904,up_CI,0,0.0640816275,0,0,0
QT,459,P,full,0.9842170624,0.0001887908,44,349,Unknown,time,0,93,184,245,305,freq_con,1,1,0.9230769231,1,1,lw_CI,0.2384041904,0.2384041904,0.1406300508,0.153317554,0.2384041904,up_CI,0,0,0.0542590108,0,0
QT,460,A,full,0.9817572369,-0.0022663705,44,349,Unknown,time,0,93,184,245,305,freq_con,1,1,0.9230769231,0.9444444444,1,lw_CI,0.2384041904,0.2384041904,0.1406300508,0.1059614371,0.2384041904,up_CI,0,0,0.0542590108,0.0392260617,0
QT,467,E,full,0.9999996101,-0.0407618073,44,349,Unknown,time,0,93,184,245,305,freq_con,1,1,1,1,0.9090909091,lw_CI,0.2384041904,0.2384041904,0.2058166652,0.153317554,0.1616179707,up_CI,0,0,0,0,0.0640816275
QT,54,S,full,0.0292834339,-1.06522006989e-05,44,349,Unknown,time,0,93,184,245,305,freq_con,0,0.0909090909,0,0.0555555556,0,lw_CI,0,0.0640816275,0,0.0392260617,0,up_CI,0.2384041904,0.1616179707,0.2058166652,0.1059614371,0.2384041904
QT,55,E,full,0.8398539215,-0.0116320053,44,349,Unknown,time,0,93,184,245,305,freq_con,1,0.2727272727,0.8461538462,0.0555555556,0,lw_CI,0.2384041904,0.1366768243,0.1611112434,0.0392260617,0,up_CI,0,0.1911950924,0.0901220662,0.1059614371,0.2384041904
QT,98,K,full,0.9886463742,0.0001913795,44,349,Unknown,time,0,93,184,245,305,freq_con,1,1,1,0.9444444444,1,lw_CI,0.2384041904,0.2384041904,0.2058166652,0.1059614371,0.2384041904,up_CI,0,0,0,0.0392260617,0
QT,55.0,E, sub1,1.0,-0.00048475,0.0,0.0,unknown,time,[0.0],freq_con,[1.0],lw_CI,[0.2384041903808527],up_CI,[0.0]
QT,55.0,E, sub2,0.272741215075,0.0295114061383,0.0,91.0,unknown,time,[0.0, 91.0],freq_con,[0.2727272727272727, 0.8461538461538461],lw_CI,[0.13667682425490577, 0.16111124338991556],up_CI,[0.19119509235369225, 0.090122066247876553]
QT,55.0,E, sub1,1.0,-0.00048475,0.0,0.0,unknown,time,[0.0],freq_con,[1.0],lw_CI,[0.2384041903808527],up_CI,[0.0]
QT,55.0,E, sub2,0.272741215075,0.0295114061383,0.0,91.0,unknown,time,[0.0, 91.0],freq_con,[0.2727272727272727, 0.8461538461538461],lw_CI,[0.13667682425490577, 0.16111124338991556],up_CI,[0.19119509235369225, 0.090122066247876553]
QT,55.0,E, sub3,0.846187544522,-0.0744099774832,0.0,121.0,unknown,time,[0.0, 61.0, 121.0],freq_con,[0.8461538461538461, 0.05555555555555555, 0.0],lw_CI,[0.16111124338991556, 0.039226061693023923, 0.0],up_CI,[0.090122066247876553, 0.1059614370782859, 0.2384041903808527]
