OC,102,D,full,0.9937469731,0.0001920356,27,755,Unknown,time,0,59,181,273,366,455,548,639,728,freq_con,1,1,1,1,0.9473684211,1,1,1,1,lw_CI,0.170749723,0.1810362725,0.2384041904,0.153317554,0.1009650824,0.393037769,0.2384041904,0.2831288356,0.393037769,up_CI,0,0,0,0,0.0371665152,0,0,0,0,,,,,,,,
OC,111,S,full,0.995064567,-0.0019335752,27,755,Unknown,time,0,59,181,273,366,455,548,639,728,freq_con,1,1,1,1,1,1,0.9090909091,1,1,lw_CI,0.170749723,0.1810362725,0.2384041904,0.153317554,0.1458685033,0.393037769,0.1616179707,0.2831288356,0.393037769,lower_CI,0,0,0,0,0,0,0.0640816275,0,0,,,,,,,,
OC,120,A,full,0.9375,0.5699327278,27,755,Unknown,time,0,59,181,273,366,455,548,639,728,freq_con,0.9375,1,1,1,1,1,1,1,1,lw_CI,0.1175816778,0.1810362725,0.2384041904,0.153317554,0.1458685033,0.393037769,0.2384041904,0.2831288356,0.393037769,lower_CI,0.0441151829,0,0,0,0,0,0,0,0,,,,,,,,
OC,128,V,full,0.9933356299,0.0001907078,27,755,Unknown,time,0,59,181,273,366,455,548,639,728,freq_con,1,1,1,0.9444444444,1,1,1,1,1,lw_CI,0.170749723,0.1810362725,0.2384041904,0.1059614371,0.1458685033,0.393037769,0.2384041904,0.2831288356,0.393037769,lower_CI,0,0,0,0.0392260617,0,0,0,0,0,,,,,,,,
OC,146,A,full,0.9976470398,-0.0039385283,27,755,Unknown,time,0,59,181,273,366,455,548,639,728,freq_con,1,1,1,1,1,1,1,0.8888888889,1,lw_CI,0.170749723,0.1810362725,0.2384041904,0.153317554,0.1458685033,0.393037769,0.2384041904,0.1896543952,0.393037769,lower_CI,0,0,0,0,0,0,0,0.0782451297,0,,,,,,,,
OC,150,R,full,0.9937469731,0.0001920356,27,755,Unknown,time,0,59,181,273,366,455,548,639,728,freq_con,1,1,1,1,0.9473684211,1,1,1,1,lw_CI,0.170749723,0.1810362725,0.2384041904,0.153317554,0.1009650824,0.393037769,0.2384041904,0.2831288356,0.393037769,lower_CI,0,0,0,0,0.0371665152,0,0,0,0,,,,,,,,
OC,18,K,full,7.97443588741e-11,0.056443303,27,755,Unknown,time,0,181,273,366,455,548,639,728,freq_con,0,0,0,0,1,1,1,1,lw_CI,0,0,0,0,0.393037769,0.2384041904,0.2831288356,0.393037769,lower_CI,0.170749723,0.2384041904,0.153317554,0.1458685033,0,0,0,0,,,,,,,,,,,,
OC,203,D,full,0.995064567,-0.0019335752,27,755,Unknown,time,0,59,181,273,366,455,548,639,728,freq_con,1,1,1,1,1,1,0.9090909091,1,1,lw_CI,0.170749723,0.1810362725,0.2384041904,0.153317554,0.1458685033,0.393037769,0.1616179707,0.2831288356,0.393037769,lower_CI,0,0,0,0,0,0,0.0640816275,0,0,,,,,,,,
OC,229,R,full,0.9864232907,-0.0008686548,27,755,Unknown,time,0,59,181,273,366,455,548,639,728,freq_con,1,1,1,1,1,0.8333333333,1,1,1,lw_CI,0.170749723,0.1810362725,0.2384041904,0.153317554,0.1458685033,0.2537968524,0.2384041904,0.2831288356,0.393037769,lower_CI,0,0,0,0,0,0.1170359624,0,0,0,,,,,,,,
OC,230,E,full,0.9933356299,0.0001907078,27,755,Unknown,time,0,59,181,273,366,455,548,639,728,freq_con,1,1,1,0.9444444444,1,1,1,1,1,lw_CI,0.170749723,0.1810362725,0.2384041904,0.1059614371,0.1458685033,0.393037769,0.2384041904,0.2831288356,0.393037769,lower_CI,0,0,0,0.0392260617,0,0,0,0,0,,,,,,,,
OC,242,T,full,0.2495852439,0.0037302813,27,755,Unknown,time,0,181,273,366,455,548,639,728,freq_con,0,0.5454545455,0.7222222222,0.5789473684,0.3333333333,0.9090909091,0.6666666667,0.8333333333,lw_CI,0,0.187038976,0.1480380576,0.1460350122,0.1898470127,0.1616179707,0.2127357762,0.2537968524,lower_CI,0.170749723,0.1761259556,0.1144418762,0.1346945736,0.2585600875,0.0640816275,0.1646928189,0.1170359624,,,,,,,,,,,,
OC,251,T,full,0.9933356299,0.0001907078,27,755,Unknown,time,0,59,181,273,366,455,548,639,728,freq_con,1,1,1,0.9444444444,1,1,1,1,1,lw_CI,0.170749723,0.1810362725,0.2384041904,0.1059614371,0.1458685033,0.393037769,0.2384041904,0.2831288356,0.393037769,lower_CI,0,0,0,0.0392260617,0,0,0,0,0,,,,,,,,
OC,259,G,full,0.9864232907,-0.0008686548,27,755,Unknown,time,0,59,181,273,366,455,548,639,728,freq_con,1,1,1,1,1,0.8333333333,1,1,1,lw_CI,0.170749723,0.1810362725,0.2384041904,0.153317554,0.1458685033,0.2537968524,0.2384041904,0.2831288356,0.393037769,lower_CI,0,0,0,0,0,0.1170359624,0,0,0,,,,,,,,
OC,279,P,full,0.9933356299,0.0001907078,27,755,Unknown,time,0,59,181,273,366,455,548,639,728,freq_con,1,1,1,0.9444444444,1,1,1,1,1,lw_CI,0.170749723,0.1810362725,0.2384041904,0.1059614371,0.1458685033,0.393037769,0.2384041904,0.2831288356,0.393037769,lower_CI,0,0,0,0.0392260617,0,0,0,0,0,,,,,,,,
OC,281,S,full,0.9933356299,0.0001907078,27,755,Unknown,time,0,59,181,273,366,455,548,639,728,freq_con,1,1,1,0.9444444444,1,1,1,1,1,lw_CI,0.170749723,0.1810362725,0.2384041904,0.1059614371,0.1458685033,0.393037769,0.2384041904,0.2831288356,0.393037769,lower_CI,0,0,0,0.0392260617,0,0,0,0,0,,,,,,,,
OC,303,T,full,0.9933356299,0.0001907078,27,755,Unknown,time,0,59,181,273,366,455,548,639,728,freq_con,1,1,1,0.9444444444,1,1,1,1,1,lw_CI,0.170749723,0.1810362725,0.2384041904,0.1059614371,0.1458685033,0.393037769,0.2384041904,0.2831288356,0.393037769,lower_CI,0,0,0,0.0392260617,0,0,0,0,0,,,,,,,,
OC,307,E,full,0.9811790857,0.0018152247,27,755,Unknown,time,0,59,181,273,366,455,548,639,728,freq_con,1,1,0.9090909091,1,1,1,1,1,1,lw_CI,0.170749723,0.1810362725,0.1616179707,0.153317554,0.1458685033,0.393037769,0.2384041904,0.2831288356,0.393037769,lower_CI,0,0,0.0640816275,0,0,0,0,0,0,,,,,,,,
OC,308,Q,full,0.9864232907,-0.0008686548,27,755,Unknown,time,0,59,181,273,366,455,548,639,728,freq_con,1,1,1,1,1,0.8333333333,1,1,1,lw_CI,0.170749723,0.1810362725,0.2384041904,0.153317554,0.1458685033,0.2537968524,0.2384041904,0.2831288356,0.393037769,lower_CI,0,0,0,0,0,0.1170359624,0,0,0,,,,,,,,
OC,310,T,full,5.32473625483e-06,0.0167315696,27,755,Unknown,time,0,181,273,366,455,548,639,728,freq_con,0,0,0,0,0,0,0.2222222222,0.5,lw_CI,0,0,0,0,0,0,0.1288866824,0.2357943294,lower_CI,0.170749723,0.2384041904,0.153317554,0.1458685033,0.393037769,0.2384041904,0.2088441103,0.2357943294,,,,,,,,,,,,
OC,323,V,full,0.9375,0.5699327278,27,755,Unknown,time,0,59,181,273,366,455,548,639,728,freq_con,0.9375,1,1,1,1,1,1,1,1,lw_CI,0.1175816778,0.1810362725,0.2384041904,0.153317554,0.1458685033,0.393037769,0.2384041904,0.2831288356,0.393037769,lower_CI,0.0441151829,0,0,0,0,0,0,0,0,,,,,,,,
OC,325,N,full,0.9811790857,0.0018152247,27,755,Unknown,time,0,59,181,273,366,455,548,639,728,freq_con,1,1,0.9090909091,1,1,1,1,1,1,lw_CI,0.170749723,0.1810362725,0.1616179707,0.153317554,0.1458685033,0.393037769,0.2384041904,0.2831288356,0.393037769,lower_CI,0,0,0.0640816275,0,0,0,0,0,0,,,,,,,,
OC,329,D,full,0.9933356299,0.0001907078,27,755,Unknown,time,0,59,181,273,366,455,548,639,728,freq_con,1,1,1,0.9444444444,1,1,1,1,1,lw_CI,0.170749723,0.1810362725,0.2384041904,0.1059614371,0.1458685033,0.393037769,0.2384041904,0.2831288356,0.393037769,lower_CI,0,0,0,0.0392260617,0,0,0,0,0,,,,,,,,
OC,34,L,full,0.000765335,0.0108049796,27,755,Unknown,time,0,181,273,366,455,548,639,728,freq_con,0,0,0,0,0.1666666667,0.1818181818,0.4444444444,0.6666666667,lw_CI,0,0,0,0,0.1170359624,0.106085762,0.1898998236,0.2585600875,lower_CI,0.170749723,0.2384041904,0.153317554,0.1458685033,0.2537968524,0.1823003485,0.2059220745,0.1898470127,,,,,,,,,,,,
OC,353,V,full,0.9976470398,-0.0039385283,27,755,Unknown,time,0,59,181,273,366,455,548,639,728,freq_con,1,1,1,1,1,1,1,0.8888888889,1,lw_CI,0.170749723,0.1810362725,0.2384041904,0.153317554,0.1458685033,0.393037769,0.2384041904,0.1896543952,0.393037769,lower_CI,0,0,0,0,0,0,0,0.0782451297,0,,,,,,,,
OC,355,G,full,0.9937469731,0.0001920356,27,755,Unknown,time,0,59,181,273,366,455,548,639,728,freq_con,1,1,1,1,0.9473684211,1,1,1,1,lw_CI,0.170749723,0.1810362725,0.2384041904,0.153317554,0.1009650824,0.393037769,0.2384041904,0.2831288356,0.393037769,lower_CI,0,0,0,0,0.0371665152,0,0,0,0,,,,,,,,
OC,36,W,full,0.9811790857,0.0018152247,27,755,Unknown,time,0,59,181,273,366,455,548,639,728,freq_con,1,1,0.9090909091,1,1,1,1,1,1,lw_CI,0.170749723,0.1810362725,0.1616179707,0.153317554,0.1458685033,0.393037769,0.2384041904,0.2831288356,0.393037769,lower_CI,0,0,0.0640816275,0,0,0,0,0,0,,,,,,,,
OC,374,T,full,9.32131699175e-06,0.0156935304,27,755,Unknown,time,0,181,273,366,455,548,639,728,freq_con,0,0,0,0,0,0.0909090909,0.1111111111,0.5,lw_CI,0,0,0,0,0,0.0640816275,0.0782451297,0.2357943294,lower_CI,0.170749723,0.2384041904,0.153317554,0.1458685033,0.393037769,0.1616179707,0.1896543952,0.2357943294,,,,,,,,,,,,
OC,378,M,full,0.9937469731,0.0001920356,27,755,Unknown,time,0,59,181,273,366,455,548,639,728,freq_con,1,1,1,1,0.9473684211,1,1,1,1,lw_CI,0.170749723,0.1810362725,0.2384041904,0.153317554,0.1009650824,0.393037769,0.2384041904,0.2831288356,0.393037769,lower_CI,0,0,0,0,0.0371665152,0,0,0,0,,,,,,,,
OC,380,R,full,0.995064567,-0.0019335752,27,755,Unknown,time,0,59,181,273,366,455,548,639,728,freq_con,1,1,1,1,1,1,0.9090909091,1,1,lw_CI,0.170749723,0.1810362725,0.2384041904,0.153317554,0.1458685033,0.393037769,0.1616179707,0.2831288356,0.393037769,lower_CI,0,0,0,0,0,0,0.0640816275,0,0,,,,,,,,
OC,383,F,full,0.9937469731,0.0001920356,27,755,Unknown,time,0,59,181,273,366,455,548,639,728,freq_con,1,1,1,1,0.9473684211,1,1,1,1,lw_CI,0.170749723,0.1810362725,0.2384041904,0.153317554,0.1009650824,0.393037769,0.2384041904,0.2831288356,0.393037769,lower_CI,0,0,0,0,0.0371665152,0,0,0,0,,,,,,,,
OC,385,G,full,0.9811790857,0.0018152247,27,755,Unknown,time,0,59,181,273,366,455,548,639,728,freq_con,1,1,0.9090909091,1,1,1,1,1,1,lw_CI,0.170749723,0.1810362725,0.1616179707,0.153317554,0.1458685033,0.393037769,0.2384041904,0.2831288356,0.393037769,lower_CI,0,0,0.0640816275,0,0,0,0,0,0,,,,,,,,
OC,406,R,full,0.995064567,-0.0019335752,27,755,Unknown,time,0,59,181,273,366,455,548,639,728,freq_con,1,1,1,1,1,1,0.9090909091,1,1,lw_CI,0.170749723,0.1810362725,0.2384041904,0.153317554,0.1458685033,0.393037769,0.1616179707,0.2831288356,0.393037769,lower_CI,0,0,0,0,0,0,0.0640816275,0,0,,,,,,,,
OC,414,W,full,0.8908662475,-0.0006148477,27,755,Unknown,time,0,59,181,273,366,455,548,639,728,freq_con,1,1,1,1,0.4736842105,0.3333333333,1,1,1,lw_CI,0.170749723,0.1810362725,0.2384041904,0.153317554,0.1399915008,0.1898470127,0.2384041904,0.2831288356,0.393037769,lower_CI,0,0,0,0,0.1437717932,0.2585600875,0,0,0,,,,,,,,
OC,417,G,full,0.9933356299,0.0001907078,27,755,Unknown,time,0,59,181,273,366,455,548,639,728,freq_con,1,1,1,0.9444444444,1,1,1,1,1,lw_CI,0.170749723,0.1810362725,0.2384041904,0.1059614371,0.1458685033,0.393037769,0.2384041904,0.2831288356,0.393037769,lower_CI,0,0,0,0.0392260617,0,0,0,0,0,,,,,,,,
OC,439,P,full,0.9937469731,0.0001920356,27,755,Unknown,time,0,59,181,273,366,455,548,639,728,freq_con,1,1,1,1,0.9473684211,1,1,1,1,lw_CI,0.170749723,0.1810362725,0.2384041904,0.153317554,0.1009650824,0.393037769,0.2384041904,0.2831288356,0.393037769,lower_CI,0,0,0,0,0.0371665152,0,0,0,0,,,,,,,,
OC,446,G,full,0.9933356299,0.0001907078,27,755,Unknown,time,0,59,181,273,366,455,548,639,728,freq_con,1,1,1,0.9444444444,1,1,1,1,1,lw_CI,0.170749723,0.1810362725,0.2384041904,0.1059614371,0.1458685033,0.393037769,0.2384041904,0.2831288356,0.393037769,lower_CI,0,0,0,0.0392260617,0,0,0,0,0,,,,,,,,
OC,451,N,full,0.0069299316,1.03753051758e-05,27,755,Unknown,time,0,181,273,366,455,548,639,728,freq_con,0,0,0.0555555556,0,0,0,0,0,lw_CI,0,0,0.0392260617,0,0,0,0,0,lower_CI,0.170749723,0.2384041904,0.1059614371,0.1458685033,0.393037769,0.2384041904,0.2831288356,0.393037769,,,,,,,,,,,,
OC,465,F,full,0.975223899,-0.0005628958,27,755,Unknown,time,0,59,181,273,366,455,548,639,728,freq_con,1,1,1,1,0.8947368421,0.8333333333,1,1,1,lw_CI,0.170749723,0.1810362725,0.2384041904,0.153317554,0.1186082851,0.2537968524,0.2384041904,0.2831288356,0.393037769,lower_CI,0,0,0,0,0.0620700261,0.1170359624,0,0,0,,,,,,,,
OC,496,T,full,0.0622735057,-0.0038442241,0,728,full,time,0,0,181,273,273,366,455,548,639,728,freq_con,0.0625,0.0625,0,0.05555556,0.05555556,0,0,0,0,0,lw_CI,0.0441151829,0.0441151829,0,0.0392260617,0.0392260617,0,0,0,0,0,up_CI,0.1175816778,0.1175816778,0.2384041904,0.1059614371,0.1059614371,0.1458685033,0.393037769,0.2384041904,0.2831288356,0.393037769,,,,
OC,472,P,full,0.0178393148,0.0070961123,27,755,Unknown,time,0,181,273,366,455,548,639,728,freq_con,0,0,0.1666666667,0.2105263158,0.3333333333,0.4545454545,0.5555555556,0.8333333333,lw_CI,0,0,0.0854022798,0.0963224596,0.1898470127,0.1761259556,0.2059220745,0.2537968524,lower_CI,0.170749723,0.2384041904,0.135744298,0.137869756,0.2585600875,0.187038976,0.1898998236,0.1170359624,,,,,,,,,,,,
OC,473,A,full,0.9154219322,-8.98052386849e-05,27,755,Unknown,time,0,59,181,273,366,455,548,639,728,freq_con,1,1,0.8181818182,0.7222222222,0.8421052632,1,1,1,0.8333333333,lw_CI,0.170749723,0.1810362725,0.1823003485,0.1480380576,0.130114391,0.393037769,0.2384041904,0.2831288356,0.2537968524,lower_CI,0,0,0.106085762,0.1144418762,0.0810456943,0,0,0,0.1170359624,,,,,,,,
OC,474,P,full,0.0049352455,0.0029768984,27,755,Unknown,time,0,181,273,548,639,728,freq_con,0,0,0,0,0.1111111111,0,lw_CI,0,0,0,0,0.0782451297,0,lower_CI,0.170749723,0.2384041904,0.153317554,0.2384041904,0.1896543952,0.393037769,,,,,,,,,,,,,,,,,,,,
OC,476,Q,full,0.9375,0.5699327278,27,755,Unknown,time,0,59,181,273,366,455,548,639,728,freq_con,0.9375,1,1,1,1,1,1,1,1,lw_CI,0.1175816778,0.1810362725,0.2384041904,0.153317554,0.1458685033,0.393037769,0.2384041904,0.2831288356,0.393037769,lower_CI,0.0441151829,0,0,0,0,0,0,0,0,,,,,,,,
OC,61,I,full,0.0054724781,0.0084531507,27,755,Unknown,time,0,181,273,366,455,548,639,728,freq_con,0,0.1818181818,0.0555555556,0.1578947368,0.1666666667,0.3636363636,0.4444444444,0.8333333333,lw_CI,0,0.106085762,0.0392260617,0.0810456943,0.1170359624,0.1595286423,0.1898998236,0.2537968524,lower_CI,0.170749723,0.1823003485,0.1059614371,0.130114391,0.2537968524,0.1922597208,0.2059220745,0.1170359624,,,,,,,,,,,,
OC,67,A,full,0.9864232907,-0.0008686548,27,755,Unknown,time,0,59,181,273,366,455,548,639,728,freq_con,1,1,1,1,1,0.8333333333,1,1,1,lw_CI,0.170749723,0.1810362725,0.2384041904,0.153317554,0.1458685033,0.2537968524,0.2384041904,0.2831288356,0.393037769,lower_CI,0,0,0,0,0,0.1170359624,0,0,0,,,,,,,,
OC,80,N,full,0.9933356299,0.0001907078,27,755,Unknown,time,0,59,181,273,366,455,548,639,728,freq_con,1,1,1,0.9444444444,1,1,1,1,1,lw_CI,0.170749723,0.1810362725,0.2384041904,0.1059614371,0.1458685033,0.393037769,0.2384041904,0.2831288356,0.393037769,lower_CI,0,0,0,0.0392260617,0,0,0,0,0,,,,,,,,
OC,90,E,full,0.999999959,-0.0223231131,27,755,Unknown,time,0,59,181,273,366,455,548,639,728,freq_con,1,1,1,1,1,1,1,1,0.6666666667,lw_CI,0.170749723,0.1810362725,0.2384041904,0.153317554,0.1458685033,0.393037769,0.2384041904,0.2831288356,0.2585600875,lower_CI,0,0,0,0,0,0,0,0,0.1898470127,,,,,,,,
OC,93,E,full,1.90341787345e-05,0.0139124675,27,755,Unknown,time,0,181,273,366,366,455,548,639,639,728,728,freq_con,0,0,0,0.0526315789,0.0526315789,0,0,0.1111111111,0.1111111111,0.3333333333,0.3333333333,lw_CI,0,0,0,0.0371665152,0.0371665152,0,0,0.0782451297,0.0782451297,0.1898470127,0.1898470127,lower_CI,0.170749723,0.2384041904,0.153317554,0.1009650824,0.1009650824,0.393037769,0.2384041904,0.1896543952,0.1896543952,0.2585600875,0.2585600875
OC,98,K,full,0.995064567,-0.0019335752,27,755,Unknown,time,0,59,181,273,366,455,548,639,728,freq_con,1,1,1,1,1,1,0.9090909091,1,1,lw_CI,0.170749723,0.1810362725,0.2384041904,0.153317554,0.1458685033,0.393037769,0.1616179707,0.2831288356,0.393037769,lower_CI,0,0,0,0,0,0,0.0640816275,0,0,,,,,,,,
OC,242.0,T, sub1,0.0712963382504,0.0139456796505,0.0,273.0,unknown,time,[0.0, 181.0, 273.0],freq_con,[0.0, 0.5454545454545454, 0.7222222222222222],lw_CI,[0.0, 0.18703897603076031, 0.14803805758392874],up_CI,[0.17074972298248092, 0.17612595557837052, 0.11444187621946045]
OC,242.0,T, sub2,0.741014560615,-0.00918024977907,0.0,182.0,unknown,time,[0.0, 93.0, 182.0],freq_con,[0.7222222222222222, 0.5789473684210527, 0.3333333333333333],lw_CI,[0.14803805758392874, 0.14603501222740395, 0.18984701267494883],up_CI,[0.11444187621946045, 0.13469457361987625, 0.25856008745971087]
OC,242.0,T, sub3,0.46144599733,0.00833979812759,0.0,273.0,unknown,time,[0.0, 93.0, 184.0, 273.0],freq_con,[0.3333333333333333, 0.9090909090909091, 0.6666666666666666, 0.8333333333333334],lw_CI,[0.18984701267494883, 0.16161797066013017, 0.21273577617570549, 0.25379685239306959],up_CI,[0.25856008745971087, 0.064081627536807795, 0.16469281887839582, 0.11703596239815595]
OC,414.0,W, sub1,0.998570617818,-0.0168135493528,0.0,455.0,unknown,time,[0.0, 59.0, 181.0, 273.0, 366.0, 455.0],freq_con,[1.0, 1.0, 1.0, 1.0, 0.47368421052631576, 0.3333333333333333],lw_CI,[0.17074972298248092, 0.18103627252208465, 0.2384041903808527, 0.1533175539572782, 0.13999150082728773, 0.18984701267494883],up_CI,[0.0, 0.0, 0.0, 0.0, 0.14377179317569561, 0.25856008745971087]
OC,414.0,W, sub2,0.333333333333,0.374874559601,0.0,273.0,unknown,time,[0.0, 93.0, 184.0, 273.0],freq_con,[0.3333333333333333, 1.0, 1.0, 1.0],lw_CI,[0.18984701267494883, 0.2384041903808527, 0.28312883556311352, 0.39303776899708276],up_CI,[0.25856008745971087, 0.0, 0.0, 0.0]
OC,465.0,F, sub1,0.998402863698,-0.0107384654947,0.0,455.0,unknown,time,[0.0, 59.0, 181.0, 273.0, 366.0, 455.0],freq_con,[1.0, 1.0, 1.0, 1.0, 0.8947368421052632, 0.8333333333333334],lw_CI,[0.17074972298248092, 0.18103627252208465, 0.2384041903808527, 0.1533175539572782, 0.11860828512701693, 0.25379685239306959],up_CI,[0.0, 0.0, 0.0, 0.0, 0.062070026056100347, 0.11703596239815595]
OC,465.0,F, sub2,0.833333333333,0.34462952098,0.0,273.0,unknown,time,[0.0, 93.0, 184.0, 273.0],freq_con,[0.8333333333333334, 1.0, 1.0, 1.0],lw_CI,[0.25379685239306959, 0.2384041903808527, 0.28312883556311352, 0.39303776899708276],up_CI,[0.11703596239815595, 0.0, 0.0, 0.0]
OC,473.0,A, sub1,0.977168286115,-0.0105408265532,0.0,273.0,unknown,time,[0.0, 59.0, 181.0, 273.0],freq_con,[1.0, 1.0, 0.8181818181818182, 0.7222222222222222],lw_CI,[0.17074972298248092, 0.18103627252208465, 0.1823003484649246, 0.14803805758392874],up_CI,[0.0, 0.0, 0.10608576203008246, 0.11444187621946045]
OC,473.0,A, sub2,0.715256938932,0.011169301261,0.0,455.0,unknown,time,[0.0, 93.0, 182.0, 275.0, 366.0, 455.0],freq_con,[0.7222222222222222, 0.8421052631578947, 1.0, 1.0, 1.0, 0.8333333333333334],lw_CI,[0.14803805758392874, 0.13011439095427813, 0.39303776899708276, 0.2384041903808527, 0.28312883556311352, 0.25379685239306959],up_CI,[0.11444187621946045, 0.081045694337424479, 0.0, 0.0, 0.0, 0.11703596239815595]
