OQ,121,A,full,0.9999963381,-0.0290957403,52,415,Unknown,time,0,87,181,268,363,freq_con,1,1,1,1,0.875,lw_CI,0.2588655509,0.2209221919,0.3481636551,0.3481636551,0.2074243386,up_CI,0,0,0,0,0.0879651064
OQ,143,V,full,0.9837557177,-0.0031313735,52,415,Unknown,time,0,87,181,268,363,freq_con,1,1,1,0.8571428571,1,lw_CI,0.2588655509,0.2209221919,0.3481636551,0.2285410502,0.3123439781,up_CI,0,0,0,0.1004407082,0
OQ,215,L,full,0.9567521847,-0.0016220606,52,415,Unknown,time,0,87,181,268,363,freq_con,1,1,0.8571428571,0.8571428571,1,lw_CI,0.2588655509,0.2209221919,0.2285410502,0.2285410502,0.3123439781,up_CI,0,0,0.1004407082,0.1004407082,0
OQ,225,P,full,0.9705965042,0.0033356965,52,415,Unknown,time,0,87,181,268,363,freq_con,1,0.9166666667,1,1,1,lw_CI,0.2588655509,0.1504132848,0.3481636551,0.3481636551,0.3123439781,up_CI,0,0.0587627536,0,0,0
OQ,294,R,full,0.9705965042,0.0033356965,52,415,Unknown,time,0,87,181,268,363,freq_con,1,0.9166666667,1,1,1,lw_CI,0.2588655509,0.1504132848,0.3481636551,0.3481636551,0.3123439781,up_CI,0,0.0587627536,0,0,0
OQ,30,M,full,0.9,0.3890884311,52,415,Unknown,time,0,87,181,268,363,freq_con,0.9,1,1,1,1,lw_CI,0.1745617502,0.2209221919,0.3481636551,0.3481636551,0.3123439781,up_CI,0.0704588681,0,0,0,0
OQ,308,Q,full,0.9705965042,0.0033356965,52,415,Unknown,time,0,87,181,268,363,freq_con,1,0.9166666667,1,1,1,lw_CI,0.2588655509,0.1504132848,0.3481636551,0.3481636551,0.3123439781,up_CI,0,0.0587627536,0,0,0
OQ,310,T,full,0.8,0.4109449437,52,415,Unknown,time,0,87,181,268,363,freq_con,0.8,1,1,1,1,lw_CI,0.1948296361,0.2209221919,0.3481636551,0.3481636551,0.3123439781,up_CI,0.1163848425,0,0,0,0
OQ,34,L,full,0.2501075565,-0.0016344419,0,363,full,time,0,87,181,268,363,freq_con,0.5,0,0,0.14285714,0.375,lw_CI,0.1901079719,0,0,0.1004407082,0.1833407955,up_CI,0.1901079719,0.2209221919,0.3481636551,0.2285410502,0.223407646
OQ,350,C,full,0.9,0.3890884311,52,415,Unknown,time,0,87,181,268,363,freq_con,0.9,1,1,1,1,lw_CI,0.1745617502,0.2209221919,0.3481636551,0.3481636551,0.3123439781,up_CI,0.0704588681,0,0,0,0
OQ,389,I,full,0.9999963381,-0.0290957403,52,415,Unknown,time,0,87,181,268,363,freq_con,1,1,1,1,0.875,lw_CI,0.2588655509,0.2209221919,0.3481636551,0.3481636551,0.2074243386,up_CI,0,0,0,0,0.0879651064
OQ,403,R,full,0.8035617474,-0.0031600423,52,415,Unknown,time,0,87,181,268,363,freq_con,0.9,0.8333333333,0.5714285714,0.4285714286,0.75,lw_CI,0.1745617502,0.1711141881,0.2322819179,0.2065050018,0.2243995968,up_CI,0.0704588681,0.0974563332,0.2065050018,0.2322819179,0.1443758357
OQ,405,C,full,0.9705350997,0.0001866071,52,415,Unknown,time,0,87,181,268,363,freq_con,1,1,0.8571428571,1,1,lw_CI,0.2588655509,0.2209221919,0.2285410502,0.3481636551,0.3123439781,up_CI,0,0,0.1004407082,0,0
OQ,411,K,full,0.3164546665,0.0046118027,0,363,full,time,0,87,181,268,363,freq_con,0,1,0.42857143,0.14285714,1,lw_CI,0,0.2209221919,0.2065050018,0.1004407082,0.3123439781,up_CI,0.2588655509,0,0.2322819179,0.2285410502,0
OQ,412,G,full,0.9837557177,-0.0031313735,52,415,Unknown,time,0,87,181,268,363,freq_con,1,1,1,0.8571428571,1,lw_CI,0.2588655509,0.2209221919,0.3481636551,0.2285410502,0.3123439781,up_CI,0,0,0,0.1004407082,0
OQ,415,K,full,0.5999999992,0.2260027478,52,415,Unknown,time,0,87,181,268,363,freq_con,0.6,1,1,0.8571428571,1,lw_CI,0.1996843815,0.2209221919,0.3481636551,0.2285410502,0.3123439781,up_CI,0.173483207,0,0,0.1004407082,0
OQ,417,G,full,0.6000000004,0.2316228584,52,415,Unknown,time,0,87,181,268,363,freq_con,0.6,1,1,1,0.875,lw_CI,0.1996843815,0.2209221919,0.3481636551,0.3481636551,0.2074243386,up_CI,0.173483207,0,0,0,0.0879651064
OQ,418,K,full,0.6,-0.6962112957,52,415,Unknown,time,0,87,181,268,363,freq_con,0.6,0,0,0,0,lw_CI,0.1996843815,0,0,0,0,up_CI,0.173483207,0.2209221919,0.3481636551,0.3481636551,0.3123439781
OQ,419,E,full,0.9837557177,-0.0031313735,52,415,Unknown,time,0,87,181,268,363,freq_con,1,1,1,0.8571428571,1,lw_CI,0.2588655509,0.2209221919,0.3481636551,0.2285410502,0.3123439781,up_CI,0,0,0,0.1004407082,0
OQ,423,M,full,0.9999972646,-0.0298694706,52,415,Unknown,time,0,87,181,268,363,freq_con,0.9,1,1,1,0.875,lw_CI,0.1745617502,0.2209221919,0.3481636551,0.3481636551,0.2074243386,up_CI,0.0704588681,0,0,0,0.0879651064
OQ,424,K,full,0.9,0.3890884311,52,415,Unknown,time,0,87,181,268,363,freq_con,0.9,1,1,1,1,lw_CI,0.1745617502,0.2209221919,0.3481636551,0.3481636551,0.3123439781,up_CI,0.0704588681,0,0,0,0
OQ,425,D,full,5.4051249313e-09,0.4368778084,0,363,full,time,0,87,181,268,363,freq_con,0,1,0.85714286,0.85714286,1,lw_CI,0,0.2209221919,0.2285410502,0.2285410502,0.3123439781,up_CI,0.2588655509,0,0.1004407082,0.1004407082,0
OQ,427,T,full,0.0004653186,0.1157357789,52,415,Unknown,time,0,87,181,268,363,freq_con,0,0.9166666667,1,0.8571428571,1,lw_CI,0,0.1504132848,0.3481636551,0.2285410502,0.3123439781,up_CI,0.2588655509,0.0587627536,0,0.1004407082,0
OQ,430,Q,full,0.9,0.3890884311,52,415,Unknown,time,0,87,181,268,363,freq_con,0.9,1,1,1,1,lw_CI,0.1745617502,0.2209221919,0.3481636551,0.3481636551,0.3123439781,up_CI,0.0704588681,0,0,0,0
OQ,431,A,full,0.9,0.3890884311,52,415,Unknown,time,0,87,181,268,363,freq_con,0.9,1,1,1,1,lw_CI,0.1745617502,0.2209221919,0.3481636551,0.3481636551,0.3123439781,up_CI,0.0704588681,0,0,0,0
OQ,436,K,full,0.2555692124,0.0034779909,52,415,Unknown,time,0,87,181,268,363,freq_con,0.2,0.4166666667,0.2857142857,0.5714285714,0.5,lw_CI,0.1163848425,0.1638303225,0.1640534387,0.2322819179,0.2093310915,up_CI,0.1948296361,0.1822887624,0.241287906,0.2065050018,0.2093310915
OQ,453,P,full,0.9999963381,-0.0290957403,52,415,Unknown,time,0,87,181,268,363,freq_con,1,1,1,1,0.875,lw_CI,0.2588655509,0.2209221919,0.3481636551,0.3481636551,0.2074243386,up_CI,0,0,0,0,0.0879651064
OQ,462,S,full,0.4,0.4164440471,52,415,Unknown,time,0,87,181,268,363,freq_con,0.4,1,1,1,1,lw_CI,0.173483207,0.2209221919,0.3481636551,0.3481636551,0.3123439781,up_CI,0.1996843815,0,0,0,0
OQ,465,F,full,0.0284779816,1.33338470459e-05,52,415,Unknown,time,0,87,181,268,363,freq_con,0,0,0.1428571429,0,0,lw_CI,0,0,0.1004407082,0,0,up_CI,0.2588655509,0.2209221919,0.2285410502,0.3481636551,0.3123439781
OQ,469,T,full,0.9837557177,-0.0031313735,52,415,Unknown,time,0,87,181,268,363,freq_con,1,1,1,0.8571428571,1,lw_CI,0.2588655509,0.2209221919,0.3481636551,0.2285410502,0.3123439781,up_CI,0,0,0,0.1004407082,0
OQ,471,T,full,0.9,0.3890884311,52,415,Unknown,time,0,87,181,268,363,freq_con,0.9,1,1,1,1,lw_CI,0.1745617502,0.2209221919,0.3481636551,0.3481636551,0.3123439781,up_CI,0.0704588681,0,0,0,0
OQ,476,Q,full,0.9837557177,-0.0031313735,52,415,Unknown,time,0,87,181,268,363,freq_con,1,1,1,0.8571428571,1,lw_CI,0.2588655509,0.2209221919,0.3481636551,0.2285410502,0.3123439781,up_CI,0,0,0,0.1004407082,0
OQ,71,G,full,0.9837557177,-0.0031313735,52,415,Unknown,time,0,87,181,268,363,freq_con,1,1,1,0.8571428571,1,lw_CI,0.2588655509,0.2209221919,0.3481636551,0.2285410502,0.3123439781,up_CI,0,0,0,0.1004407082,0
OQ,411.0,K, sub1,2.26065779693e-12,0.628556234924,0.0,87.0,unknown,time,[0.0, 87.0],freq_con,[0.0, 1.0],lw_CI,[0.0, 0.22092219194555596],up_CI,[0.2588655508930523, 0.0]
OQ,411.0,K, sub2,0.931496398212,-0.0292534772598,0.0,181.0,unknown,time,[0.0, 94.0, 181.0],freq_con,[1.0, 0.42857142857142855, 0.14285714285714285],lw_CI,[0.22092219194555596, 0.20650500176737116, 0.10044070823267839],up_CI,[0.0, 0.23228191790736391, 0.22854105022248278]
OQ,411.0,K, sub3,0.142857142857,0.418012806124,0.0,95.0,unknown,time,[0.0, 95.0],freq_con,[0.14285714285714285, 1.0],lw_CI,[0.10044070823267839, 0.31234397806636793],up_CI,[0.22854105022248278, 0.0]
OQ,34.0,L, sub1,0.5,-0.434472229271,0.0,181.0,unknown,time,[0.0, 87.0, 181.0],freq_con,[0.5, 0.0, 0.0],lw_CI,[0.19010797187046363, 0.0, 0.0],up_CI,[0.19010797187046369, 0.22092219194555596, 0.34816365513116088]
OQ,34.0,L, sub2,0.00795185741357,0.0157048355544,0.0,276.0,unknown,time,[0.0, 94.0, 181.0, 276.0],freq_con,[0.0, 0.0, 0.14285714285714285, 0.375],lw_CI,[0.0, 0.0, 0.10044070823267839, 0.18334079550825699],up_CI,[0.22092219194555596, 0.34816365513116088, 0.22854105022248278, 0.22340764595438212]
