"H",110,"K","full",0.9792282212,0.000187477,16,347,"Unknown","time",0,39,82,186,255,331,"freq_con",1,1,1,0.9473684211,1,0.9285714286,"lw_CI",0.2831288356,0.1391083407,0.1458685033,0.1009650824,0.3481636551,0.1320204522,"up_CI",0,0,0,0.0371665152,0,0.0503963826
"H",114,"K","full",0.9908763211,0.0001929374,16,347,"Unknown","time",0,39,82,186,255,331,"freq_con",1,1,0.9473684211,1,1,1,"lw_CI",0.2831288356,0.1391083407,0.1009650824,0.1458685033,0.3481636551,0.1926361757,"up_CI",0,0,0.0371665152,0,0,0
"H",117,"Q","full",0.9879268728,-0.0044113811,16,347,"Unknown","time",0,39,82,186,255,331,"freq_con",1,1,1,1,0.8571428571,1,"lw_CI",0.2831288356,0.1391083407,0.1458685033,0.1458685033,0.2285410502,0.1926361757,"up_CI",0,0,0,0,0.1004407082,0
"H",149,"P","full",0.9908763211,0.0001929374,16,347,"Unknown","time",0,39,82,186,255,331,"freq_con",1,1,0.9473684211,1,1,1,"lw_CI",0.2831288356,0.1391083407,0.1009650824,0.1458685033,0.3481636551,0.1926361757,"up_CI",0,0,0.0371665152,0,0,0
"H",192,"G","full",0.8888888889,0.8817964469,16,347,"Unknown","time",0,39,82,186,255,331,"freq_con",0.8888888889,1,1,1,1,1,"lw_CI",0.1896543952,0.1391083407,0.1458685033,0.1458685033,0.3481636551,0.1926361757,"up_CI",0.0782451297,0,0,0,0,0
"H",218,"V","full",0.8888888889,0.8817964469,16,347,"Unknown","time",0,39,82,186,255,331,"freq_con",0.8888888889,1,1,1,1,1,"lw_CI",0.1896543952,0.1391083407,0.1458685033,0.1458685033,0.3481636551,0.1926361757,"up_CI",0.0782451297,0,0,0,0,0
"H",225,"P","full",0.9910897849,0.0001926884,16,347,"Unknown","time",0,39,82,186,255,331,"freq_con",1,1,1,0.9473684211,1,1,"lw_CI",0.2831288356,0.1391083407,0.1458685033,0.1009650824,0.3481636551,0.1926361757,"up_CI",0,0,0,0.0371665152,0,0
"H",252,"S","full",0.9999991812,-0.0384186612,16,347,"Unknown","time",0,39,82,186,255,331,"freq_con",1,1,1,1,1,0.7857142857,"lw_CI",0.2831288356,0.1391083407,0.1458685033,0.1458685033,0.3481636551,0.1634940896,"up_CI",0,0,0,0,0,0.1087534755
"H",377,"M","full",0.0120039063,"1.144921875e-05",16,347,"Unknown","time",0,39,82,186,255,331,"freq_con",0,0,0,0,0,0.0714285714,"lw_CI",0,0,0,0,0,0.0503963826,"up_CI",0.2831288356,0.1391083407,0.1458685033,0.1458685033,0.3481636551,0.1320204522
"H",403,"R","full",0.9910897849,0.0001926884,16,347,"Unknown","time",0,39,82,186,255,331,"freq_con",1,1,1,0.9473684211,1,1,"lw_CI",0.2831288356,0.1391083407,0.1458685033,0.1009650824,0.3481636551,0.1926361757,"up_CI",0,0,0,0.0371665152,0,0
"H",49,"G","full",0.9652880058,-0.0031840543,0,331,"full","time",0,39,82,186,255,331,"freq_con",1,1,1,0.73684211,1,0.92857143,"lw_CI",0.2831288356,0.1391083407,0.1458685033,0.142900723,0.3481636551,0.1320204522,"up_CI",0,0,0,0.1088947722,0,0.0503963826
"H",79,"Y","full",0.0041824038,0.0278937566,16,347,"Unknown","time",0,39,82,186,255,331,"freq_con",0,0,0.0526315789,0.4210526316,0.8571428571,0.9285714286,"lw_CI",0,0,0.0371665152,0.1346945736,0.2285410502,0.1320204522,"up_CI",0.2831288356,0.1391083407,0.1009650824,0.1460350122,0.1004407082,0.0503963826
"H",49,"G","sub1",0.9999156478,-0.0448965297,0,186,"unknown","time",0,39,82,186,"freq_con",1,1,1,0.7368421053,"lw_CI",0.2831288356,0.1391083407,0.1458685033,0.142900723,"up_CI",0,0,0,0.1088947722,,,,,,,,
"H",49,"G","sub2",0.736842105,0.3020657073,0,145,"unknown","time",0,69,145,"freq_con",0.7368421053,1,0.9285714286,"lw_CI",0.142900723,0.3481636551,0.1320204522,"up_CI",0.1088947722,0,0.0503963826,,,,,,,,,,,,
