<?xml version="1.0" encoding="UTF-8"?>
<svg xmlns="http://www.w3.org/2000/svg" xmlns:xlink="http://www.w3.org/1999/xlink" width="764pt" height="473pt" viewBox="0 0 764 473" version="1.1">
<defs>
<g>
<symbol overflow="visible" id="glyph0-0">
<path style="stroke:none;" d=""/>
</symbol>
<symbol overflow="visible" id="glyph0-1">
<path style="stroke:none;" d="M 0.8125 -7.03125 C 1.0625 -7.71875 1.359375 -8.28125 1.703125 -8.71875 C 2.03125 -9.109375 2.328125 -9.21875 2.9375 -9.21875 L 4.59375 -9.21875 C 4.25 -6.71875 4.125 -5.015625 4.125 -3.59375 C 4.125 -1.15625 4.96875 0.296875 6.375 0.296875 C 7.28125 0.296875 8.203125 -0.359375 8.5625 -1.296875 C 8.828125 -1.953125 8.921875 -2.59375 8.96875 -3.671875 L 8.40625 -3.671875 C 8.21875 -2.375 7.90625 -1.90625 7.1875 -1.90625 C 6.1875 -1.90625 5.421875 -2.875 5.421875 -4.09375 C 5.421875 -4.46875 5.46875 -5.171875 5.53125 -5.96875 C 5.5625 -6.1875 5.59375 -6.875 5.640625 -7.609375 C 5.71875 -8.46875 5.71875 -8.703125 5.78125 -9.21875 L 9.515625 -9.21875 L 9.515625 -11.390625 L 4.34375 -11.390625 C 3.171875 -11.390625 2.453125 -11.09375 1.734375 -10.296875 C 1 -9.5 0.609375 -8.625 0.234375 -7.03125 Z M 0.8125 -7.03125 "/>
</symbol>
<symbol overflow="visible" id="glyph0-2">
<path style="stroke:none;" d="M 12.21875 -8.90625 L 0.25 -8.90625 L 0.25 -7.65625 L 12.21875 -7.65625 Z M 12.21875 -4.484375 L 0.25 -4.484375 L 0.25 -3.234375 L 12.21875 -3.234375 Z M 12.21875 -4.484375 "/>
</symbol>
<symbol overflow="visible" id="glyph0-3">
<path style="stroke:none;" d="M 0.25 -6.6875 L 0.25 -5.4375 L 12.171875 -5.4375 L 12.171875 -6.6875 Z M 0.25 -6.6875 "/>
</symbol>
<symbol overflow="visible" id="glyph0-4">
<path style="stroke:none;" d=""/>
</symbol>
<symbol overflow="visible" id="glyph1-0">
<path style="stroke:none;" d=""/>
</symbol>
<symbol overflow="visible" id="glyph1-1">
<path style="stroke:none;" d="M 11.5625 -7.765625 C 11.5625 -13.359375 9.765625 -16.140625 6.265625 -16.140625 C 2.78125 -16.140625 0.9375 -13.3125 0.9375 -7.90625 C 0.9375 -2.453125 2.796875 0.34375 6.265625 0.34375 C 9.671875 0.34375 11.5625 -2.453125 11.5625 -7.765625 Z M 9.453125 -7.9375 C 9.453125 -3.375 8.453125 -1.328125 6.21875 -1.328125 C 4.09375 -1.328125 3.046875 -3.453125 3.046875 -7.875 C 3.046875 -12.296875 4.09375 -14.359375 6.265625 -14.359375 C 8.421875 -14.359375 9.453125 -12.265625 9.453125 -7.9375 Z M 9.453125 -7.9375 "/>
</symbol>
<symbol overflow="visible" id="glyph1-2">
<path style="stroke:none;" d="M 4.375 0 L 4.375 -2.375 L 1.9375 -2.375 L 1.9375 0 Z M 4.375 0 "/>
</symbol>
<symbol overflow="visible" id="glyph1-3">
<path style="stroke:none;" d="M 11.65625 -11.40625 C 11.65625 -14.140625 9.515625 -16.140625 6.46875 -16.140625 C 3.171875 -16.140625 1.203125 -14.484375 1.09375 -10.546875 L 3.171875 -10.546875 C 3.328125 -13.25 4.421875 -14.390625 6.390625 -14.390625 C 8.21875 -14.390625 9.53125 -13.09375 9.53125 -11.359375 C 9.53125 -10.078125 8.78125 -9 7.359375 -8.171875 L 5.265625 -6.984375 C 1.890625 -5.078125 0.90625 -3.578125 0.734375 0 L 11.546875 0 L 11.546875 -1.984375 L 3.046875 -1.984375 C 3.25 -3.296875 3.984375 -4.140625 5.96875 -5.296875 L 8.234375 -6.53125 C 10.5 -7.734375 11.65625 -9.421875 11.65625 -11.40625 Z M 11.65625 -11.40625 "/>
</symbol>
<symbol overflow="visible" id="glyph1-4">
<path style="stroke:none;" d="M 11.703125 -5.34375 C 11.703125 -8.53125 9.5625 -10.625 6.46875 -10.625 C 5.328125 -10.625 4.375 -10.328125 3.53125 -9.703125 L 4.140625 -13.8125 L 10.859375 -13.8125 L 10.859375 -15.796875 L 2.453125 -15.796875 L 1.25 -7.359375 L 3.171875 -7.359375 C 4.09375 -8.46875 4.84375 -8.859375 6.09375 -8.859375 C 8.265625 -8.859375 9.578125 -7.46875 9.578125 -5.078125 C 9.578125 -2.75 8.28125 -1.4375 6.09375 -1.4375 C 4.34375 -1.4375 3.296875 -2.328125 2.828125 -4.140625 L 0.75 -4.140625 C 1.40625 -0.9375 3.28125 0.34375 6.140625 0.34375 C 9.40625 0.34375 11.703125 -1.9375 11.703125 -5.34375 Z M 11.703125 -5.34375 "/>
</symbol>
<symbol overflow="visible" id="glyph1-5">
<path style="stroke:none;" d="M 11.703125 -5.015625 C 11.703125 -8.015625 9.625 -10.046875 6.734375 -10.046875 C 5.140625 -10.046875 3.84375 -9.421875 2.984375 -8.234375 L 3.046875 -8.234375 C 3.078125 -12.171875 4.328125 -14.359375 6.625 -14.359375 C 8.03125 -14.359375 8.96875 -13.484375 9.28125 -11.921875 L 11.359375 -11.921875 C 10.96875 -14.5625 9.21875 -16.140625 6.765625 -16.140625 C 3 -16.140625 0.9375 -12.96875 0.9375 -7.359375 C 0.9375 -2.328125 2.703125 0.34375 6.390625 0.34375 C 9.46875 0.34375 11.703125 -1.84375 11.703125 -5.015625 Z M 9.578125 -4.84375 C 9.578125 -2.828125 8.265625 -1.4375 6.421875 -1.4375 C 4.546875 -1.4375 3.171875 -2.890625 3.171875 -4.96875 C 3.171875 -6.96875 4.5 -8.265625 6.484375 -8.265625 C 8.421875 -8.265625 9.578125 -7.015625 9.578125 -4.84375 Z M 9.578125 -4.84375 "/>
</symbol>
<symbol overflow="visible" id="glyph1-6">
<path style="stroke:none;" d="M 7.828125 -13.5625 L 7.40625 -14.90625 L 4.984375 -14.046875 L 4.984375 -16.59375 L 3.59375 -16.59375 L 3.59375 -14.046875 L 1.28125 -14.90625 L 0.84375 -13.5625 L 3.328125 -12.890625 L 1.75 -10.859375 L 2.9375 -10 L 4.34375 -12.109375 L 5.765625 -10 L 6.96875 -10.859375 L 5.375 -12.890625 Z M 7.828125 -13.5625 "/>
</symbol>
<symbol overflow="visible" id="glyph1-7">
<path style="stroke:none;" d="M 11.109375 0 L 11.109375 -9.015625 C 11.109375 -11 9.609375 -12.265625 7.3125 -12.265625 C 5.53125 -12.265625 4.34375 -11.59375 3.296875 -9.921875 L 3.375 -9.921875 L 3.375 -11.921875 L 1.546875 -11.921875 L 1.546875 0 L 3.5 0 L 3.5 -6.578125 C 3.5 -9.015625 4.796875 -10.609375 6.734375 -10.609375 C 8.234375 -10.609375 9.15625 -9.703125 9.15625 -8.265625 L 9.15625 0 Z M 11.109375 0 "/>
</symbol>
<symbol overflow="visible" id="glyph1-8">
<path style="stroke:none;" d="M 11.765625 -6.984375 L 11.765625 -8.53125 L 1.5 -8.53125 L 1.5 -6.984375 Z M 11.765625 -2.84375 L 11.765625 -4.390625 L 1.5 -4.390625 L 1.5 -2.84375 Z M 11.765625 -2.84375 "/>
</symbol>
<symbol overflow="visible" id="glyph1-9">
<path style="stroke:none;" d="M 11.546875 -4.6875 C 11.546875 -6.640625 10.71875 -7.78125 8.78125 -8.453125 C 10.296875 -9.03125 11.0625 -10.078125 11.0625 -11.703125 C 11.0625 -14.484375 9.203125 -16.140625 6.125 -16.140625 C 2.875 -16.140625 1.09375 -14.390625 1.03125 -10.921875 L 3.09375 -10.921875 C 3.140625 -13.3125 4.09375 -14.390625 6.140625 -14.390625 C 7.921875 -14.390625 8.953125 -13.34375 8.953125 -11.640625 C 8.953125 -9.90625 8.234375 -9.203125 4.984375 -9.203125 L 4.984375 -7.515625 L 6.125 -7.515625 C 8.328125 -7.515625 9.421875 -6.46875 9.421875 -4.671875 C 9.421875 -2.640625 8.21875 -1.4375 6.125 -1.4375 C 3.9375 -1.4375 2.890625 -2.53125 2.75 -4.875 L 0.6875 -4.875 C 0.9375 -1.28125 2.75 0.34375 6.0625 0.34375 C 9.375 0.34375 11.546875 -1.640625 11.546875 -4.6875 Z M 11.546875 -4.6875 "/>
</symbol>
<symbol overflow="visible" id="glyph1-10">
<path style="stroke:none;" d="M 11.703125 -4.546875 C 11.703125 -6.359375 10.765625 -7.609375 8.90625 -8.46875 C 10.59375 -9.5 11.125 -10.3125 11.125 -11.84375 C 11.125 -14.359375 9.125 -16.140625 6.265625 -16.140625 C 3.421875 -16.140625 1.359375 -14.359375 1.359375 -11.84375 C 1.359375 -10.328125 1.90625 -9.515625 3.578125 -8.46875 C 1.75 -7.609375 0.796875 -6.359375 0.796875 -4.578125 C 0.796875 -1.609375 3.078125 0.34375 6.265625 0.34375 C 9.453125 0.34375 11.703125 -1.609375 11.703125 -4.546875 Z M 9.015625 -11.796875 C 9.015625 -10.296875 7.9375 -9.28125 6.265625 -9.28125 C 4.578125 -9.28125 3.484375 -10.296875 3.484375 -11.8125 C 3.484375 -13.359375 4.578125 -14.359375 6.265625 -14.359375 C 7.96875 -14.359375 9.015625 -13.359375 9.015625 -11.796875 Z M 9.578125 -4.53125 C 9.578125 -2.625 8.265625 -1.4375 6.21875 -1.4375 C 4.25 -1.4375 2.90625 -2.640625 2.90625 -4.53125 C 2.90625 -6.421875 4.25 -7.609375 6.265625 -7.609375 C 8.265625 -7.609375 9.578125 -6.421875 9.578125 -4.53125 Z M 9.578125 -4.53125 "/>
</symbol>
<symbol overflow="visible" id="glyph1-11">
<path style="stroke:none;" d="M 7.921875 0 L 7.921875 -16.140625 L 6.515625 -16.140625 C 5.828125 -13.6875 5.421875 -13.3125 2.28125 -12.90625 L 2.28125 -11.5 L 5.84375 -11.5 L 5.84375 0 Z M 7.921875 0 "/>
</symbol>
<symbol overflow="visible" id="glyph2-0">
<path style="stroke:none;" d=""/>
</symbol>
<symbol overflow="visible" id="glyph2-1">
<path style="stroke:none;" d="M 7.015625 -0.015625 L 7.015625 -14.21875 L 5.65625 -14.21875 C 5.0625 -12.078125 4.765625 -11.734375 1.9375 -11.40625 L 1.9375 -10.09375 L 5.078125 -10.09375 L 5.078125 0 L 7.015625 0 Z M 7.015625 -0.015625 "/>
</symbol>
<symbol overflow="visible" id="glyph2-2">
<path style="stroke:none;" d="M 10.296875 -10.046875 C 10.296875 -12.4375 8.359375 -14.21875 5.6875 -14.21875 C 2.78125 -14.21875 1 -12.78125 0.875 -9.265625 L 2.84375 -9.265625 C 2.984375 -11.65625 3.875 -12.640625 5.625 -12.640625 C 7.21875 -12.640625 8.3125 -11.515625 8.3125 -10 C 8.3125 -8.875 7.6875 -7.9375 6.421875 -7.21875 L 4.578125 -6.1875 C 1.625 -4.5 0.734375 -3.203125 0.5625 0 L 10.203125 0 L 10.203125 -1.78125 L 2.765625 -1.78125 C 2.921875 -2.921875 3.546875 -3.640625 5.28125 -4.65625 L 7.28125 -5.734375 C 9.265625 -6.796875 10.296875 -8.296875 10.296875 -10.046875 Z M 10.296875 -10.046875 "/>
</symbol>
<symbol overflow="visible" id="glyph2-3">
<path style="stroke:none;" d="M 10.203125 -4.140625 C 10.203125 -5.859375 9.421875 -6.875 7.78125 -7.4375 C 9.046875 -7.9375 9.78125 -8.875 9.78125 -10.296875 C 9.78125 -12.734375 8.078125 -14.21875 5.375 -14.21875 C 2.515625 -14.21875 0.90625 -12.703125 0.84375 -9.59375 L 2.78125 -9.59375 C 2.8125 -11.71875 3.59375 -12.640625 5.40625 -12.640625 C 6.953125 -12.640625 7.796875 -11.734375 7.796875 -10.234375 C 7.796875 -8.71875 7.234375 -8.125 4.3125 -8.125 L 4.3125 -6.59375 L 5.375 -6.59375 C 7.3125 -6.59375 8.21875 -5.703125 8.21875 -4.125 C 8.21875 -2.34375 7.21875 -1.296875 5.375 -1.296875 C 3.453125 -1.296875 2.59375 -2.234375 2.484375 -4.3125 L 0.546875 -4.3125 C 0.765625 -1.140625 2.421875 0.296875 5.3125 0.296875 C 8.234375 0.296875 10.203125 -1.453125 10.203125 -4.140625 Z M 10.203125 -4.140625 "/>
</symbol>
<symbol overflow="visible" id="glyph2-4">
<path style="stroke:none;" d="M 10.484375 -3.421875 L 10.484375 -5.015625 L 8.375 -5.015625 L 8.375 -14.21875 L 6.921875 -14.21875 L 0.453125 -5.265625 L 0.453125 -3.40625 L 6.4375 -3.40625 L 6.4375 0 L 8.375 0 L 8.375 -3.40625 L 10.484375 -3.40625 Z M 6.546875 -5.015625 L 2.203125 -5.015625 L 6.59375 -11.1875 L 6.4375 -11.203125 L 6.4375 -5.015625 Z M 6.546875 -5.015625 "/>
</symbol>
<symbol overflow="visible" id="glyph2-5">
<path style="stroke:none;" d="M 10.21875 -6.84375 C 10.21875 -11.765625 8.578125 -14.21875 5.5 -14.21875 C 2.4375 -14.21875 0.765625 -11.71875 0.765625 -6.953125 C 0.765625 -2.1875 2.453125 0.296875 5.5 0.296875 C 8.5 0.296875 10.21875 -2.1875 10.21875 -6.84375 Z M 8.234375 -7 C 8.234375 -2.984375 7.421875 -1.203125 5.453125 -1.203125 C 3.59375 -1.203125 2.734375 -3.0625 2.734375 -6.9375 C 2.734375 -10.8125 3.59375 -12.625 5.5 -12.625 C 7.40625 -12.625 8.234375 -10.796875 8.234375 -7 Z M 8.234375 -7 "/>
</symbol>
<symbol overflow="visible" id="glyph2-6">
<path style="stroke:none;" d="M 10.34375 -4.71875 C 10.34375 -7.515625 8.40625 -9.375 5.6875 -9.375 C 4.6875 -9.375 3.796875 -9.125 3.1875 -8.65625 L 3.703125 -12.140625 L 9.59375 -12.140625 L 9.59375 -13.921875 L 2.078125 -13.921875 L 1.015625 -6.453125 L 2.8125 -6.453125 C 3.640625 -7.4375 4.265625 -7.78125 5.359375 -7.78125 C 7.265625 -7.78125 8.359375 -6.578125 8.359375 -4.484375 C 8.359375 -2.4375 7.28125 -1.296875 5.359375 -1.296875 C 3.8125 -1.296875 2.953125 -2.0625 2.546875 -3.6875 L 0.578125 -3.6875 C 1.1875 -0.84375 2.875 0.296875 5.40625 0.296875 C 8.265625 0.296875 10.34375 -1.71875 10.34375 -4.71875 Z M 10.34375 -4.71875 "/>
</symbol>
<symbol overflow="visible" id="glyph3-0">
<path style="stroke:none;" d=""/>
</symbol>
<symbol overflow="visible" id="glyph3-1">
<path style="stroke:none;" d="M 14.390625 -5.234375 L 11.3125 -5.234375 C 11.125 -3.28125 9.890625 -2.390625 7.9375 -2.390625 C 5.5 -2.390625 4.078125 -4.265625 4.078125 -7.609375 C 4.078125 -10.984375 5.5625 -12.875 8.046875 -12.875 C 9.75 -12.875 10.859375 -12.09375 11.3125 -10.125 L 14.328125 -10.125 C 14.046875 -13.65625 11.375 -15.5625 7.9375 -15.5625 C 3.609375 -15.5625 0.921875 -12.59375 0.921875 -7.640625 C 0.921875 -2.734375 3.59375 0.25 7.859375 0.25 C 11.65625 0.25 14.203125 -1.71875 14.390625 -5.234375 Z M 14.390625 -5.234375 "/>
</symbol>
<symbol overflow="visible" id="glyph3-2">
<path style="stroke:none;" d="M 11.953125 -5.59375 C 11.953125 -9.421875 9.875 -11.53125 6.328125 -11.53125 C 2.859375 -11.53125 0.734375 -9.390625 0.734375 -5.671875 C 0.734375 -1.9375 2.859375 0.1875 6.34375 0.1875 C 9.78125 0.1875 11.953125 -1.953125 11.953125 -5.59375 Z M 9.015625 -5.625 C 9.015625 -3.5 7.921875 -2.1875 6.34375 -2.1875 C 4.75 -2.1875 3.671875 -3.5 3.671875 -5.671875 C 3.671875 -7.828125 4.75 -9.15625 6.34375 -9.15625 C 7.953125 -9.15625 9.015625 -7.859375 9.015625 -5.625 Z M 9.015625 -5.625 "/>
</symbol>
<symbol overflow="visible" id="glyph3-3">
<path style="stroke:none;" d="M 11.46875 0 L 11.46875 -7.609375 C 11.46875 -10.09375 10.078125 -11.53125 7.671875 -11.53125 C 6.125 -11.53125 5.109375 -10.96875 4.265625 -9.703125 L 4.265625 -11.34375 L 1.328125 -11.34375 L 1.328125 0 L 4.265625 0 L 4.265625 -6.796875 C 4.265625 -8.140625 5.203125 -9.03125 6.640625 -9.03125 C 7.890625 -9.03125 8.53125 -8.34375 8.53125 -7 L 8.53125 0 Z M 11.46875 0 "/>
</symbol>
<symbol overflow="visible" id="glyph3-4">
<path style="stroke:none;" d="M 10.921875 -3.359375 L 10.921875 -3.5 C 10.921875 -4.8125 10.1875 -5.78125 8.6875 -6.21875 L 4.984375 -7.28125 C 4.15625 -7.515625 3.953125 -7.703125 3.953125 -8.171875 C 3.953125 -8.796875 4.625 -9.21875 5.65625 -9.21875 C 7.0625 -9.21875 7.75 -8.71875 7.765625 -7.6875 L 10.609375 -7.6875 C 10.5625 -10.078125 8.71875 -11.53125 5.671875 -11.53125 C 2.796875 -11.53125 1.015625 -10.078125 1.015625 -7.75 C 1.015625 -6.359375 1.390625 -5.609375 3.484375 -4.953125 L 7 -3.859375 C 7.734375 -3.640625 7.984375 -3.40625 7.984375 -3.09375 C 7.984375 -2.390625 7.15625 -2.125 5.796875 -2.125 C 4.453125 -2.125 3.734375 -2.375 3.46875 -3.59375 L 0.59375 -3.59375 C 0.6875 -1.109375 2.515625 0.1875 5.96875 0.1875 C 9.15625 0.1875 10.921875 -1.078125 10.921875 -3.359375 Z M 10.921875 -3.359375 "/>
</symbol>
<symbol overflow="visible" id="glyph3-5">
<path style="stroke:none;" d="M 11.03125 -5.25 C 11.03125 -9.15625 9.046875 -11.53125 5.71875 -11.53125 C 2.453125 -11.53125 0.46875 -9.328125 0.46875 -5.515625 C 0.46875 -1.890625 2.4375 0.1875 5.65625 0.1875 C 8.1875 0.1875 10.25 -0.96875 10.90625 -3.1875 L 8 -3.1875 C 7.75 -2.375 6.828125 -2.0625 5.75 -2.0625 C 4.375 -2.0625 3.484375 -2.6875 3.40625 -4.890625 L 10.984375 -4.890625 Z M 7.953125 -6.84375 L 3.4375 -6.84375 C 3.640625 -8.421875 4.375 -9.28125 5.671875 -9.28125 C 6.9375 -9.28125 7.8125 -8.46875 7.9375 -6.84375 Z M 7.953125 -6.84375 "/>
</symbol>
<symbol overflow="visible" id="glyph3-6">
<path style="stroke:none;" d="M 7.765625 -8.53125 L 7.765625 -11.515625 C 7.609375 -11.53125 7.5 -11.53125 7.40625 -11.53125 C 6.0625 -11.53125 4.890625 -10.640625 4.265625 -9.109375 L 4.265625 -11.34375 L 1.328125 -11.34375 L 1.328125 0 L 4.265625 0 L 4.265625 -6.03125 C 4.265625 -7.75 5.125 -8.609375 6.84375 -8.609375 C 7.15625 -8.609375 7.375 -8.59375 7.765625 -8.53125 Z M 7.765625 -8.53125 "/>
</symbol>
<symbol overflow="visible" id="glyph3-7">
<path style="stroke:none;" d="M 11.25 -11.34375 L 8.140625 -11.34375 L 5.859375 -3.046875 L 3.375 -11.34375 L 0.265625 -11.34375 L 4.265625 0 L 7.328125 0 Z M 11.25 -11.34375 "/>
</symbol>
<symbol overflow="visible" id="glyph3-8">
<path style="stroke:none;" d="M 11 0 L 11 -0.359375 C 10.484375 -0.84375 10.328125 -1.15625 10.328125 -1.75 L 10.328125 -8.046875 C 10.328125 -10.359375 8.75 -11.53125 5.6875 -11.53125 C 2.625 -11.53125 1.03125 -10.234375 0.84375 -7.609375 L 3.65625 -7.609375 C 3.828125 -8.78125 4.3125 -9.15625 5.75 -9.15625 C 6.890625 -9.15625 7.453125 -8.78125 7.453125 -8.015625 C 7.453125 -6.828125 6.578125 -6.953125 5.109375 -6.703125 L 3.921875 -6.484375 C 1.6875 -6.09375 0.59375 -5.125 0.59375 -3.0625 C 0.59375 -0.859375 2.140625 0.1875 4.03125 0.1875 C 5.296875 0.1875 6.453125 -0.359375 7.46875 -1.421875 C 7.46875 -0.84375 7.53125 -0.34375 7.8125 0 Z M 7.453125 -4.84375 C 7.453125 -3.15625 6.609375 -2.1875 5.125 -2.1875 C 4.140625 -2.1875 3.53125 -2.5625 3.53125 -3.40625 C 3.53125 -4.265625 3.984375 -4.578125 5.203125 -4.8125 L 6.21875 -5 C 7 -5.140625 7.125 -5.1875 7.453125 -5.359375 Z M 7.453125 -4.84375 "/>
</symbol>
<symbol overflow="visible" id="glyph3-9">
<path style="stroke:none;" d="M 6.328125 0 L 6.328125 -2.0625 C 6.03125 -2.015625 5.859375 -2 5.65625 -2 C 4.875 -2 4.6875 -2.21875 4.6875 -3.234375 L 4.6875 -9.15625 L 6.328125 -9.15625 L 6.328125 -11.109375 L 4.6875 -11.109375 L 4.6875 -14.15625 L 1.75 -14.15625 L 1.75 -11.109375 L 0.296875 -11.109375 L 0.296875 -9.15625 L 1.75 -9.15625 L 1.75 -2.4375 C 1.75 -0.65625 2.6875 0.078125 4.625 0.078125 C 5.265625 0.078125 5.796875 0.015625 6.328125 0 Z M 6.328125 0 "/>
</symbol>
<symbol overflow="visible" id="glyph3-10">
<path style="stroke:none;" d="M 4.34375 0 L 4.34375 -11.34375 L 1.40625 -11.34375 L 1.40625 0 Z M 4.390625 -12.703125 L 4.390625 -15.640625 L 1.453125 -15.640625 L 1.453125 -12.703125 Z M 4.390625 -12.703125 "/>
</symbol>
<symbol overflow="visible" id="glyph3-11">
<path style="stroke:none;" d="M 5.078125 0 L 5.078125 -3.0625 L 1.9375 -3.0625 L 1.9375 0 Z M 5.078125 -7.859375 L 5.078125 -10.921875 L 1.9375 -10.921875 L 1.9375 -7.859375 Z M 5.078125 -7.859375 "/>
</symbol>
<symbol overflow="visible" id="glyph3-12">
<path style="stroke:none;" d=""/>
</symbol>
<symbol overflow="visible" id="glyph3-13">
<path style="stroke:none;" d="M 12.15625 0 L 12.15625 -2.625 L 4.828125 -2.625 L 4.828125 -15.3125 L 1.6875 -15.3125 L 1.6875 0 Z M 12.15625 0 "/>
</symbol>
<symbol overflow="visible" id="glyph3-14">
<path style="stroke:none;" d="M 11.359375 0.375 L 11.359375 -11.34375 L 8.5625 -11.34375 L 8.5625 -9.59375 C 7.6875 -10.9375 6.71875 -11.53125 5.421875 -11.53125 C 2.734375 -11.53125 0.71875 -9.046875 0.71875 -5.546875 C 0.71875 -2.015625 2.5625 0.1875 5.359375 0.1875 C 6.671875 0.1875 7.46875 -0.203125 8.5625 -1.296875 L 8.5625 0.375 C 8.5625 1.75 7.53125 2.6875 6.0625 2.6875 C 4.953125 2.6875 4.21875 2.21875 3.96875 1.359375 L 0.921875 1.359375 C 0.984375 3.21875 2.859375 4.578125 5.96875 4.578125 C 9.390625 4.578125 11.359375 3.046875 11.359375 0.375 Z M 8.609375 -5.59375 C 8.609375 -3.53125 7.53125 -2.265625 6 -2.265625 C 4.625 -2.265625 3.65625 -3.53125 3.65625 -5.59375 C 3.65625 -7.734375 4.625 -9.078125 6.046875 -9.078125 C 7.515625 -9.078125 8.609375 -7.6875 8.609375 -5.59375 Z M 8.609375 -5.59375 "/>
</symbol>
<symbol overflow="visible" id="glyph3-15">
<path style="stroke:none;" d="M 6.359375 4.203125 C 4.140625 -0.125 3.421875 -2.484375 3.421875 -5.5625 C 3.421875 -8.625 4.140625 -11.03125 6.359375 -15.3125 L 4.265625 -15.3125 C 1.84375 -11.671875 0.84375 -8.78125 0.84375 -5.5625 C 0.84375 -2.328125 1.84375 0.5625 4.265625 4.203125 Z M 6.359375 4.203125 "/>
</symbol>
<symbol overflow="visible" id="glyph3-16">
<path style="stroke:none;" d="M 7.9375 0 L 7.9375 -14.890625 L 5.984375 -14.890625 C 5.515625 -13.125 3.984375 -12.21875 1.421875 -12.21875 L 1.421875 -10.265625 L 5 -10.265625 L 5 0 Z M 7.9375 0 "/>
</symbol>
<symbol overflow="visible" id="glyph3-17">
<path style="stroke:none;" d="M 6.109375 -15 L 4.078125 -15 L -0.25 0.296875 L 1.765625 0.296875 Z M 6.109375 -15 "/>
</symbol>
<symbol overflow="visible" id="glyph3-18">
<path style="stroke:none;" d="M 13.109375 0 L 13.109375 -2.625 L 4.8125 -2.625 L 4.8125 -6.59375 L 12.140625 -6.59375 L 12.140625 -9.21875 L 4.8125 -9.21875 L 4.8125 -12.6875 L 12.71875 -12.6875 L 12.71875 -15.3125 L 1.65625 -15.3125 L 1.65625 0 Z M 13.109375 0 "/>
</symbol>
<symbol overflow="visible" id="glyph3-19">
<path style="stroke:none;" d="M 5.984375 -5.546875 C 5.984375 -8.78125 4.984375 -11.671875 2.546875 -15.3125 L 0.4375 -15.3125 C 2.6875 -10.984375 3.40625 -8.625 3.40625 -5.546875 C 3.40625 -2.484375 2.6875 -0.078125 0.4375 4.203125 L 2.546875 4.203125 C 4.984375 0.5625 5.984375 -2.328125 5.984375 -5.546875 Z M 5.984375 -5.546875 "/>
</symbol>
<symbol overflow="visible" id="glyph3-20">
<path style="stroke:none;" d="M 13.296875 -4.59375 C 13.296875 -7.015625 12.078125 -8.140625 9.234375 -8.6875 L 6.84375 -9.15625 C 4.59375 -9.59375 3.953125 -10.03125 3.953125 -11.15625 C 3.953125 -12.3125 4.984375 -13.046875 6.59375 -13.046875 C 8.59375 -13.046875 9.8125 -12.203125 9.8125 -10.640625 L 12.75 -10.640625 C 12.75 -13.875 10.484375 -15.5625 6.734375 -15.5625 C 3.0625 -15.5625 0.9375 -13.84375 0.9375 -10.859375 C 0.9375 -8.46875 2.140625 -7.34375 5.25 -6.734375 L 7.390625 -6.328125 C 9.484375 -5.90625 10.265625 -5.453125 10.265625 -4.21875 C 10.265625 -2.9375 9.09375 -2.265625 7.1875 -2.265625 C 5.046875 -2.265625 3.734375 -3.171875 3.734375 -4.8125 L 0.671875 -4.8125 C 0.671875 -1.53125 3.109375 0.25 7.015625 0.25 C 10.96875 0.25 13.296875 -1.484375 13.296875 -4.59375 Z M 13.296875 -4.59375 "/>
</symbol>
<symbol overflow="visible" id="glyph3-21">
<path style="stroke:none;" d="M 11.296875 -11.34375 L 8.28125 -11.34375 L 5.921875 -3.09375 L 3.40625 -11.34375 L 0.171875 -11.34375 L 4.40625 0.484375 L 4.40625 0.546875 C 4.40625 1.609375 3.609375 2.4375 2.578125 2.4375 C 2.359375 2.4375 2.1875 2.421875 1.8125 2.3125 L 1.8125 4.515625 C 2.25 4.578125 2.5 4.59375 2.859375 4.59375 C 4.828125 4.59375 5.859375 4.234375 6.640625 2.078125 Z M 11.296875 -11.34375 "/>
</symbol>
<symbol overflow="visible" id="glyph3-22">
<path style="stroke:none;" d="M 14.9375 0 L 14.9375 -8.234375 L 8.796875 -8.234375 L 8.796875 -5.609375 L 12.28125 -5.609375 C 12.078125 -3.703125 10.265625 -2.4375 8.40625 -2.4375 C 5.859375 -2.4375 4.03125 -4.5625 4.03125 -7.703125 C 4.03125 -11 5.65625 -12.875 8.3125 -12.875 C 10.03125 -12.875 11.359375 -12.203125 11.96875 -10.421875 L 14.9375 -10.421875 C 14.546875 -13.5625 11.984375 -15.5625 8.296875 -15.5625 C 3.890625 -15.5625 0.875 -12.4375 0.875 -7.671875 C 0.875 -3.03125 3.90625 0.25 8.046875 0.25 C 10.09375 0.25 11.484375 -0.484375 12.65625 -2.09375 L 13.046875 0 Z M 14.9375 0 "/>
</symbol>
<symbol overflow="visible" id="glyph3-23">
<path style="stroke:none;" d="M 3.953125 -12.578125 L 3.953125 -15.3125 L 1.046875 -15.3125 L 1.046875 -12.578125 L 1.890625 -9.875 L 3.046875 -9.875 Z M 3.953125 -12.578125 "/>
</symbol>
<symbol overflow="visible" id="glyph4-0">
<path style="stroke:none;" d=""/>
</symbol>
<symbol overflow="visible" id="glyph4-1">
<path style="stroke:none;" d="M 0 -12.15625 L -2.625 -12.15625 L -2.625 -4.828125 L -15.3125 -4.828125 L -15.3125 -1.6875 L 0 -1.6875 Z M 0 -12.15625 "/>
</symbol>
<symbol overflow="visible" id="glyph4-2">
<path style="stroke:none;" d="M -5.59375 -11.953125 C -9.421875 -11.953125 -11.53125 -9.875 -11.53125 -6.328125 C -11.53125 -2.859375 -9.390625 -0.734375 -5.671875 -0.734375 C -1.9375 -0.734375 0.1875 -2.859375 0.1875 -6.34375 C 0.1875 -9.78125 -1.953125 -11.953125 -5.59375 -11.953125 Z M -5.625 -9.015625 C -3.5 -9.015625 -2.1875 -7.921875 -2.1875 -6.34375 C -2.1875 -4.75 -3.5 -3.671875 -5.671875 -3.671875 C -7.828125 -3.671875 -9.15625 -4.75 -9.15625 -6.34375 C -9.15625 -7.953125 -7.859375 -9.015625 -5.625 -9.015625 Z M -5.625 -9.015625 "/>
</symbol>
<symbol overflow="visible" id="glyph4-3">
<path style="stroke:none;" d="M 0.375 -11.359375 L -11.34375 -11.359375 L -11.34375 -8.5625 L -9.59375 -8.5625 C -10.9375 -7.6875 -11.53125 -6.71875 -11.53125 -5.421875 C -11.53125 -2.734375 -9.046875 -0.71875 -5.546875 -0.71875 C -2.015625 -0.71875 0.1875 -2.5625 0.1875 -5.359375 C 0.1875 -6.671875 -0.203125 -7.46875 -1.296875 -8.5625 L 0.375 -8.5625 C 1.75 -8.5625 2.6875 -7.53125 2.6875 -6.0625 C 2.6875 -4.953125 2.21875 -4.21875 1.359375 -3.96875 L 1.359375 -0.921875 C 3.21875 -0.984375 4.578125 -2.859375 4.578125 -5.96875 C 4.578125 -9.390625 3.046875 -11.359375 0.375 -11.359375 Z M -5.59375 -8.609375 C -3.53125 -8.609375 -2.265625 -7.53125 -2.265625 -6 C -2.265625 -4.625 -3.53125 -3.65625 -5.59375 -3.65625 C -7.734375 -3.65625 -9.078125 -4.625 -9.078125 -6.046875 C -9.078125 -7.515625 -7.6875 -8.609375 -5.59375 -8.609375 Z M -5.59375 -8.609375 "/>
</symbol>
<symbol overflow="visible" id="glyph4-4">
<path style="stroke:none;" d=""/>
</symbol>
<symbol overflow="visible" id="glyph4-5">
<path style="stroke:none;" d="M -4.59375 -13.296875 C -7.015625 -13.296875 -8.140625 -12.078125 -8.6875 -9.234375 L -9.15625 -6.84375 C -9.59375 -4.59375 -10.03125 -3.953125 -11.15625 -3.953125 C -12.3125 -3.953125 -13.046875 -4.984375 -13.046875 -6.59375 C -13.046875 -8.59375 -12.203125 -9.8125 -10.640625 -9.8125 L -10.640625 -12.75 C -13.875 -12.75 -15.5625 -10.484375 -15.5625 -6.734375 C -15.5625 -3.0625 -13.84375 -0.9375 -10.859375 -0.9375 C -8.46875 -0.9375 -7.34375 -2.140625 -6.734375 -5.25 L -6.328125 -7.390625 C -5.90625 -9.484375 -5.453125 -10.265625 -4.21875 -10.265625 C -2.9375 -10.265625 -2.265625 -9.09375 -2.265625 -7.1875 C -2.265625 -5.046875 -3.171875 -3.734375 -4.8125 -3.734375 L -4.8125 -0.671875 C -1.53125 -0.671875 0.25 -3.109375 0.25 -7.015625 C 0.25 -10.96875 -1.484375 -13.296875 -4.59375 -13.296875 Z M -4.59375 -13.296875 "/>
</symbol>
<symbol overflow="visible" id="glyph4-6">
<path style="stroke:none;" d="M -5.671875 -12.046875 C -9.03125 -12.046875 -11.53125 -10.265625 -11.53125 -7.3125 C -11.53125 -5.875 -10.921875 -4.875 -9.65625 -4.15625 L -11.34375 -4.15625 L -11.34375 -1.21875 L 4.578125 -1.21875 L 4.578125 -4.15625 L -1.515625 -4.15625 C -0.25 -4.875 0.1875 -5.875 0.1875 -7.3125 C 0.1875 -10.03125 -2.21875 -12.046875 -5.671875 -12.046875 Z M -5.625 -9.109375 C -3.5625 -9.109375 -2.265625 -8.078125 -2.265625 -6.640625 C -2.265625 -5.171875 -3.546875 -4.15625 -5.671875 -4.15625 C -7.796875 -4.15625 -9.078125 -5.171875 -9.078125 -6.640625 C -9.078125 -8.125 -7.796875 -9.109375 -5.625 -9.109375 Z M -5.625 -9.109375 "/>
</symbol>
<symbol overflow="visible" id="glyph4-7">
<path style="stroke:none;" d="M -8.53125 -7.765625 L -11.515625 -7.765625 C -11.53125 -7.609375 -11.53125 -7.5 -11.53125 -7.40625 C -11.53125 -6.0625 -10.640625 -4.890625 -9.109375 -4.265625 L -11.34375 -4.265625 L -11.34375 -1.328125 L 0 -1.328125 L 0 -4.265625 L -6.03125 -4.265625 C -7.75 -4.265625 -8.609375 -5.125 -8.609375 -6.84375 C -8.609375 -7.15625 -8.59375 -7.375 -8.53125 -7.765625 Z M -8.53125 -7.765625 "/>
</symbol>
<symbol overflow="visible" id="glyph4-8">
<path style="stroke:none;" d="M -5.25 -11.03125 C -9.15625 -11.03125 -11.53125 -9.046875 -11.53125 -5.71875 C -11.53125 -2.453125 -9.328125 -0.46875 -5.515625 -0.46875 C -1.890625 -0.46875 0.1875 -2.4375 0.1875 -5.65625 C 0.1875 -8.1875 -0.96875 -10.25 -3.1875 -10.90625 L -3.1875 -8 C -2.375 -7.75 -2.0625 -6.828125 -2.0625 -5.75 C -2.0625 -4.375 -2.6875 -3.484375 -4.890625 -3.40625 L -4.890625 -10.984375 Z M -6.84375 -7.953125 L -6.84375 -3.4375 C -8.421875 -3.640625 -9.28125 -4.375 -9.28125 -5.671875 C -9.28125 -6.9375 -8.46875 -7.8125 -6.84375 -7.9375 Z M -6.84375 -7.953125 "/>
</symbol>
<symbol overflow="visible" id="glyph4-9">
<path style="stroke:none;" d="M 0 -11 L -0.359375 -11 C -0.84375 -10.484375 -1.15625 -10.328125 -1.75 -10.328125 L -8.046875 -10.328125 C -10.359375 -10.328125 -11.53125 -8.75 -11.53125 -5.6875 C -11.53125 -2.625 -10.234375 -1.03125 -7.609375 -0.84375 L -7.609375 -3.65625 C -8.78125 -3.828125 -9.15625 -4.3125 -9.15625 -5.75 C -9.15625 -6.890625 -8.78125 -7.453125 -8.015625 -7.453125 C -6.828125 -7.453125 -6.953125 -6.578125 -6.703125 -5.109375 L -6.484375 -3.921875 C -6.09375 -1.6875 -5.125 -0.59375 -3.0625 -0.59375 C -0.859375 -0.59375 0.1875 -2.140625 0.1875 -4.03125 C 0.1875 -5.296875 -0.359375 -6.453125 -1.421875 -7.46875 C -0.84375 -7.46875 -0.34375 -7.53125 0 -7.8125 Z M -4.84375 -7.453125 C -3.15625 -7.453125 -2.1875 -6.609375 -2.1875 -5.125 C -2.1875 -4.140625 -2.5625 -3.53125 -3.40625 -3.53125 C -4.265625 -3.53125 -4.578125 -3.984375 -4.8125 -5.203125 L -5 -6.21875 C -5.140625 -7 -5.1875 -7.125 -5.359375 -7.453125 Z M -4.84375 -7.453125 "/>
</symbol>
<symbol overflow="visible" id="glyph4-10">
<path style="stroke:none;" d="M 0 -11.4375 L -15.3125 -11.4375 L -15.3125 -8.5 L -9.875 -8.5 C -11 -7.765625 -11.53125 -6.78125 -11.53125 -5.375 C -11.53125 -2.671875 -9.078125 -0.609375 -5.65625 -0.609375 C -2.4375 -0.609375 0.1875 -2.375 0.1875 -5.375 C 0.1875 -6.78125 -0.34375 -7.765625 -1.296875 -8.5 L 0 -8.5 Z M -5.609375 -8.5 C -3.546875 -8.5 -2.265625 -7.5 -2.265625 -6.03125 C -2.265625 -4.5625 -3.5625 -3.546875 -5.65625 -3.546875 C -7.75 -3.546875 -9.078125 -4.5625 -9.078125 -6.03125 C -9.078125 -7.515625 -7.765625 -8.5 -5.609375 -8.5 Z M -5.609375 -8.5 "/>
</symbol>
<symbol overflow="visible" id="glyph4-11">
<path style="stroke:none;" d="M 0 -4.34375 L -11.34375 -4.34375 L -11.34375 -1.40625 L 0 -1.40625 Z M -12.703125 -4.390625 L -15.640625 -4.390625 L -15.640625 -1.453125 L -12.703125 -1.453125 Z M -12.703125 -4.390625 "/>
</symbol>
<symbol overflow="visible" id="glyph4-12">
<path style="stroke:none;" d="M 0 -11.46875 L -7.609375 -11.46875 C -10.09375 -11.46875 -11.53125 -10.078125 -11.53125 -7.671875 C -11.53125 -6.125 -10.96875 -5.109375 -9.703125 -4.265625 L -11.34375 -4.265625 L -11.34375 -1.328125 L 0 -1.328125 L 0 -4.265625 L -6.796875 -4.265625 C -8.140625 -4.265625 -9.03125 -5.203125 -9.03125 -6.640625 C -9.03125 -7.890625 -8.34375 -8.53125 -7 -8.53125 L 0 -8.53125 Z M 0 -11.46875 "/>
</symbol>
<symbol overflow="visible" id="glyph4-13">
<path style="stroke:none;" d="M -12.6875 -12.3125 L -15.3125 -12.3125 L -15.3125 -1.546875 L 0 -1.546875 L 0 -4.703125 L -6.59375 -4.703125 L -6.59375 -11.40625 L -9.21875 -11.40625 L -9.21875 -4.703125 L -12.6875 -4.703125 Z M -12.6875 -12.3125 "/>
</symbol>
<symbol overflow="visible" id="glyph4-14">
<path style="stroke:none;" d="M 0 -6.328125 L -2.0625 -6.328125 C -2.015625 -6.03125 -2 -5.859375 -2 -5.65625 C -2 -4.875 -2.21875 -4.6875 -3.234375 -4.6875 L -9.15625 -4.6875 L -9.15625 -6.328125 L -11.109375 -6.328125 L -11.109375 -4.6875 L -14.15625 -4.6875 L -14.15625 -1.75 L -11.109375 -1.75 L -11.109375 -0.296875 L -9.15625 -0.296875 L -9.15625 -1.75 L -2.4375 -1.75 C -0.65625 -1.75 0.078125 -2.6875 0.078125 -4.625 C 0.078125 -5.265625 0.015625 -5.796875 0 -6.328125 Z M 0 -6.328125 "/>
</symbol>
<symbol overflow="visible" id="glyph4-15">
<path style="stroke:none;" d="M -3.359375 -10.921875 L -3.5 -10.921875 C -4.8125 -10.921875 -5.78125 -10.1875 -6.21875 -8.6875 L -7.28125 -4.984375 C -7.515625 -4.15625 -7.703125 -3.953125 -8.171875 -3.953125 C -8.796875 -3.953125 -9.21875 -4.625 -9.21875 -5.65625 C -9.21875 -7.0625 -8.71875 -7.75 -7.6875 -7.765625 L -7.6875 -10.609375 C -10.078125 -10.5625 -11.53125 -8.71875 -11.53125 -5.671875 C -11.53125 -2.796875 -10.078125 -1.015625 -7.75 -1.015625 C -6.359375 -1.015625 -5.609375 -1.390625 -4.953125 -3.484375 L -3.859375 -7 C -3.640625 -7.734375 -3.40625 -7.984375 -3.09375 -7.984375 C -2.390625 -7.984375 -2.125 -7.15625 -2.125 -5.796875 C -2.125 -4.453125 -2.375 -3.734375 -3.59375 -3.46875 L -3.59375 -0.59375 C -1.109375 -0.6875 0.1875 -2.515625 0.1875 -5.96875 C 0.1875 -9.15625 -1.078125 -10.921875 -3.359375 -10.921875 Z M -3.359375 -10.921875 "/>
</symbol>
<symbol overflow="visible" id="glyph5-0">
<path style="stroke:none;" d=""/>
</symbol>
<symbol overflow="visible" id="glyph5-1">
<path style="stroke:none;" d="M 14.109375 -0.015625 L 9.03125 -14.671875 L 5.71875 -14.671875 L 0.515625 0 L 3.578125 0 L 4.5625 -2.953125 L 10.0625 -2.953125 L 11.015625 0 L 14.109375 0 Z M 9.234375 -5.5 L 5.421875 -5.5 L 7.328125 -11.203125 L 9.21875 -5.5 Z M 9.234375 -5.5 "/>
</symbol>
<symbol overflow="visible" id="glyph5-2">
<path style="stroke:none;" d="M 4.296875 -0.015625 L 4.296875 -2.96875 L 1.28125 -2.96875 L 1.28125 0 L 4.296875 0 Z M 4.296875 -0.015625 "/>
</symbol>
<symbol overflow="visible" id="glyph5-3">
<path style="stroke:none;" d=""/>
</symbol>
<symbol overflow="visible" id="glyph5-4">
<path style="stroke:none;" d="M 13.375 -4.234375 C 13.375 -5.6875 12.59375 -6.84375 10.96875 -7.796875 C 12.390625 -8.6875 12.953125 -9.5625 12.953125 -10.796875 C 12.953125 -12.875 11.21875 -14.671875 8.171875 -14.671875 L 1.640625 -14.671875 L 1.640625 0 L 8.234375 0 C 11.640625 0 13.375 -1.828125 13.375 -4.234375 Z M 10.0625 -10.484375 C 10.0625 -9.421875 9.3125 -8.859375 7.9375 -8.859375 L 4.65625 -8.859375 L 4.65625 -12.125 L 7.9375 -12.125 C 9.3125 -12.125 10.0625 -11.5625 10.0625 -10.484375 Z M 10.484375 -4.421875 C 10.484375 -3.1875 9.71875 -2.546875 8.25 -2.546875 L 4.65625 -2.546875 L 4.65625 -6.296875 L 8.25 -6.296875 C 9.71875 -6.296875 10.484375 -5.65625 10.484375 -4.421875 Z M 10.484375 -4.421875 "/>
</symbol>
</g>
<clipPath id="clip1">
  <path d="M 22.5 23.476562 L 365 23.476562 L 365 447 L 22.5 447 Z M 22.5 23.476562 "/>
</clipPath>
<clipPath id="clip2">
  <path d="M 94.738281 51.820312 L 337 51.820312 L 337 371 L 94.738281 371 Z M 94.738281 51.820312 "/>
</clipPath>
<clipPath id="clip3">
  <path d="M 94.738281 349 L 337 349 L 337 351 L 94.738281 351 Z M 94.738281 349 "/>
</clipPath>
<clipPath id="clip4">
  <path d="M 94.738281 269 L 337 269 L 337 271 L 94.738281 271 Z M 94.738281 269 "/>
</clipPath>
<clipPath id="clip5">
  <path d="M 94.738281 189 L 337 189 L 337 191 L 94.738281 191 Z M 94.738281 189 "/>
</clipPath>
<clipPath id="clip6">
  <path d="M 94.738281 109 L 337 109 L 337 111 L 94.738281 111 Z M 94.738281 109 "/>
</clipPath>
<clipPath id="clip7">
  <path d="M 102 51.820312 L 104 51.820312 L 104 371.800781 L 102 371.800781 Z M 102 51.820312 "/>
</clipPath>
<clipPath id="clip8">
  <path d="M 148 51.820312 L 150 51.820312 L 150 371.800781 L 148 371.800781 Z M 148 51.820312 "/>
</clipPath>
<clipPath id="clip9">
  <path d="M 194 51.820312 L 196 51.820312 L 196 371.800781 L 194 371.800781 Z M 194 51.820312 "/>
</clipPath>
<clipPath id="clip10">
  <path d="M 240 51.820312 L 242 51.820312 L 242 371.800781 L 240 371.800781 Z M 240 51.820312 "/>
</clipPath>
<clipPath id="clip11">
  <path d="M 286 51.820312 L 288 51.820312 L 288 371.800781 L 286 371.800781 Z M 286 51.820312 "/>
</clipPath>
<clipPath id="clip12">
  <path d="M 332 51.820312 L 334 51.820312 L 334 371.800781 L 332 371.800781 Z M 332 51.820312 "/>
</clipPath>
<clipPath id="clip13">
  <path d="M 402.757812 23.476562 L 745 23.476562 L 745 447 L 402.757812 447 Z M 402.757812 23.476562 "/>
</clipPath>
<clipPath id="clip14">
  <path d="M 472.351562 51.820312 L 717 51.820312 L 717 371 L 472.351562 371 Z M 472.351562 51.820312 "/>
</clipPath>
<clipPath id="clip15">
  <path d="M 472.351562 349 L 717.640625 349 L 717.640625 351 L 472.351562 351 Z M 472.351562 349 "/>
</clipPath>
<clipPath id="clip16">
  <path d="M 472.351562 269 L 717.640625 269 L 717.640625 271 L 472.351562 271 Z M 472.351562 269 "/>
</clipPath>
<clipPath id="clip17">
  <path d="M 472.351562 189 L 717.640625 189 L 717.640625 191 L 472.351562 191 Z M 472.351562 189 "/>
</clipPath>
<clipPath id="clip18">
  <path d="M 472.351562 109 L 717.640625 109 L 717.640625 111 L 472.351562 111 Z M 472.351562 109 "/>
</clipPath>
<clipPath id="clip19">
  <path d="M 475 51.820312 L 477 51.820312 L 477 371.800781 L 475 371.800781 Z M 475 51.820312 "/>
</clipPath>
<clipPath id="clip20">
  <path d="M 562 51.820312 L 564 51.820312 L 564 371.800781 L 562 371.800781 Z M 562 51.820312 "/>
</clipPath>
<clipPath id="clip21">
  <path d="M 649 51.820312 L 651 51.820312 L 651 371.800781 L 649 371.800781 Z M 649 51.820312 "/>
</clipPath>
</defs>
<g id="surface1989">
<rect x="0" y="0" width="764" height="473" style="fill:rgb(100%,100%,100%);fill-opacity:1;stroke:none;"/>
<g clip-path="url(#clip1)" clip-rule="nonzero">
<path style=" stroke:none;fill-rule:nonzero;fill:rgb(100%,100%,100%);fill-opacity:1;" d="M 22.5 446.039062 L 364.730469 446.039062 L 364.730469 23.476562 L 22.5 23.476562 Z M 22.5 446.039062 "/>
</g>
<g clip-path="url(#clip2)" clip-rule="nonzero">
<path style=" stroke:none;fill-rule:nonzero;fill:rgb(100%,100%,100%);fill-opacity:1;" d="M 94.738281 370.800781 L 336.386719 370.800781 L 336.386719 51.820312 L 94.738281 51.820312 Z M 94.738281 370.800781 "/>
</g>
<g clip-path="url(#clip3)" clip-rule="nonzero">
<path style="fill:none;stroke-width:1.066978;stroke-linecap:butt;stroke-linejoin:round;stroke:rgb(94.117647%,94.117647%,94.117647%);stroke-opacity:1;stroke-miterlimit:10;" d="M 94.738281 349.609375 L 336.382812 349.609375 "/>
</g>
<g clip-path="url(#clip4)" clip-rule="nonzero">
<path style="fill:none;stroke-width:1.066978;stroke-linecap:butt;stroke-linejoin:round;stroke:rgb(94.117647%,94.117647%,94.117647%);stroke-opacity:1;stroke-miterlimit:10;" d="M 94.738281 269.660156 L 336.382812 269.660156 "/>
</g>
<g clip-path="url(#clip5)" clip-rule="nonzero">
<path style="fill:none;stroke-width:1.066978;stroke-linecap:butt;stroke-linejoin:round;stroke:rgb(94.117647%,94.117647%,94.117647%);stroke-opacity:1;stroke-miterlimit:10;" d="M 94.738281 189.707031 L 336.382812 189.707031 "/>
</g>
<g clip-path="url(#clip6)" clip-rule="nonzero">
<path style="fill:none;stroke-width:1.066978;stroke-linecap:butt;stroke-linejoin:round;stroke:rgb(94.117647%,94.117647%,94.117647%);stroke-opacity:1;stroke-miterlimit:10;" d="M 94.738281 109.757812 L 336.382812 109.757812 "/>
</g>
<g clip-path="url(#clip7)" clip-rule="nonzero">
<path style="fill:none;stroke-width:1.066978;stroke-linecap:butt;stroke-linejoin:round;stroke:rgb(94.117647%,94.117647%,94.117647%);stroke-opacity:1;stroke-miterlimit:10;" d="M 102.566406 370.800781 L 102.566406 51.820312 "/>
</g>
<g clip-path="url(#clip8)" clip-rule="nonzero">
<path style="fill:none;stroke-width:1.066978;stroke-linecap:butt;stroke-linejoin:round;stroke:rgb(94.117647%,94.117647%,94.117647%);stroke-opacity:1;stroke-miterlimit:10;" d="M 148.65625 370.800781 L 148.65625 51.820312 "/>
</g>
<g clip-path="url(#clip9)" clip-rule="nonzero">
<path style="fill:none;stroke-width:1.066978;stroke-linecap:butt;stroke-linejoin:round;stroke:rgb(94.117647%,94.117647%,94.117647%);stroke-opacity:1;stroke-miterlimit:10;" d="M 194.746094 370.800781 L 194.746094 51.820312 "/>
</g>
<g clip-path="url(#clip10)" clip-rule="nonzero">
<path style="fill:none;stroke-width:1.066978;stroke-linecap:butt;stroke-linejoin:round;stroke:rgb(94.117647%,94.117647%,94.117647%);stroke-opacity:1;stroke-miterlimit:10;" d="M 240.835938 370.800781 L 240.835938 51.820312 "/>
</g>
<g clip-path="url(#clip11)" clip-rule="nonzero">
<path style="fill:none;stroke-width:1.066978;stroke-linecap:butt;stroke-linejoin:round;stroke:rgb(94.117647%,94.117647%,94.117647%);stroke-opacity:1;stroke-miterlimit:10;" d="M 286.925781 370.800781 L 286.925781 51.820312 "/>
</g>
<g clip-path="url(#clip12)" clip-rule="nonzero">
<path style="fill:none;stroke-width:1.066978;stroke-linecap:butt;stroke-linejoin:round;stroke:rgb(94.117647%,94.117647%,94.117647%);stroke-opacity:1;stroke-miterlimit:10;" d="M 333.019531 370.800781 L 333.019531 51.820312 "/>
</g>
<path style="fill-rule:nonzero;fill:rgb(0%,0%,0%);fill-opacity:0.501961;stroke-width:0.708661;stroke-linecap:round;stroke-linejoin:round;stroke:rgb(0%,0%,0%);stroke-opacity:0.501961;stroke-miterlimit:10;" d="M 232.40625 300.882812 C 232.40625 307.046875 223.160156 307.046875 223.160156 300.882812 C 223.160156 294.722656 232.40625 294.722656 232.40625 300.882812 "/>
<path style="fill-rule:nonzero;fill:rgb(0%,0%,0%);fill-opacity:0.501961;stroke-width:0.708661;stroke-linecap:round;stroke-linejoin:round;stroke:rgb(0%,0%,0%);stroke-opacity:0.501961;stroke-miterlimit:10;" d="M 125.972656 106.316406 C 125.972656 112.480469 116.726562 112.480469 116.726562 106.316406 C 116.726562 100.152344 125.972656 100.152344 125.972656 106.316406 "/>
<path style="fill-rule:nonzero;fill:rgb(0%,0%,0%);fill-opacity:0.501961;stroke-width:0.708661;stroke-linecap:round;stroke-linejoin:round;stroke:rgb(0%,0%,0%);stroke-opacity:0.501961;stroke-miterlimit:10;" d="M 271.214844 341.726562 C 271.214844 347.886719 261.96875 347.886719 261.96875 341.726562 C 261.96875 335.5625 271.214844 335.5625 271.214844 341.726562 "/>
<path style="fill-rule:nonzero;fill:rgb(0%,0%,0%);fill-opacity:0.501961;stroke-width:0.708661;stroke-linecap:round;stroke-linejoin:round;stroke:rgb(0%,0%,0%);stroke-opacity:0.501961;stroke-miterlimit:10;" d="M 205.804688 166.054688 C 205.804688 172.21875 196.5625 172.21875 196.5625 166.054688 C 196.5625 159.894531 205.804688 159.894531 205.804688 166.054688 "/>
<path style="fill-rule:nonzero;fill:rgb(0%,0%,0%);fill-opacity:0.501961;stroke-width:0.708661;stroke-linecap:round;stroke-linejoin:round;stroke:rgb(0%,0%,0%);stroke-opacity:0.501961;stroke-miterlimit:10;" d="M 205.804688 207.890625 C 205.804688 214.054688 196.5625 214.054688 196.5625 207.890625 C 196.5625 201.726562 205.804688 201.726562 205.804688 207.890625 "/>
<path style="fill-rule:nonzero;fill:rgb(0%,0%,0%);fill-opacity:0.501961;stroke-width:0.708661;stroke-linecap:round;stroke-linejoin:round;stroke:rgb(0%,0%,0%);stroke-opacity:0.501961;stroke-miterlimit:10;" d="M 205.804688 286.308594 C 205.804688 292.46875 196.5625 292.46875 196.5625 286.308594 C 196.5625 280.144531 205.804688 280.144531 205.804688 286.308594 "/>
<path style="fill-rule:nonzero;fill:rgb(0%,0%,0%);fill-opacity:0.501961;stroke-width:0.708661;stroke-linecap:round;stroke-linejoin:round;stroke:rgb(0%,0%,0%);stroke-opacity:0.501961;stroke-miterlimit:10;" d="M 110.34375 78.222656 C 110.34375 84.382812 101.097656 84.382812 101.097656 78.222656 C 101.097656 72.058594 110.34375 72.058594 110.34375 78.222656 "/>
<path style="fill-rule:nonzero;fill:rgb(0%,0%,0%);fill-opacity:0.501961;stroke-width:0.708661;stroke-linecap:round;stroke-linejoin:round;stroke:rgb(0%,0%,0%);stroke-opacity:0.501961;stroke-miterlimit:10;" d="M 118.5625 218.566406 C 118.5625 224.730469 109.316406 224.730469 109.316406 218.566406 C 109.316406 212.402344 118.5625 212.402344 118.5625 218.566406 "/>
<path style="fill-rule:nonzero;fill:rgb(0%,0%,0%);fill-opacity:0.501961;stroke-width:0.708661;stroke-linecap:round;stroke-linejoin:round;stroke:rgb(0%,0%,0%);stroke-opacity:0.501961;stroke-miterlimit:10;" d="M 210.605469 121.738281 C 210.605469 127.902344 201.359375 127.902344 201.359375 121.738281 C 201.359375 115.574219 210.605469 115.574219 210.605469 121.738281 "/>
<path style="fill-rule:nonzero;fill:rgb(0%,0%,0%);fill-opacity:0.501961;stroke-width:0.708661;stroke-linecap:round;stroke-linejoin:round;stroke:rgb(0%,0%,0%);stroke-opacity:0.501961;stroke-miterlimit:10;" d="M 279.554688 120.054688 C 279.554688 126.21875 270.308594 126.21875 270.308594 120.054688 C 270.308594 113.890625 279.554688 113.890625 279.554688 120.054688 "/>
<path style="fill-rule:nonzero;fill:rgb(0%,0%,0%);fill-opacity:0.501961;stroke-width:0.708661;stroke-linecap:round;stroke-linejoin:round;stroke:rgb(0%,0%,0%);stroke-opacity:0.501961;stroke-miterlimit:10;" d="M 298.117188 341.726562 C 298.117188 347.886719 288.875 347.886719 288.875 341.726562 C 288.875 335.5625 298.117188 335.5625 298.117188 341.726562 "/>
<path style="fill-rule:nonzero;fill:rgb(0%,0%,0%);fill-opacity:0.501961;stroke-width:0.708661;stroke-linecap:round;stroke-linejoin:round;stroke:rgb(0%,0%,0%);stroke-opacity:0.501961;stroke-miterlimit:10;" d="M 298.117188 182.429688 C 298.117188 188.59375 288.875 188.59375 288.875 182.429688 C 288.875 176.265625 298.117188 176.265625 298.117188 182.429688 "/>
<path style="fill-rule:nonzero;fill:rgb(0%,0%,0%);fill-opacity:0.501961;stroke-width:0.708661;stroke-linecap:round;stroke-linejoin:round;stroke:rgb(0%,0%,0%);stroke-opacity:0.501961;stroke-miterlimit:10;" d="M 281.726562 68.039062 C 281.726562 74.203125 272.480469 74.203125 272.480469 68.039062 C 272.480469 61.878906 281.726562 61.878906 281.726562 68.039062 "/>
<path style="fill-rule:nonzero;fill:rgb(0%,0%,0%);fill-opacity:0.501961;stroke-width:0.708661;stroke-linecap:round;stroke-linejoin:round;stroke:rgb(0%,0%,0%);stroke-opacity:0.501961;stroke-miterlimit:10;" d="M 267.472656 356.300781 C 267.472656 362.464844 258.230469 362.464844 258.230469 356.300781 C 258.230469 350.136719 267.472656 350.136719 267.472656 356.300781 "/>
<path style="fill-rule:nonzero;fill:rgb(0%,0%,0%);fill-opacity:0.501961;stroke-width:0.708661;stroke-linecap:round;stroke-linejoin:round;stroke:rgb(0%,0%,0%);stroke-opacity:0.501961;stroke-miterlimit:10;" d="M 267.472656 82.269531 C 267.472656 88.433594 258.230469 88.433594 258.230469 82.269531 C 258.230469 76.105469 267.472656 76.105469 267.472656 82.269531 "/>
<path style="fill-rule:nonzero;fill:rgb(0%,0%,0%);fill-opacity:0.501961;stroke-width:0.708661;stroke-linecap:round;stroke-linejoin:round;stroke:rgb(0%,0%,0%);stroke-opacity:0.501961;stroke-miterlimit:10;" d="M 162.632812 77.242188 C 162.632812 83.402344 153.390625 83.402344 153.390625 77.242188 C 153.390625 71.078125 162.632812 71.078125 162.632812 77.242188 "/>
<path style="fill-rule:nonzero;fill:rgb(0%,0%,0%);fill-opacity:0.501961;stroke-width:0.708661;stroke-linecap:round;stroke-linejoin:round;stroke:rgb(0%,0%,0%);stroke-opacity:0.501961;stroke-miterlimit:10;" d="M 162.632812 98.3125 C 162.632812 104.476562 153.390625 104.476562 153.390625 98.3125 C 153.390625 92.152344 162.632812 92.152344 162.632812 98.3125 "/>
<path style="fill-rule:nonzero;fill:rgb(0%,0%,0%);fill-opacity:0.501961;stroke-width:0.708661;stroke-linecap:round;stroke-linejoin:round;stroke:rgb(0%,0%,0%);stroke-opacity:0.501961;stroke-miterlimit:10;" d="M 297.996094 140.863281 C 297.996094 147.027344 288.753906 147.027344 288.753906 140.863281 C 288.753906 134.703125 297.996094 134.703125 297.996094 140.863281 "/>
<path style="fill-rule:nonzero;fill:rgb(0%,0%,0%);fill-opacity:0.501961;stroke-width:0.708661;stroke-linecap:round;stroke-linejoin:round;stroke:rgb(0%,0%,0%);stroke-opacity:0.501961;stroke-miterlimit:10;" d="M 174.414062 147.625 C 174.414062 153.789062 165.167969 153.789062 165.167969 147.625 C 165.167969 141.460938 174.414062 141.460938 174.414062 147.625 "/>
<path style="fill-rule:nonzero;fill:rgb(0%,0%,0%);fill-opacity:0.501961;stroke-width:0.708661;stroke-linecap:round;stroke-linejoin:round;stroke:rgb(0%,0%,0%);stroke-opacity:0.501961;stroke-miterlimit:10;" d="M 329.941406 140.863281 C 329.941406 147.027344 320.695312 147.027344 320.695312 140.863281 C 320.695312 134.703125 329.941406 134.703125 329.941406 140.863281 "/>
<path style="fill-rule:nonzero;fill:rgb(0%,0%,0%);fill-opacity:0.501961;stroke-width:0.708661;stroke-linecap:round;stroke-linejoin:round;stroke:rgb(0%,0%,0%);stroke-opacity:0.501961;stroke-miterlimit:10;" d="M 259.128906 85.449219 C 259.128906 91.609375 249.882812 91.609375 249.882812 85.449219 C 249.882812 79.285156 259.128906 79.285156 259.128906 85.449219 "/>
<path style="fill-rule:nonzero;fill:rgb(0%,0%,0%);fill-opacity:0.501961;stroke-width:0.708661;stroke-linecap:round;stroke-linejoin:round;stroke:rgb(0%,0%,0%);stroke-opacity:0.501961;stroke-miterlimit:10;" d="M 330.023438 157.632812 C 330.023438 163.796875 320.777344 163.796875 320.777344 157.632812 C 320.777344 151.46875 330.023438 151.46875 330.023438 157.632812 "/>
<path style="fill-rule:nonzero;fill:rgb(0%,0%,0%);fill-opacity:0.501961;stroke-width:0.708661;stroke-linecap:round;stroke-linejoin:round;stroke:rgb(0%,0%,0%);stroke-opacity:0.501961;stroke-miterlimit:10;" d="M 330.023438 341.726562 C 330.023438 347.886719 320.777344 347.886719 320.777344 341.726562 C 320.777344 335.5625 330.023438 335.5625 330.023438 341.726562 "/>
<path style="fill-rule:nonzero;fill:rgb(0%,0%,0%);fill-opacity:0.501961;stroke-width:0.708661;stroke-linecap:round;stroke-linejoin:round;stroke:rgb(0%,0%,0%);stroke-opacity:0.501961;stroke-miterlimit:10;" d="M 329.777344 300.882812 C 329.777344 307.046875 320.535156 307.046875 320.535156 300.882812 C 320.535156 294.722656 329.777344 294.722656 329.777344 300.882812 "/>
<path style="fill-rule:nonzero;fill:rgb(0%,0%,0%);fill-opacity:0.501961;stroke-width:0.708661;stroke-linecap:round;stroke-linejoin:round;stroke:rgb(0%,0%,0%);stroke-opacity:0.501961;stroke-miterlimit:10;" d="M 124.117188 155.011719 C 124.117188 161.171875 114.871094 161.171875 114.871094 155.011719 C 114.871094 148.847656 124.117188 148.847656 124.117188 155.011719 "/>
<path style="fill-rule:nonzero;fill:rgb(0%,0%,0%);fill-opacity:0.501961;stroke-width:0.708661;stroke-linecap:round;stroke-linejoin:round;stroke:rgb(0%,0%,0%);stroke-opacity:0.501961;stroke-miterlimit:10;" d="M 302.507812 286.308594 C 302.507812 292.46875 293.265625 292.46875 293.265625 286.308594 C 293.265625 280.144531 302.507812 280.144531 302.507812 286.308594 "/>
<path style="fill-rule:nonzero;fill:rgb(0%,0%,0%);fill-opacity:0.501961;stroke-width:0.708661;stroke-linecap:round;stroke-linejoin:round;stroke:rgb(0%,0%,0%);stroke-opacity:0.501961;stroke-miterlimit:10;" d="M 282.25 140.863281 C 282.25 147.027344 273.007812 147.027344 273.007812 140.863281 C 273.007812 134.703125 282.25 134.703125 282.25 140.863281 "/>
<path style="fill-rule:nonzero;fill:rgb(0%,0%,0%);fill-opacity:0.501961;stroke-width:0.708661;stroke-linecap:round;stroke-linejoin:round;stroke:rgb(0%,0%,0%);stroke-opacity:0.501961;stroke-miterlimit:10;" d="M 266.394531 121.738281 C 266.394531 127.902344 257.148438 127.902344 257.148438 121.738281 C 257.148438 115.574219 266.394531 115.574219 266.394531 121.738281 "/>
<path style="fill-rule:nonzero;fill:rgb(0%,0%,0%);fill-opacity:0.501961;stroke-width:0.708661;stroke-linecap:round;stroke-linejoin:round;stroke:rgb(0%,0%,0%);stroke-opacity:0.501961;stroke-miterlimit:10;" d="M 262.828125 70.691406 C 262.828125 76.855469 253.582031 76.855469 253.582031 70.691406 C 253.582031 64.527344 262.828125 64.527344 262.828125 70.691406 "/>
<path style="fill-rule:nonzero;fill:rgb(0%,0%,0%);fill-opacity:0.501961;stroke-width:0.708661;stroke-linecap:round;stroke-linejoin:round;stroke:rgb(0%,0%,0%);stroke-opacity:0.501961;stroke-miterlimit:10;" d="M 297.875 318.726562 C 297.875 324.886719 288.628906 324.886719 288.628906 318.726562 C 288.628906 312.5625 297.875 312.5625 297.875 318.726562 "/>
<path style="fill-rule:nonzero;fill:rgb(0%,0%,0%);fill-opacity:0.501961;stroke-width:0.708661;stroke-linecap:round;stroke-linejoin:round;stroke:rgb(0%,0%,0%);stroke-opacity:0.501961;stroke-miterlimit:10;" d="M 245.109375 66.320312 C 245.109375 72.484375 235.867188 72.484375 235.867188 66.320312 C 235.867188 60.15625 245.109375 60.15625 245.109375 66.320312 "/>
<path style="fill-rule:nonzero;fill:rgb(0%,0%,0%);fill-opacity:0.501961;stroke-width:0.708661;stroke-linecap:round;stroke-linejoin:round;stroke:rgb(0%,0%,0%);stroke-opacity:0.501961;stroke-miterlimit:10;" d="M 125.679688 75.3125 C 125.679688 81.476562 116.433594 81.476562 116.433594 75.3125 C 116.433594 69.152344 125.679688 69.152344 125.679688 75.3125 "/>
<path style="fill-rule:nonzero;fill:rgb(0%,0%,0%);fill-opacity:0.501961;stroke-width:0.708661;stroke-linecap:round;stroke-linejoin:round;stroke:rgb(0%,0%,0%);stroke-opacity:0.501961;stroke-miterlimit:10;" d="M 125.679688 138.734375 C 125.679688 144.894531 116.433594 144.894531 116.433594 138.734375 C 116.433594 132.570312 125.679688 132.570312 125.679688 138.734375 "/>
<path style="fill:none;stroke-width:2.133957;stroke-linecap:butt;stroke-linejoin:round;stroke:rgb(0%,0%,0%);stroke-opacity:1;stroke-dasharray:8.535827,8.535827;stroke-miterlimit:1;" d="M 105.71875 113.085938 L 111.28125 115.914062 L 114.0625 117.332031 L 116.84375 118.746094 L 119.625 120.164062 L 122.40625 121.578125 L 125.1875 122.996094 L 127.964844 124.410156 L 130.746094 125.824219 L 133.527344 127.242188 L 136.308594 128.65625 L 139.089844 130.074219 L 144.652344 132.902344 L 147.433594 134.320312 L 150.210938 135.734375 L 152.992188 137.152344 L 158.554688 139.980469 L 161.335938 141.398438 L 164.117188 142.8125 L 166.898438 144.230469 L 169.679688 145.644531 L 172.457031 147.058594 L 175.238281 148.476562 L 178.019531 149.890625 L 180.800781 151.308594 L 183.582031 152.722656 L 186.363281 154.140625 L 191.925781 156.96875 L 194.703125 158.386719 L 197.484375 159.800781 L 200.265625 161.21875 L 205.828125 164.046875 L 208.609375 165.464844 L 211.390625 166.878906 L 214.171875 168.296875 L 216.949219 169.710938 L 219.730469 171.125 L 222.511719 172.542969 L 225.292969 173.957031 L 228.074219 175.375 L 233.636719 178.203125 L 236.414062 179.621094 L 239.195312 181.035156 L 241.976562 182.453125 L 247.539062 185.28125 L 250.320312 186.699219 L 253.101562 188.113281 L 255.882812 189.53125 L 258.660156 190.945312 L 261.441406 192.363281 L 267.003906 195.191406 L 269.785156 196.609375 L 272.566406 198.023438 L 275.347656 199.441406 L 278.128906 200.855469 L 280.90625 202.269531 L 283.6875 203.6875 L 286.46875 205.101562 L 289.25 206.519531 L 294.8125 209.347656 L 297.59375 210.765625 L 300.375 212.179688 L 303.152344 213.597656 L 308.714844 216.425781 L 311.496094 217.84375 L 314.277344 219.257812 L 317.058594 220.675781 L 319.839844 222.089844 L 322.621094 223.507812 L 325.398438 224.921875 "/>
<g style="fill:rgb(0%,0%,0%);fill-opacity:1;">
  <use xlink:href="#glyph0-1" x="116.648438" y="302.80957"/>
</g>
<g style="fill:rgb(0%,0%,0%);fill-opacity:1;">
  <use xlink:href="#glyph0-2" x="131.925781" y="302.80957"/>
</g>
<g style="fill:rgb(0%,0%,0%);fill-opacity:1;">
  <use xlink:href="#glyph0-3" x="150.203125" y="302.80957"/>
</g>
<g style="fill:rgb(0%,0%,0%);fill-opacity:1;">
  <use xlink:href="#glyph1-1" x="166.367188" y="301.951172"/>
  <use xlink:href="#glyph1-2" x="179.024414" y="301.951172"/>
  <use xlink:href="#glyph1-3" x="185.353516" y="301.951172"/>
  <use xlink:href="#glyph1-4" x="198.010742" y="301.951172"/>
  <use xlink:href="#glyph1-5" x="210.667969" y="301.951172"/>
</g>
<g style="fill:rgb(0%,0%,0%);fill-opacity:1;">
  <use xlink:href="#glyph0-4" x="223.367188" y="302.80957"/>
</g>
<g style="fill:rgb(0%,0%,0%);fill-opacity:1;">
  <use xlink:href="#glyph1-6" x="229.367188" y="301.951172"/>
</g>
<g style="fill:rgb(0%,0%,0%);fill-opacity:1;">
  <use xlink:href="#glyph1-7" x="120.738281" y="322.951172"/>
  <use xlink:href="#glyph1-8" x="133.395508" y="322.951172"/>
  <use xlink:href="#glyph1-9" x="146.69043" y="322.951172"/>
  <use xlink:href="#glyph1-9" x="159.347656" y="322.951172"/>
</g>
<path style="fill:none;stroke-width:1.066978;stroke-linecap:butt;stroke-linejoin:round;stroke:rgb(0%,0%,0%);stroke-opacity:1;stroke-miterlimit:10;" d="M 94.738281 370.800781 L 94.738281 51.820312 "/>
<g style="fill:rgb(0%,0%,0%);fill-opacity:1;">
  <use xlink:href="#glyph2-1" x="76.460938" y="357.069336"/>
</g>
<g style="fill:rgb(0%,0%,0%);fill-opacity:1;">
  <use xlink:href="#glyph2-2" x="76.460938" y="277.120117"/>
</g>
<g style="fill:rgb(0%,0%,0%);fill-opacity:1;">
  <use xlink:href="#glyph2-3" x="76.460938" y="197.166992"/>
</g>
<g style="fill:rgb(0%,0%,0%);fill-opacity:1;">
  <use xlink:href="#glyph2-4" x="76.460938" y="117.217773"/>
</g>
<path style="fill:none;stroke-width:1.066978;stroke-linecap:butt;stroke-linejoin:round;stroke:rgb(0%,0%,0%);stroke-opacity:1;stroke-miterlimit:10;" d="M 91.25 349.609375 L 94.738281 349.609375 "/>
<path style="fill:none;stroke-width:1.066978;stroke-linecap:butt;stroke-linejoin:round;stroke:rgb(0%,0%,0%);stroke-opacity:1;stroke-miterlimit:10;" d="M 91.25 269.660156 L 94.738281 269.660156 "/>
<path style="fill:none;stroke-width:1.066978;stroke-linecap:butt;stroke-linejoin:round;stroke:rgb(0%,0%,0%);stroke-opacity:1;stroke-miterlimit:10;" d="M 91.25 189.707031 L 94.738281 189.707031 "/>
<path style="fill:none;stroke-width:1.066978;stroke-linecap:butt;stroke-linejoin:round;stroke:rgb(0%,0%,0%);stroke-opacity:1;stroke-miterlimit:10;" d="M 91.25 109.757812 L 94.738281 109.757812 "/>
<path style="fill:none;stroke-width:1.066978;stroke-linecap:butt;stroke-linejoin:round;stroke:rgb(0%,0%,0%);stroke-opacity:1;stroke-miterlimit:10;" d="M 94.738281 370.800781 L 336.382812 370.800781 "/>
<path style="fill:none;stroke-width:1.066978;stroke-linecap:butt;stroke-linejoin:round;stroke:rgb(0%,0%,0%);stroke-opacity:1;stroke-miterlimit:10;" d="M 102.566406 374.289062 L 102.566406 370.800781 "/>
<path style="fill:none;stroke-width:1.066978;stroke-linecap:butt;stroke-linejoin:round;stroke:rgb(0%,0%,0%);stroke-opacity:1;stroke-miterlimit:10;" d="M 148.65625 374.289062 L 148.65625 370.800781 "/>
<path style="fill:none;stroke-width:1.066978;stroke-linecap:butt;stroke-linejoin:round;stroke:rgb(0%,0%,0%);stroke-opacity:1;stroke-miterlimit:10;" d="M 194.746094 374.289062 L 194.746094 370.800781 "/>
<path style="fill:none;stroke-width:1.066978;stroke-linecap:butt;stroke-linejoin:round;stroke:rgb(0%,0%,0%);stroke-opacity:1;stroke-miterlimit:10;" d="M 240.835938 374.289062 L 240.835938 370.800781 "/>
<path style="fill:none;stroke-width:1.066978;stroke-linecap:butt;stroke-linejoin:round;stroke:rgb(0%,0%,0%);stroke-opacity:1;stroke-miterlimit:10;" d="M 286.925781 374.289062 L 286.925781 370.800781 "/>
<path style="fill:none;stroke-width:1.066978;stroke-linecap:butt;stroke-linejoin:round;stroke:rgb(0%,0%,0%);stroke-opacity:1;stroke-miterlimit:10;" d="M 333.019531 374.289062 L 333.019531 370.800781 "/>
<g style="fill:rgb(0%,0%,0%);fill-opacity:1;">
  <use xlink:href="#glyph2-5" x="96.566406" y="392.038086"/>
</g>
<g style="fill:rgb(0%,0%,0%);fill-opacity:1;">
  <use xlink:href="#glyph2-1" x="142.65625" y="392.038086"/>
</g>
<g style="fill:rgb(0%,0%,0%);fill-opacity:1;">
  <use xlink:href="#glyph2-2" x="188.746094" y="392.038086"/>
</g>
<g style="fill:rgb(0%,0%,0%);fill-opacity:1;">
  <use xlink:href="#glyph2-3" x="234.835938" y="392.038086"/>
</g>
<g style="fill:rgb(0%,0%,0%);fill-opacity:1;">
  <use xlink:href="#glyph2-4" x="280.925781" y="392.038086"/>
</g>
<g style="fill:rgb(0%,0%,0%);fill-opacity:1;">
  <use xlink:href="#glyph2-6" x="327.019531" y="392.038086"/>
</g>
<g style="fill:rgb(0%,0%,0%);fill-opacity:1;">
  <use xlink:href="#glyph3-1" x="99.558594" y="417.84375"/>
  <use xlink:href="#glyph3-2" x="114.720703" y="417.84375"/>
  <use xlink:href="#glyph3-3" x="127.551758" y="417.84375"/>
  <use xlink:href="#glyph3-4" x="140.382812" y="417.84375"/>
  <use xlink:href="#glyph3-5" x="152.058594" y="417.84375"/>
  <use xlink:href="#glyph3-6" x="163.734375" y="417.84375"/>
  <use xlink:href="#glyph3-7" x="172.323242" y="417.84375"/>
  <use xlink:href="#glyph3-8" x="183.68457" y="417.84375"/>
  <use xlink:href="#glyph3-9" x="195.360352" y="417.84375"/>
  <use xlink:href="#glyph3-10" x="202.353516" y="417.84375"/>
  <use xlink:href="#glyph3-2" x="208.191406" y="417.84375"/>
  <use xlink:href="#glyph3-3" x="221.022461" y="417.84375"/>
  <use xlink:href="#glyph3-11" x="233.853516" y="417.84375"/>
  <use xlink:href="#glyph3-12" x="240.84668" y="417.84375"/>
  <use xlink:href="#glyph3-13" x="246.68457" y="417.84375"/>
  <use xlink:href="#glyph3-2" x="259.515625" y="417.84375"/>
  <use xlink:href="#glyph3-14" x="272.34668" y="417.84375"/>
  <use xlink:href="#glyph3-15" x="285.177734" y="417.84375"/>
  <use xlink:href="#glyph3-16" x="292.170898" y="417.84375"/>
  <use xlink:href="#glyph3-17" x="303.84668" y="417.84375"/>
  <use xlink:href="#glyph3-18" x="309.68457" y="417.84375"/>
  <use xlink:href="#glyph3-19" x="323.691406" y="417.84375"/>
</g>
<g style="fill:rgb(0%,0%,0%);fill-opacity:1;">
  <use xlink:href="#glyph4-1" x="63.832031" y="324.8125"/>
  <use xlink:href="#glyph4-2" x="63.832031" y="311.981445"/>
  <use xlink:href="#glyph4-3" x="63.832031" y="299.150391"/>
  <use xlink:href="#glyph4-4" x="63.832031" y="286.319336"/>
  <use xlink:href="#glyph4-5" x="63.832031" y="280.481445"/>
  <use xlink:href="#glyph4-6" x="63.832031" y="266.474609"/>
  <use xlink:href="#glyph4-7" x="63.832031" y="253.643555"/>
  <use xlink:href="#glyph4-8" x="63.832031" y="245.370117"/>
  <use xlink:href="#glyph4-9" x="63.832031" y="233.694336"/>
  <use xlink:href="#glyph4-10" x="63.832031" y="222.018555"/>
  <use xlink:href="#glyph4-11" x="63.832031" y="209.1875"/>
  <use xlink:href="#glyph4-12" x="63.832031" y="203.349609"/>
  <use xlink:href="#glyph4-3" x="63.832031" y="190.518555"/>
  <use xlink:href="#glyph4-4" x="63.832031" y="177.6875"/>
  <use xlink:href="#glyph4-13" x="63.832031" y="171.849609"/>
  <use xlink:href="#glyph4-11" x="63.832031" y="159.018555"/>
  <use xlink:href="#glyph4-14" x="63.832031" y="153.180664"/>
  <use xlink:href="#glyph4-12" x="63.832031" y="146.1875"/>
  <use xlink:href="#glyph4-8" x="63.832031" y="133.356445"/>
  <use xlink:href="#glyph4-15" x="63.832031" y="121.680664"/>
  <use xlink:href="#glyph4-15" x="63.832031" y="110.004883"/>
</g>
<g style="fill:rgb(0%,0%,0%);fill-opacity:1;">
  <use xlink:href="#glyph5-1" x="30.488281" y="46.537109"/>
  <use xlink:href="#glyph5-2" x="45.385742" y="46.537109"/>
  <use xlink:href="#glyph5-3" x="50.967773" y="46.537109"/>
</g>
<g clip-path="url(#clip13)" clip-rule="nonzero">
<path style=" stroke:none;fill-rule:nonzero;fill:rgb(100%,100%,100%);fill-opacity:1;" d="M 402.757812 446.039062 L 744.988281 446.039062 L 744.988281 23.476562 L 402.757812 23.476562 Z M 402.757812 446.039062 "/>
</g>
<g clip-path="url(#clip14)" clip-rule="nonzero">
<path style=" stroke:none;fill-rule:nonzero;fill:rgb(100%,100%,100%);fill-opacity:1;" d="M 472.351562 370.800781 L 716.640625 370.800781 L 716.640625 51.820312 L 472.351562 51.820312 Z M 472.351562 370.800781 "/>
</g>
<g clip-path="url(#clip15)" clip-rule="nonzero">
<path style="fill:none;stroke-width:1.066978;stroke-linecap:butt;stroke-linejoin:round;stroke:rgb(94.117647%,94.117647%,94.117647%);stroke-opacity:1;stroke-miterlimit:10;" d="M 472.351562 349.609375 L 716.640625 349.609375 "/>
</g>
<g clip-path="url(#clip16)" clip-rule="nonzero">
<path style="fill:none;stroke-width:1.066978;stroke-linecap:butt;stroke-linejoin:round;stroke:rgb(94.117647%,94.117647%,94.117647%);stroke-opacity:1;stroke-miterlimit:10;" d="M 472.351562 269.660156 L 716.640625 269.660156 "/>
</g>
<g clip-path="url(#clip17)" clip-rule="nonzero">
<path style="fill:none;stroke-width:1.066978;stroke-linecap:butt;stroke-linejoin:round;stroke:rgb(94.117647%,94.117647%,94.117647%);stroke-opacity:1;stroke-miterlimit:10;" d="M 472.351562 189.707031 L 716.640625 189.707031 "/>
</g>
<g clip-path="url(#clip18)" clip-rule="nonzero">
<path style="fill:none;stroke-width:1.066978;stroke-linecap:butt;stroke-linejoin:round;stroke:rgb(94.117647%,94.117647%,94.117647%);stroke-opacity:1;stroke-miterlimit:10;" d="M 472.351562 109.757812 L 716.640625 109.757812 "/>
</g>
<g clip-path="url(#clip19)" clip-rule="nonzero">
<path style="fill:none;stroke-width:1.066978;stroke-linecap:butt;stroke-linejoin:round;stroke:rgb(94.117647%,94.117647%,94.117647%);stroke-opacity:1;stroke-miterlimit:10;" d="M 476.078125 370.800781 L 476.078125 51.820312 "/>
</g>
<g clip-path="url(#clip20)" clip-rule="nonzero">
<path style="fill:none;stroke-width:1.066978;stroke-linecap:butt;stroke-linejoin:round;stroke:rgb(94.117647%,94.117647%,94.117647%);stroke-opacity:1;stroke-miterlimit:10;" d="M 563.152344 370.800781 L 563.152344 51.820312 "/>
</g>
<g clip-path="url(#clip21)" clip-rule="nonzero">
<path style="fill:none;stroke-width:1.066978;stroke-linecap:butt;stroke-linejoin:round;stroke:rgb(94.117647%,94.117647%,94.117647%);stroke-opacity:1;stroke-miterlimit:10;" d="M 650.226562 370.800781 L 650.226562 51.820312 "/>
</g>
<path style="fill-rule:nonzero;fill:rgb(0%,0%,0%);fill-opacity:0.501961;stroke-width:0.708661;stroke-linecap:round;stroke-linejoin:round;stroke:rgb(0%,0%,0%);stroke-opacity:0.501961;stroke-miterlimit:10;" d="M 582.9375 300.882812 C 582.9375 307.046875 573.695312 307.046875 573.695312 300.882812 C 573.695312 294.722656 582.9375 294.722656 582.9375 300.882812 "/>
<path style="fill-rule:nonzero;fill:rgb(0%,0%,0%);fill-opacity:0.501961;stroke-width:0.708661;stroke-linecap:round;stroke-linejoin:round;stroke:rgb(0%,0%,0%);stroke-opacity:0.501961;stroke-miterlimit:10;" d="M 496.777344 106.316406 C 496.777344 112.480469 487.535156 112.480469 487.535156 106.316406 C 487.535156 100.152344 496.777344 100.152344 496.777344 106.316406 "/>
<path style="fill-rule:nonzero;fill:rgb(0%,0%,0%);fill-opacity:0.501961;stroke-width:0.708661;stroke-linecap:round;stroke-linejoin:round;stroke:rgb(0%,0%,0%);stroke-opacity:0.501961;stroke-miterlimit:10;" d="M 606.984375 341.726562 C 606.984375 347.886719 597.742188 347.886719 597.742188 341.726562 C 597.742188 335.5625 606.984375 335.5625 606.984375 341.726562 "/>
<path style="fill-rule:nonzero;fill:rgb(0%,0%,0%);fill-opacity:0.501961;stroke-width:0.708661;stroke-linecap:round;stroke-linejoin:round;stroke:rgb(0%,0%,0%);stroke-opacity:0.501961;stroke-miterlimit:10;" d="M 574.273438 166.054688 C 574.273438 172.21875 565.03125 172.21875 565.03125 166.054688 C 565.03125 159.894531 574.273438 159.894531 574.273438 166.054688 "/>
<path style="fill-rule:nonzero;fill:rgb(0%,0%,0%);fill-opacity:0.501961;stroke-width:0.708661;stroke-linecap:round;stroke-linejoin:round;stroke:rgb(0%,0%,0%);stroke-opacity:0.501961;stroke-miterlimit:10;" d="M 574.273438 207.890625 C 574.273438 214.054688 565.03125 214.054688 565.03125 207.890625 C 565.03125 201.726562 574.273438 201.726562 574.273438 207.890625 "/>
<path style="fill-rule:nonzero;fill:rgb(0%,0%,0%);fill-opacity:0.501961;stroke-width:0.708661;stroke-linecap:round;stroke-linejoin:round;stroke:rgb(0%,0%,0%);stroke-opacity:0.501961;stroke-miterlimit:10;" d="M 574.273438 286.308594 C 574.273438 292.46875 565.03125 292.46875 565.03125 286.308594 C 565.03125 280.144531 574.273438 280.144531 574.273438 286.308594 "/>
<path style="fill-rule:nonzero;fill:rgb(0%,0%,0%);fill-opacity:0.501961;stroke-width:0.708661;stroke-linecap:round;stroke-linejoin:round;stroke:rgb(0%,0%,0%);stroke-opacity:0.501961;stroke-miterlimit:10;" d="M 488.078125 78.222656 C 488.078125 84.382812 478.835938 84.382812 478.835938 78.222656 C 478.835938 72.058594 488.078125 72.058594 488.078125 78.222656 "/>
<path style="fill-rule:nonzero;fill:rgb(0%,0%,0%);fill-opacity:0.501961;stroke-width:0.708661;stroke-linecap:round;stroke-linejoin:round;stroke:rgb(0%,0%,0%);stroke-opacity:0.501961;stroke-miterlimit:10;" d="M 578.695312 218.566406 C 578.695312 224.730469 569.449219 224.730469 569.449219 218.566406 C 569.449219 212.402344 578.695312 212.402344 578.695312 218.566406 "/>
<path style="fill-rule:nonzero;fill:rgb(0%,0%,0%);fill-opacity:0.501961;stroke-width:0.708661;stroke-linecap:round;stroke-linejoin:round;stroke:rgb(0%,0%,0%);stroke-opacity:0.501961;stroke-miterlimit:10;" d="M 542.410156 121.738281 C 542.410156 127.902344 533.164062 127.902344 533.164062 121.738281 C 533.164062 115.574219 542.410156 115.574219 542.410156 121.738281 "/>
<path style="fill-rule:nonzero;fill:rgb(0%,0%,0%);fill-opacity:0.501961;stroke-width:0.708661;stroke-linecap:round;stroke-linejoin:round;stroke:rgb(0%,0%,0%);stroke-opacity:0.501961;stroke-miterlimit:10;" d="M 610.90625 120.054688 C 610.90625 126.21875 601.660156 126.21875 601.660156 120.054688 C 601.660156 113.890625 610.90625 113.890625 610.90625 120.054688 "/>
<path style="fill-rule:nonzero;fill:rgb(0%,0%,0%);fill-opacity:0.501961;stroke-width:0.708661;stroke-linecap:round;stroke-linejoin:round;stroke:rgb(0%,0%,0%);stroke-opacity:0.501961;stroke-miterlimit:10;" d="M 619.777344 341.726562 C 619.777344 347.886719 610.53125 347.886719 610.53125 341.726562 C 610.53125 335.5625 619.777344 335.5625 619.777344 341.726562 "/>
<path style="fill-rule:nonzero;fill:rgb(0%,0%,0%);fill-opacity:0.501961;stroke-width:0.708661;stroke-linecap:round;stroke-linejoin:round;stroke:rgb(0%,0%,0%);stroke-opacity:0.501961;stroke-miterlimit:10;" d="M 574.160156 182.429688 C 574.160156 188.59375 564.917969 188.59375 564.917969 182.429688 C 564.917969 176.265625 574.160156 176.265625 574.160156 182.429688 "/>
<path style="fill-rule:nonzero;fill:rgb(0%,0%,0%);fill-opacity:0.501961;stroke-width:0.708661;stroke-linecap:round;stroke-linejoin:round;stroke:rgb(0%,0%,0%);stroke-opacity:0.501961;stroke-miterlimit:10;" d="M 573.273438 68.039062 C 573.273438 74.203125 564.027344 74.203125 564.027344 68.039062 C 564.027344 61.878906 573.273438 61.878906 573.273438 68.039062 "/>
<path style="fill-rule:nonzero;fill:rgb(0%,0%,0%);fill-opacity:0.501961;stroke-width:0.708661;stroke-linecap:round;stroke-linejoin:round;stroke:rgb(0%,0%,0%);stroke-opacity:0.501961;stroke-miterlimit:10;" d="M 607.621094 356.300781 C 607.621094 362.464844 598.375 362.464844 598.375 356.300781 C 598.375 350.136719 607.621094 350.136719 607.621094 356.300781 "/>
<path style="fill-rule:nonzero;fill:rgb(0%,0%,0%);fill-opacity:0.501961;stroke-width:0.708661;stroke-linecap:round;stroke-linejoin:round;stroke:rgb(0%,0%,0%);stroke-opacity:0.501961;stroke-miterlimit:10;" d="M 607.621094 82.269531 C 607.621094 88.433594 598.375 88.433594 598.375 82.269531 C 598.375 76.105469 607.621094 76.105469 607.621094 82.269531 "/>
<path style="fill-rule:nonzero;fill:rgb(0%,0%,0%);fill-opacity:0.501961;stroke-width:0.708661;stroke-linecap:round;stroke-linejoin:round;stroke:rgb(0%,0%,0%);stroke-opacity:0.501961;stroke-miterlimit:10;" d="M 549.640625 77.242188 C 549.640625 83.402344 540.394531 83.402344 540.394531 77.242188 C 540.394531 71.078125 549.640625 71.078125 549.640625 77.242188 "/>
<path style="fill-rule:nonzero;fill:rgb(0%,0%,0%);fill-opacity:0.501961;stroke-width:0.708661;stroke-linecap:round;stroke-linejoin:round;stroke:rgb(0%,0%,0%);stroke-opacity:0.501961;stroke-miterlimit:10;" d="M 549.640625 98.3125 C 549.640625 104.476562 540.394531 104.476562 540.394531 98.3125 C 540.394531 92.152344 549.640625 92.152344 549.640625 98.3125 "/>
<path style="fill-rule:nonzero;fill:rgb(0%,0%,0%);fill-opacity:0.501961;stroke-width:0.708661;stroke-linecap:round;stroke-linejoin:round;stroke:rgb(0%,0%,0%);stroke-opacity:0.501961;stroke-miterlimit:10;" d="M 621.996094 140.863281 C 621.996094 147.027344 612.75 147.027344 612.75 140.863281 C 612.75 134.703125 621.996094 134.703125 621.996094 140.863281 "/>
<path style="fill-rule:nonzero;fill:rgb(0%,0%,0%);fill-opacity:0.501961;stroke-width:0.708661;stroke-linecap:round;stroke-linejoin:round;stroke:rgb(0%,0%,0%);stroke-opacity:0.501961;stroke-miterlimit:10;" d="M 608.015625 147.625 C 608.015625 153.789062 598.769531 153.789062 598.769531 147.625 C 598.769531 141.460938 608.015625 141.460938 608.015625 147.625 "/>
<path style="fill-rule:nonzero;fill:rgb(0%,0%,0%);fill-opacity:0.501961;stroke-width:0.708661;stroke-linecap:round;stroke-linejoin:round;stroke:rgb(0%,0%,0%);stroke-opacity:0.501961;stroke-miterlimit:10;" d="M 653.839844 140.863281 C 653.839844 147.027344 644.597656 147.027344 644.597656 140.863281 C 644.597656 134.703125 653.839844 134.703125 653.839844 140.863281 "/>
<path style="fill-rule:nonzero;fill:rgb(0%,0%,0%);fill-opacity:0.501961;stroke-width:0.708661;stroke-linecap:round;stroke-linejoin:round;stroke:rgb(0%,0%,0%);stroke-opacity:0.501961;stroke-miterlimit:10;" d="M 556.460938 85.449219 C 556.460938 91.609375 547.21875 91.609375 547.21875 85.449219 C 547.21875 79.285156 556.460938 79.285156 556.460938 85.449219 "/>
<path style="fill-rule:nonzero;fill:rgb(0%,0%,0%);fill-opacity:0.501961;stroke-width:0.708661;stroke-linecap:round;stroke-linejoin:round;stroke:rgb(0%,0%,0%);stroke-opacity:0.501961;stroke-miterlimit:10;" d="M 710.160156 157.632812 C 710.160156 163.796875 700.914062 163.796875 700.914062 157.632812 C 700.914062 151.46875 710.160156 151.46875 710.160156 157.632812 "/>
<path style="fill-rule:nonzero;fill:rgb(0%,0%,0%);fill-opacity:0.501961;stroke-width:0.708661;stroke-linecap:round;stroke-linejoin:round;stroke:rgb(0%,0%,0%);stroke-opacity:0.501961;stroke-miterlimit:10;" d="M 710.160156 341.726562 C 710.160156 347.886719 700.914062 347.886719 700.914062 341.726562 C 700.914062 335.5625 710.160156 335.5625 710.160156 341.726562 "/>
<path style="fill-rule:nonzero;fill:rgb(0%,0%,0%);fill-opacity:0.501961;stroke-width:0.708661;stroke-linecap:round;stroke-linejoin:round;stroke:rgb(0%,0%,0%);stroke-opacity:0.501961;stroke-miterlimit:10;" d="M 698.5625 300.882812 C 698.5625 307.046875 689.316406 307.046875 689.316406 300.882812 C 689.316406 294.722656 698.5625 294.722656 698.5625 300.882812 "/>
<path style="fill-rule:nonzero;fill:rgb(0%,0%,0%);fill-opacity:0.501961;stroke-width:0.708661;stroke-linecap:round;stroke-linejoin:round;stroke:rgb(0%,0%,0%);stroke-opacity:0.501961;stroke-miterlimit:10;" d="M 495.804688 155.011719 C 495.804688 161.171875 486.558594 161.171875 486.558594 155.011719 C 486.558594 148.847656 495.804688 148.847656 495.804688 155.011719 "/>
<path style="fill-rule:nonzero;fill:rgb(0%,0%,0%);fill-opacity:0.501961;stroke-width:0.708661;stroke-linecap:round;stroke-linejoin:round;stroke:rgb(0%,0%,0%);stroke-opacity:0.501961;stroke-miterlimit:10;" d="M 608.351562 286.308594 C 608.351562 292.46875 599.109375 292.46875 599.109375 286.308594 C 599.109375 280.144531 608.351562 280.144531 608.351562 286.308594 "/>
<path style="fill-rule:nonzero;fill:rgb(0%,0%,0%);fill-opacity:0.501961;stroke-width:0.708661;stroke-linecap:round;stroke-linejoin:round;stroke:rgb(0%,0%,0%);stroke-opacity:0.501961;stroke-miterlimit:10;" d="M 608.875 140.863281 C 608.875 147.027344 599.632812 147.027344 599.632812 140.863281 C 599.632812 134.703125 608.875 134.703125 608.875 140.863281 "/>
<path style="fill-rule:nonzero;fill:rgb(0%,0%,0%);fill-opacity:0.501961;stroke-width:0.708661;stroke-linecap:round;stroke-linejoin:round;stroke:rgb(0%,0%,0%);stroke-opacity:0.501961;stroke-miterlimit:10;" d="M 573.96875 121.738281 C 573.96875 127.902344 564.722656 127.902344 564.722656 121.738281 C 564.722656 115.574219 573.96875 115.574219 573.96875 121.738281 "/>
<path style="fill-rule:nonzero;fill:rgb(0%,0%,0%);fill-opacity:0.501961;stroke-width:0.708661;stroke-linecap:round;stroke-linejoin:round;stroke:rgb(0%,0%,0%);stroke-opacity:0.501961;stroke-miterlimit:10;" d="M 570.945312 70.691406 C 570.945312 76.855469 561.699219 76.855469 561.699219 70.691406 C 561.699219 64.527344 570.945312 64.527344 570.945312 70.691406 "/>
<path style="fill-rule:nonzero;fill:rgb(0%,0%,0%);fill-opacity:0.501961;stroke-width:0.708661;stroke-linecap:round;stroke-linejoin:round;stroke:rgb(0%,0%,0%);stroke-opacity:0.501961;stroke-miterlimit:10;" d="M 679.945312 318.726562 C 679.945312 324.886719 670.703125 324.886719 670.703125 318.726562 C 670.703125 312.5625 679.945312 312.5625 679.945312 318.726562 "/>
<path style="fill-rule:nonzero;fill:rgb(0%,0%,0%);fill-opacity:0.501961;stroke-width:0.708661;stroke-linecap:round;stroke-linejoin:round;stroke:rgb(0%,0%,0%);stroke-opacity:0.501961;stroke-miterlimit:10;" d="M 597.246094 66.320312 C 597.246094 72.484375 588.003906 72.484375 588.003906 66.320312 C 588.003906 60.15625 597.246094 60.15625 597.246094 66.320312 "/>
<path style="fill-rule:nonzero;fill:rgb(0%,0%,0%);fill-opacity:0.501961;stroke-width:0.708661;stroke-linecap:round;stroke-linejoin:round;stroke:rgb(0%,0%,0%);stroke-opacity:0.501961;stroke-miterlimit:10;" d="M 489.527344 75.3125 C 489.527344 81.476562 480.285156 81.476562 480.285156 75.3125 C 480.285156 69.152344 489.527344 69.152344 489.527344 75.3125 "/>
<path style="fill-rule:nonzero;fill:rgb(0%,0%,0%);fill-opacity:0.501961;stroke-width:0.708661;stroke-linecap:round;stroke-linejoin:round;stroke:rgb(0%,0%,0%);stroke-opacity:0.501961;stroke-miterlimit:10;" d="M 489.527344 138.734375 C 489.527344 144.894531 480.285156 144.894531 480.285156 138.734375 C 480.285156 132.570312 489.527344 132.570312 489.527344 138.734375 "/>
<path style="fill:none;stroke-width:2.133957;stroke-linecap:butt;stroke-linejoin:round;stroke:rgb(0%,0%,0%);stroke-opacity:1;stroke-dasharray:8.535827,8.535827;stroke-miterlimit:1;" d="M 483.457031 93.980469 L 486.269531 96.332031 L 489.078125 98.683594 L 494.703125 103.386719 L 497.511719 105.734375 L 503.136719 110.4375 L 505.945312 112.789062 L 511.570312 117.492188 L 514.378906 119.839844 L 517.191406 122.191406 L 520 124.542969 L 525.625 129.246094 L 528.433594 131.597656 L 531.246094 133.945312 L 534.058594 136.296875 L 536.867188 138.648438 L 542.492188 143.351562 L 545.300781 145.703125 L 548.113281 148.050781 L 550.925781 150.402344 L 553.734375 152.753906 L 559.359375 157.457031 L 562.167969 159.808594 L 564.980469 162.15625 L 567.792969 164.507812 L 570.601562 166.859375 L 573.414062 169.210938 L 576.222656 171.5625 L 579.035156 173.914062 L 581.847656 176.261719 L 584.65625 178.613281 L 590.28125 183.316406 L 593.089844 185.667969 L 595.902344 188.019531 L 598.714844 190.367188 L 601.523438 192.71875 L 607.148438 197.421875 L 609.957031 199.773438 L 612.769531 202.125 L 615.582031 204.472656 L 618.390625 206.824219 L 624.015625 211.527344 L 626.824219 213.878906 L 629.636719 216.230469 L 632.445312 218.578125 L 638.070312 223.28125 L 640.878906 225.632812 L 646.503906 230.335938 L 649.3125 232.683594 L 654.9375 237.386719 L 657.746094 239.738281 L 663.371094 244.441406 L 666.179688 246.789062 L 671.804688 251.492188 L 674.613281 253.84375 L 680.238281 258.546875 L 683.046875 260.894531 L 685.859375 263.246094 L 688.667969 265.597656 L 694.292969 270.300781 L 697.101562 272.652344 L 699.914062 275 L 702.726562 277.351562 L 705.535156 279.703125 "/>
<g style="fill:rgb(0%,0%,0%);fill-opacity:1;">
  <use xlink:href="#glyph0-1" x="495.882812" y="302.80957"/>
</g>
<g style="fill:rgb(0%,0%,0%);fill-opacity:1;">
  <use xlink:href="#glyph0-2" x="511.160156" y="302.80957"/>
</g>
<g style="fill:rgb(0%,0%,0%);fill-opacity:1;">
  <use xlink:href="#glyph0-3" x="529.4375" y="302.80957"/>
</g>
<g style="fill:rgb(0%,0%,0%);fill-opacity:1;">
  <use xlink:href="#glyph1-1" x="545.605469" y="301.951172"/>
  <use xlink:href="#glyph1-2" x="558.262695" y="301.951172"/>
  <use xlink:href="#glyph1-9" x="564.591797" y="301.951172"/>
  <use xlink:href="#glyph1-10" x="577.249023" y="301.951172"/>
  <use xlink:href="#glyph1-11" x="589.90625" y="301.951172"/>
</g>
<g style="fill:rgb(0%,0%,0%);fill-opacity:1;">
  <use xlink:href="#glyph0-4" x="602.605469" y="302.80957"/>
</g>
<g style="fill:rgb(0%,0%,0%);fill-opacity:1;">
  <use xlink:href="#glyph1-6" x="608.605469" y="301.951172"/>
  <use xlink:href="#glyph1-6" x="617.460938" y="301.951172"/>
</g>
<g style="fill:rgb(0%,0%,0%);fill-opacity:1;">
  <use xlink:href="#glyph1-7" x="498.351562" y="322.951172"/>
  <use xlink:href="#glyph1-8" x="511.008789" y="322.951172"/>
  <use xlink:href="#glyph1-9" x="524.303711" y="322.951172"/>
  <use xlink:href="#glyph1-9" x="536.960938" y="322.951172"/>
</g>
<path style="fill:none;stroke-width:1.066978;stroke-linecap:butt;stroke-linejoin:round;stroke:rgb(0%,0%,0%);stroke-opacity:1;stroke-miterlimit:10;" d="M 472.351562 370.800781 L 472.351562 51.820312 "/>
<g style="fill:rgb(0%,0%,0%);fill-opacity:1;">
  <use xlink:href="#glyph2-1" x="454.078125" y="357.069336"/>
</g>
<g style="fill:rgb(0%,0%,0%);fill-opacity:1;">
  <use xlink:href="#glyph2-2" x="454.078125" y="277.120117"/>
</g>
<g style="fill:rgb(0%,0%,0%);fill-opacity:1;">
  <use xlink:href="#glyph2-3" x="454.078125" y="197.166992"/>
</g>
<g style="fill:rgb(0%,0%,0%);fill-opacity:1;">
  <use xlink:href="#glyph2-4" x="454.078125" y="117.217773"/>
</g>
<path style="fill:none;stroke-width:1.066978;stroke-linecap:butt;stroke-linejoin:round;stroke:rgb(0%,0%,0%);stroke-opacity:1;stroke-miterlimit:10;" d="M 468.867188 349.609375 L 472.351562 349.609375 "/>
<path style="fill:none;stroke-width:1.066978;stroke-linecap:butt;stroke-linejoin:round;stroke:rgb(0%,0%,0%);stroke-opacity:1;stroke-miterlimit:10;" d="M 468.867188 269.660156 L 472.351562 269.660156 "/>
<path style="fill:none;stroke-width:1.066978;stroke-linecap:butt;stroke-linejoin:round;stroke:rgb(0%,0%,0%);stroke-opacity:1;stroke-miterlimit:10;" d="M 468.867188 189.707031 L 472.351562 189.707031 "/>
<path style="fill:none;stroke-width:1.066978;stroke-linecap:butt;stroke-linejoin:round;stroke:rgb(0%,0%,0%);stroke-opacity:1;stroke-miterlimit:10;" d="M 468.867188 109.757812 L 472.351562 109.757812 "/>
<path style="fill:none;stroke-width:1.066978;stroke-linecap:butt;stroke-linejoin:round;stroke:rgb(0%,0%,0%);stroke-opacity:1;stroke-miterlimit:10;" d="M 472.351562 370.800781 L 716.640625 370.800781 "/>
<path style="fill:none;stroke-width:1.066978;stroke-linecap:butt;stroke-linejoin:round;stroke:rgb(0%,0%,0%);stroke-opacity:1;stroke-miterlimit:10;" d="M 476.078125 374.289062 L 476.078125 370.800781 "/>
<path style="fill:none;stroke-width:1.066978;stroke-linecap:butt;stroke-linejoin:round;stroke:rgb(0%,0%,0%);stroke-opacity:1;stroke-miterlimit:10;" d="M 563.152344 374.289062 L 563.152344 370.800781 "/>
<path style="fill:none;stroke-width:1.066978;stroke-linecap:butt;stroke-linejoin:round;stroke:rgb(0%,0%,0%);stroke-opacity:1;stroke-miterlimit:10;" d="M 650.226562 374.289062 L 650.226562 370.800781 "/>
<g style="fill:rgb(0%,0%,0%);fill-opacity:1;">
  <use xlink:href="#glyph2-1" x="470.078125" y="392.038086"/>
</g>
<g style="fill:rgb(0%,0%,0%);fill-opacity:1;">
  <use xlink:href="#glyph2-2" x="557.152344" y="392.038086"/>
</g>
<g style="fill:rgb(0%,0%,0%);fill-opacity:1;">
  <use xlink:href="#glyph2-3" x="644.226562" y="392.038086"/>
</g>
<g style="fill:rgb(0%,0%,0%);fill-opacity:1;">
  <use xlink:href="#glyph3-20" x="495.996094" y="417.84375"/>
  <use xlink:href="#glyph3-5" x="510.00293" y="417.84375"/>
  <use xlink:href="#glyph3-3" x="521.678711" y="417.84375"/>
  <use xlink:href="#glyph3-4" x="534.509766" y="417.84375"/>
  <use xlink:href="#glyph3-10" x="546.185547" y="417.84375"/>
  <use xlink:href="#glyph3-9" x="552.023438" y="417.84375"/>
  <use xlink:href="#glyph3-10" x="559.016602" y="417.84375"/>
  <use xlink:href="#glyph3-7" x="564.854492" y="417.84375"/>
  <use xlink:href="#glyph3-10" x="576.530273" y="417.84375"/>
  <use xlink:href="#glyph3-9" x="582.368164" y="417.84375"/>
  <use xlink:href="#glyph3-21" x="589.361328" y="417.84375"/>
  <use xlink:href="#glyph3-11" x="600.407227" y="417.84375"/>
  <use xlink:href="#glyph3-12" x="607.400391" y="417.84375"/>
  <use xlink:href="#glyph3-13" x="613.238281" y="417.84375"/>
  <use xlink:href="#glyph3-2" x="626.069336" y="417.84375"/>
  <use xlink:href="#glyph3-14" x="638.900391" y="417.84375"/>
  <use xlink:href="#glyph3-15" x="651.731445" y="417.84375"/>
  <use xlink:href="#glyph3-22" x="658.724609" y="417.84375"/>
  <use xlink:href="#glyph3-23" x="675.0625" y="417.84375"/>
  <use xlink:href="#glyph3-19" x="680.060547" y="417.84375"/>
  <use xlink:href="#glyph3-12" x="687.053711" y="417.84375"/>
</g>
<g style="fill:rgb(0%,0%,0%);fill-opacity:1;">
  <use xlink:href="#glyph5-4" x="409.742188" y="46.537109"/>
  <use xlink:href="#glyph5-2" x="424.238281" y="46.537109"/>
  <use xlink:href="#glyph5-3" x="429.820312" y="46.537109"/>
</g>
</g>
</svg>
