pos,gval,ll,lwci,upci,shanpos,shannon_val
581,7.250783107783696,550.427287939918,6.6250783107783677,7.8250783107783679,581,0.32193469928581481
582,14.962307095774818,13.856828673856725,12.696230709577492,17.796230709577497,582,0.022547253766980656
583,-1000,-1,-1,-1,583,-0.0
584,-1000,-1,-1,-1,584,-0.0
585,-888,-1,-1,-1,585,0.69314718055994529
586,-2,-1,-1,-1,586,-1
587,-2,-1,-1,-1,587,-1
588,-1000,-1,-1,-1,588,-0.0
589,-888,-1,-1,-1,589,0.69314718055994529
590,-888,-1,-1,-1,590,0.63651416829481278
591,-888,-1,-1,-1,591,0.56233514461880829
592,1.8957922710023734,1069.8563147528266,1.7895792271002369,1.9895792271002368,592,0.78986880748233246
593,9.44205680462442,56.914682259642234,8.4442056804624492,10.544205680462451,593,0.045228128827417793
594,3.6457641864682935,530.0377970968204,3.2645764186468287,3.8645764186468283,594,0.46726979738592944
595,-2,-1,-1,-1,595,-1
596,5.742225620007179,145.18666981995287,5.274222562000717,6.1742225620007165,596,0.10166897492413707
597,11.620115407278826,63.177249964587574,10.26201154072789,13.062011540727893,597,0.031958120116878617
598,4.66572346197923,116.81791905624709,4.2665723461979219,4.9665723461979221,598,0.34725706480972418
599,4.441937536787828,89.90626531216085,3.8441937536787822,5.0441937536787815,599,0.36808115850193046
600,4.530528483211317,148.08140731600125,3.9530528483211302,5.1530528483211304,600,0.26571308390735271
601,-888,-1,-1,-1,601,1.0046398409969541
602,-888,-1,-1,-1,602,1.1303849739091927
603,-888,-1,-1,-1,603,1.3208171286027897
604,-888,-1,-1,-1,604,0.93596937048593365
605,-888,-1,-1,-1,605,1.0560060148866686
606,-888,-1,-1,-1,606,1.5936174605927707
607,-888,-1,-1,-1,607,1.0986122886681096
608,-888,-1,-1,-1,608,2.1808395270586205
609,1.0764036588617638,310.67554957119853,0.7076403658861764,1.3076403658861766,609,1.0362326520715244
610,1.2883466801571724,227.78420213732147,1.0288346680157172,1.5288346680157174,610,1.5919415254233662
611,2.7343201064396903,167.75982864824385,2.3734320106439686,3.0734320106439683,611,0.76111022442035092
612,6.072651298243229,93.4328309631365,5.2072651298243215,6.9072651298243217,612,0.14861758016597998
613,4.739198880321625,29.207419817031223,4.1739198880321613,5.2739198880321609,613,0.353414489279467
614,-888,-1,-1,-1,614,0.54559457396918432
615,14.557607392763417,17.58136798417206,12.35576073927635,17.255760739276354,615,0.02276649152354852
616,15.758025069544049,20.016900105420778,13.275802506954415,19.075802506954417,616,0.0080265516791243833
617,12.420196330054619,45.35903378475358,10.842019633005471,14.142019633005473,617,0.030448107550988424
618,-2,-1,-1,-1,618,-1
619,4.082058071400128,392.21517410823037,3.7082058071400121,4.4082058071400123,619,0.33225212498309725
620,7.2740668640306865,46.30195084667858,6.5274066864030678,8.1274066864030665,620,0.046324195483273024
621,4.890033412901888,101.47675028975661,4.3890033412901879,5.2890033412901873,621,0.14138305449066291
622,12.506036291509808,41.630129396779296,11.250603629150989,13.850603629150992,622,0.049901472103687464
623,3.5919738209548635,266.26237980979226,3.2591973820954858,3.8591973820954855,623,0.71927492547729444
624,8.081940921378342,239.71391045471495,7.5081940921378321,8.6081940921378326,624,0.19330114889138322
625,-888,-1,-1,-1,625,1.1537419427010902
626,3.7649027221733027,422.6995560170378,3.4764902722173292,3.9764902722173292,626,0.37121242709069785
627,4.410447628757919,267.7823428267143,4.0410447628757904,4.7410447628757906,627,0.29058822568760212
628,3.914837591332795,192.7982417165773,3.5914837591332787,4.1914837591332788,628,0.55702150475935852
629,3.8865848323167773,130.90042293867316,3.588658483231677,4.0886584832316775,629,0.63327955933850366
630,3.0841993485507304,501.7721311726466,2.8084199348550727,3.3084199348550722,630,0.69330605178451477
631,2.529785895710111,258.0013402969487,2.2529785895710104,2.7529785895710104,631,1.094620073837953
632,2.5491508522466133,638.0990501211384,2.2549150852246607,2.7549150852246607,632,0.81836847264564305
633,-888,-1,-1,-1,633,1.3862943611198906
634,-888,-1,-1,-1,634,1.0986122886681096
635,-888,-1,-1,-1,635,0.63651416829481278
636,-888,-1,-1,-1,636,0.69314718055994529
637,-888,-1,-1,-1,637,0.69314718055994529
638,-1000,-1,-1,-1,638,-0.0
639,-1000,-1,-1,-1,639,-0.0
640,-1000,-1,-1,-1,640,-0.0
641,-2,-1,-1,-1,641,-1
642,-2,-1,-1,-1,642,-1
643,-2,-1,-1,-1,643,-1
644,-2,-1,-1,-1,644,-1
645,-888,-1,-1,-1,645,0.69314718055994529
646,-888,-1,-1,-1,646,0.69314718055994529
647,-888,-1,-1,-1,647,1.0397207708399179
648,-888,-1,-1,-1,648,1.5607104090414063
649,-888,-1,-1,-1,649,1.2080454581957722
650,5.596599153476167,71.06981014430175,5.0596599153476154,6.0596599153476154,650,0.34002318557949746
651,5.855300223831742,222.53809252897156,5.3855300223831728,6.2855300223831723,651,0.30318493594289636
652,5.334780094457807,124.05358382629754,4.8334780094457797,5.73347800944578,652,0.19544428384583623
653,1.281546992593361,752.3409132060474,1.028154699259336,1.4281546992593361,653,1.6533222086461246
654,3.352771275314536,191.77673095612113,3.0352771275314527,3.6352771275314528,654,0.81973859343888089
655,4.033577413745385,98.66847044896764,3.6033577413745377,4.303357741374537,655,0.3603131578994887
656,4.493617211842731,212.85661689203334,4.0493617211842725,4.8493617211842714,656,0.50532052585617226
657,5.3802585915726455,116.91462909131155,4.9380258591572632,5.7380258591572639,657,0.19325543022846062
658,-888,-1,-1,-1,658,0.48453064782249811
659,-2,-1,-1,-1,659,-1
660,-888,-1,-1,-1,660,1.0042424730540764
661,-888,-1,-1,-1,661,1.0397207708399179
662,-1000,-1,-1,-1,662,-0.0
663,-1000,-1,-1,-1,663,-0.0
664,-1000,-1,-1,-1,664,-0.0
665,-888,-1,-1,-1,665,1.0986122886681096
666,-1000,-1,-1,-1,666,-0.0
667,-888,-1,-1,-1,667,1.3619484240804274
668,1.298702622778701,131.55166205895898,0.92987026227787006,1.5298702622778702,668,1.5410155343445153
669,3.9880978702465937,367.13069357538507,3.5988097870246585,4.2988097870246582,669,0.50423513479087068
670,-888,-1,-1,-1,670,0.13269142083987176
671,-2,-1,-1,-1,671,-1
672,-2,-1,-1,-1,672,-1
673,-2,-1,-1,-1,673,-1
674,-2,-1,-1,-1,674,-1
675,-2,-1,-1,-1,675,-1
676,-2,-1,-1,-1,676,-1
677,13.39324661443568,348.3733539244809,12.239324661443577,14.53932466144358,677,0.085250357403779037
678,2.490426119942417,1012.8690856974758,2.3490426119942414,2.6490426119942412,678,0.6365368902308407
679,3.906542695000902,224.65249047262495,3.5906542695000896,4.1906542695000892,679,0.27974726819831486
680,27.671676537274152,73.10661075241876,24.567167653727434,31.167167653727443,680,0.023718761330184239
681,5.479935627902548,58.279381880109725,4.9479935627902529,5.8479935627902533,681,0.36603583321000227
682,7.743347502304729,18.249547495602084,6.5743347502304719,9.2743347502304712,682,0.0079141682793432387
