\relax 
\citation{Wright1969,SellaAndHirsh2005}
\citation{RihnEtAl2013}
\citation{LiuEtAl2012}
\citation{BeaulieuEtAl2017InReview}
\bibstyle{am.nat}
\bibdata{./bibliography.full}
\bibcite{BeaulieuEtAl2017InReview}{{1}{In Review}{{Beaulieu et~al.}}{{Beaulieu, O'Meara, Landerer, Chai, and Gilchrist}}}
\bibcite{LiuEtAl2012}{{2}{2012}{{Liu et~al.}}{{Liu, Hawkins, Ritchie, Ganusov, Whale, Brackenridge, Li, Pavlicek, Cai, Rose-Abrahams, Treurnicht, Hraber, Riou, Gray, Ferrari, Tanner, Ping, Anderson, Swanstrom, B, Cohen, Karim, Haynes, Borrow, Perelson, Shaw, Hahn, Williamson, Korber, Gao, Self, McMichael, and Goonetilleke}}}
\bibcite{RihnEtAl2013}{{3}{2013}{{Rihn et~al.}}{{Rihn, Wilson, Loman, Alim, Bakker, Bhella, Gifford, Rixon, and Bieniasz}}}
\bibcite{SellaAndHirsh2005}{{4}{2005}{{Sella and Hirsh}}{{}}}
\bibcite{Wright1969}{{5}{1969}{{Wright}}{{}}}
\@writefile{lof}{\contentsline {figure}{\numberline {1}{\ignorespaces Diversity as measured by Shannon entropy vs.\nobreakspace  {}amino acid site for part of HIV gag protein\relax }}{1}}
\@writefile{lof}{\contentsline {figure}{\numberline {2}{\ignorespaces Correlation between site specific entropy (E) and physico-chemical sensitivity \ensuremath  {G^{\prime \prime }}\xspace  \relax }}{1}}
\@writefile{lof}{\contentsline {figure}{\numberline {3}{\ignorespaces Correlation between the effect of site specific substitution on viral escape time within patients and physico-chemical sensitivity \ensuremath  {G^{\prime \prime }}\xspace  . $\rho $ is the Spearman rank order correlation coefficient.\relax }}{1}}
\@writefile{lof}{\contentsline {figure}{\numberline {4}{\ignorespaces Correlation between the effect of site specific substitions on viral spread \emph  {in vitro} cell culture and physico-chemical sensitivity \ensuremath  {G^{\prime \prime }}\xspace  . $\rho $ is the Spearman rank order correlation coefficient.\relax }}{1}}
\@writefile{lof}{\contentsline {figure}{\numberline {5}{\ignorespaces Distribution of site specific physico-chemical sensitivity \ensuremath  {G^{\prime \prime }}\xspace  by protein region. Note p7 is better described by a Gamma distribution than the LogNormal distribution ($\ensuremath  {\Delta \text  {AIC}}\xspace  = 5.0$).\relax }}{1}}
\@writefile{lof}{\contentsline {figure}{\numberline {6}{\ignorespaces MLE and 95\% Confidence Intervals for site specific physico-chemical sensitivity \ensuremath  {G^{\prime \prime }}\xspace  by protein region. Note p7 is not included since it is better described by a Gamma distribution. \relax }}{1}}
