,,,,,,,,,,,,,,,,,,,,,,,,,,,,,,,,"Sequence information on transmitted virus for each subject with details of mutations type, protein, associated HLA allele, associated epitope and HXB2 location",,,,,,,,,
,,,,,,,,,,,,,,,,,,,,,,,,,,,,,,,,"Antigen processing mutation ","Variants associated with reversion and/or associated with in vitro fitness costs (note: B27 restriced Gag 263-272 KK10 epitope matched clade consensus sequence in all subjects.",,,,,,"T242N compensatory mutations",,
"Patient","Gender","Country","Ethnicity","Age when first positive for HIV-1 vRNA  ","Clade of infection HIV-1","Median CD4+ Count (cells/ml)","Virus set-point (copies/ml)","Fiebig Stage when first positive for HIV-1 vRNA","HLA Type","KIR Type","Protein","HXB2 Location of reactive peptide","Sequence of reactive peptide","HLA Restriction","Protective(P)/ Non-protective (NP) allele","T cell breadth (ie number of T cell responses)","Magnitude of T cell response to reactive peptide at first detection (SFU/million PBMC)",">50% loss of magnitude in magnitude of T cell response to index peptide after T/F virus <50% (Y=yes, N=No, n/a= not applicable, nd=not determined) OR response lost (negative)","Mutant peptide(s) tested",">50% loss of magnitude of T cell response to mutant peptide compared to index peptide (Y=yes, N=No, n/a=not applicable)","Optimal epitope experimentally defined (Y=yes)","Mean Entropy of Epitope of experimentally defined optimal (nats)","Imputed epitope score from predicted optimal of reactive 18mer peptide (nats)","Time-point of 50% T/F (days post-Fiebig I/II) within reactive epitope","Calculated time to escape (days)","HXB2 Location of Putative Ag Processing Mutant","Time To Escape + putative Ag processing (days)","Escape rate, 1/day","%Killing of infected CD4+ Targets, 1/day","Low 95%Ci for Escape rate, 1/day","High 95%Ci for Escape rate, 1/day"," Gag B57/58 ISPRTLNAW A146P","Gag B57/58 ISPRTLNAW I147L","Gag B57/58 KAFSPEVIPMF                           A163G","Gag B57/58 KAFSPEVIPMF                           S165N","Gag B81 TPQDLNTML L198F","Gag B57/58 TSTLQELIGW T242N","RT B51 TAFTIPSI I135V","Gag                                                             H219Q","Gag                                I223V","Last seq time-point (days post-Fiebig I/II)"
"CH067","female","South Africa","Black",32,"C",1557,40,"I-II","A*01:01,A*33:01, B*53:01,B*81:01, Cw*04:01,Cw*18:01","2DL1-5, 2DP1, 2DS2, 2DS4, 2DS5, 3DL1-3","Gag","71->79","QPALQTGTEELKSLYNTV","A*0101","NP",3,498,"Y","GTEDLKSLY","Y","Y",0.276,,34,34,,,0.073,7.3,0.057,0.252,"146P","147L",,,,"T242N","I135V",,,68
,,,,,,,,,,,"Gag","180->188","TPQDLNTMLNTVGGHQAA","B*8101","P",,1075,"n/a",,,"Y",0.129,,"Invariant",,,,"n/a",,"n/a","n/a",,,,,,,,,,68
,,,,,,,,,,,"Env","838->854","RAIRNIPIRIRQGFEAAL",,,,53,"negative",,,,,0.483,33,33,,,0.097,9.7,0.076,0.212,,,,,,,,,,68
"CH058","male","USA","Black/African American",23,"B",861,234,"I-II","A*01:01,A*23:01, B*14:02/57:01-04, Cw*07:01,Cw*08:02","2DL1-2, 2DL-5, 2DP1, 2DS2-4, 3DL1-3","Gag","147->155","GQMVHQAISPRTLNAWVK","B*5703","P",4,75,"negative",,,"Y",0.123,,252,231,,,0.013,1.3,0.008,0.082,,,,,,,,,,350
,,,,,,,,,,,"Gag","240->249","IAGSTSTLQEQIGWMTSN","B*5703","P",,90,"Y","TSNLQEQIGW
TSTLQEQIEW","N
Y","Y",0.158,,62,41,,,0.054,5.4,0.005,0.086,,,,,,,,,,350
,,,,,,,,,,,"Env","584->592","LALERYLRDQQLLGIWGC","B*1402/Cw*0702","NP",,103,"negative","ERHLRDQQL
 RHLRDQQLL (pool)
ERYLSDQQL
 RYLSDQQLL","Y","Y",0.196,,23,2,,,0.080,8.0,0.000,0.144,,,,,,,,,,350
,,,,,,,,,,,"Nef","116->124","WVYHTQGYFPDWQNYTPG","B*5703","P",,250,"N",,"n/a","Y",0.139,,"Invariant",329,"Nef 105, 108",36,0.073,7.3,0.004,0.133,,,,,,,,,,350
"CAP045","female","South Africa","Black",41,"C",1046,871,"I-II","A*23:01,04, A*2902,03, B*1510, B*4501, Cw*16:01,Cw*16:02","nd","Vif","79->87","QTGERDWHLGHGVSIEWR","B*1510","NP",3,1015,"Y",,"n/a","Y",0.143,,"Invariant",419,"Vif 78",326,0.008,0.8,0.002,0.019,"146P","147M",,,"L188F",,,"H239Q","I223V",440
,,,,,,,,,,,"Rev","52->60","QRQIHSISERILSTCLGR","B*1510","NP",,1153,"Y","IHSISERIF","Y","Y",0.373,,83,62,,,0.201,20.1,0.005,0.219,,,,,,,,,,440
,,,,,,,,,,,"Nef","64->74","LQAQEEEEEVGFPVRPQV","B*4501","NP",,1378,"Y","GEVGFPVRPQV","Y","Y",0.224,,35,14,,,0.154,15.4,0.063,0.544,,,,,,,,,,636
"CH198","male","South Africa","Black",33,"C",894,1175,"I-II","A*03:01,A*74:01, B*08:01,B*5701-4, Cw*07:01,Cw*07:02","2DL1-2, 2DL4-5, 2DP1, 2DS2-5, 3DL1-3","Gag","240->249","IAGTTSTLQEQVAWMTSN","B*5703","P",2,118,"nd","TSNLQEQVAW","Y","Y",0.188,,253,221,,,0.014,1.4,0.011,0.051,"146P",,"163G","165N",,,,,"I223V",447
,,,,,,,,,,,"Nef","82->90","YKAAFDLSFFLKEKGGLD","B*5703","P",,178,"N",,,"Y",0.275,,6,6,,,0.427,42.7,0.345,1.410,,,,,,,,,,447
"CH077","male","USA","Black/African American",23,"B",756,3631,"I-II","A*02:05,A*02:05, B*53:01,B*57:01-04, Cw*04:01,Cw*18:01","2DL1-5, 2DP1, 2DS2-4, 3DL1-3","Gag","25->58","GKKQYKLKHIVWASRELE
        HIVWASRELERFAVNPSL",,,11,64,"n/a",,,,,0.182,"Invariant",571,,,"n/a",,"n/a","n/a",,,,,,,,,,592
,,,,,,,,,,,"Gag",,"        HIVWASRELERFAVNPSL
                LERFAVNPSLLETSEGCR",,,,90,"n/a",,,,,0.163,"Invariant",571,,,"n/a",,"n/a","n/a",,,,,,,,,,592
,,,,,,,,,,,"Gag","240->249","IAGSTSTLQEQVGWMTSN","B*5703","P",,107,"N","TSTLQEQIGW
TSNLQEQIAW","N
Y","Y",0.158,,131,110,,,0.063,6.3,0.041,0.244,,,,,,,,,,592
,,,,,,,,,,,"Gag","268->285","LGLNKIVRMYSPTSILDI",,,,77,"n/a",,,,,0.102,"Invariant",571,,,"n/a",,"n/a","n/a",,,,,,,,,,592
,,,,,,,,,,,"Gag","292->309","PFRDYVDRFYKTLRAEQA
        FYKTLRAEQASQEVKNWM",,,,137,"n/a",,,,,0.047,"Invariant",571,,,"n/a",,"n/a","n/a",,,,,,,,,,592
,,,,,,,,,,,"Env","334->351","SGEDWNKTLSHVVDKLRE",,,,74,"negative ",,,,,0.794,139,118,,,0.035,3.5,0.012,0.084,,,,,,,,,,592
,,,,,,,,,,,"Env","352->361","REQFRNKTIVFNHSSGGD","Cw*0401","NP",,447,"negative ",,,"Y",1.101,,2,2,,,0.436,43.6,0.288,0.635,,,,,,,,,,592
,,,,,,,,,,,"Env","822->839","VAEGTDRVIEELQRAWRA",,,,58,"negative ",,,,,0.527,67,46,,,0.059,5.9,0.043,0.190,,,,,,,,,,592
,,,,,,,,,,,"Nef","6->34","ERMRRAGARERRRRDEPA
        RERRRRDEPAAVGVGPAS",,,,113,"negative ",,,,,0.436,22,9,,,0.246,24.6,0.203,0.815,,,,,,,,,,592
,,,,,,,,,,,"Nef","82->90","QVPVRPMTYKAALDLSHF","B*5703","P",,2181,"Y","QAALDLSHF
KGALDLSHF","Y
Y","Y",0.354,,22,1,,,0.246,24.6,0.219,0.779,,,,,,,,,,592
,,,,,,,,,,,"Nef","185->202","FDSRLAFQHVAREIHPEF",,,,90,"n/a",,,,,0.339,"Invariant",571,,,"n/a",,"n/a","n/a",,,,,,,,,,592
"CH159","female","Malawi","Black, Chewa",18,"C",440,8511,"I-II","A*23:01,A*6802, B*81:01,B*18:01, Cw*07:04,Cw*18:01","2DL1, 2DL3-4, 2DP1, 2DS4, 3DL1-3","Nef","177->194","DREVLIWKFDSSLARRHL",,,1,80,"N","DRDVLIWKFDSSLARRHL","Y",,,0.403,25,13,,,0.509,50.9,0.129,0.902,,"147L",,,,"T242N",,,,1132
"CH040","male","USA","White",56,"B",986,14791,"I-II","A*31:01,A*02:01, B*44:02,B*40:01, Cw*03:02,Cw05:01",,"Gag","395->403","IVKCFNCGKEGHIARNCR","A*3101","NP",6,647,"N","CGKEGHIAK
CGKEGHLAR","Y
Y","Y",0.253,,30,14,,,0.171,17.1,0.149,0.528,,,,,,,,"H239Q","I223V",1187
,,,,,,,,,,,"Gag","481->498","KELYPLASLRSLFGNDPS",,,,137,"nd",,"n/a",,,0.341,"Invariant",1171,"Gag 479",466,0.030,3.0,0.006,0.093,,,,,,,,,,1187
,,,,,,,,,,,"Vif","119->127","DCFSESAIRKAILGRIVS","A*3101","NP",,127,"Y","AIREAILGR","Y","Y",0.434,,157,141,,,0.002,0.2,0.001,0.031,,,,,,,,,,1187
,,,,,,,,,,,"Env","765->783","LFSYHRLRDLLLIVTRIV",,,,114,"nd",,,,,0.245,1065,1049,,,0.004,0.4,0.003,0.015,,,,,,,,,,1187
,,,,,,,,,,,"Env","830->847","IEVVQRACRAILHIPRRI",,,,34,"nd",,,,,0.654,727,711,,,0.005,0.5,0.003,0.039,,,,,,,,,,1187
,,,,,,,,,,,"Nef","187->196","FDSSLAFRHVARELHPEY","A*3101","NP",,137,"negative","NLAFRHVAR","Y","Y",0.424,,12,12,,,0.208,20.8,0.114,0.529,,,,,,,,,,1187
"CH256","female","Malawi","Blace, Chewa",19,"C",601,18621,"I-II","A*33:01,A*68:01, B14:01,B*53:01, Cw*0401,Cw08:02","2DL1, 2DL3-4, 2DP1, 2DS4, 3DL1-3","Env","606->614","GCSGKLICTTAVPWDSSW
        TTAVPWDSSWSNKSQDDI","B*5301","NP",2,33,"nd","TAVPWNNSW","Y","Y",0.348,,113,106,,,0.034,3.4,0.024,0.158,"146P","147L","163G","165N",,,,"H239Q","I223V",684
,,,,,,,,,,,"Env","741->758","IEEEGGEQDRNRSIRLVN
        DRNRSIRLVNGFLALAWD",,,,43,"negative ",,,,,0.430,14,7,,,0.171,17.1,0.130,0.510,,,,,,,,,,684
"CH131","male","Malawi","Black, Lomwe",20,"C",300,22909,"I-II","A*29:01-04,A*23:01, B*45:01,15:03, Cw*02:02,Cw*06:02","2DL1, 2DL3-4, 2DP1, 2DS4, 3DL1-3","Tat","38->47","HCLVCFQKKGLGISYGRK","B*1503","NP",3,610,"Y","FQTKGLGISY","Y","Y",0.243,,112,105,,,0.052,5.2,0.031,0.198,,"147L",,,,"T242N",,,,670
,,,,,,,,,,,"Env","709->726","RQGYSPLSFQTLIPNPRG",,,,93,"Y",,,,,0.191,323,316,,,0.026,2.6,0.009,0.060,,,,,,,,,,670
,,,,,,,,,,,"Nef","64->74","IEAQEEGEEVGFPVKPQV","B*4501","NP",,1823,"Y","DEVGFPVKPQV
GEVGFPVRPQV
DEVGFPVRPQV","Y
N
Y","Y",0.224,,15,8,,,0.216,21.6,0.125,0.519,,,,,,,,,,670
"CH470","male","USA","White",17,"B",470,23710,"IV","A*03:01,A*01:01, B*08:01,B*49:01, Cw*07:01,Cw07:01","2DL1, 2DL3-5, 2DP1, 2DS1, 2DS5, 3DL1-3, 3DS1","Gag","20->29","EKIRLRPGGKKKYQLKHI",,,4,63,"nd","EKIRLRPGGKKRYQLKHI","Y",,,0.288,307,283,,,0.020,2.0,0.000,0.030,,,,,,,,,,465
,,,,,,,,,,,"Pol","424->432","GKLNWASQIYPGIKVKQL","A*03","NP",,148,"Y","QIYPGIKVR","Y","Y",0.216,,66,42,,,0.204,20.4,0.176,0.544,,,,,,,,,,465
,,,,,,,,,,,"Vif","17-26","IVWQVDRMRIKTWKSLVK
        RIKTWKSLVKHHMHISKK","A*0301","NP",,108,"negative ","RINTWKSLVK","Y","Y",0.269,,66,42,,,0.206,20.6,0.124,0.294,,,,,,,,,,465
,,,,,,,,,,,"Nef","185->202","FDSRLAYQHIAKEKHPEF",,,,118,"negative","FDSRLAYQHIAREKHPEF","Y",,,0.427,37,13,,,0.209,20.9,0.156,0.478,,,,,,,,,,465
"CAP239","female","South Africa","Black",44,"C",792,26915,"I-II","A*01:01,A*29:02,03, B*42:01, B*58:01, Cw*06:02, Cw*07:02,03","2DL1, 2DL4-5, 2DP1, 2DS4-5, 2DL1-3","Gag","240->249","IAGTTSTLQEQVAWMTSN","B*5801","P",5,133,"nd","TSNLQEQVAW","Y","Y",0.188,,9,11,,,0.303,30.3,0.188,0.423,,,,,,,,"H239Q","I223V",807
,,,,,,,,,,,"Pol","399->407","KWTVQPIVLPEKESWTVN","B*5801","P",,433,"Y","IVLPEKENW
IVLPKKESW","N
Y","Y",0.270,,50,21,,,0.071,7.1,0.003,0.133,,,,,,,,,,807
,,,,,,,,,,,"Vpr","25->50","ELKQEAVRHFPRPWLHNL
        HFPRPWLHNLGQHIYATY",,,,173,"nd",,,,,0.297,503,483,,,0.006,0.6,0.003,0.030,,,,,,,,,,807
,,,,,,,,,,,"Env","838->855","RAIYSIPRRIRQGFEAAL",,,,83,"nd",,,,,0.594,283,247,,,0.016,1.6,0.003,0.037,,,,,,,,,,807
,,,,,,,,,,,"Nef","82->90","QVPLRPMTYKAAVDLSFF","B*5801","P",,48,"Y","KGAVDLSFF
KAAFDLSFF
KGAFDLSFF","N
Y
Y","Y",0.275,,101,81,,,0.063,6.3,0.043,0.188,,,,,,,,,,807
"CH185","female","South Africa","Black",20,"C",309,40738,"I-II","A*01:01,A*74:01, B*15:03,B*81:01, Cw*02:02,Cw18:01","2DL1-2, 2DL4-5, 2DP1, 2DS2, 2DS4-5, 3DL1-3","Gag","71->79","QSALKTGTEELRSLYNTV","A*0101","NP",2,102,"negative ",,,"Y",0.276,,45,34,,,0.135,13.5,0.090,0.265,,,,,,,,,,416
,,,,,,,,,,,"Gag","180->188","TPQDLNTMLNTVGGHQAA","B*8101","P",,2318,"Y","TPGDLNTML","Y","Y",0.129,,123,112,,,0.038,3.8,0.025,0.125,,,,,,,,,,416
"CH162","male","South Africa","Black",42,"C",376,114815,"III","A*34:02,A*30:01, B*44:03,B*42:02, Cw*04:01,Cw*17:01,","2DL1, 2DL3-4, 2DP1, 2DS4, 3DL1-3","Nef","17->34","RDRIRKTAPTAERKTEPA",,,2,45,"negative ",,,,,0.778,61,28,,,0.003,0.3,0.001,0.155,,,"163G","165N",,,,,,445
,,,,,,,,,,,"Nef","105->122","KRQEILDLWVYHTQGYFP",,,,140,"negative ",,,,,0.191,67,34,,,0.152,15.2,0.019,0.155,,,,,,,,,,445
"CH042","male","South Africa","Black",38,"C",349,128825,"IV","A*23:01,A*30:02, B*15:03,B*18:01, Cw*02:02,Cw*07:04","2DL1, 2DL3-4, 2DP1, 2DS4, 3DL1-3","Rev","9->17","MAGRSGDNDETLLQAVRI
        DETLLQAVRIIKILYQSN","B*18","NP",4,3753,"Y","DEALLQAVR","Y","Y",0.382,,20,5,,,0.101,10.1,0.014,0.195,,"147L",,,,,,,,687
,,,,,,,,,,,"Env","169->178","ELRDKKQRVHALFYRLDI","B*1503","NP",,973,"Y","KQKVHALFY","Y","Y",0.807,,161,146,,,0.021,2.1,0.010,0.035,,,,,,,,,,687
,,,,,,,,,,,"Env","637->654","MQWDREISNYTDIIYRLL
        NYTDIIYRLLEESQNQQE",,,,2253,"N","NYTDTIYRLLEESQNQQE","Y",,,0.515,127,112,,,0.038,3.8,0.029,0.109,,,,,,,,,,687
,,,,,,,,,,,"Nef","107->115","KRREILDLWVYHTQGFFP","B*18","NP",,483,"nd",,,"Y",0.165,,"Invariant",672,,,"n/a",,"n/a","n/a",,,,,,,,,,687
"CAP210","female","South Africa","Black",43,"C",306,295121,"I-II","A*68:02,A*68:02, B*15:10,B*15:10, Cw*03:04,Cw*03:04","nd","Gag","143->152","GQMVHQAISPRTLNAWVK","B*1510","NP",4,285,"Y","VHQTISPRTL","Y","Y",0.248,,169,147,,,0.044,4.4,0.007,0.126,,,,,,,,,,548
,,,,,,,,,,,"Gag","296->304","PFRDYVDRFFKTLRAEQA","B*1510","NP",,390,"N",,,"Y",0.135,,311,289,,,0.061,6.1,0.006,0.087,,,,,,,,,,548
,,,,,,,,,,,"Vif","79->87","QTGERDWHLGHGVSIEWR","B*1510","NP",,950,"Y","WHLGHGASI","Y","Y",0.143,,88,66,,,0.134,13.4,0.017,0.246,,,,,,,,,,169
,,,,,,,,,,,"Env","822->839","VAEATDRILELLQRIWRG",,,,250,"negative","VAETTDRILELLQRIWRG      VAETTDRLLELLQRIWRG (pool)     VAEATDRLLELLQRIWRG","Y",,,0.326,13,11,,,0.238,23.8,0.156,0.509,,,,,,,,,,169
"CH164","male","South Africa","Black",27,"C",447,575440,"III","A*02:01,29:01-04, B*44:03,B*45:01, Cw*07:01,Cw*16:01","2DL1-5, 2DP1, 2DS2, 2SD4-5, 3DL1-3","Gag","292->309","PFRDYVDRFFKTLRAEQA",,,3,33,"negative ",,,,,0.076,100,68,,,0.062,6.2,0.027,0.105,,,"163N",,,,,,,445
,,,,,,,,,,,"Gag","397->414","KEGHIARNCKAPRKKGCW",,,,40,"n/a",,"n/a",,,0.158,"Invariant",413,,,"n/a",,"n/a","n/a",,,,,,,,,,445
,,,,,,,,,,,"Nef","64->74","LQAQEEEEEVGFPVRPQV","B*4501","NP",,1373,"N","GEVGFPVRPQV","Y","Y",0.236,,61,29,,,0.131,13.1,0.092,0.278,,,,,,,,,,445
"CH607","male","USA","White, Black/African American, also Latino/Hispanic",18,"B",984,"nd","IV","A*03:01,A*01:01, B*08:01,B*49:01, Cw*07:01,Cw*07:01","2DL1, 2DL3-5, 2DP1, 2DS1, 2SD5, 3DL1-3, 3DS1","Nef","105->115","KRREILDLWVYHTQGFFP","Cw*0701","NP",1,2730,"nd","KRQEILDLWVY
KRREILDLWVH","Y
Y","Y",0.266,,22,8,,,0.305,30.5,0.222,0.658,,"Not analysed: subject went onto ARV in early HIV-1 infection",,,,,,,,20
