A,1.0,"[0.0001998999899989999, 0.99880020002000203]",9.0,9.0,59.0,146.0,p24,A,ECons
A,0.7,"[0.5335659465946595, 0.9141849084908491]",10.0,7.0,150.0,146.0,p24,A,ECons
A,0.1111111111111111,"[0.0097902990299029904, 0.25924057405740575]",9.0,1.0,242.0,146.0,p24,A,ECons
A,0.0,"[0.0012987998799879989, 0.0010989998999899992]",9.0,0.0,334.0,146.0,p24,A,ECons
A,0.14285714285714285,"[0.0014985998599859986, 0.47542415241524155]",7.0,1.0,428.0,146.0,p24,A,ECons
P,0.0,"[0.00049959995999599967, 0.0055944994499449955]",9.0,0.0,59.0,146.0,p24,A,ECons
P,0.3,"[0.13066928692869287, 0.55884064406440648]",10.0,3.0,150.0,146.0,p24,A,ECons
P,0.8888888888888888,"[0.86733181318131813, 0.98461440144014412]",9.0,8.0,242.0,146.0,p24,A,ECons
P,1.0,"[0.99850050005000501, 0.99830070007000704]",9.0,9.0,334.0,146.0,p24,A,ECons
P,0.8571428571428571,"[0.54085864586458643, 0.99610290029002901]",7.0,6.0,428.0,146.0,p24,A,ECons
X,0.0,"[0.00049959995999599967, 0.0055944994499449955]",9.0,0.0,59.0,146.0,p24,A,ECons
X,0.0,"[0.00059949994999499963, 0.019080998099809982]",10.0,0.0,150.0,146.0,p24,A,ECons
X,0.0,"[0.0099900990099009903, 0.0097902990299029904]",9.0,0.0,242.0,146.0,p24,A,ECons
X,0.0,"[0.0012987998799879989, 0.0010989998999899992]",9.0,0.0,334.0,146.0,p24,A,ECons
X,0.0,"[0.0001998999899989999, 0.99880020002000203]",7.0,0.0,428.0,146.0,p24,A,ECons
N,1.0,"[0.0001998999899989999, 0.99880020002000203]",9.0,9.0,59.0,242.0,p24,T,ENCons
N,1.0,"[0.0001998999899989999, 0.99880020002000203]",10.0,10.0,150.0,242.0,p24,T,ENCons
N,1.0,"[0.98920980098009803, 0.98901000100010006]",9.0,9.0,242.0,242.0,p24,T,ENCons
N,0.5555555555555556,"[0.41468495849584958, 0.72527402740274027]",9.0,5.0,334.0,242.0,p24,T,ENCons
N,0.2857142857142857,"[0.21698287828782878, 0.44635325532553255]",7.0,2.0,428.0,242.0,p24,T,ENCons
S,0.0,"[0.014685398539853985, 0.014485598559855987]",9.0,0.0,59.0,242.0,p24,T,ENCons
S,0.0,"[0.0001998999899989999, 0.99880020002000203]",10.0,0.0,150.0,242.0,p24,T,ENCons
S,0.4444444444444444,"[0.25264717471747178, 0.59380564056405638]",9.0,4.0,334.0,242.0,p24,T,ENCons
S,0.0,"[0.0001998999899989999, 0.99880020002000203]",9.0,0.0,242.0,242.0,p24,T,ENCons
S,0.7142857142857143,"[0.35954016401640165, 0.87312601260126022]",7.0,5.0,428.0,242.0,p24,T,ENCons
X,0.0,"[0.014685398539853985, 0.014485598559855987]",9.0,0.0,59.0,242.0,p24,T,ENCons
X,0.0,"[0.0001998999899989999, 0.99880020002000203]",10.0,0.0,150.0,242.0,p24,T,ENCons
X,0.0,"[0.0001998999899989999, 0.99880020002000203]",9.0,0.0,242.0,242.0,p24,T,ENCons
X,0.0,"[0.0001998999899989999, 0.0013986998699869989]",9.0,0.0,334.0,242.0,p24,T,ENCons
X,0.0,"[0.0001998999899989999, 0.99880020002000203]",7.0,0.0,428.0,242.0,p24,T,ENCons
P,1.0,"[0.0001998999899989999, 0.99880020002000203]",9.0,9.0,59.0,339.0,p24,P,ECons
P,1.0,"[0.0001998999899989999, 0.99880020002000203]",10.0,10.0,150.0,339.0,p24,P,ECons
P,0.8888888888888888,"[0.69700233023302338, 0.99850050005000501]",9.0,8.0,242.0,339.0,p24,P,ECons
P,1.0,"[0.0001998999899989999, 0.99880020002000203]",9.0,9.0,334.0,339.0,p24,P,ECons
P,1.0,"[0.0001998999899989999, 0.99880020002000203]",7.0,7.0,428.0,339.0,p24,P,ECons
S,0.0,"[0.091808190819081911, 0.091608390839083911]",9.0,0.0,59.0,339.0,p24,P,ECons
S,0.0,"[0.0001998999899989999, 0.99880020002000203]",10.0,0.0,150.0,339.0,p24,P,ECons
S,0.1111111111111111,"[0.0059940994099409945, 0.2022975797579758]",9.0,1.0,242.0,339.0,p24,P,ECons
S,0.0,"[0.0051948994899489957, 0.0049950995099509957]",9.0,0.0,334.0,339.0,p24,P,ECons
S,0.0,"[0.0001998999899989999, 0.99880020002000203]",7.0,0.0,428.0,339.0,p24,P,ECons
X,0.0,"[0.091808190819081911, 0.091608390839083911]",9.0,0.0,59.0,339.0,p24,P,ECons
X,0.0,"[0.0001998999899989999, 0.99880020002000203]",10.0,0.0,150.0,339.0,p24,P,ECons
X,0.0,"[0.0001998999899989999, 0.999]",9.0,0.0,242.0,339.0,p24,P,ECons
X,0.0,"[0.0051948994899489957, 0.0049950995099509957]",9.0,0.0,334.0,339.0,p24,P,ECons
X,0.0,"[0.0001998999899989999, 0.99880020002000203]",7.0,0.0,428.0,339.0,p24,P,ECons
K,0.0,"[0.0010989998999899992, 0.0008991999199919993]",9.0,0.0,59.0,388.0,p7,R,ECons
K,0.0,"[0.001198899889988999, 0.00099909990999099926]",10.0,0.0,150.0,388.0,p7,R,ECons
K,0.1111111111111111,"[0.004295799579957996, 0.38551416141614164]",9.0,1.0,242.0,388.0,p7,R,ECons
K,0.0,"[0.007092999299929994, 0.0068931993199319941]",9.0,0.0,334.0,388.0,p7,R,ECons
K,0.0,"[0.0002997999799979998, 0.0001]",7.0,0.0,428.0,388.0,p7,R,ECons
R,1.0,"[0.0001998999899989999, 0.99880020002000203]",9.0,9.0,59.0,388.0,p7,R,ECons
R,1.0,"[0.0001998999899989999, 0.99880020002000203]",10.0,10.0,150.0,388.0,p7,R,ECons
R,0.8888888888888888,"[0.47702255225522555, 0.97612290229022902]",9.0,8.0,242.0,388.0,p7,R,ECons
R,1.0,"[0.96853050305030508, 0.96833070307030711]",9.0,9.0,334.0,388.0,p7,R,ECons
R,1.0,"[0.0001998999899989999, 0.99880020002000203]",7.0,7.0,428.0,388.0,p7,R,ECons
X,0.0,"[0.0010989998999899992, 0.0008991999199919993]",9.0,0.0,59.0,388.0,p7,R,ECons
X,0.0,"[0.001198899889988999, 0.00099909990999099926]",10.0,0.0,150.0,388.0,p7,R,ECons
X,0.0,"[0.007592499249924993, 0.0084915991599159909]",9.0,0.0,242.0,388.0,p7,R,ECons
X,0.0,"[0.007092999299929994, 0.0068931993199319941]",9.0,0.0,334.0,388.0,p7,R,ECons
X,0.0,"[0.0002997999799979998, 0.0001]",7.0,0.0,428.0,388.0,p7,R,ECons
K,0.0,"[0.0001998999899989999, 0.99880020002000203]",9.0,0.0,59.0,397.0,p7,K,Rev
K,0.1,"[0.0086913991399139908, 0.31438536853685367]",10.0,1.0,150.0,397.0,p7,K,Rev
K,0.0,"[0.0001998999899989999, 0.99880020002000203]",9.0,0.0,242.0,397.0,p7,K,Rev
K,0.0,"[0.00099909990999099926, 0.00079929992999299934]",9.0,0.0,334.0,397.0,p7,K,Rev
K,0.0,"[0.0001998999899989999, 0.99880020002000203]",7.0,0.0,428.0,397.0,p7,K,Rev
R,1.0,"[0.0001998999899989999, 0.99880020002000203]",9.0,9.0,59.0,397.0,p7,K,Rev
R,0.9,"[0.73696232623262325, 0.98121780178017803]",10.0,9.0,150.0,397.0,p7,K,Rev
R,1.0,"[0.0001998999899989999, 0.99880020002000203]",9.0,9.0,242.0,397.0,p7,K,Rev
R,1.0,"[0.99610290029002901, 0.99590310031003104]",9.0,9.0,334.0,397.0,p7,K,Rev
R,1.0,"[0.0001998999899989999, 0.99880020002000203]",7.0,7.0,428.0,397.0,p7,K,Rev
X,0.0,"[0.0001998999899989999, 0.99880020002000203]",9.0,0.0,59.0,397.0,p7,K,Rev
X,0.0,"[0.0001998999899989999, 0.0083916991699169909]",10.0,0.0,150.0,397.0,p7,K,Rev
X,0.0,"[0.0001998999899989999, 0.99880020002000203]",9.0,0.0,242.0,397.0,p7,K,Rev
X,0.0,"[0.00099909990999099926, 0.00079929992999299934]",9.0,0.0,334.0,397.0,p7,K,Rev
X,0.0,"[0.0001998999899989999, 0.99880020002000203]",7.0,0.0,428.0,397.0,p7,K,Rev
A,1.0,"[0.0001998999899989999, 0.99880020002000203]",9.0,9.0,59.0,54.0,p17,S,ENCons
A,1.0,"[0.0001998999899989999, 0.99880020002000203]",10.0,10.0,150.0,54.0,p17,S,ENCons
A,0.8888888888888888,"[0.71468462846284631, 0.99110790079007904]",9.0,8.0,242.0,54.0,p17,S,ENCons
A,1.0,"[0.0001998999899989999, 0.99880020002000203]",9.0,9.0,334.0,54.0,p17,S,ENCons
A,1.0,"[0.96982920292029207, 0.96962940294029409]",7.0,7.0,428.0,54.0,p17,S,ENCons
T,0.0,"[0.0001998999899989999, 0.99880020002000203]",9.0,0.0,59.0,54.0,p17,S,ENCons
T,0.0,"[0.19120868086808682, 0.19100888088808882]",10.0,0.0,150.0,54.0,p17,S,ENCons
T,0.1111111111111111,"[0.0097902990299029904, 0.35754216421642165]",9.0,1.0,242.0,54.0,p17,S,ENCons
T,0.0,"[0.0026973997399739975, 0.0024975997599759976]",9.0,0.0,334.0,54.0,p17,S,ENCons
T,0.0,"[0.0001998999899989999, 0.99880020002000203]",7.0,0.0,428.0,54.0,p17,S,ENCons
X,0.0,"[0.0001998999899989999, 0.99880020002000203]",9.0,0.0,59.0,54.0,p17,S,ENCons
X,0.0,"[0.19120868086808682, 0.19100888088808882]",10.0,0.0,150.0,54.0,p17,S,ENCons
X,0.0,"[0.0001998999899989999, 0.99880020002000203]",9.0,0.0,242.0,54.0,p17,S,ENCons
X,0.0,"[0.0026973997399739975, 0.0024975997599759976]",9.0,0.0,334.0,54.0,p17,S,ENCons
X,0.0,"[0.0001998999899989999, 0.99880020002000203]",7.0,0.0,428.0,54.0,p17,S,ENCons
