E,0.0,"[0.0076923992399239929, 0.007492599259925993]",11.0,0.0,44.0,106.0,p17,E,Rev
E,0.0,"[0.0001998999899989999, 0.99880020002000203]",11.0,0.0,137.0,106.0,p17,E,Rev
E,0.09090909090909091,"[0.027772297229722975, 0.36393576357635765]",11.0,1.0,349.0,106.0,p17,E,Rev
E,0.0,"[0.0001998999899989999, 0.99880020002000203]",13.0,0.0,228.0,106.0,p17,E,Rev
E,0.0,"[0.00079929992999299934, 0.061538493849384944]",18.0,0.0,289.0,106.0,p17,E,Rev
G,1.0,"[0.0001998999899989999, 0.99880020002000203]",11.0,11.0,44.0,106.0,p17,E,Rev
G,1.0,"[0.0001998999899989999, 0.99880020002000203]",11.0,11.0,137.0,106.0,p17,E,Rev
G,1.0,"[0.0001998999899989999, 0.99880020002000203]",13.0,13.0,228.0,106.0,p17,E,Rev
G,1.0,"[0.0001998999899989999, 0.99880020002000203]",18.0,18.0,289.0,106.0,p17,E,Rev
G,0.9090909090909091,"[0.80879041904190418, 0.99620280028002806]",11.0,10.0,349.0,106.0,p17,E,Rev
X,0.0,"[0.0076923992399239929, 0.007492599259925993]",11.0,0.0,44.0,106.0,p17,E,Rev
X,0.0,"[0.0001998999899989999, 0.99880020002000203]",11.0,0.0,137.0,106.0,p17,E,Rev
X,0.0,"[0.0001998999899989999, 0.99880020002000203]",13.0,0.0,228.0,106.0,p17,E,Rev
X,0.0,"[0.00079929992999299934, 0.061538493849384944]",18.0,0.0,289.0,106.0,p17,E,Rev
X,0.0,"[0.0001998999899989999, 0.99880020002000203]",11.0,0.0,349.0,106.0,p17,E,Rev
A,0.0,"[0.0001998999899989999, 0.99880020002000203]",11.0,0.0,44.0,167.0,p24,E,ECons
A,0.09090909090909091,"[0.0079920992099209928, 0.21508477847784779]",11.0,1.0,137.0,167.0,p24,E,ECons
A,0.0,"[0.045454595459545957, 0.11858138813881389]",13.0,0.0,228.0,167.0,p24,E,ECons
A,0.0,"[0.001198899889988999, 0.00099909990999099926]",18.0,0.0,289.0,167.0,p24,E,ECons
A,0.0,"[0.0010989998999899992, 0.0008991999199919993]",11.0,0.0,349.0,167.0,p24,E,ECons
E,1.0,"[0.0001998999899989999, 0.99880020002000203]",11.0,11.0,44.0,167.0,p24,E,ECons
E,0.9090909090909091,"[0.7912080208020803, 0.99590310031003104]",11.0,10.0,137.0,167.0,p24,E,ECons
E,1.0,"[0.99500400040004011, 0.99480420042004203]",13.0,13.0,228.0,167.0,p24,E,ECons
E,1.0,"[0.99670230023002304, 0.99650250025002507]",18.0,18.0,289.0,167.0,p24,E,ECons
E,1.0,"[0.0001998999899989999, 0.99880020002000203]",11.0,11.0,349.0,167.0,p24,E,ECons
X,0.0,"[0.0001998999899989999, 0.99880020002000203]",11.0,0.0,44.0,167.0,p24,E,ECons
X,0.0,"[0.00039969996999699971, 0.0001998999899989999]",11.0,0.0,137.0,167.0,p24,E,ECons
X,0.0,"[0.045454595459545957, 0.11858138813881389]",13.0,0.0,228.0,167.0,p24,E,ECons
X,0.0,"[0.001198899889988999, 0.00099909990999099926]",18.0,0.0,289.0,167.0,p24,E,ECons
X,0.0,"[0.0010989998999899992, 0.0008991999199919993]",11.0,0.0,349.0,167.0,p24,E,ECons
L,0.0,"[0.0001998999899989999, 0.06263739373937395]",11.0,0.0,44.0,200.0,p24,M,ECons
L,0.0,"[0.0001998999899989999, 0.99880020002000203]",11.0,0.0,137.0,200.0,p24,M,ECons
L,0.09090909090909091,"[0.0068931993199319941, 0.46183775377537756]",11.0,1.0,349.0,200.0,p24,M,ECons
L,0.0,"[0.027372697269726975, 0.027172897289728975]",13.0,0.0,228.0,200.0,p24,M,ECons
L,0.0,"[0.0001998999899989999, 0.99880020002000203]",18.0,0.0,289.0,200.0,p24,M,ECons
M,1.0,"[0.99730170017001707, 0.9979011001100111]",11.0,11.0,44.0,200.0,p24,M,ECons
M,1.0,"[0.0001998999899989999, 0.99880020002000203]",11.0,11.0,137.0,200.0,p24,M,ECons
M,1.0,"[0.0001998999899989999, 0.99880020002000203]",13.0,13.0,228.0,200.0,p24,M,ECons
M,1.0,"[0.998200800080008, 0.99800100010001003]",18.0,18.0,289.0,200.0,p24,M,ECons
M,0.9090909090909091,"[0.88281631163116314, 0.99880020002000203]",11.0,10.0,349.0,200.0,p24,M,ECons
X,0.0,"[0.0001998999899989999, 0.06263739373937395]",11.0,0.0,44.0,200.0,p24,M,ECons
X,0.0,"[0.0001998999899989999, 0.99880020002000203]",11.0,0.0,137.0,200.0,p24,M,ECons
X,0.0,"[0.027372697269726975, 0.027172897289728975]",13.0,0.0,228.0,200.0,p24,M,ECons
X,0.0,"[0.0001998999899989999, 0.99880020002000203]",18.0,0.0,289.0,200.0,p24,M,ECons
X,0.0,"[0.15254738473847385, 0.15234758475847585]",11.0,0.0,349.0,200.0,p24,M,ECons
K,0.0,"[0.0001998999899989999, 0.99880020002000203]",11.0,0.0,44.0,275.0,p24,R,ECons
K,0.0,"[0.00049959995999599967, 0.0002997999799979998]",11.0,0.0,137.0,275.0,p24,R,ECons
K,0.05555555555555555,"[0.012587498749874988, 0.1106892889288929]",18.0,1.0,289.0,275.0,p24,R,ECons
K,0.0,"[0.00039969996999699971, 0.0077922992299229929]",13.0,0.0,228.0,275.0,p24,R,ECons
K,0.0,"[0.041058995899589966, 0.040859195919591966]",11.0,0.0,349.0,275.0,p24,R,ECons
R,1.0,"[0.0001998999899989999, 0.99880020002000203]",11.0,11.0,44.0,275.0,p24,R,ECons
R,1.0,"[0.0001998999899989999, 0.99880020002000203]",11.0,11.0,137.0,275.0,p24,R,ECons
R,1.0,"[0.0001998999899989999, 0.99880020002000203]",13.0,13.0,228.0,275.0,p24,R,ECons
R,0.9444444444444444,"[0.8640351135113512, 0.9979011001100111]",18.0,17.0,289.0,275.0,p24,R,ECons
R,1.0,"[0.0001998999899989999, 0.99880020002000203]",11.0,11.0,349.0,275.0,p24,R,ECons
X,0.0,"[0.0001998999899989999, 0.99880020002000203]",11.0,0.0,44.0,275.0,p24,R,ECons
X,0.0,"[0.00049959995999599967, 0.0002997999799979998]",11.0,0.0,137.0,275.0,p24,R,ECons
X,0.0,"[0.00039969996999699971, 0.0077922992299229929]",13.0,0.0,228.0,275.0,p24,R,ECons
X,0.0,"[0.00059949994999499963, 0.012387698769876988]",18.0,0.0,289.0,275.0,p24,R,ECons
X,0.0,"[0.041058995899589966, 0.040859195919591966]",11.0,0.0,349.0,275.0,p24,R,ECons
A,1.0,"[0.99380520052005206, 0.99360540054005408]",11.0,11.0,44.0,28.0,p17,H,ENCons
A,1.0,"[0.0001998999899989999, 0.99880020002000203]",11.0,11.0,137.0,28.0,p17,H,ENCons
A,1.0,"[0.9803187018701871, 0.98011890189018902]",13.0,13.0,228.0,28.0,p17,H,ENCons
A,1.0,"[0.0001998999899989999, 0.99880020002000203]",18.0,18.0,289.0,28.0,p17,H,ENCons
A,0.9090909090909091,"[0.74695232523252331, 0.99320580058005803]",11.0,10.0,349.0,28.0,p17,H,ENCons
T,0.0,"[0.0001998999899989999, 0.99880020002000203]",11.0,0.0,44.0,28.0,p17,H,ENCons
T,0.0,"[0.014085998599859987, 0.013886198619861987]",11.0,0.0,137.0,28.0,p17,H,ENCons
T,0.09090909090909091,"[0.019380698069806981, 0.39650316031603161]",11.0,1.0,349.0,28.0,p17,H,ENCons
T,0.0,"[0.20659327932793278, 0.20639347934793478]",13.0,0.0,228.0,28.0,p17,H,ENCons
T,0.0,"[0.0001998999899989999, 0.99880020002000203]",18.0,0.0,289.0,28.0,p17,H,ENCons
X,0.0,"[0.0001998999899989999, 0.99880020002000203]",11.0,0.0,44.0,28.0,p17,H,ENCons
X,0.0,"[0.014085998599859987, 0.013886198619861987]",11.0,0.0,137.0,28.0,p17,H,ENCons
X,0.0,"[0.20659327932793278, 0.20639347934793478]",13.0,0.0,228.0,28.0,p17,H,ENCons
X,0.0,"[0.0001998999899989999, 0.99880020002000203]",18.0,0.0,289.0,28.0,p17,H,ENCons
X,0.0,"[0.0001998999899989999, 0.040159895989598966]",11.0,0.0,349.0,28.0,p17,H,ENCons
I,1.0,"[0.0001998999899989999, 0.99880020002000203]",11.0,11.0,44.0,285.0,p24,I,ECons
I,0.9090909090909091,"[0.69030903090309037, 0.9923067006700671]",11.0,10.0,137.0,285.0,p24,I,ECons
I,1.0,"[0.97232670267026711, 0.97212690269026902]",13.0,13.0,228.0,285.0,p24,I,ECons
I,1.0,"[0.0001998999899989999, 0.99880020002000203]",18.0,18.0,289.0,285.0,p24,I,ECons
I,1.0,"[0.97742160216021612, 0.97722180218021804]",11.0,11.0,349.0,285.0,p24,I,ECons
M,0.0,"[0.015284798479847985, 0.015084998499849985]",11.0,0.0,44.0,285.0,p24,I,ECons
M,0.09090909090909091,"[0.0022977997799779977, 0.15494498449844984]",11.0,1.0,137.0,285.0,p24,I,ECons
M,0.0,"[0.0001998999899989999, 0.99880020002000203]",13.0,0.0,228.0,285.0,p24,I,ECons
M,0.0,"[0.00059949994999499963, 0.0059940994099409945]",18.0,0.0,289.0,285.0,p24,I,ECons
M,0.0,"[0.0001998999899989999, 0.99880020002000203]",11.0,0.0,349.0,285.0,p24,I,ECons
X,0.0,"[0.015284798479847985, 0.015084998499849985]",11.0,0.0,44.0,285.0,p24,I,ECons
X,0.0,"[0.0001998999899989999, 0.0001998999899989999]",11.0,0.0,137.0,285.0,p24,I,ECons
X,0.0,"[0.0001998999899989999, 0.99880020002000203]",13.0,0.0,228.0,285.0,p24,I,ECons
X,0.0,"[0.00059949994999499963, 0.0059940994099409945]",18.0,0.0,289.0,285.0,p24,I,ECons
X,0.0,"[0.0001998999899989999, 0.99880020002000203]",11.0,0.0,349.0,285.0,p24,I,ECons
F,1.0,"[0.9955035003500351, 0.99530370037003701]",11.0,11.0,44.0,301.0,p24,F,ECons
F,1.0,"[0.0001998999899989999, 0.99880020002000203]",11.0,11.0,137.0,301.0,p24,F,ECons
F,1.0,"[0.94705200520052013, 0.94685220522052205]",13.0,13.0,228.0,301.0,p24,F,ECons
F,0.9444444444444444,"[0.83546371637163719, 0.99760140014001408]",18.0,17.0,289.0,301.0,p24,F,ECons
F,1.0,"[0.0001998999899989999, 0.99880020002000203]",11.0,11.0,349.0,301.0,p24,F,ECons
L,0.0,"[0.0002997999799979998, 0.0001]",11.0,0.0,44.0,301.0,p24,F,ECons
L,0.0,"[0.0013986998699869989, 0.001198899889988999]",11.0,0.0,137.0,301.0,p24,F,ECons
L,0.05555555555555555,"[0.016783298329832982, 0.15854138413841384]",18.0,1.0,289.0,301.0,p24,F,ECons
L,0.0,"[0.00049959995999599967, 0.0002997999799979998]",13.0,0.0,228.0,301.0,p24,F,ECons
L,0.0,"[0.0001998999899989999, 0.99880020002000203]",11.0,0.0,349.0,301.0,p24,F,ECons
X,0.0,"[0.0002997999799979998, 0.0001]",11.0,0.0,44.0,301.0,p24,F,ECons
X,0.0,"[0.0013986998699869989, 0.001198899889988999]",11.0,0.0,137.0,301.0,p24,F,ECons
X,0.0,"[0.00049959995999599967, 0.0002997999799979998]",13.0,0.0,228.0,301.0,p24,F,ECons
X,0.0,"[0.0008991999199919993, 0.00069939993999399948]",18.0,0.0,289.0,301.0,p24,F,ECons
X,0.0,"[0.0001998999899989999, 0.99880020002000203]",11.0,0.0,349.0,301.0,p24,F,ECons
I,0.0,"[0.0001998999899989999, 0.99880020002000203]",11.0,0.0,44.0,347.0,p24,M,ECons
I,0.09090909090909091,"[0.021078997899789981, 0.3205791679167917]",11.0,1.0,137.0,347.0,p24,M,ECons
I,0.0,"[0.0001998999899989999, 0.99880020002000203]",13.0,0.0,228.0,347.0,p24,M,ECons
I,0.0,"[0.0001998999899989999, 0.024275797579757976]",18.0,0.0,289.0,347.0,p24,M,ECons
I,0.0,"[0.0001998999899989999, 0.99880020002000203]",11.0,0.0,349.0,347.0,p24,M,ECons
M,1.0,"[0.0001998999899989999, 0.99880020002000203]",11.0,11.0,44.0,347.0,p24,M,ECons
M,0.9090909090909091,"[0.78271652165216521, 0.99750150015001504]",11.0,10.0,137.0,347.0,p24,M,ECons
M,1.0,"[0.0001998999899989999, 0.99880020002000203]",13.0,13.0,228.0,347.0,p24,M,ECons
M,1.0,"[0.0001998999899989999, 0.99880020002000203]",18.0,18.0,289.0,347.0,p24,M,ECons
M,1.0,"[0.99190710071007104, 0.99680220022002208]",11.0,11.0,349.0,347.0,p24,M,ECons
X,0.0,"[0.0001998999899989999, 0.99880020002000203]",11.0,0.0,44.0,347.0,p24,M,ECons
X,0.0,"[0.0001998999899989999, 0.99880020002000203]",11.0,0.0,137.0,347.0,p24,M,ECons
X,0.0,"[0.0001998999899989999, 0.99880020002000203]",13.0,0.0,228.0,347.0,p24,M,ECons
X,0.0,"[0.0001998999899989999, 0.024275797579757976]",18.0,0.0,289.0,347.0,p24,M,ECons
X,0.0,"[0.0001998999899989999, 0.99880020002000203]",11.0,0.0,349.0,347.0,p24,M,ECons
I,0.0,"[0.0001998999899989999, 0.999]",11.0,0.0,44.0,390.0,p7,V,ECons
I,0.0,"[0.0002997999799979998, 0.0001]",11.0,0.0,137.0,390.0,p7,V,ECons
I,0.09090909090909091,"[0.0025974997499749975, 0.16193798379837984]",11.0,1.0,349.0,390.0,p7,V,ECons
I,0.0,"[0.0060939993999399944, 0.0058941994199419945]",13.0,0.0,228.0,390.0,p7,V,ECons
I,0.0,"[0.0039960996099609961, 0.0037962996299629962]",18.0,0.0,289.0,390.0,p7,V,ECons
V,1.0,"[0.95714190419041911, 0.95694210421042114]",11.0,11.0,44.0,390.0,p7,V,ECons
V,1.0,"[0.0001998999899989999, 0.99880020002000203]",11.0,11.0,137.0,390.0,p7,V,ECons
V,1.0,"[0.0001998999899989999, 0.99880020002000203]",13.0,13.0,228.0,390.0,p7,V,ECons
V,1.0,"[0.0001998999899989999, 0.99880020002000203]",18.0,18.0,289.0,390.0,p7,V,ECons
V,0.9090909090909091,"[0.69670263026302637, 0.97472430243024311]",11.0,10.0,349.0,390.0,p7,V,ECons
X,0.0,"[0.0001998999899989999, 0.999]",11.0,0.0,44.0,390.0,p7,V,ECons
X,0.0,"[0.0002997999799979998, 0.0001]",11.0,0.0,137.0,390.0,p7,V,ECons
X,0.0,"[0.0060939993999399944, 0.0058941994199419945]",13.0,0.0,228.0,390.0,p7,V,ECons
X,0.0,"[0.0039960996099609961, 0.0037962996299629962]",18.0,0.0,289.0,390.0,p7,V,ECons
X,0.0,"[0.0001998999899989999, 0.99880020002000203]",11.0,0.0,349.0,390.0,p7,V,ECons
R,0.0,"[0.00079929992999299934, 0.00059949994999499963]",11.0,0.0,44.0,438.0,p1,W,ECons
R,0.09090909090909091,"[0.0030969996999699969, 0.12107888788878889]",11.0,1.0,137.0,438.0,p1,W,ECons
R,0.0,"[0.0001998999899989999, 0.99880020002000203]",13.0,0.0,228.0,438.0,p1,W,ECons
R,0.0,"[0.0001998999899989999, 0.999]",18.0,0.0,289.0,438.0,p1,W,ECons
R,0.0,"[0.0001998999899989999, 0.99880020002000203]",11.0,0.0,349.0,438.0,p1,W,ECons
W,1.0,"[0.0001998999899989999, 0.99880020002000203]",11.0,11.0,44.0,438.0,p1,W,ECons
W,0.9090909090909091,"[0.87062851285128517, 0.98791110111011105]",11.0,10.0,137.0,438.0,p1,W,ECons
W,1.0,"[0.0001998999899989999, 0.99880020002000203]",13.0,13.0,228.0,438.0,p1,W,ECons
W,1.0,"[0.0001998999899989999, 0.99880020002000203]",18.0,18.0,289.0,438.0,p1,W,ECons
W,1.0,"[0.0001998999899989999, 0.99880020002000203]",11.0,11.0,349.0,438.0,p1,W,ECons
X,0.0,"[0.00079929992999299934, 0.00059949994999499963]",11.0,0.0,44.0,438.0,p1,W,ECons
X,0.0,"[0.00039969996999699971, 0.0001998999899989999]",11.0,0.0,137.0,438.0,p1,W,ECons
X,0.0,"[0.0001998999899989999, 0.99880020002000203]",13.0,0.0,228.0,438.0,p1,W,ECons
X,0.0,"[0.0001998999899989999, 0.999]",18.0,0.0,289.0,438.0,p1,W,ECons
X,0.0,"[0.0001998999899989999, 0.99880020002000203]",11.0,0.0,349.0,438.0,p1,W,ECons
H,0.0,"[0.0001998999899989999, 0.99880020002000203]",11.0,0.0,44.0,459.0,p6,P,ECons
H,0.0,"[0.0002997999799979998, 0.10289708970897091]",11.0,0.0,137.0,459.0,p6,P,ECons
H,0.07692307692307693,"[0.0047952995299529958, 0.2090907790779078]",13.0,1.0,228.0,459.0,p6,P,ECons
H,0.0,"[0.0017982998299829985, 0.0015984998499849986]",18.0,0.0,289.0,459.0,p6,P,ECons
H,0.0,"[0.0001998999899989999, 0.99880020002000203]",11.0,0.0,349.0,459.0,p6,P,ECons
P,1.0,"[0.0001998999899989999, 0.99880020002000203]",11.0,11.0,44.0,459.0,p6,P,ECons
P,1.0,"[0.0001998999899989999, 0.99880020002000203]",11.0,11.0,137.0,459.0,p6,P,ECons
P,0.9230769230769231,"[0.46943015301530155, 0.99210690069006902]",13.0,12.0,228.0,459.0,p6,P,ECons
P,1.0,"[0.0001998999899989999, 0.99880020002000203]",18.0,18.0,289.0,459.0,p6,P,ECons
P,1.0,"[0.0001998999899989999, 0.99880020002000203]",11.0,11.0,349.0,459.0,p6,P,ECons
X,0.0,"[0.0001998999899989999, 0.99880020002000203]",11.0,0.0,44.0,459.0,p6,P,ECons
X,0.0,"[0.0002997999799979998, 0.10289708970897091]",11.0,0.0,137.0,459.0,p6,P,ECons
X,0.0,"[0.00039969996999699971, 0.0001998999899989999]",13.0,0.0,228.0,459.0,p6,P,ECons
X,0.0,"[0.0017982998299829985, 0.0015984998499849986]",18.0,0.0,289.0,459.0,p6,P,ECons
X,0.0,"[0.0001998999899989999, 0.99880020002000203]",11.0,0.0,349.0,459.0,p6,P,ECons
A,1.0,"[0.0001998999899989999, 0.99880020002000203]",11.0,11.0,44.0,460.0,p6,A,ECons
A,1.0,"[0.0001998999899989999, 0.99880020002000203]",11.0,11.0,137.0,460.0,p6,A,ECons
A,0.9230769230769231,"[0.67342593259325934, 0.99700200020002006]",13.0,12.0,228.0,460.0,p6,A,ECons
A,0.9444444444444444,"[0.91758150815081518, 0.9971019001900191]",18.0,17.0,289.0,460.0,p6,A,ECons
A,1.0,"[0.96213690369036908, 0.96193710371037111]",11.0,11.0,349.0,460.0,p6,A,ECons
T,0.0,"[0.0001998999899989999, 0.99880020002000203]",11.0,0.0,44.0,460.0,p6,A,ECons
T,0.0,"[0.0012987998799879989, 0.0010989998999899992]",11.0,0.0,137.0,460.0,p6,A,ECons
T,0.07692307692307693,"[0.012487598759875988, 0.1103895889588959]",13.0,1.0,228.0,460.0,p6,A,ECons
T,0.0,"[0.00069939993999399948, 0.0015984998499849986]",18.0,0.0,289.0,460.0,p6,A,ECons
T,0.0,"[0.0001998999899989999, 0.99880020002000203]",11.0,0.0,349.0,460.0,p6,A,ECons
V,0.0,"[0.0001998999899989999, 0.99880020002000203]",11.0,0.0,44.0,460.0,p6,A,ECons
V,0.0,"[0.0012987998799879989, 0.0010989998999899992]",11.0,0.0,137.0,460.0,p6,A,ECons
V,0.05555555555555555,"[0.0088911991199119907, 0.13346648664866487]",18.0,1.0,289.0,460.0,p6,A,ECons
V,0.0,"[0.0001998999899989999, 0.999]",13.0,0.0,228.0,460.0,p6,A,ECons
V,0.0,"[0.0001998999899989999, 0.99880020002000203]",11.0,0.0,349.0,460.0,p6,A,ECons
X,0.0,"[0.0001998999899989999, 0.99880020002000203]",11.0,0.0,44.0,460.0,p6,A,ECons
X,0.0,"[0.0012987998799879989, 0.0010989998999899992]",11.0,0.0,137.0,460.0,p6,A,ECons
X,0.0,"[0.0001998999899989999, 0.999]",13.0,0.0,228.0,460.0,p6,A,ECons
X,0.0,"[0.00069939993999399948, 0.0015984998499849986]",18.0,0.0,289.0,460.0,p6,A,ECons
X,0.0,"[0.0001998999899989999, 0.99880020002000203]",11.0,0.0,349.0,460.0,p6,A,ECons
E,1.0,"[0.0001998999899989999, 0.99880020002000203]",11.0,11.0,44.0,467.0,p6,E,ECons
E,1.0,"[0.0001998999899989999, 0.99880020002000203]",11.0,11.0,137.0,467.0,p6,E,ECons
E,1.0,"[0.0001998999899989999, 0.99880020002000203]",13.0,13.0,228.0,467.0,p6,E,ECons
E,1.0,"[0.99830070007000704, 0.99810090009000907]",18.0,18.0,289.0,467.0,p6,E,ECons
E,0.9090909090909091,"[0.77182742274227423, 0.98401500150015009]",11.0,10.0,349.0,467.0,p6,E,ECons
K,0.0,"[0.033466596659665969, 0.033266796679667969]",11.0,0.0,44.0,467.0,p6,E,ECons
K,0.0,"[0.0001998999899989999, 0.99880020002000203]",11.0,0.0,137.0,467.0,p6,E,ECons
K,0.09090909090909091,"[0.0012987998799879989, 0.34665306530653067]",11.0,1.0,349.0,467.0,p6,E,ECons
K,0.0,"[0.0001998999899989999, 0.99880020002000203]",13.0,0.0,228.0,467.0,p6,E,ECons
K,0.0,"[0.0001998999899989999, 0.99880020002000203]",18.0,0.0,289.0,467.0,p6,E,ECons
X,0.0,"[0.033466596659665969, 0.033266796679667969]",11.0,0.0,44.0,467.0,p6,E,ECons
X,0.0,"[0.0001998999899989999, 0.99880020002000203]",11.0,0.0,137.0,467.0,p6,E,ECons
X,0.0,"[0.0001998999899989999, 0.99880020002000203]",13.0,0.0,228.0,467.0,p6,E,ECons
X,0.0,"[0.0001998999899989999, 0.99880020002000203]",18.0,0.0,289.0,467.0,p6,E,ECons
X,0.0,"[0.0001998999899989999, 0.999]",11.0,0.0,349.0,467.0,p6,E,ECons
A,1.0,"[0.99280620062006208, 0.99780120012001206]",11.0,11.0,44.0,54.0,p17,S,ENCons
A,0.8181818181818182,"[0.72767162716271627, 0.92337570757075715]",11.0,9.0,137.0,54.0,p17,S,ENCons
A,0.9230769230769231,"[0.79650272027202729, 0.99570330033003307]",13.0,12.0,228.0,54.0,p17,S,ENCons
A,0.9444444444444444,"[0.84285631563156316, 0.99100800080008011]",18.0,17.0,289.0,54.0,p17,S,ENCons
A,1.0,"[0.0001998999899989999, 0.99880020002000203]",11.0,11.0,349.0,54.0,p17,S,ENCons
S,0.0,"[0.0001998999899989999, 0.99880020002000203]",11.0,0.0,44.0,54.0,p17,S,ENCons
S,0.09090909090909091,"[0.0032967996799679968, 0.15794198419841984]",11.0,1.0,137.0,54.0,p17,S,ENCons
S,0.0,"[0.0001998999899989999, 0.047952095209520956]",13.0,0.0,228.0,54.0,p17,S,ENCons
S,0.05555555555555555,"[0.0033966996699669968, 0.25704277427742772]",18.0,1.0,289.0,54.0,p17,S,ENCons
S,0.0,"[0.00069939993999399948, 0.00049959995999599967]",11.0,0.0,349.0,54.0,p17,S,ENCons
T,0.0,"[0.0001998999899989999, 0.99880020002000203]",11.0,0.0,44.0,54.0,p17,S,ENCons
T,0.09090909090909091,"[0.002897199719971997, 0.1879119811981198]",11.0,1.0,137.0,54.0,p17,S,ENCons
T,0.0,"[0.0001998999899989999, 0.047952095209520956]",13.0,0.0,228.0,54.0,p17,S,ENCons
T,0.0,"[0.0001998999899989999, 0.99880020002000203]",18.0,0.0,289.0,54.0,p17,S,ENCons
T,0.0,"[0.00069939993999399948, 0.00049959995999599967]",11.0,0.0,349.0,54.0,p17,S,ENCons
V,0.0,"[0.0001998999899989999, 0.99880020002000203]",11.0,0.0,44.0,54.0,p17,S,ENCons
V,0.0,"[0.0001998999899989999, 0.999]",11.0,0.0,137.0,54.0,p17,S,ENCons
V,0.07692307692307693,"[0.0035964996499649967, 0.43506455645564557]",13.0,1.0,228.0,54.0,p17,S,ENCons
V,0.0,"[0.0001998999899989999, 0.99880020002000203]",18.0,0.0,289.0,54.0,p17,S,ENCons
V,0.0,"[0.00069939993999399948, 0.00049959995999599967]",11.0,0.0,349.0,54.0,p17,S,ENCons
X,0.0,"[0.0001998999899989999, 0.99880020002000203]",11.0,0.0,44.0,54.0,p17,S,ENCons
X,0.0,"[0.0001998999899989999, 0.999]",11.0,0.0,137.0,54.0,p17,S,ENCons
X,0.0,"[0.0001998999899989999, 0.047952095209520956]",13.0,0.0,228.0,54.0,p17,S,ENCons
X,0.0,"[0.0001998999899989999, 0.99880020002000203]",18.0,0.0,289.0,54.0,p17,S,ENCons
X,0.0,"[0.00069939993999399948, 0.00049959995999599967]",11.0,0.0,349.0,54.0,p17,S,ENCons
A,0.0,"[0.0001998999899989999, 0.99880020002000203]",11.0,0.0,44.0,55.0,p17,E,ECons
A,0.0,"[0.0001998999899989999, 0.99880020002000203]",11.0,0.0,137.0,55.0,p17,E,ECons
A,0.5,"[0.21308677867786779, 0.66423513351335139]",18.0,9.0,289.0,55.0,p17,E,ECons
A,0.0,"[0.004195899589958996, 0.0039960996099609961]",13.0,0.0,228.0,55.0,p17,E,ECons
A,0.18181818181818182,"[0.070629392939293933, 0.45604355435543559]",11.0,2.0,349.0,55.0,p17,E,ECons
E,1.0,"[0.0001998999899989999, 0.99880020002000203]",11.0,11.0,44.0,55.0,p17,E,ECons
E,0.2727272727272727,"[0.15504488448844883, 0.44445515551555159]",11.0,3.0,137.0,55.0,p17,E,ECons
E,0.8461538461538461,"[0.55944004400440051, 0.97172730273027308]",13.0,11.0,228.0,55.0,p17,E,ECons
E,0.05555555555555555,"[0.0035964996499649967, 0.1108890889088909]",18.0,1.0,289.0,55.0,p17,E,ECons
E,0.0,"[0.0032967996799679968, 0.0030969996999699969]",11.0,0.0,349.0,55.0,p17,E,ECons
G,0.0,"[0.0001998999899989999, 0.99880020002000203]",11.0,0.0,44.0,55.0,p17,E,ECons
G,0.0,"[0.0001998999899989999, 0.99880020002000203]",11.0,0.0,137.0,55.0,p17,E,ECons
G,0.05555555555555555,"[0.011588498849884988, 0.18501488148814882]",18.0,1.0,289.0,55.0,p17,E,ECons
G,0.0,"[0.004195899589958996, 0.0039960996099609961]",13.0,0.0,228.0,55.0,p17,E,ECons
G,0.0,"[0.0032967996799679968, 0.0030969996999699969]",11.0,0.0,349.0,55.0,p17,E,ECons
V,0.0,"[0.0001998999899989999, 0.99880020002000203]",11.0,0.0,44.0,55.0,p17,E,ECons
V,0.7272727272727273,"[0.49200755075507552, 0.89510401040104015]",11.0,8.0,137.0,55.0,p17,E,ECons
V,0.15384615384615385,"[0.020879197919791981, 0.33146826682668268]",13.0,2.0,228.0,55.0,p17,E,ECons
V,0.3888888888888889,"[0.23456527652765277, 0.61848093809380944]",18.0,7.0,289.0,55.0,p17,E,ECons
V,0.8181818181818182,"[0.55794154415441544, 0.93686220622062211]",11.0,9.0,349.0,55.0,p17,E,ECons
X,0.0,"[0.0001998999899989999, 0.99880020002000203]",11.0,0.0,44.0,55.0,p17,E,ECons
X,0.0,"[0.0001998999899989999, 0.99880020002000203]",11.0,0.0,137.0,55.0,p17,E,ECons
X,0.0,"[0.004195899589958996, 0.0039960996099609961]",13.0,0.0,228.0,55.0,p17,E,ECons
X,0.0,"[0.0001998999899989999, 0.99880020002000203]",18.0,0.0,289.0,55.0,p17,E,ECons
X,0.0,"[0.0032967996799679968, 0.0030969996999699969]",11.0,0.0,349.0,55.0,p17,E,ECons
K,1.0,"[0.0001998999899989999, 0.99880020002000203]",11.0,11.0,44.0,98.0,p17,K,ECons
K,1.0,"[0.0001998999899989999, 0.99880020002000203]",11.0,11.0,137.0,98.0,p17,K,ECons
K,1.0,"[0.0001998999899989999, 0.99880020002000203]",13.0,13.0,228.0,98.0,p17,K,ECons
K,0.9444444444444444,"[0.88271641164116421, 0.98811090109010902]",18.0,17.0,289.0,98.0,p17,K,ECons
K,1.0,"[0.97102800280028012, 0.97082820282028204]",11.0,11.0,349.0,98.0,p17,K,ECons
R,0.0,"[0.0001998999899989999, 0.99880020002000203]",11.0,0.0,44.0,98.0,p17,K,ECons
R,0.0,"[0.0001998999899989999, 0.99880020002000203]",11.0,0.0,137.0,98.0,p17,K,ECons
R,0.05555555555555555,"[0.002997099709970997, 0.19040948094809482]",18.0,1.0,289.0,98.0,p17,K,ECons
R,0.0,"[0.0076923992399239929, 0.007492599259925993]",13.0,0.0,228.0,98.0,p17,K,ECons
R,0.0,"[0.0030969996999699969, 0.002897199719971997]",11.0,0.0,349.0,98.0,p17,K,ECons
X,0.0,"[0.0001998999899989999, 0.99880020002000203]",11.0,0.0,44.0,98.0,p17,K,ECons
X,0.0,"[0.0001998999899989999, 0.99880020002000203]",11.0,0.0,137.0,98.0,p17,K,ECons
X,0.0,"[0.0076923992399239929, 0.007492599259925993]",13.0,0.0,228.0,98.0,p17,K,ECons
X,0.0,"[0.00079929992999299934, 0.040659395939593966]",18.0,0.0,289.0,98.0,p17,K,ECons
X,0.0,"[0.0030969996999699969, 0.002897199719971997]",11.0,0.0,349.0,98.0,p17,K,ECons
